Year,Jan,Feb,Mar,Apr,May,Jun,Jul,Aug,Sep,Oct,Nov,Dec
1901,31.184,8.959,14.854,1.989,21.87,19.778,199.195,155.649,21.102,0.157,0,2.643
1902,0.176,1.293,6.604,7.904,12.259,49.319,136.559,118.739,69.955,3.098,0.081,0
1903,10.941,1.727,10.572,1.164,11.162,10.863,108.192,123.912,55.708,6.361,0,3.081
1904,16.023,0.462,45.216,3.275,12.183,38.881,80.424,136.916,73.512,0.846,16.817,5.974
1905,44.547,24.121,7.504,2.381,4.377,17.015,93.154,38.266,171.768,2.413,0,7.145
1906,4.238,52.554,16.239,2.071,3.524,56.661,91.129,120.953,204.974,0.518,0,4.28
1907,13.85,38.035,21.669,28.805,4.181,31.99,77.195,137.494,1.633,1.112,0.198,0
1908,31.668,9.393,0.758,8.58,5.918,36.275,176.593,408.835,38.198,0.487,0.27,2.911
1909,16.209,12.39,0.288,34.884,9.757,134.19,240.155,114.908,136.839,0.461,0.065,34.341
1910,21.375,7.35,1.492,9.678,6.577,86.385,134.533,134.628,58.681,2.051,0.557,2.036
1911,49.453,1.571,46.137,5.541,5.75,65.049,33.102,99.458,78.985,4.775,38.25,0.032
1912,36.013,9.178,6.254,21.809,8.551,27.472,91.254,190.58,75.213,0.116,12.027,2.875
1913,2.021,29.729,18.415,2.524,43.184,85.012,130.103,154.916,11.109,0.917,2.783,10.541
1914,10.259,23.553,12.047,17.284,19.312,33.968,242.707,89.473,185.602,16.125,13.219,6.312
1915,11.676,47.853,36.252,13.917,3.508,37.066,58.402,120.09,78.944,10.007,0,2.577
1916,0.26,15.855,1.37,3.9,10.179,49.968,282.684,158.562,67.876,7.188,0.3,0
1917,5.3,9.245,11.629,20.436,23.685,90.873,136.191,198.367,173.57,16.57,0,3.168
1918,3.733,1.035,19.653,20.33,2.564,52.179,24.709,119.947,12.158,0.22,9.425,2.933
1919,51.38,10.438,8.266,10.04,12.226,12.91,187.035,141.665,32.923,1.344,2.181,8.396
1920,14.501,11.286,16.895,1.094,15.709,52.913,116.017,120.583,11.222,0.302,0,0.173
1921,17.257,0.852,0.749,1.889,2.084,34.892,169.436,195.471,81.351,8.098,0,4.2
1922,16.535,7.303,1.354,2.756,2.161,46.049,109.37,138.268,215.447,2,1.686,24.031
1923,19.753,41.014,2.87,13.122,16.278,5.102,126.63,189.956,36.39,8.347,6.675,22.264
1924,33.219,29.546,4.82,1.6,20.129,10.617,174.2,115.322,136.623,9.2,1.622,26.271
1925,10.485,0.977,2.868,2.468,18.413,132.407,185.692,143.533,11.72,1.652,25.374,0
1926,9.721,2.226,41.373,13.82,12.231,4.072,145.77,261.458,32.482,0.565,5.005,4.906
1927,0.488,19.035,10.519,5.35,19.321,17.939,122.402,168.593,20.252,10.999,0,19.568
1928,17.394,30.868,8.702,14.307,5.145,36.327,108.468,87.941,75.844,1.38,18.339,12.649
1929,14.999,1.773,2.264,9.962,2.46,102.012,92.06,248.766,13.872,3.428,0,33.062
1930,21.8,12.245,2.596,13.593,8.087,38.272,223.379,74.06,30.185,3.986,4.968,3.55
1931,17.577,22.3,11.652,4.148,12.81,5.222,206.984,178.222,105.969,18.695,0.557,0
1932,12.304,2.337,13.857,5.142,6.28,19.935,114.524,82.429,95.314,0.581,0.27,16.611
1933,5.534,13.673,7.976,9.614,19.155,82.089,126.694,262.106,123.842,10.402,5.918,0.111
1934,17.316,1.959,26.725,0.708,4.162,41.622,146.081,182.167,12.03,0,0,8.216
1935,47.586,40.687,6.177,15.469,3.036,15.225,95.177,93.569,69.895,0.413,13.018,4.871
1936,2.217,25.215,14.667,8.677,6.328,201.351,189.808,154.208,82.486,7.106,2.021,24.773
1937,0.768,66.755,2.145,23.24,6.722,27.944,198.85,38.777,70.924,2.612,0.469,10.964
1938,40.44,15.481,5.365,4.003,1.136,124.958,87.012,71.845,13.424,5.17,0.557,0.15
1939,6.093,35.105,14.72,4.056,4.108,62.268,84.527,71.784,55.062,2.939,0,0
1940,38.728,33.305,9.805,3.963,3.529,58.839,98.771,122.475,25.996,0.366,0,2.679
1941,31.417,6.342,4.195,0.739,18.097,56.62,63.832,74.349,88.878,0.565,0.573,7.979
1942,18.613,20.126,9.334,17.537,14.922,42.338,196.575,160.402,65.517,1.071,0.032,16.927
1943,19.047,1.277,3.438,13.491,6.588,74.279,103.782,102.261,32.086,0,0,0
1944,23.708,33.438,28.93,30.556,0.282,57.651,160.686,96.212,69.509,5.116,0.351,5.294
1945,31.809,0.193,6.169,25.356,8.087,44.791,151.461,144.588,120.637,5.369,0.198,0.327
1946,0.52,9.602,5.532,7.083,19.415,75.283,143.807,152.931,16.319,10.146,5.709,6.465
1947,11.047,11.893,11.026,0.527,3.113,7.368,62.607,163.298,100.4,8.938,0.557,5.974
1948,15.844,29.18,28.892,6.661,4.168,32.557,200.434,209.975,68.569,2.895,4.463,9.663
1949,3.931,26.952,11.146,4.602,6.055,11.367,345.243,80.227,81.795,2.694,0.286,0.606
1950,40.88,15.529,29.336,1.31,7.488,28.383,283.199,167.222,205.541,0.032,0.27,0.35
1951,20.415,5.573,29.663,18.282,12.329,19.908,117.308,98.012,38.656,1.894,22.317,0.049
1952,8.804,10.361,28.777,4.258,15.472,44.392,102.363,125.883,6.138,0.891,4.79,0.303
1953,41.329,1.591,1.08,6.227,3.995,28.37,182.095,193.635,92.524,0.247,2.464,2.893
1954,21.621,44.991,5.66,0.66,3.962,25.515,203.66,60.852,171.089,12.42,0,0.382
1955,19.876,1.56,16.293,13.339,10.9,33.845,110.825,129.425,195.932,22.068,0,2.278
1956,20.519,3.277,18.026,2.439,10.559,87.825,183.489,159.803,14.772,25.87,0.445,1.831
1957,57.987,1.128,27.929,17.327,10.494,25.046,137.548,196.362,69.004,5.388,12.356,10.35
1958,10.141,3.288,9.497,3.888,3.092,35.458,189.014,138.182,196.978,10.59,2.011,17.084
1959,29.647,8.998,8.666,2.224,15.926,10.574,185.713,217.813,58.183,8.362,24.04,0
1960,18.07,0.225,22.262,8.997,1.477,27.712,117.672,133.391,55.846,12.909,0,4.061
1961,48.823,28.614,2.684,10.04,12.185,35.906,201.949,218.508,101.9,18.738,0.822,7.894
1962,27.45,20.155,14.27,1.473,9.38,20.652,152.941,129.953,152.845,0.032,10.163,7.792
1963,2.539,9.518,14.658,6.238,21.551,40.083,86.878,129.209,101.897,1.208,5.617,12.882
1964,13.402,2.791,6.385,7.852,17.544,38.519,314.9,181.453,92.385,0,1.961,7.068
1965,8.226,18.293,10.368,24.795,12.901,4.592,143.085,118.28,33.944,3.359,7.11,0
1966,2.289,34.238,6.286,4.318,28.597,89.341,136.074,155.453,126.017,9.715,3.766,0.93
1967,0.286,9.567,43.337,3.702,2.756,15.393,125.506,341.623,50.714,4.072,6.395,33.521
1968,25.054,20.064,9.617,2.842,5.9,28.586,139.983,171.302,11.705,7.044,0,4.633
1969,7.078,8.107,18.317,14.076,20.184,24.715,192.425,104.807,117.673,0.855,0.541,0
1970,25.103,23.096,23.637,0.377,22.817,58.415,58.336,170.247,50.263,3.306,0,0
1971,7.263,12.637,5.445,15.076,34.328,67.014,155.142,274.413,60.683,9.171,4.9,0
1972,8.511,14.17,4.767,7.322,0.592,18.61,151.235,153.795,98.835,8.534,9.394,4.826
1973,17.881,12.104,8.936,0.696,15.122,37.232,122.968,222.091,66.478,7.934,0,8.768
1974,5.129,5.545,3.119,0.858,9.316,23.62,201.91,79.881,6.897,2.092,0,8.018
1975,24.042,17.134,16.74,1.898,1.215,92.465,236.344,157.741,157.662,5.066,0,0.005
1976,8.69,24.784,12.79,9.684,23.595,58.967,190.564,411.206,99.182,7.194,0,0.374
1977,24.512,0.944,1.064,28.307,36.961,77.847,212.618,119.681,60.231,14.562,0.637,7.56
1978,4.029,12.286,38.985,7.927,0.778,73.555,215.275,296.111,125.752,0.549,4.426,1.776
1979,13.559,34.385,28.087,5.843,21.94,45.179,116.965,83.241,49.837,3.777,9.91,2.542
1980,9.674,7.987,22.309,4.107,4.073,94.627,375.193,236.368,83.54,5.93,6.886,5.96
1981,58.392,15.263,30.009,0.544,6.016,44.726,317.183,81.487,22.736,4.103,39.929,3.055
1982,21.947,12.66,69.807,25.591,41.592,26.581,97.422,216.975,8.872,3.01,17.808,12.508
1983,44.373,19.432,22.7,30.634,59.116,40.343,157.973,197.868,94.204,14.674,0,3.276
1984,2.316,35.899,5.596,19.019,1.063,34.276,272.029,208.304,84.774,0.111,0,9.663
1985,5.72,0.945,2.813,16.972,17.14,55.635,236.76,183.5,90.431,18.209,1.248,18.141
1986,8.573,33.121,10.702,10.721,26.673,62.499,183.288,177.633,73.552,3.79,3.28,17.605
1987,20.836,19.667,15.77,5.995,28.22,38.096,66.608,90.214,14.373,7.641,0,2.96
1988,4.259,15.393,36.33,8.348,3.929,43.936,218.88,206.838,114.639,11.336,0.27,12.695
1989,45.428,5.308,22.196,1.387,7.507,34.132,164.456,124.246,59.3,0.703,9.382,2.428
1990,1.859,44.174,30.858,8.767,18.954,30.75,174.599,217.446,169.827,2.503,10.728,26.476
1991,0.534,27.226,10.153,24.764,23.913,74.983,46.485,193.024,51.384,1.545,8.615,9.703
1992,21.398,28.269,6.571,8.207,24.683,22.285,93.151,188.663,80.072,3.108,27.615,0.871
1993,11.605,10.756,12.535,13.384,16.196,64.163,196.579,63.445,120.607,0.005,0,0
1994,16.279,5.72,12.844,7.046,40.569,38.443,202.789,132.688,81.331,1.172,0,3.676
1995,32.818,51.591,30.683,4.662,0.644,50.351,113.596,297.686,114.26,1.277,9.222,0.797
1996,22.272,22.189,11.928,3.214,14.737,159.336,114.466,249.513,62.969,5.611,0,0.065
1997,17.06,6.856,12.905,35.276,26.548,108.376,184.539,248.975,48.47,18.536,19.797,4.509
1998,10.426,25.663,25.991,15.009,12.929,30.147,178.268,145.358,71.91,15.144,8.724,0.179
1999,17.378,3.906,4.462,0.195,12.859,63.172,66.304,96.603,66.893,3.931,0.049,1.652
2000,17.076,28.438,9.035,1.095,11.907,70.607,226.917,107.303,29.849,0,3.684,6.064
2001,7.216,6.666,10.092,14.366,31.302,66.941,215.059,58.808,28.583,0.589,0.065,0.581
2002,9.948,14.801,11.871,3.067,12.096,39.835,63.485,100.855,123.878,0.302,0.015,5.293
