Year,Jan,Feb,Mar,Apr,May,Jun,Jul,Aug,Sep,Oct,Nov,Dec
1901,13.624,15.603,24.221,28.953,33.373,35.508,33.18,30.737,29.887,28.192,21.755,17.099
1902,16.483,18.266,25.496,30.386,33.429,32.611,33.282,31.626,29.802,27.035,21.873,16.29
1903,14.123,17.155,20.946,27.038,33.091,35.261,33.005,31.408,30.853,27.788,20.031,14.901
1904,13.988,18.523,22.242,30.05,33.61,33.749,32.198,31.06,30.535,27.304,22.344,16.631
1905,12.724,13.605,20.265,27.29,34.645,33.901,33.012,31.658,30.414,27.559,23.039,16.677
1906,13.612,15.139,21.214,27.989,34.253,33.708,32.964,31.1,29.91,27.508,23.235,17.716
1907,17.563,16.16,21.903,27.801,31.687,33.521,33.715,30.253,28.998,26.273,21.996,15.6
1908,15.311,18.11,22.204,29.05,32.697,34.188,30.847,29.724,28.556,25.977,20.722,15.397
1909,13.916,16.847,23.003,27.399,32.247,34.375,31.079,29.564,28.428,26.6,22.594,15.187
1910,14.503,18.173,22.906,27.265,32.864,34.25,30.521,29.816,29.345,26.321,20.551,15.374
1911,14.589,18.525,20.898,27.973,33.569,33.957,32.381,30.954,30.214,27.182,18.975,15.835
1912,15.982,17.552,22.374,29.136,33.514,35.43,32.785,30.31,29.342,26.897,19.815,15.92
1913,16.101,16.941,20.9,29.607,32.705,34.293,31.517,29.881,29.203,27.114,20.714,15.541
1914,16.506,16.014,21.606,28.468,34.155,33.784,31.349,30.499,30.329,26.477,22.064,14.828
1915,14.675,16.478,23.703,27.909,33.737,35.114,33.217,31.512,31.136,28.074,21.435,16.181
1916,16.428,16.3,25.146,28.97,32.161,34.041,32.612,30.234,29.308,25.55,18.824,15.232
1917,15.792,18.811,22.564,26.862,31.392,33.794,31.922,29.355,28.331,25.322,19.946,15.706
1918,14.137,18.066,22.28,26.563,33.293,33.053,32.532,31.079,29.269,26.901,20.811,15
1919,14.287,17.61,23.107,28.093,32.777,34.55,32.408,30.336,28.813,26.278,20.08,15.053
1920,14.911,17.107,23.478,27.774,30.963,33.395,32.311,30.056,30.589,28.031,22.072,15.017
1921,15.386,18.092,25.494,30.864,33.581,34.607,32.688,29.618,29.649,26.34,21.526,16.871
1922,14.586,17.929,23.714,29.576,32.499,33.583,33.266,30.709,29.638,26.179,20.83,16.403
1923,14.717,16.756,23.773,28.878,31.929,34.404,32.645,29.734,29.571,26.199,20.082,14.864
1924,14.149,17.784,25.082,29.2,31.208,34.709,33.289,30.448,28.85,26.426,20.111,16.177
1925,13.537,15.546,24.665,31.467,32.907,33.507,31.696,30.876,30.359,28.162,20.152,15.834
1926,15.321,20.079,22.283,26.501,31.413,34.683,33.175,30.562,29.049,26.471,18.856,16.348
1927,13.194,15.942,22.124,28.193,32.443,33.806,31.816,29.489,29.171,27.29,21.513,16.659
1928,14.752,18.337,23.766,29.313,33.442,33.75,32.555,30.572,29.125,27.343,21.817,15.036
1929,14.179,16.667,25.273,29.482,33.025,33.947,31.045,29.829,29.093,26.356,21.408,13.686
1930,13.764,17.786,23.326,27.58,32.467,33.687,30.764,29.724,30.359,26.864,20.367,15.602
1931,15.578,15.174,22.916,30.47,32.968,34.334,33.028,31.904,30.402,26.646,21.154,16.522
1932,17.397,18.457,24.174,29.413,33.251,33.668,32.429,29.614,30.542,26.761,21.083,16.716
1933,14.09,18.798,22.784,28.571,32.575,33.979,32.593,29.92,29.551,27.012,21.931,17.716
1934,12.32,20.279,22.691,29.316,32.565,34.115,31.952,30.892,30.131,25.946,21.751,17.876
1935,12.362,17.466,23.84,26.9,32.663,34.504,32.015,30.017,29.78,26.261,22.344,16.801
1936,14.162,19.366,22.115,29.093,34.87,33.228,31.416,30.387,30.317,27.751,22.211,17.174
1937,14.948,18.724,22.149,28.23,33.473,34.78,31.879,30.64,30.106,26.739,21.406,14.886
1938,14.282,17.072,24.822,29.672,34.229,33.796,32.43,31.03,30.182,28.113,20.367,16.43
1939,15.989,18.545,21.217,26.835,32.632,33.308,32.309,31.644,30.628,27.795,22.691,18.51
1940,16.996,19.215,22.125,28.015,33.637,33.721,32.844,30.554,29.607,28.249,23.249,16.513
1941,14.495,20.054,25.746,30.546,33.969,34.254,32.039,31.946,30.386,29.55,22.373,17.338
1942,14.797,18.425,24.617,31.168,33.569,35.021,32.191,30.61,29.659,27.689,23.198,15.508
1943,14.072,18.398,24.404,28.764,33.763,34.059,32.074,30.086,29.998,27.169,21.686,18.215
1944,15.056,17.265,22.749,28.829,33.175,34.231,31.996,29.404,29.417,26.067,22.266,16.522
1945,13.295,17.511,23.847,27.982,32.914,34.145,31.804,30.959,29.992,26.739,21.652,15.142
1946,15.182,18.873,22.691,31.883,33.504,35.118,32.593,30.299,29.53,28.04,20.353,14.117
1947,14.697,18.006,24.157,30.05,34.051,34.532,33.283,31.629,29.73,26.249,23.199,16.46
1948,15.046,17.103,23.252,29.838,34.355,33.656,32.597,30.334,30.086,27.885,19.888,16.589
1949,15.621,17.365,23.351,30.252,34.398,33.368,32.055,29.86,30.953,25.477,19.037,15.949
1950,15.075,15.158,22.305,27.226,32.924,33.644,31.683,29.942,29.286,26.571,20.265,13.987
1951,14.532,17.129,22.503,27.263,32.913,34.137,33.281,30.828,30.651,29.551,22.63,17.172
1952,15.659,19.224,23.557,30.623,33.859,34.554,31.893,30.305,29.308,26.858,21.247,15.977
1953,14.78,20.039,26.109,29.331,32.816,34.335,32.578,30.16,29.421,26.569,21.532,18.99
1954,14.353,18.088,23.424,29.558,33.808,34.766,32.691,31.22,30.25,25.173,21.941,16.118
1955,14.798,19.241,25.099,27.21,32.275,34.146,32.177,30.519,29.681,25.815,20.19,16.639
1956,14.499,17.94,23.622,29.204,34.327,33.77,30.321,29.139,30.127,25.501,20.405,16.474
1957,14.176,16.722,22.457,26.419,30.956,33.742,32.744,31.115,29.199,26.322,22.026,16.312
1958,17.368,18.65,24.581,31.212,33.061,34.932,32.33,32.287,29.467,27.533,21.516,17.445
1959,14.883,17.8,25.559,29.925,33.143,34.573,31.721,29.923,29.356,28.405,21.209,16.272
1960,15.089,20.389,22.122,27.396,32.326,34.307,32.257,31.353,30.972,27.449,21.002,16.358
1961,15.049,16.619,24.573,27.633,33.059,33.045,31.543,30.856,29.361,26.172,20.099,15.416
1962,14.595,18.893,23.523,29.252,33.176,33.923,32.565,31.251,29.316,25.761,20.543,16.009
1963,15.544,20.302,23.782,28.796,31.634,34.208,33.382,31.086,29.747,27.42,22.228,16.977
1964,12.61,17.645,25.411,30.563,32.936,32.824,31.852,30.834,29.905,25.766,20.009,15.21
1965,17.531,18.499,22.995,25.665,31.604,33.9,31.664,30.189,29.332,27.854,22.434,15.033
1966,16.169,20.116,22.931,27.441,32.681,33.96,32.472,30.304,29.472,27.43,20.292,14.475
1967,13.022,19.656,22.366,27.713,32.016,33.805,32.064,29.878,29.324,26.245,22.365,15.982
1968,13.83,15.905,23.425,28.839,31.428,34.495,33.189,31.106,29.683,26.893,21.859,16.205
1969,14.986,17.748,25.817,29.367,32.178,34.401,33.068,30.704,30.397,28.072,23.167,17.862
1970,15.86,18.21,22.72,30.232,34.61,34.228,32.122,30.379,29.395,27.115,20.691,16.331
1971,14.322,17.547,23.113,31.179,33.094,33.478,31.347,30.24,29.83,26.235,21.831,16.898
1972,15.588,14.404,24.381,28.596,32.921,34.221,31.986,30.722,29.535,26.226,22.538,17.269
1973,14.505,19.758,23.476,30.667,33.797,33.836,31.739,30.393,29.944,26.576,20.83,15.126
1974,14.465,15.903,25.169,30.042,32.999,33.032,32.651,31.635,30.873,26.656,20.711,15.411
1975,14.019,17.208,22.333,28.919,33.685,32.333,31.664,30.294,29.002,26.667,19.966,16.992
1976,15.915,17.303,22.419,27.876,32.55,33.649,31.356,29.306,27.571,26.748,21.507,15.889
1977,14.264,18.979,25.635,28.526,32.878,33.304,31.365,30.009,29.473,27.451,23.383,17.792
1978,14.497,17.313,21.88,29.403,34.231,33.476,30.175,30.369,28.828,26.843,21.88,17.358
1979,14.93,17.122,21.233,29.334,30.478,33.827,30.891,29.398,29.018,26.395,21.232,16.832
1980,15.135,19.461,22.527,30.556,32.502,33.736,31.302,30.868,30.163,28.454,21.481,16.159
1981,15.819,18.973,22.607,30.047,32.271,34.271,29.92,30.208,30.207,27.238,20.392,17.412
1982,15.019,16.158,20.968,28.167,31.706,34.084,32.929,30.771,30.178,28.163,21.89,16.626
1983,14.452,17.012,22.139,26.046,33.212,35.148,32.641,30.709,30.216,26.556,20.879,16.089
1984,13.808,15.631,25.843,30.094,34.557,34.105,31.986,30.203,28.882,25.64,21.501,17.003
1985,15.409,19.015,26.249,28.705,34.109,33.417,32.012,30.73,30.401,26.808,22.864,17.055
1986,14.542,17.083,23.365,30.173,33.948,34.825,32.456,29.879,30.537,28.073,21.755,14.982
1987,16.228,19.133,24.524,30.326,31.56,35.077,33.794,32.53,30.878,28.639,22.457,16.535
1988,16.919,19.356,23.746,30.898,35.383,35.158,32.276,31.012,31.253,27.582,21.446,17.347
1989,14.329,17.293,23.161,28.432,33.502,33.927,31.834,29.689,29.72,27.418,22.415,16.425
1990,17.606,17.836,22.202,29.738,34.057,33.675,32.071,30.948,29.674,26.975,21.796,16.402
1991,15.602,17.005,23.829,29.253,33.579,36.255,33.879,31.457,29.541,26.782,21.808,18.33
1992,16.187,17.765,22.056,28.017,33.726,36.114,32.218,30.227,28.762,27.177,21.479,18.592
1993,16.233,20.066,22.168,29.747,34.458,34.547,32.562,30.919,30.712,28.036,23.297,18.33
1994,16.514,17.751,26.044,28.681,34.676,35.109,31.031,29.997,28.886,26.891,23.192,17.323
1995,15.388,19.373,22.43,28.368,35.021,35.703,31.99,30.568,30.634,27.679,22.176,17.507
1996,15.831,18.826,25.487,29.842,31.411,32.433,32.264,30.49,30.484,27.551,21.276,17.143
1997,14.548,18.652,22.928,27.671,31.473,32.615,32.978,30.789,29.95,25.238,21.169,15.078
1998,15.091,17.998,22.329,30.532,34.117,34.368,32.299,32.166,30.703,27.511,21.623,17.266
1999,15.051,19.078,24.072,30.54,32.952,32.792,32.109,30.161,30.568,28.358,23.533,17.028
2000,15.492,17.895,23.655,31.425,34.564,34.312,32.148,31.09,29.979,28.182,22.177,17.193
2001,14.712,18.752,24.116,29.558,34.131,33.061,30.926,30.361,31.326,28.559,22.808,17.672
2002,16.676,17.62,24.644,30.729,34.545,35.166,31.773,31.299,30.878,27.702,21.915,17
