Year,Jan,Feb,Mar,Apr,May,Jun,Jul,Aug,Sep,Oct,Nov,Dec
1901,14.538,16.995,25.373,29.728,34.065,35.203,32.698,30.206,30.444,29.296,22.486,18.494
1902,17.664,19.736,26.928,31.321,33.503,32.756,33.017,31.486,29.778,27.888,22.32,17.115
1903,15.879,18.005,21.873,28.204,33.473,35.138,32.418,30.272,30.464,28.212,20.382,16.086
1904,15.526,19.732,23.205,30.7,33.576,33.431,31.02,30.246,30.509,27.992,22.368,17.204
1905,14.081,14.355,21.235,27.957,35.305,33.539,31.88,31.211,30.506,28.448,23.599,17.622
1906,14.478,16.279,22.38,28.843,34.546,33.422,31.922,30.49,29.183,28.03,23.172,18.014
1907,18.113,17.678,22.869,28.698,31.783,33.581,33.342,28.624,28.353,26.803,22.581,16.438
1908,16.3,18.822,23.239,29.873,32.904,33.926,29.557,28.33,27.944,26.228,20.823,15.902
1909,14.882,17.768,23.986,28.291,31.82,33.686,29.731,28.209,27.571,26.686,22.047,15.675
1910,15.383,19.261,23.861,27.884,32.731,33.467,29.345,28.726,29.375,26.553,20.393,16.235
1911,16.319,19.561,21.897,28.913,34.004,33.25,32.292,30.618,29.725,27.91,19.854,17.391
1912,17.316,19.743,23.245,29.886,33.994,34.722,31.458,29.177,28.402,27.206,20.487,16.987
1913,16.872,18.483,21.776,30.624,32.637,33.655,30.839,29.211,29.018,27.974,21.74,16.445
1914,17.958,17.473,22.826,29.685,34.804,33.482,30.691,29.477,30.12,27.481,22.847,15.8
1915,15.576,17.611,24.844,29.044,33.996,34.701,32.638,31.221,31.963,29.06,22.182,17.508
1916,17.568,17.346,26.339,29.89,32.596,33.2,32.174,29.587,29.106,25.886,19.655,15.936
1917,17.016,19.712,23.627,27.153,30.688,32.432,29.819,28.42,27.816,25.178,20.566,16.386
1918,15.106,19.364,23.335,27.327,33.371,32.655,31.673,30.755,29.12,27.511,22.146,15.994
1919,15.576,18.722,23.891,28.499,33.139,34.299,31.178,29.435,28.281,26.945,21.234,16.228
1920,16.385,18.385,24.567,28.678,30.367,31.265,30.35,28.871,30.793,28.657,22.783,16.523
1921,16.767,19.189,26.494,31.569,33.739,34.436,32.229,29.122,29.199,27.267,22.126,18.054
1922,15.538,20.029,24.662,30.588,32.678,33.524,31.976,29.486,28.869,26.925,21.668,16.823
1923,16.336,17.898,25.243,29.675,32.236,33.905,31.504,28.596,29.586,27.054,20.636,16.544
1924,15.367,19.235,26.294,30.085,31.27,34.312,32.482,30.129,28.256,26.594,20.499,17.025
1925,14.132,16.709,25.701,32.326,33.171,32.678,30.222,30.79,30.923,29.415,21.615,17.459
1926,16.709,21.625,23.453,27.209,31.646,34.852,31.892,29.689,28.596,26.696,19.683,16.567
1927,14.166,17.043,22.76,28.674,32.391,33.748,30.536,28.291,28.667,27.371,21.032,17.427
1928,15.903,19.646,24.895,29.92,33.569,33.415,31.662,29.645,28.382,27.588,22.084,15.96
1929,15.401,17.928,26.311,30.326,33.538,33.764,30.371,28.77,29.179,26.895,22.426,14.771
1930,15.259,18.857,24.321,28.561,32.846,33.387,29.73,29.024,31.211,28.225,21.123,17.165
1931,17.27,16.604,23.873,31.079,33.265,34.633,32.208,30.146,29.59,26.94,21.609,17.391
1932,18.956,19.239,25.057,29.696,33.324,33.941,31.316,28.619,30.361,27.635,21.524,17.859
1933,15.21,19.358,23.856,28.867,31.946,33.099,31.035,27.96,28.703,27.23,21.869,17.614
1934,13.528,20.768,23.351,29.861,32.844,33.878,30.742,29.262,28.94,26.583,21.482,18.136
1935,13.778,18.95,24.268,27.196,33.147,34.693,30.647,29.35,28.943,26.888,22.329,17.502
1936,15.113,19.654,23.138,29.58,35.026,32.378,30.828,29.738,29.9,28.428,22.27,17.044
1937,15.832,19.458,22.874,29.397,33.406,34.646,30.561,30.012,30.022,27.128,22.323,15.365
1938,15.413,17.696,25.598,30.596,33.957,32.973,31.159,30.125,30.468,28.937,20.69,17.328
1939,17.1,19.347,21.802,27.711,32.724,32.903,31.661,31.414,30.09,28.428,22.647,19.174
1940,17.644,19.572,22.548,28.725,34.106,33.558,31.904,29.505,29.255,28.408,23.035,16.758
1941,15.378,20.784,26.119,31.034,34.103,33.713,31.016,30.68,30.188,30.197,22.553,18.06
1942,15.762,19.619,25.503,31.414,33.076,35.131,30.975,29.606,29.272,27.956,22.608,16.05
1943,15.374,19.318,25.301,29.134,34.469,33.908,31.03,28.774,29.103,27.231,21.615,18.657
1944,16.084,18.681,23.664,29.225,33.664,33.681,30.781,28.522,28.909,26.78,22.498,17.618
1945,13.973,18.288,24.769,28.589,32.499,33.423,30.102,29.733,29.011,27.295,21.407,15.665
1946,16.31,20.412,23.682,32.269,33.145,34.338,31.139,28.73,28.615,28.329,20.825,15.968
1947,15.359,19.383,24.796,30.332,34.149,33.856,32.483,30.703,28.54,25.766,23.003,17.225
1948,15.754,18.333,24.339,30.083,34.355,33.99,31.711,28.77,29.638,28.374,21.157,17.527
1949,17.416,19.055,24.791,31.296,35.006,33.098,30.763,29.213,31.21,27.346,20.686,16.505
1950,16.611,16.398,23.616,28.522,33.378,33.197,30.21,28.618,28.968,27.068,20.515,14.916
1951,15.519,18.339,23.643,28.036,32.989,33.305,32.351,29.375,30.819,30.381,23.182,18.016
1952,17.015,20.301,24.374,31.158,34.075,33.929,30.433,28.873,28.897,27.577,21.666,17.226
1953,15.804,21.422,27.034,29.879,32.52,33.994,31.589,29.069,29.055,27.123,22.086,19.278
1954,15.556,19.746,24.877,30.323,34.008,34.178,31.665,30.391,29.801,25.914,22.473,17.193
1955,16.447,20.53,26.575,27.906,32.592,33.992,31.813,29.566,28.912,26.322,20.391,17.455
1956,16.036,19.064,24.674,29.837,34.515,33.391,28.546,28.346,29.655,26.012,20.688,17.335
1957,15.371,17.715,23.451,28.139,31.561,33.838,31.861,30.236,28.661,27.314,23.343,17.322
1958,18.728,20.024,25.612,31.706,33.761,35.125,30.843,31.546,28.175,27.225,22.443,18.204
1959,16.038,18.747,26.231,30.331,33.314,34.157,30.677,28.244,28.284,28.347,21.924,17.667
1960,16.182,21.699,23.051,28.285,32.694,33.665,31.012,29.477,30.941,28.043,21.94,18.004
1961,16.114,17.468,25.828,28.382,33.318,32.726,30.822,30.246,28.385,26.595,21.035,15.957
1962,15.199,19.979,24.423,29.832,33.712,33.168,31.124,29.791,29.077,25.911,21.671,17.438
1963,16.67,21.197,24.263,29.573,32.53,34.038,32.574,30.366,28.97,28.223,23.196,18.179
1964,13.927,19.233,26.441,31.035,33.065,32.778,31.087,29.573,29.372,26.899,21.278,16.858
1965,18.886,19.536,23.733,27.322,31.908,33.548,30.761,29.254,28.734,28.454,23.549,16.542
1966,18.198,21.76,23.419,28.869,32.475,33.64,31.629,28.881,28.802,28.199,22.153,16.114
1967,14.063,20.76,23.127,28.048,32.193,33.207,31.288,28.776,28.183,26.781,23.169,17.699
1968,14.885,16.711,24.355,29.521,31.962,34.067,31.705,29.667,29.294,27.772,22.921,17.773
1969,16.287,18.872,26.957,30.042,33.046,34.182,32.243,29.742,30.491,28.674,24.264,19.215
1970,17.248,19.182,24.085,31.145,34.895,33.608,30.764,28.453,28.259,27.108,20.751,17.21
1971,15.335,18.687,23.895,31.353,32.418,31.889,29.597,28.533,28.968,26.642,22.181,17.705
1972,16.93,15.463,25.651,29.372,33.226,34.027,31.397,29.783,29.08,27.203,22.887,18.066
1973,15.309,20.75,24.699,31.512,34.126,33.124,30.602,28.742,28.638,26.342,21.371,16.089
1974,15.485,16.958,26.286,30.772,32.958,32.419,31.824,31.355,30.965,27.566,21.6,16.813
1975,15.118,18.066,23.289,29.964,33.929,32.143,30.203,29.399,27.921,25.938,20.215,18.004
1976,17.095,18.638,24.135,28.604,33.374,33.319,31.063,28.157,26.94,27.194,23.028,17.605
1977,15.763,20.789,26.673,29.756,33.083,32.571,29.55,28.687,28.53,28.065,24.427,18.869
1978,15.809,18.52,23.479,30.692,34.594,33.248,29.129,29.349,28.514,27.34,22.896,18.52
1979,16.317,18.22,22.997,30.384,31.386,34.38,30.874,28.846,29.304,27.268,23.326,18.625
1980,16.213,20.38,24.15,31.604,34.041,33.361,30.803,30.261,30.383,28.73,22.642,17.302
1981,16.559,19.821,23.789,30.723,33.227,34.576,30.177,29.245,30.323,27.786,20.725,18.233
1982,16.339,17.691,22.44,28.899,31.051,33.686,31.821,29.546,29.863,28.618,22.501,18.171
1983,15.867,17.912,23.299,27.041,32.503,34.208,31.39,29.714,29.835,26.845,20.815,17.391
1984,15.069,16.359,26.398,30.904,34.965,33.623,30.903,28.938,27.694,25.839,21.975,17.909
1985,16.168,19.265,26.876,29.317,34.06,32.63,30.545,29.453,30.321,27.037,23.361,18.308
1986,16.171,18.214,24.422,30.7,33.398,34.048,31.1,28.735,30.193,28.467,22.887,16.123
1987,17.166,20.178,25.502,30.538,31.793,34.351,32.744,32.027,31.468,29.5,23.322,17.41
1988,18.14,21.015,24.677,31.498,35.199,34.312,30.612,29.706,30.97,28.02,22.348,18.721
1989,15.521,18.467,24.534,29.082,33.632,33.166,31.003,29.414,29.73,27.851,23.293,17.854
1990,18.7,18.958,23.569,30.381,34.02,33.335,30.698,29.406,28.998,26.955,22.426,17.631
1991,16.23,18.345,24.879,29.193,33.318,35.018,32.148,29.905,28.957,26.96,22.289,18.936
1992,16.629,18.342,23.561,28.36,33.445,35.374,31.07,29.132,27.915,27.346,21.904,19.338
1993,16.937,20.618,23.405,29.905,34.149,34.107,30.309,30.541,30.266,28.975,23.692,19.429
1994,17.995,19.182,26.566,29.065,34.785,34.332,29.621,28.551,28.064,26.295,23.332,18.363
1995,16.189,20.09,23.341,29.239,34.52,35.229,31.171,29.479,30.26,28.463,22.205,18.827
1996,16.77,19.99,26.868,29.843,31.884,31.394,31.067,28.383,29.639,27.956,21.03,18.013
1997,15.83,19.463,23.949,28.158,30.761,31.955,31.652,29.168,28.852,24.9,21.656,15.689
1998,16.463,19.313,23.796,30.918,34.33,33.572,31.091,31.17,30.408,27.222,22.448,18.157
1999,15.859,20.191,24.72,30.831,32.946,32.158,31.047,28.915,30.837,28.107,24.15,18.227
2000,17.063,18.583,24.277,31.814,34.45,33.471,30.457,29.868,29.855,28.436,22.759,18.55
2001,16.013,20.06,25.033,30.042,33.383,32.008,29.027,28.801,30.727,28.776,23.283,18.658
2002,16.677,18.998,25.877,31.381,34.312,34.331,31.195,30.691,30.769,28.214,23.314,18.839
