Year,Jan,Feb,Mar,Apr,May,Jun,Jul,Aug,Sep,Oct,Nov,Dec
1901,8.018,14.153,9.289,63.107,110.527,67.979,65.981,109.234,161.671,106.805,163.126,29.759
1902,19.163,11.277,28.323,54.027,150.043,106.848,112.919,107.135,73.516,255.305,69.946,132.596
1903,0.905,1.372,0.158,16.669,184.148,125.994,63.223,149.392,193,150.238,216.129,59.502
1904,11.097,0,0.158,45.928,165.713,72.406,127.506,40.489,81.992,105.477,11.703,10.464
1905,0.496,12.652,10.282,75.188,83.109,88.086,43.002,88.9,63.281,169.767,43.259,0.782
1906,21.282,13.309,13.218,4.281,66.858,94.08,50.723,197.147,46.056,185.959,78.847,60.509
1907,8.026,2.047,15.041,107,55.981,65.593,88.159,61.758,112.705,122.887,141.555,35.613
1908,4.91,48.355,20.891,67.304,91.879,79.524,73.418,39.483,143.355,162.872,8.467,1.486
1909,28.792,15.539,0.158,108.231,128.806,52.379,59.212,176.357,88.216,238.043,26.877,4.229
1910,2,41.474,0.158,24.693,54.705,42.933,224.088,148.986,21.868,255.737,133.831,0.579
1911,0.572,5.933,40.518,50.902,86.394,104.895,91.53,27.344,80.938,175.542,93.316,45.384
1912,0.236,1.029,9.497,11.566,74.669,85.689,49.083,61.258,142.254,181.039,160.956,3.339
1913,0,0,0.35,36.192,70.741,35.002,107.031,61.516,79.165,169.952,75.279,35.55
1914,0.641,0,0.158,33.121,60.407,64.387,83.445,101.819,99.394,219.5,79.091,36.653
1915,5.293,7.834,42.863,53.09,81.679,113.669,127.939,108.975,129.627,146.884,174.945,14.864
1916,0,0.635,0.158,13.446,79.879,37.912,216.591,158.042,97.849,294.984,124.374,19.818
1917,2.391,29.234,25.621,16.191,93.146,103.573,41.515,180.713,132.534,111.592,144.342,13.626
1918,22.177,5.881,13.8,27.138,91.692,51.187,33.353,85.967,31.16,50.264,200.026,29.372
1919,9.512,0,2.991,37.405,114.921,82.211,62.196,67.916,191.917,107.134,158.764,67.35
1920,42.227,0,4.2,58.279,49.965,41.403,60.111,67.497,144.818,164.789,219.116,0.737
1921,55.876,0,0.158,111.558,88.431,51.572,192.657,153.941,53.08,158.13,101.203,14.446
1922,6.054,11.59,0.158,28.427,156.989,78.812,66.743,115.187,41.209,205.399,204.221,40.294
1923,24.718,4.751,30.15,61.169,55.208,60.543,36.975,90.547,128.248,127.864,13.32,38.255
1924,7.349,0,12.033,48.453,84.115,80.327,126.13,95.34,89.479,83.543,110.13,5.667
1925,8.23,3.725,8.983,55.813,130.353,103.116,29.369,109.024,81.997,68.076,133.357,102.016
1926,31.405,0.261,34.902,65.715,36.491,72.798,69.7,53.965,109.312,83.249,60.013,17.407
1927,1.867,5.265,4.336,36.783,139.361,148.688,121.011,83.819,78.811,60.513,66.131,10.266
1928,6.146,58.281,26.967,84.156,77.554,60.727,75.9,81.085,24.38,191.813,58.599,29.022
1929,1.599,7.44,0.702,137.158,31.183,76.58,49.875,35.016,100.306,109.322,107.056,30.23
1930,7.066,20.631,40.057,23.549,199.295,62.623,55.404,63.02,46.389,309.952,131.795,59.422
1931,0.679,0,0.32,76.592,70.908,47.987,112.419,86.213,102.496,102.369,201.698,164.581
1932,0.107,47.765,7.299,68.234,117.489,81.42,51.018,128.803,64.053,231.727,205.455,50.219
1933,1.512,16.821,31.887,53.397,84.519,104.618,61.586,161.758,100.941,279.767,59.934,96.179
1934,40.091,0,0.68,45.435,76.47,81.259,71.47,48.305,14.213,261.932,99.877,7.54
1935,18.659,0,5.261,74.894,16.474,95.006,74.84,143.293,53.81,113.458,68.176,24.299
1936,0,66.292,46.286,27.221,120.488,81.632,110.072,72.642,99.589,53.178,143.823,34.047
1937,1.126,10.133,18.16,87.471,62.915,84.576,41.56,115.37,71.854,163.261,146.493,9.308
1938,0,14.267,33.273,61.653,38.29,49.707,159.665,146.598,97.32,42.008,5.527,27.127
1939,20.566,0,23.539,158.928,83.715,90.055,42.466,156.704,93.817,260.52,172.276,5.705
1940,0,0,43.159,62.119,161.022,98.126,54.112,39.53,159.071,93.913,166.746,21.672
1941,5.67,0,0.158,98.933,107.297,48.743,65.965,80.684,120.617,93.432,125.959,141.933
1942,0,0,1.284,113.093,75.53,53.786,59.24,119.463,86.488,117.06,62.265,83.212
1943,32.927,21.977,8.141,95.715,176.402,61.115,92.735,60.645,75.913,276.563,111.718,5.356
1944,11.215,46.515,33.182,15.622,52.147,118.528,48.774,89.329,113.213,241.727,169.546,54.945
1945,0.051,1.444,0.524,82.826,26.063,36.293,53.41,96.864,50.681,145.589,80.785,1.339
1946,18.402,2.047,54.11,103.679,73.951,63.954,68.06,104.135,127.162,182.265,315.219,170.667
1947,18.174,3.413,65.62,53.358,44.397,56.461,130.408,112.213,127.174,167.66,13.052,3.621
1948,14.743,0.763,2.107,54.425,113.381,64.696,87.463,72.585,48.724,135.107,155.963,14.915
1949,0.211,1.715,0.158,106.785,76.604,69.767,102.802,147.902,47.121,178.482,26.699,0.579
1950,0,53.465,6.552,4.255,46.377,47.147,71.93,160.676,71.123,188.635,86.954,14.026
1951,0.852,0.076,39.25,123.887,85.152,34.903,102.492,49.1,109.512,93.111,143.201,1.105
1952,1.791,30.358,7.445,20.671,41.228,91.413,154.455,65.306,67.818,146.449,7.482,162.8
1953,1.612,7.595,0.158,116.529,93.143,142.402,162.163,68.934,139.641,290.955,57.228,1.415
1954,34.153,1.089,36.496,70.604,95.728,104.701,104.825,128.436,24.917,264.264,21.541,55.656
1955,6.212,1.549,23.233,106.191,156.118,35.314,94.704,63.554,123.061,200.515,56.898,63.984
1956,11.265,0,0.158,27.031,23.348,114.092,62.481,70.8,118.089,318.674,201.1,13.211
1957,0,6.12,11.296,24.208,88.721,85.713,51.349,49.426,43.564,183.634,140.687,25.214
1958,5.362,2.774,16.417,66.114,118.837,13.781,74.451,155.07,77.821,137.584,107.462,15.931
1959,0.763,15.91,0.158,93.52,104.659,164.166,55.251,49.649,101.525,231.358,162.248,40.817
1960,0,4.567,2.296,44.894,107.954,16.132,185.326,37.215,94.351,137.525,168.761,4.359
1961,43.255,17.54,4.833,26.64,92.232,111.994,98.104,111.866,131.341,185.258,27.166,33.33
1962,1.117,12.025,32.01,37.091,111.109,67.961,80.365,154.565,125.026,223.132,23.57,63.169
1963,20.415,0,8.425,43.061,77.744,48.86,118.158,104.317,69.632,231.111,89.439,92.272
1964,0,0,7.728,19.523,138.945,59.013,220.374,99.277,110.378,306.174,257.146,40.67
1965,0.107,0,0.717,68.681,34.566,30.05,55.115,150.172,65.276,105.417,53.415,96.655
1966,4.828,2.284,2.035,76.826,49.996,85.33,74.461,92.737,173.414,328.18,171.247,57.945
1967,42.497,0,48.842,18.111,55.709,102.894,111.412,60.164,83.176,120.211,162.999,105.564
1968,0.526,4.258,48.352,86.728,85.09,55.359,41.43,85.319,160.455,103.137,57.807,47.902
1969,0,2.799,1.422,20.015,76.376,36.951,42.374,129.942,33.703,254.342,106.552,114.306
1970,2.27,41.909,7.993,98.583,141.664,64.814,105.601,119.198,78.747,224.94,112.988,4.449
1971,3.003,7.419,11.511,56.617,133.288,46.355,60.095,111.283,140.459,159.572,40.969,98.081
1972,0.116,0,0.158,21.367,145.468,69.876,83.85,46.68,218.864,232.663,75.389,90.854
1973,0,0,0.158,5.247,49.93,63.092,144.383,85.111,137.328,195.289,63.062,53.825
1974,0,0,2.386,35.695,67.804,55.154,119.135,49.594,190.57,144.751,8.911,4.557
1975,0.606,1.261,20.806,14.441,97.342,67.763,189.996,144.619,142.647,263.805,57.647,7.426
1976,0,0,24.693,101.734,62.283,80.818,48.26,132.324,58.201,110.921,156.141,15.842
1977,0,20.381,26.857,83.78,113.309,107.001,69.522,93.368,110.408,277.7,246.844,3.29
1978,0,12.916,6.494,59.442,62.654,59.816,77.865,64.248,139.141,128.417,219.964,68.603
1979,0,53.578,12.178,16.622,71.529,93.869,88.348,64.366,161.18,133.488,251.404,21.435
1980,0.346,0,5.81,49.843,63.559,47.699,72.204,59.572,80.341,150.954,127.607,43.612
1981,0.496,1.233,58.853,22.155,89.553,61.454,135.461,80.853,171.814,209.918,89.432,13.897
1982,0,0,13.905,38.634,93.775,108.51,34.066,33.294,60.539,111.562,150.331,12.962
1983,0.127,0,0.963,2.575,154.721,84.599,121.621,130.565,139.774,100.973,80.135,204.11
1984,7.282,42.582,75.163,42.031,47.57,51.524,171.139,41.089,109.593,201.722,40.27,47.231
1985,20.631,8,21.348,12.985,63.691,52.399,137.571,134.687,130.069,108.96,171.899,13.809
1986,30.964,23.855,2.969,16.065,63.649,75.211,160.333,59.398,195.668,130.359,130.424,50.236
1987,0.393,0,23.942,45.687,107.143,71.093,33.781,86.858,78.197,231.915,75.961,111.195
1988,0,0.28,9.379,74.199,103.285,173.34,191.459,235.545,324.312,22.035,65.641,53.277
1989,2.108,0,5.089,30.609,65.001,99.273,184.223,35.262,133.642,267.553,39.086,16.422
1990,7.845,1.029,3.821,21.462,120.661,104.921,32.103,52.326,64.242,271.616,61.284,39.014
1991,0.491,1.901,5.506,31.537,106.302,145.168,64.814,67.089,79.142,301.391,62.153,9.468
1992,0.244,0,0.158,8.342,109.806,129.572,114.087,110.923,97.69,172.694,104.959,12.949
1993,0.895,1.509,28.429,27.194,58.3,147.491,73.598,83.804,90.33,194.576,105.349,168.982
1994,1.65,10.569,7.449,24.014,63.053,33.286,73.611,35.075,32.621,221.02,79.959,16.35
1995,34.751,7.547,16.414,39.076,136.212,68.669,70.167,115.695,105.506,198.356,35.461,3.614
1996,1.331,3.573,0.158,109.731,65.316,189.007,66.09,153.823,132.542,217.049,48.047,52.853
1997,8.71,0,29.298,55.777,60.241,64.168,77.657,83.016,113.413,336.989,261.085,49.071
1998,2.902,0.107,0.158,75.279,82.914,45.181,196.656,218.046,103.627,218.635,101.331,102.433
1999,4.536,32.699,1.515,62.295,118.654,48.92,73.231,47.244,79.678,208.401,114.566,16.379
2000,3.478,24.347,2.241,66.098,30.799,55.627,71.493,211.105,245.523,271.116,47.081,45.514
2001,3.503,1.014,2.023,111.622,41.843,142.181,115.632,64.006,105.795,192.94,70.874,29.55
2002,0.195,1.214,1.259,9.068,135.043,108.922,23.803,28.5,71.615,254.203,100.129,23.078
