Year,Jan,Feb,Mar,Apr,May,Jun,Jul,Aug,Sep,Oct,Nov,Dec
1901,4.99,55.369,0.552,16.649,67.059,36.864,44.49,50.433,203.676,199.038,199.96,216.764
1902,45.22,19.701,3.076,17.168,82.245,69.058,54.109,231.191,175.796,300.549,109.008,116.082
1903,30.565,3.331,0,3.994,153.576,68.379,80.066,138.519,322.416,157.226,415.703,245.907
1904,20.932,0,0,8.836,148.335,21.666,94.451,41.048,86.589,178.194,9.532,26.487
1905,24.451,2.393,26.141,54.177,89.05,41.938,41.33,177.744,50.87,294.641,113.21,2.426
1906,38.682,9.1,6.201,0.282,31.733,58.626,90.489,290.781,117.2,108.756,105.849,120.421
1907,0.343,0.277,18.924,88.56,40.755,35.738,74.247,62.552,201.985,125.457,210.562,46.536
1908,1.662,17.214,3.525,3.028,59.131,34.142,47.903,44.159,183.512,235.054,33.116,12.752
1909,46.875,0.914,0,69.395,231.611,34.847,39.521,232.35,222.438,151.741,20.103,3.695
1910,0.158,6.182,0,23.52,47.598,63.17,172.47,263.127,135.123,302.179,171.792,0.828
1911,0.074,0,6.021,27.493,64.749,34.513,66.71,35.649,108.532,115.038,133.351,126.702
1912,2.439,0,0,0.283,45.45,44.164,34.75,113.913,181.68,293.544,330.609,3.135
1913,0.012,0.907,5.38,24.456,77.608,33.533,30.331,77.134,153.623,248.994,108.58,102.575
1914,7.678,7.822,5.016,82.041,57.022,25.252,34.004,122.1,190.585,199.231,207.5,62.74
1915,16.2,26.826,43.987,40.062,78.403,51.966,153.306,70.13,170.293,62.725,224.825,18.603
1916,0.038,1.593,0,12.418,53.401,16.645,283.108,150.432,189.995,300.987,186.257,48.808
1917,10.428,21.362,4.004,1.9,106.149,81.558,102.624,274.181,194.375,139.02,168.332,45.518
1918,57.26,13.791,31.131,11.646,126.338,52.679,32.477,53.953,112.872,12.498,286.182,46.331
1919,25.283,0,22.325,16.53,117.747,54.175,127.4,28.296,204.802,71.207,374.109,59.647
1920,55.448,0.938,0,10.527,35.104,24.249,31.441,101.162,192.634,161.874,220.568,0.828
1921,78.258,0,0,39.845,25.243,49.793,143.895,167.387,130.234,162.314,86.312,15.113
1922,22.073,7.98,0,4.576,106.151,56.015,81.656,139.021,65.551,249.26,420.227,23.847
1923,64.267,0.081,32.719,13.458,20.761,41.827,23.001,15.371,100.949,133.257,8.77,32.524
1924,20.658,2.404,10.393,12.755,72.663,58.891,108.499,115.926,186.188,96.233,168.286,20.291
1925,12.655,1.544,25.17,32.58,205.893,28.567,49.102,142.45,98.416,148.318,174.709,160.251
1926,54.566,1.597,31.902,45.878,72.453,57.856,55.627,66.741,168.894,108.393,85.875,18.35
1927,10.756,10.114,5.968,29.435,91.877,95.767,57.314,98.19,158.808,62.913,118.651,21.7
1928,16.915,53.583,6.143,30.203,46.494,52.615,86.179,126.958,85.875,338.839,147.038,74.165
1929,13.821,22.024,8.487,62.824,104.793,38.19,54.594,53.832,122.405,146.008,202.646,56.91
1930,51.819,44.451,8.659,3.763,266.986,77.094,27.917,65.178,133.469,407.459,346.683,52.851
1931,1.23,0,0,30.255,53.813,58.591,110.919,45.122,160.214,119.993,212.245,234.606
1932,0.577,44.515,0,13.026,171.764,56.554,47.483,122.478,97.066,139.511,203.483,45.197
1933,0.398,0,21.762,12.895,94.087,20.885,34.985,241.375,69.787,197.94,37.015,156.565
1934,54.89,0,0,31.306,59.856,75.938,56.183,68.365,46.149,417.499,161.521,10.796
1935,34.923,0.849,1.468,20.977,11.771,48.768,36.729,238.415,114.662,248.599,93.564,48.815
1936,0.945,43.948,25.718,24.891,102.37,40.359,64.621,59.619,216.174,94.919,277.792,21.406
1937,4.383,4.867,7.814,120.244,77.048,61.428,36.829,109.592,153.785,213.621,277.868,47.748
1938,0.068,18.812,10.359,26.959,88.098,82.1,92.96,192.365,188.269,71.314,15.317,40.421
1939,47.762,0,13.817,131.963,62.905,65.742,36.891,39.9,177.022,348.064,252.131,6.388
1940,0.312,2.342,19.512,35.527,159.177,94.133,44.176,78.047,138.648,192.138,249.773,40.583
1941,15.534,6.551,0,23.211,87.347,26.405,54.622,40.473,243.264,156.457,105.221,181.669
1942,0.012,0.117,0,34.747,77.391,66.006,25.647,143.886,181.752,133.617,36.894,94.788
1943,30.261,4.57,0.126,43.217,227.701,42.425,49.686,125.312,85.137,453.834,75.884,40.551
1944,4.615,8.194,68.02,13.605,10.238,101.738,80.279,134.304,188.276,223.973,290.477,84.291
1945,0.159,0,0.128,60.925,84.526,29.266,81.754,114.429,84.632,61.804,100.734,1.226
1946,26.811,2.005,18.715,26.753,156.918,21.775,40.913,105.482,224.361,174.626,379.856,352.986
1947,39.588,1.308,17.748,16.977,70.513,52.446,83.705,97.479,174.11,174.854,31.009,16.57
1948,35.13,1.06,0.305,22.121,103.931,26.792,50.138,68.852,103.735,134.965,218.445,22.171
1949,0.038,4.09,0,32.823,126.922,110.657,133.135,198.583,102.607,191.511,49.459,0.828
1950,0.662,51.474,3.914,0.282,83.412,13.381,41.488,121.605,103.869,121.156,55.991,12.6
1951,0.924,0,34.912,87.218,117.161,37.105,95.602,52.846,85.932,99.684,135.738,0.828
1952,0.302,29.165,0.002,12.345,146.233,38.954,65.519,103.203,25.153,147.189,4.234,322.988
1953,6.095,0,4.381,84.449,93.754,117.133,95.508,80.175,141.17,270.508,44.307,11.225
1954,47.483,4.218,10.732,26.808,95.626,30.578,149.503,115.637,28.896,266.202,2.588,109.824
1955,38.128,0.641,0.028,52.347,208.361,32.645,83.492,81.612,118.002,145.588,66.386,86.4
1956,15.478,1.53,0,33.854,88.004,119.044,62.705,109.323,188.968,371.096,215.521,43.596
1957,0.012,4.722,22.405,4.656,87.095,67.703,50.13,56.838,80.461,268.16,131.575,20.331
1958,14.654,4.095,4.172,91.829,142.981,53.149,25.688,182.888,128.417,224.432,186.558,25.267
1959,0.24,49.732,0,35.536,98.302,46.475,29.413,56.883,191.264,91.769,183.562,15.44
1960,2.365,0,10.89,28.994,41.829,82.075,163.501,68.468,177.02,118.424,284.024,20.005
1961,21.157,14.178,0,2.968,90.028,86.105,82.381,152.4,172.555,154.365,85.133,16.963
1962,7.689,22.886,5.282,35.473,160.245,59.166,45.008,148.017,201.825,272.955,35.261,112.3
1963,53.236,0,11.038,36.062,54.941,48.006,55.707,108.709,254.075,209.65,115.665,97.066
1964,0.012,0,1.075,0.293,49.52,24.119,202.025,79.973,166.883,281.716,295.3,30.626
1965,5.218,7.592,0,76.021,28.98,33.565,56.864,226.816,126.977,92.356,109.399,190.627
1966,11.601,1.3,4.06,12.405,125.543,62.476,30.791,198.12,248.436,276.629,396.579,78.776
1967,57.59,0,37.96,29.696,103.438,32.714,141.766,74.898,72.508,110.24,110.66,214.386
1968,0.074,2.623,1.097,74.615,17.999,65.202,20.959,38.375,152.235,106.303,60.288,77.655
1969,0.038,4.791,1.574,1.982,91.973,33.854,60.565,245.737,29.28,431.722,223.064,59.001
1970,0.547,7.751,0.264,6.764,69.121,69.5,63.542,100.496,140.859,140.925,167.123,5.425
1971,4.976,21.964,36.254,74.638,111.759,36.553,90.703,147.284,116.671,274.947,76.502,125.437
1972,7.101,0.012,0,10.119,249.871,73.882,26.011,44.02,160.96,257.945,95.827,282.89
1973,0.012,0,0,3.246,83.041,47.931,75.926,125.139,165.04,198.561,71.164,91.469
1974,0.679,0,4.042,5.602,103.729,42.493,119.78,34.959,211.735,255.274,28.493,4.87
1975,4.42,0,16.477,6.787,85.819,32.085,150.807,121.267,179.425,279.987,140.548,14.081
1976,5.226,0,0.855,25.799,51.471,37.964,107.768,260.646,43.825,204.08,235.082,14.46
1977,1.473,12.399,12.078,51.998,90.679,64.353,73.917,218.501,133.469,300.183,332.372,3.893
1978,0.364,31.597,0.008,48.581,62.782,29.086,84.056,84.245,260.858,162.688,172.481,159.918
1979,1.165,64.063,2.361,27.3,57.859,43.02,92.158,90.064,234.114,98.718,358.055,17.762
1980,0.113,0,1.924,15.323,69.059,37.76,67.635,104.078,63.888,93.742,157.601,64.491
1981,16.973,0.344,27.096,14.803,139.884,43.416,90.424,124.263,299.35,269.199,60.874,46.579
1982,0.08,0,8.084,26.781,61.71,54.008,48.236,35.861,119.861,71.831,188.976,19.9
1983,0.012,0,10.002,1.637,106.111,140.582,116.087,137.682,206.032,127.078,46.303,226.348
1984,6.888,68.892,85.243,42.861,25.21,11.479,184.397,36.185,148.745,207.028,100.528,82.7
1985,35.883,3.922,8.438,31.643,38.545,47.058,130.723,137.599,271.048,107.752,343.879,46.248
1986,51.521,33.068,1.052,4.34,40.034,40.658,84.569,58.957,204.187,236.131,125.626,64.514
1987,0.91,0,25.072,28.006,64.34,62.325,33.177,102.02,70.487,234.14,104.396,169.769
1988,0.012,0,3.088,74.995,116.979,70.386,136.135,292.35,323.291,56.769,152.124,68.243
1989,3.203,0,28.386,10.042,44.183,81.192,136.388,44.401,233.466,207.6,134.414,52.789
1990,9.696,5.475,21.06,8.868,121.206,48.404,35.576,73.808,160.362,312.242,90.33,41.889
1991,2.941,1.817,1.604,12.127,69.633,96.295,56.603,89.509,123.94,260.058,151.803,7.851
1992,6.966,0,0,2.991,91.129,57.463,83.706,122.756,101.64,145.745,165.869,48.571
1993,0.724,0.746,11.367,10.764,167.128,87.447,63.744,146.539,105.397,235.208,155.681,205.378
1994,1.236,33.022,2.557,8.824,107.732,30.561,57.33,79.355,50.243,265.067,156.995,20.775
1995,46.318,4.205,16.825,18.715,128.724,39.83,79.24,227.882,203.32,189.082,63.887,8.005
1996,1.02,1.722,0,70.646,73.616,148.733,52.624,140.818,214.84,241.765,106.957,156.368
1997,10.415,0,11.404,43.992,39.509,57.533,44.578,92.182,119.569,287.945,352.927,140.86
1998,2.487,0.012,0,39.808,88.822,27.426,138.892,217.079,103.921,163.879,154.807,150.143
1999,4.662,18.262,0,30.155,80.76,58.427,51.422,105.82,125.175,202.804,120.64,35.609
2000,2.997,38.838,0.415,37.759,48.059,58.82,76.769,181.387,257.859,262.466,68.526,46.973
2001,2.783,0.179,0.745,58.285,43.119,77.713,89.812,63.377,156.37,259.707,104.59,88.224
2002,14.211,2.176,0,2.929,130.251,52.443,30.57,80.29,117.65,258.606,162.493,28.683
