Year,Jan,Feb,Mar,Apr,May,Jun,Jul,Aug,Sep,Oct,Nov,Dec
1901,56.994,14.337,3.56,2.348,11.728,36.734,197.764,339.96,250.805,7.169,0.896,1.937
1902,5.606,1.65,0.799,5.112,6.153,50.077,431.228,242.24,239.226,15.791,0.324,0
1903,5.696,1.465,0.985,1.906,12.321,74.706,130.028,431.478,158.036,92.204,0,0.217
1904,5.05,0.183,11.946,0.492,47.06,44.833,281.789,444.081,120.817,130.741,7.057,18.281
1905,22.022,13.536,11.54,3.692,4.393,17.728,337.603,255.541,267.272,2.139,0,1.653
1906,6.827,24.331,8.02,0.74,11.569,82.697,286.865,290.979,223.43,27.41,0,0.217
1907,2.135,43.993,13.136,12.016,8.002,56.379,231.625,330.509,66.319,6.474,0,0
1908,12.007,15.146,1.038,0.549,4.72,30.409,296.185,332.532,73.606,14.494,0.2,1.301
1909,7.998,4.922,0,20.008,2.451,201.385,492.867,231.477,172.942,4.084,0,22.072
1910,6.553,2.749,5.061,1.154,17.406,121.703,278.516,246.922,236.479,55.48,19.52,0.418
1911,20.893,0,18.455,4.392,2.203,98.587,127.097,280.587,287.216,130.568,17.616,0
1912,5.407,3.749,2.791,5.382,14.615,62.449,286.153,296.96,137.972,3.253,15.318,1.452
1913,0.609,32.581,15.085,1.132,25.182,183.548,186.766,226.631,89.693,28.113,1.96,20.474
1914,3.075,13.292,10.611,11.716,44.744,57.763,454.149,255.067,313.563,7.818,0,0
1915,9.72,39.934,32.079,3.288,3.084,88.844,314.645,307.117,252.495,97.704,1.179,3.35
1916,0,13.267,0,1.911,10.024,172.215,362.489,433.257,201.379,74.838,2.601,0
1917,4.229,29.469,7.133,1.708,40.656,173.433,281.637,276.209,272.154,57.864,0,8.182
1918,0.709,0,3.013,4.991,4.414,173.883,107.269,311.474,83.973,3.094,5.841,0.509
1919,32.417,8.083,6.079,4.133,6.695,52.386,294.718,365.023,194.527,60.604,0.591,1.279
1920,0.517,13.909,11.804,0.357,10.449,84.635,470.522,158.199,76.772,9.097,0,0.183
1921,32.687,0.8,0.334,0.713,0.449,82.588,217.706,307.633,175.656,12.972,0,0
1922,21.443,7.11,0,2.951,0.854,90.616,425.761,416.348,317.684,9.86,1.169,22.448
1923,2.053,24.313,0,0.131,4.62,31.558,240.246,383.271,188.191,60.781,4.898,6.091
1924,9.344,3.987,0.934,5.144,7.834,44.551,342.9,254.528,374.246,95.922,8.665,5.922
1925,5.775,0,1.913,1.772,34.896,111.712,572.713,423.871,400.928,7.905,11.029,0
1926,7.381,1.309,35.342,8.165,26.248,16.168,331.99,234.765,161.54,25.667,2.786,2.447
1927,11.043,19.85,15.481,1.267,9.324,46.629,358.766,432.743,131.796,107.912,21.112,0.852
1928,21.496,20.362,0.833,9.014,3.224,54.197,324.164,108.032,67.347,61.505,2.986,11.475
1929,47.552,1.26,1.773,3.23,2.706,90.245,441.434,354.138,79.586,119.706,0,30.338
1930,9.179,12.822,2.887,4.75,5.776,70.144,387.312,232.528,157.058,30.049,7.837,18.909
1931,0.648,18.567,6.222,0.705,4.555,56.609,321.732,219.491,327.096,116.026,0.948,0.414
1932,0,4.57,1.96,0.805,8.012,62.383,130.027,318.08,161.948,20.383,8.452,6.486
1933,9.705,17.26,2.115,13.228,24.775,109.174,318.939,329.174,134.706,75.894,0,0.234
1934,20.502,5.27,4.093,0.985,2.191,97.892,250.096,273.749,171.432,15.181,1.245,5.162
1935,12.456,15.252,0.907,3.522,2.931,97.63,289.344,382.442,190.43,6.474,2.786,9.627
1936,2.934,27.726,7.042,3.626,3.78,231.835,532.673,316.704,271.978,8.97,1.403,28.81
1937,0.384,34.965,1.912,10.063,11.548,73.617,293.461,275.659,199.531,65.393,0.2,2.797
1938,32.472,12.032,0.947,4.732,14.785,235.478,342.925,297.692,156.942,29.081,0.401,0
1939,10.521,15.768,4.677,4.497,3.174,134.362,290.527,246.54,182.998,24.33,0,0
1940,4.353,22.495,22.904,4.678,8.889,67.348,273.487,328.641,176.12,5.858,0,6.185
1941,17.201,4.267,3.335,0.705,11.861,69.557,173.911,296.957,158.404,24.467,0.401,2.288
1942,46.349,28.001,1.073,5.452,4.406,88.057,287.659,281.438,198.69,1.717,0,13.675
1943,11.98,4.989,1.025,14.255,10.145,51.679,208.159,512.219,241.322,16.752,0,0
1944,16.639,23.857,22.588,3.884,3.367,83.439,274.121,359.144,112.85,19.798,0.2,2.091
1945,24.223,4.851,0.825,5.064,3.174,42.948,250.738,176.215,162.793,93.749,0,18.068
1946,0.069,22.903,4.549,8.594,6.587,100.241,383.317,332.867,192.141,39.803,11.423,6.542
1947,12.19,9.561,9.377,0.634,4.442,43.045,402.582,276.013,291.366,26.318,1.965,0.635
1948,7.517,10.79,2.65,0.97,9.397,149.415,380.231,410.138,221.023,43.921,10.255,0.418
1949,1.503,32.559,3.901,4.498,20.681,76.607,389.524,406.069,200.614,90.362,0.308,0.309
1950,15.066,6.932,20.226,0.234,4.969,124.136,300.697,374.973,132.401,5.598,0.2,12.532
1951,10.907,10.118,15.782,8.653,5.955,124.274,265.505,411.377,179.267,14.612,9.752,0
1952,2.577,13.036,13.76,1.458,12.26,177.434,216.325,295.97,123.2,5.523,2.986,0
1953,30.002,14.445,0.401,3.226,1.774,136.125,406.829,328.442,165.244,1.389,0,4.914
1954,16.35,16.16,3.807,0.879,2.831,72.599,311.974,291.246,207.44,23.406,0,0.217
1955,26.674,16,2.115,3.361,2.706,100.182,503.107,216.89,140.947,121.866,0,2.064
1956,22.401,11.771,7.298,2.147,6.605,173.73,231.024,292.168,286.23,135.492,25.629,9.115
1957,13.371,0.997,22.396,2.105,2.522,87.667,286.695,304.158,150.916,4.636,1.169,8.573
1958,19.094,4.209,24.011,2.38,0.754,81.917,220.739,300.455,135.122,54.877,0.826,5.678
1959,47.6,4.702,0.721,0.86,38.46,37.037,231.269,337.811,151.33,155.36,4.146,0
1960,10.377,0,6.791,1.652,1.515,54.624,375.22,435.167,131.384,68.09,0,0.401
1961,22.57,14.964,0,0.769,5.198,82.935,290.281,394.834,206.126,76.513,2.272,6.214
1962,19.395,9.776,5.69,12.142,5.2,62.213,294.796,317.514,349.063,0.435,1.76,6.352
1963,12.961,5.965,13.146,7.459,21.687,97.41,455.729,347.686,212.169,18.99,7.137,3.516
1964,1.418,3.671,2.708,3.46,10.177,52.2,387.253,258.413,216.834,11.062,0,2.162
1965,2.821,4.589,13.834,16.38,3.876,20.646,234.391,176.395,112.184,32.389,1.196,2.667
1966,7.963,12.205,0.183,0,2.857,185.407,170.577,191.814,53.995,7.095,22.067,10.405
1967,1.252,0.609,19.742,4.201,2.442,44.535,269.783,511.141,202.372,3.282,1.349,31.569
1968,22.672,6.643,3.15,1.524,1.714,76.433,219.944,143.676,76.127,37.154,0.017,5.716
1969,9.251,3.565,1.252,2.715,31.879,32.328,493.616,222.984,199.001,1.824,6.022,0
1970,25.223,39.398,1.165,0.458,43.459,116.526,303.194,241.158,510.84,47.254,0.139,0
1971,10.152,9.804,3.398,18.448,50.627,193.37,230.367,397.558,222.015,119.265,2.235,0
1972,17.075,25.318,1.839,2.668,2.608,20.927,172.896,269.672,206.943,117.089,10.549,0.069
1973,8.676,5.503,1.986,0.688,5.444,58.134,354.347,446.303,174.824,105.086,0.722,0
1974,5.203,1.946,0.7,0.814,5.931,52.63,358.445,202.052,98.505,8.276,0.5,3.109
1975,13.529,8.327,11.707,4.161,3.231,160.216,322.167,256.501,200.734,38.023,0,0
1976,24.568,5.431,0.925,4.626,9.194,33.25,199.642,190.145,305.304,2.11,0.768,0
1977,17.917,13.219,0.508,7.098,10.006,104.293,374.197,183.817,117.849,76.015,2.608,10.032
1978,19.114,36.264,16.636,2.473,1.896,133.039,143.645,250.948,269.598,33.745,1.118,5.014
1979,18.408,8.533,1.639,5.317,4.72,108.715,246.637,172.528,73.147,3.068,28.16,3.846
1980,0.934,4.817,4.388,0.939,2.088,191.682,538.854,542.688,238.97,15.935,0.326,16.432
1981,19.082,2.546,5.692,1.402,10.134,121.502,436.845,401.831,179.485,1.003,12.848,4.113
1982,46.388,9.425,23.656,3.887,36.479,81.048,203.782,392.382,379.941,8.458,15.689,7.136
1983,11.354,2.5,2.907,14.061,37.932,92.451,271.279,183.586,221.555,64.572,0,4.382
1984,25.033,25.974,0.591,8.381,1.874,115.595,193.168,230.976,182.309,28.755,0,2.256
1985,14.286,0.888,0.299,9.424,5.524,60.388,250.693,244.993,271.373,112.472,0.139,9.781
1986,10.953,22.533,1.808,2.806,60.099,55.459,279.749,323.745,235.633,15.128,1.622,26.594
1987,14.944,11.437,7.345,2.181,15.061,10.702,138.169,196.901,55.751,100.223,0,4.145
1988,8.899,5.915,10.758,1.927,15.489,140.778,299.449,310.32,104.042,14.592,1.296,29.063
1989,10.409,4.896,4.562,1.454,11.62,94.475,326.177,150.858,176.077,24.333,5.025,13.235
1990,0,15.498,3.143,7.956,20.421,103.176,362.857,258.635,233.931,8.036,1.742,6.982
1991,10.164,8.995,4.696,7.564,19.042,28.521,65.898,76.616,120.117,0.458,0.596,25.928
1992,22.31,6.748,0.86,1.935,17.515,36.061,147.623,168.722,171.149,62.241,11.369,0
1993,10.372,0,7.656,2.698,23.914,45.502,182.303,182.493,319.388,27.095,0,0
1994,46.326,16.158,16.061,6.401,4.801,95.548,303.873,280.645,166.507,5.077,0.604,0.069
1995,26.885,17.646,12.598,7.113,3.935,26.218,208.459,302.982,195.884,0.936,16.454,20.086
1996,30.937,15.873,1.435,1.923,3.548,129.73,210.032,300.71,119.703,88.598,0,0
1997,11.15,1.52,2.889,8.003,29.857,106.514,125.798,214.49,224.115,29.248,9.413,17.163
1998,1.67,3.452,10.452,7.157,38.932,16.083,239.765,320.879,133.319,11.278,1.054,0
1999,33.629,29.461,0,0,15.532,21.955,215.842,171.111,167.601,32.301,0,2.51
2000,11.955,15.436,1.09,3.318,11.451,83.717,139.186,170.974,195.422,0.401,0,0
2001,4.203,2.234,8.954,6.422,12.71,108.021,224.027,182.406,50.625,69.461,0.541,0.766
2002,17.602,14.936,6.107,2.982,2.507,21.203,121.108,232.113,240.587,90.337,5.236,0.67
