Year,Jan,Feb,Mar,Apr,May,Jun,Jul,Aug,Sep,Oct,Nov,Dec
1901,24.528,10.739,5.113,0.096,6.206,19.32,107.544,252.854,21.723,5.713,0,7.556
1902,1.691,0.149,0,0.778,1.147,47.237,319.217,143.929,119.939,1.729,1.993,0.144
1903,4.257,2.022,6.803,0,2.306,4.206,130.478,281.628,49.439,43.526,0,0
1904,6.507,0.622,8.871,0,6.991,71.94,359.25,392.588,26.555,4.896,12.776,14.371
1905,16.62,17.375,8.799,0.264,1.112,21.523,132.56,29.222,85.351,0.199,0,1.51
1906,0.853,18.611,15.636,0,1.073,136.504,149.575,111.68,202.907,0.208,0,7.91
1907,6.926,46.333,5.181,22.226,9.07,16.802,84.438,421.19,1.272,0.199,0.073,0
1908,23.159,0.31,0.3,1.377,7.581,31.19,491.734,372.498,26.299,9.04,0.041,1.51
1909,19.732,3.667,0,10.396,17.953,61.48,374.039,160.882,88.311,0.199,0,18.38
1910,9.405,2.705,0,2.621,1.048,46.218,169.918,221.292,133.321,23.302,2.542,0
1911,21.083,0,8.175,0.155,0,22.644,39.791,91.496,289.441,5.107,47.737,8.907
1912,23.087,2.244,8.9,0.691,0.726,13.69,224.062,234.41,174.692,0.516,8.365,3.01
1913,0,39.154,1.092,0,19.911,59.639,102.685,53.239,18.591,0.199,0.001,4.215
1914,0.163,3.569,1.721,8.871,13.545,82.404,383.025,161.729,173.215,15.229,0.315,0.097
1915,10.017,20.023,32.921,1.905,3.241,43.87,170.812,174.438,44.95,34.928,0.019,0.259
1916,0,11.489,0,1.328,2.767,73.154,274.72,353.86,97.055,14.464,0.628,0
1917,1.851,9.124,13.333,17.295,31.279,38.175,432.361,323.907,252.877,54.234,0,3.749
1918,16.774,0.028,3.892,0.001,2.541,30.542,66.98,177.949,58.418,0.199,0.495,0.045
1919,22.357,0.414,1.851,8.127,3.822,21.294,243.687,453.537,63.44,3.688,4.705,7.482
1920,6.693,18.221,6.295,0,7.386,86.104,326.051,82.215,74.121,0.199,0,0
1921,28.136,0.045,0,0.59,0,40.708,97.93,132.188,300.523,0.333,0,0
1922,14.037,0.472,0.631,1.976,0.03,62.758,225.281,242.888,212.846,0.94,0.645,37.897
1923,0.07,9.896,0.267,0.199,2.242,1.624,161.18,279.169,227.705,5.995,0.029,7.135
1924,14.449,11.316,0,0,0.992,9.315,176.19,258.908,302.907,9.787,1.582,28.777
1925,0.001,0,0,0,18.124,151.622,566.573,86.063,39.133,0.987,47.601,0
1926,9.65,5.526,28.41,7.628,24.73,24.207,227.01,322.532,139.341,1.628,0.193,0.027
1927,0.267,19.705,1.431,2.202,5.153,21.73,217.012,330.74,93.877,7.722,31.112,15.16
1928,4.79,25.593,0.059,0.806,2.643,22.603,215.125,89.819,72.903,76.907,13.919,35.419
1929,2.869,1.673,0,2.775,0.003,51.15,161.646,104.269,15.777,6.498,0,20.757
1930,9.301,7.286,0.103,0.943,3.577,105.938,440.674,212.231,55.083,28.801,0.478,0.844
1931,0.028,5.429,0.002,0.59,1.406,22.42,150.842,208.477,256.332,64.415,1.355,0
1932,0,1.358,11.946,2.794,1.418,21.9,133.919,303.201,175.441,1.498,0.163,0
1933,0.001,4.954,0.809,8.236,21.195,241.981,125.524,293.998,236.035,28.079,0.097,0.433
1934,12.34,0,14.338,0,0,102.509,119.342,216.03,88.166,0.225,1.522,36.088
1935,21.683,2.788,0.59,11.45,0.849,23.967,355.964,158.963,87.988,6.518,0.019,6.897
1936,0.8,5.292,15.894,0.335,5.828,232.564,221.064,357.87,85.075,0.2,27.595,14.419
1937,0,39.917,0.89,4.378,7.731,41.716,92.7,121.967,114.017,3.159,5.715,24.801
1938,8.791,0.207,0.25,0.887,4.342,33.191,340.866,130.668,21.44,8.315,0,0
1939,13.338,8.461,1.88,0.401,0,82.868,307.386,53.719,121.329,0.697,0.096,0.192
1940,15.013,14.79,7.234,7.731,9.786,35.781,110.417,260.453,37.875,1.105,4.327,3.332
1941,16.383,2.026,1.632,0.096,12.906,23.563,167.423,133.945,50.859,0.206,0,0.104
1942,18.056,10.47,0,3.076,3.27,30.572,422.314,328.814,307.509,0.208,0,4.325
1943,18.551,0,1.261,18.381,17.973,77.588,127.592,409.483,168.922,1.339,0,0
1944,19.47,15.268,32.653,24.009,0,22.906,166.16,234.969,77.679,1.584,0,0.262
1945,19.569,0,0,7.78,17.913,29.517,147.165,335.122,248.587,1.768,0,1.273
1946,0,3.463,0,1.45,13.59,49.678,262.02,311.914,8.764,4.736,2.488,5.078
1947,7.894,4.064,4.781,0.935,1.281,28.699,312.537,315.072,356.832,56.758,0.224,4.789
1948,39.728,10.413,0.007,1.57,5.701,10.548,348.792,242.726,195.948,23.364,9.435,0
1949,0.206,13.467,2.482,0.001,1.881,5.999,384.848,396.471,240.957,6.714,0,0
1950,0.856,0.235,5.067,0,15.89,7.246,230.392,315.966,174.907,0.247,0,2.904
1951,8.216,1.049,17.628,3.679,3.097,53.443,131.283,286.437,230.827,3.867,32.091,0
1952,0,14.387,5.077,6.79,3.504,52.705,191.064,612.088,13.368,0.199,0.001,32.848
1953,34.951,0.885,0,0.3,0.022,9.721,198.622,227.961,44.213,0.747,0,0.37
1954,12.558,33.312,6.747,0,0.001,3.602,271.925,246.005,162.233,51.669,0.111,0
1955,28.724,0.783,0.688,0.001,0.801,129.286,298.719,427.578,170.275,91.757,0,0.106
1956,3.615,1.998,18.985,0.579,0.268,73.183,441.434,212.779,42.947,103.889,3.165,16.665
1957,21.732,0,21.939,6.588,7.623,22.653,416.474,157.193,189.564,12.884,5.627,4.515
1958,2.667,4.781,2.213,0.145,1.014,3.2,433.205,343.6,272.354,32.793,0.824,4.671
1959,14.232,0.265,0,0.484,39.25,29.775,236.075,238.46,63.649,7.605,7.52,0
1960,1.86,0,27.219,0.149,11.895,14.56,272.283,511.939,82.162,74.606,0,8.75
1961,29.871,27.09,0.028,2.669,2.335,57.308,159.537,612.08,56.984,38.111,6.015,0.457
1962,22.934,0.629,8.937,2.194,0.676,14.523,253.342,257.447,196.68,0.199,0.436,1.217
1963,13.477,1.009,4.933,2.563,8.309,35.498,181.976,262.508,351.25,0.856,10.289,12.041
1964,0,0.215,0.746,0.198,11.827,4.788,437.045,320.604,308.187,0.767,0,4.558
1965,1.028,6.032,1.165,9.275,2.064,6.81,326.964,142.854,128.877,41.034,0,0.569
1966,0.028,2.928,0,0,31.015,79.687,161.778,375.623,20.336,0.2,44.478,0.677
1967,0.018,0,18.834,0.302,1.317,30.76,252.378,585.069,137.24,0.765,0,34.425
1968,26.56,3.819,5.533,0.096,0.004,22.781,267.068,197.41,46.557,37.454,0,0.318
1969,3.789,11.367,0.005,0.001,17.286,9.564,339.897,231.957,113.898,0.199,9.082,0
1970,26.18,30.454,3.439,1.111,24.197,81.296,123.433,408.733,170.81,1.484,0,0
1971,14.474,9.868,0.103,3.19,8.157,141.657,281.617,203.675,115.217,44.579,2.778,0
1972,3.161,17.266,0,0.006,0.071,24.635,71.475,286.551,130.62,5.288,4.021,5.998
1973,11.376,13.803,0,0,0.405,10.755,247.895,382.7,160.173,57.914,0,0.373
1974,0,0.692,0.001,1.525,9.425,6.15,105.768,120.533,17.028,78.237,0,0.107
1975,3,0.468,0.656,1.09,0.438,82.448,338.756,183.191,170.973,23.587,0,0
1976,1.151,2.284,1.072,1.693,2.182,112.987,180.417,287.096,96.994,0.199,22.623,0.144
1977,19.91,1.136,0.527,14.51,6.76,17.822,416.377,209.263,230.345,39.384,1.45,0.371
1978,1.913,15.291,29.007,2.277,0,117.194,221.583,181.284,169.154,0.848,0.486,12.9
1979,6.535,45.403,1.303,0.746,16.774,21.827,169.234,68.715,5.224,2.13,11.622,6.155
1980,0.144,4.108,17.675,0.59,2.535,63.273,222.97,318.667,20.049,15.448,2.779,38.201
1981,6.852,0.036,22.394,0,22.116,221.622,343.018,192.511,71.008,0.538,8.532,0.405
1982,19.572,4.697,18.965,5.171,18.4,19.828,135.896,449.451,40.723,1.096,50.84,12.292
1983,12.248,4.037,0,33.061,32.791,66.307,47.882,442.077,145.442,24.516,0,3.111
1984,2.041,1.971,0.88,38.719,2.059,67.59,152.051,274.446,110.539,1.747,0,0
1985,3.97,0,4.231,11.29,2.904,34.328,479.129,301.671,157.047,98.924,0,20.532
1986,8.986,18.646,7.418,0.001,24.743,84.668,168.765,111.807,65.344,42.902,0.001,18.962
1987,17.693,6.344,2.933,0,39.394,11.3,91.435,154.762,35.718,7.844,0,6.162
1988,4.526,1.455,12.531,15.73,2.827,80.661,251.077,276.372,50.083,1.961,0,1.026
1989,10.291,0,13.064,0.642,0.02,5.578,205.316,300.538,105.628,6.44,9.236,6.88
1990,0,22.559,0.123,1.056,18.152,85.455,286.722,332.677,287.124,0.273,0.001,9.612
1991,1.208,15.511,3.047,2.98,24.769,7.874,18.932,306.305,106.804,0.199,13.635,31.017
1992,14.779,8.411,12.98,3.298,15.613,16.604,77.483,215.265,130.537,55.87,29.737,0
1993,6.42,0.398,10.54,2.915,12.379,91.843,262.868,159.347,210.501,5.979,0,0
1994,18.24,16.146,11.041,5.84,8.202,71.19,560.297,280.126,32.057,0.628,0,0
1995,27.038,0.988,2.121,11.084,0.116,27.027,152.836,318.243,133.338,1.444,0.848,1.291
1996,6.301,1.776,1.441,2.849,17.311,126.496,177.172,311.109,315.667,32.221,0,0
1997,2.264,0,2.975,1.83,21.834,96.87,72.191,202.213,181.005,47.373,33.608,14.76
1998,0,8.024,18.545,10.714,10.111,86.826,164.795,265.292,37.776,45.728,1.483,0.3
1999,8.71,10.88,0,0,3.033,150.69,197.424,298.358,239.359,66.214,0,1.522
2000,7.808,2.764,1.856,2.415,8.157,14.215,253.439,153.978,68.994,0.248,0.647,0
2001,6.384,5.865,2.974,15.203,29.436,100.652,148.902,261.182,50.488,19.169,0.346,0
2002,10.11,12.829,1.146,0.879,8.294,34.064,28.751,191.644,170.161,14.602,2.543,6.386
