Year,Jan,Feb,Mar,Apr,May,Jun,Jul,Aug,Sep,Oct,Nov,Dec
1901,21.889,11.726,5.117,0.02,7.79,20.227,115.421,232.82,9.141,3.156,0,6.281
1902,0.762,0.002,0.258,1.365,1.932,60.81,284.666,142.949,97.306,0.986,0.273,0.03
1903,3.645,1.959,6.065,0.002,2.928,2.665,134.599,230.133,47.167,23.828,0,0
1904,5.569,0.433,10.67,0.001,9.728,61.752,304.689,335.773,65.931,1.146,14.973,11.674
1905,18.076,19.58,7.596,0.922,1.058,20.102,118.363,10.934,72.639,0.123,0,1.141
1906,0.56,25.63,15.452,0.001,0.903,123.242,143.287,98.83,197.758,0.127,0,8.277
1907,7.567,51.272,5.345,26.239,9.652,11.818,65.194,362.445,1.163,0.123,0,0
1908,24.326,1.995,0.02,1.668,9.277,23.993,461.882,410.303,38.961,5.256,0.226,1.138
1909,18.536,5.792,0,12.668,23.389,71.436,346.168,133.852,103.048,0.29,0,15.982
1910,10.313,4.517,0.236,3.335,0.273,38.57,164.254,199.828,127.891,14.831,0.008,0.001
1911,23.595,0,8.408,0.005,0,28.894,32.772,66.516,261.613,5.796,50.134,6.666
1912,24.012,5.127,7.632,4.326,2.41,16.854,204.173,237.014,178.55,1.751,6.5,2.3
1913,0.288,43.382,1.367,0.403,22.405,65.985,91.829,49.497,16.918,0.124,0.007,3.814
1914,0,4.733,0.557,11.086,13.932,66.889,338.325,139.372,188.718,11.876,4.294,0.02
1915,11.881,23.791,33.893,5.32,2.958,36.481,136.513,139.247,49.863,18.43,0,0.023
1916,0,16.001,0,1.642,3.714,60.649,234.439,349.355,101.2,9.15,0.094,0
1917,2.51,9.982,11.416,19.141,33.435,50.273,391.417,293.994,228.679,40.377,0,4.248
1918,14.751,0,4.547,0.72,1.829,21.268,53.604,172.443,41.523,0.125,0.152,0.001
1919,24.282,0.243,2.214,9.146,4.359,14.155,210.918,385.886,47.59,0.541,4.625,6.749
1920,6.909,19.367,7.335,0.001,9.613,86.174,295.194,84.813,52.498,0.167,0,0
1921,25.718,0.001,0.001,1.049,0,29.151,85.971,163.67,252.535,2.77,0,0
1922,12.827,0.22,0.502,1.744,0.096,55.708,189.051,216.612,187.105,1.335,0.173,30.21
1923,1.171,19.65,0.213,0.065,3.21,1.132,169.385,280.84,164.681,4.048,0.018,5.905
1924,16.851,14.653,0.238,0.002,2.816,12.167,146.24,250.694,276.411,13.228,1.748,23.508
1925,0.87,0,0.001,0.004,19.046,129.805,477.338,86.24,17.409,0.699,45.049,0
1926,10.577,5.336,28.383,8.766,26.529,18.696,231.185,307.234,113.585,0.131,0.958,0.001
1927,0.002,22.768,2.856,2.31,8.148,17.704,195.841,319.567,66.295,10.856,22.714,13.228
1928,6.585,30.119,1.443,2.116,3.382,24.184,173.233,81.003,57.745,48.459,16.692,26.466
1929,1.174,0.957,0.002,4.936,0.156,40.381,130.695,96.393,9.332,3.251,0,16.245
1930,13.892,10.522,0.003,0.837,5.205,94.935,397.854,170.529,43.426,21.08,0.179,0.175
1931,0.524,7.956,0.898,1.428,2.312,15.439,157.728,198.665,200.604,46.831,0.001,0
1932,0,0.6,11.837,3.614,2.013,18.235,107.706,268.473,180.867,0.196,0.001,0.006
1933,0.153,7.952,1.21,7.572,26.693,221.449,118.538,360.201,227.62,21.618,0.02,0.161
1934,13.039,0.001,17.579,0,0.427,88.482,144.673,220.66,51.213,0.123,0.348,27.659
1935,22.462,7.918,1.216,12.263,0.84,24.903,306.699,134.157,104.358,5.105,1.305,5.27
1936,0.89,7.483,14.987,0.176,5.242,221.767,196.236,313.845,86.584,0.17,21.066,15.772
1937,0.001,50.063,0.574,5.927,8.353,35.072,103.759,86.585,114.665,0.522,4.53,17.249
1938,13.019,0.413,1.937,0.824,3.079,31.225,280.757,99.477,11.825,2.777,0.001,0
1939,10.334,13.762,2.83,0.102,0.003,76.308,242.871,56.176,96.275,0.154,0.02,0.075
1940,18.167,21.979,5.829,6.96,8.49,26.703,123.758,242.366,23.354,0.858,3.53,2.333
1941,19.435,1.586,1.454,0.02,15.616,27.411,128.405,127.962,43.709,0.449,0.001,1.477
1942,15.074,11.804,0.001,5.024,4.756,26.19,405.487,283.93,248.827,0.123,0,4.17
1943,15.759,0.002,1.018,19.555,18.434,64.447,144.21,323.868,150.749,0.285,0,0
1944,21.109,22.084,33.03,29.41,0,28.485,187.705,163.268,91.743,12.348,0,0
1945,17.474,0,0.003,7.018,20.473,24.891,153.472,328.389,204.509,1.957,0,0.004
1946,0,3.637,0.001,0.625,15.396,53.511,236.59,278.981,16.339,2.604,0.428,3.662
1947,6.906,4.667,4.847,0.717,2.004,20.743,248.037,251.22,320.501,41.218,0.002,4.178
1948,38.11,15.589,2.162,1.287,6.217,3.904,304.725,252.856,179.763,15.374,5.78,0.001
1949,1.243,15.374,2.531,0.008,2.922,4.35,389.794,318.481,192.443,2.27,0.001,0.001
1950,1.716,0.337,4.633,0,18.178,6.952,265.15,268.913,160.348,0.133,0,1.227
1951,8.9,0.154,19.335,5.878,3.811,41.426,118.645,236.283,181.715,3.034,33.119,0
1952,1.032,15.432,8.271,7.084,6.575,40.835,167.033,546.933,5.853,0.123,0.011,24.662
1953,36.8,0.005,0.001,0.737,0.56,11.655,193.018,231.103,43.516,0.511,0,0.002
1954,12.784,41.687,6.567,0,0.098,4.4,258.39,189.232,126.946,38.757,0.774,0
1955,26.135,0.149,1.581,2.749,1.939,103.305,244.372,385.531,168.296,68.434,0,0.552
1956,6.264,1.473,17.948,0.646,0.097,54.564,411.529,201.719,24.888,76.953,0.476,12.351
1957,23.929,0,21.276,6.3,8.869,22.906,372.483,142.107,173.99,14.327,8.533,4.85
1958,4.636,4.71,2.485,0.213,1.435,2.292,419.514,305.619,262.493,17.723,3.624,4.305
1959,14.969,0.267,0.261,0.202,41.342,27.969,207.727,216.935,65.905,0.87,7.463,0
1960,1.592,0,24.885,0.928,12.243,15.464,246.361,450.162,60.116,57.85,0,5.859
1961,24.653,33.807,0,3.566,4.984,53.753,154.28,588.01,59.277,33.544,4.858,0.855
1962,22.086,1.827,8.202,0.346,0.296,14.354,236.106,206.37,166.601,0.123,0.843,2.391
1963,10.334,2.218,4.09,2.387,9.636,41.121,132.968,260.559,303.273,1.015,9.094,11.195
1964,0.004,0.147,0.087,0.639,14.404,6.151,444.139,340.752,252.476,0.663,0,5.225
1965,2.023,7.385,0.527,9.33,2.666,5.287,298.26,144.859,124.338,23.813,0,0.02
1966,0.362,6.153,0.043,0.144,38.482,78.255,145.028,350.234,28.464,5.066,34.347,0.034
1967,0,0.31,20.432,0.166,1.737,28.934,239.621,558.964,128.084,6.478,3.087,30.454
1968,22.624,4.243,5.724,0.168,1.053,18.778,265.429,196.004,32.254,21.632,0,0.002
1969,3.957,12.437,1.791,0.152,20.11,15.151,293.224,202.238,114.972,0.124,7.193,0
1970,25.617,35.865,8.592,0.479,29.471,78.477,101.93,371.455,141.314,0.895,0,0
1971,13.087,11.962,0.005,3.924,12.782,115.65,255.538,222.794,108.173,25.043,2.279,0
1972,3.229,17.711,0.044,1.651,0.402,24.656,103.761,300.852,96.034,5.511,3.315,4.452
1973,12.659,14.007,0.006,0,3.425,12.721,207.748,378.499,128.864,39.804,0,0.688
1974,0.005,0.251,0.437,0.632,10.898,9.271,147.471,99.615,11.446,50.87,0,1.322
1975,4.843,0.907,1.177,0.629,0.469,72.676,345.977,204.715,189.002,25.725,0,0
1976,0.798,6.695,2.106,2.161,9.918,96.129,206.248,303.006,89.441,0.126,15.703,0.174
1977,21.026,0.792,0.172,19.527,10.548,27.639,406.183,174.598,193.942,27.002,0.376,1.312
1978,0.405,15.019,25.73,3.993,0.001,101.94,228.32,209.798,160.069,0.253,1.881,9.169
1979,5.936,52.241,3.408,1.239,19.275,29.81,162.895,72.877,10.737,3.59,6.284,5.267
1980,0.555,5.286,17.873,0.742,4.306,56.085,236.498,245.009,23.133,10.529,2.709,26.214
1981,8.632,2.275,20.954,0,23.342,195.755,293.571,145.464,68.836,0.359,20.212,1.592
1982,16.691,5.249,20.645,15.727,29.65,25.73,156.215,388.849,17.855,7.121,40.657,10.352
1983,15.857,7.152,0.959,37.852,40.048,58.652,87.709,370.744,122.626,21.022,0,2.926
1984,0.237,0.81,1.243,40.437,2.332,52.993,147.664,283.77,107.207,0.383,0,0.003
1985,2.662,0,3.814,13.143,4.419,33.113,461.466,287.963,119.953,68.344,0,18.464
1986,9.914,22.667,7.272,0.789,27.039,69.932,144.391,110.168,58.765,25.751,0.009,15.531
1987,17.923,7.77,4.155,0.546,48.06,11.508,76.263,143.543,32.393,3.06,0,5.07
1988,4.16,4.159,15.032,14.568,3.194,68.177,237.957,316.215,70.531,0.724,0,0.246
1989,17.89,0.569,14.505,0.576,0.336,4.647,163.172,261.86,98.237,3.905,9.422,4.483
1990,0,27.839,0.444,1.125,22.745,70.743,233.78,321.873,254.843,0.134,0.576,10.663
1991,0.598,21.833,2.545,2.13,29.96,15.735,43.656,334.39,95.537,0.123,15.143,25.548
1992,14.003,12.992,10.834,4.247,14.516,13.854,76.378,204.871,112.037,33.166,32.621,0
1993,6.921,1.92,9.809,3.757,13.609,97.382,282.677,161.267,197.385,2.59,0,0
1994,18.426,15.831,10.339,6.639,10.961,58.809,530.765,266.732,21.303,0.143,0,0.152
1995,29.494,4.457,5.328,10.006,0.134,24.568,136.878,366.731,126.545,1.522,0.346,0.046
1996,4.756,5.226,1.875,1.67,20.739,120.985,170.907,316.636,258.375,20.3,0,0
1997,3.016,0.31,3.47,7.452,28.824,96.628,71.816,193.97,145.01,38.278,30.78,11.53
1998,0.003,13.213,17.622,11.817,9.86,84.406,144.276,243.92,78.864,37.79,5.495,0.299
1999,13.538,9.018,0,0,4.023,128.542,164.788,246.639,179.63,43.323,0,0.701
2000,9.974,11.61,3.833,2.507,10.362,26.762,251.214,148.685,48.065,0.133,1.165,3.582
2001,6.879,8.111,2.777,19.53,41.362,94.879,137.008,263.232,41.943,10.362,0.001,0.001
2002,10.085,14.483,1.274,0.992,7.221,33.17,19.347,170.547,161.667,6.088,1.51,6.154
