Year,Jan,Feb,Mar,Apr,May,Jun,Jul,Aug,Sep,Oct,Nov,Dec
1901,48.447,10.351,9.343,0.002,4.45,22.932,246.133,383.295,81.99,5.743,0.1,4.668
1902,5.775,2.383,0,2.224,1.77,44.518,425.952,167.206,190.324,2.656,51.719,0.258
1903,5.21,1.273,3.224,0.055,7.319,17.18,190.516,314.329,216.615,52.412,0.1,0
1904,5.848,4.22,19.179,0,6.093,86.729,486.952,359.563,49.191,15.369,16.222,17.484
1905,15.811,12.177,7.412,0.307,0.255,22.905,187.977,138.87,146.062,0.2,0.1,1.372
1906,1.446,15.421,8.637,0,2.183,147.025,333.63,143.666,309.485,0.698,0.1,4.732
1907,7.755,47.87,3.756,12.878,4.993,40.299,163.094,469.423,3.193,0.2,4.148,0
1908,23.918,1.494,4.425,1.429,2.228,33.838,528.077,462.613,44.375,5.54,2.288,1.175
1909,15.873,7.562,0,8.4,6.495,154.03,389.436,227.861,109.874,0.2,0.1,20.251
1910,9.01,1.611,0,1.765,1.697,76.32,198.663,274.444,214.709,21.654,29.445,0
1911,24.14,0,15.742,0.462,0,82.684,116.585,150.929,340.281,18.613,82.265,5.629
1912,17.814,6.678,5.054,1.184,0.419,21.467,303.459,271.279,177.076,0.2,50.373,2.272
1913,0.049,30.579,5.359,0,17.48,111.991,139.807,118.728,32.508,0.2,0.1,10.666
1914,1.111,3.057,11.09,4.201,12.892,94.081,481.51,195.58,155.801,7.95,0.55,0.054
1915,11.146,24.854,35.133,8.176,4.63,57.918,254.413,327.564,118.575,39.469,0.924,0.936
1916,0.049,17.006,0,1.418,1.486,106.618,298.207,399.618,163.908,42.7,6.602,0
1917,9.868,23.446,10.897,6.207,25.254,89.514,464.814,374.617,283.333,33.733,0.1,4.275
1918,12.565,1.182,1.783,0,4.041,94.722,140.638,243.912,89.252,0.2,6.999,1.479
1919,53.013,2.168,0.898,13.523,8.673,38.098,345.17,592.675,80.095,25.291,8.879,5.828
1920,7.186,11.12,5.197,0,16.333,113.892,476.316,116.381,86.706,0.252,0.1,0
1921,32.443,1.876,0,0.142,0,115.823,132.608,253.782,310.855,1.432,0.1,0
1922,27.518,1.84,0.537,0.922,0.747,97.682,402.431,275.735,248.231,0.464,10.435,27.679
1923,3.072,7.92,2.88,1.04,4.714,8.476,367.175,426.001,270.542,16.029,1.544,9.782
1924,17.189,6.228,0,0,1.701,22.512,283.517,333.035,298.225,9.348,3.352,19.931
1925,0.049,0,0,0,20.808,159.84,701.094,196.648,115.243,3.51,71.271,0
1926,9.009,3.914,27.724,6.689,20.981,25.361,286.858,385.763,259.367,14.258,0.245,0.882
1927,1.803,17.582,11.367,4.655,1.688,40.838,412.991,251.941,120.003,31.819,99.16,13.67
1928,8.582,36.301,2.083,3.565,1.571,36.909,372.816,112.36,95.59,53.928,14.739,48.216
1929,15.072,3.854,0,4.765,0,61.332,393.692,297.443,52.846,7.447,0.1,25.378
1930,7.904,7.926,0.431,3.356,1.536,112.543,584.004,217.107,98.889,17.519,5.923,4.107
1931,1.185,9.525,0,0.142,1.636,37.539,247.663,287.143,369.244,76.989,50.883,0
1932,0.049,7.124,10.837,3.78,0.747,25.877,447.171,295.985,207.686,8.974,1.406,0
1933,0.049,6.922,3.979,11.21,16.611,258.018,211.007,285.503,305.157,22.475,0.627,0.205
1934,15.78,0,12.003,0,0,160.603,269.318,381.816,325.406,1.204,23.33,30.973
1935,20.913,8.602,0.289,14.514,2.115,78.711,466.619,278.877,190.772,4.684,0.912,16.794
1936,1.113,13.832,10.956,4.073,3.076,243.626,330.752,313.083,201.504,0.277,50.019,13.602
1937,0.049,42.994,1.489,9,3.989,124.993,258.301,223.305,133.536,19.886,12.322,15.909
1938,26.111,1.109,0.546,0.74,5.362,139.693,402.979,199.494,87.251,51.13,0.1,0
1939,21.039,6.544,1.775,1.78,0,113.843,461.525,166.303,160.054,2.989,0.157,0.279
1940,14.491,13.312,9.386,4.785,13.529,64.52,319.379,331.891,95.206,1.744,6.358,6.235
1941,23.202,7.334,6.048,0.002,5.114,53.263,208.131,188.182,86.539,0.2,0.1,0
1942,38.52,22.117,0.502,3.482,0.931,72.205,593.602,354.015,274.955,0.687,0.1,9.142
1943,34.399,0.264,0.562,10.721,12.279,90.659,273.018,442.154,181.69,12.183,0.1,0
1944,23.051,21.395,33.033,15.774,0,45.069,486.652,391.058,96.438,12.001,0.1,2.87
1945,38.3,0.104,0,10.359,7.452,110.707,353.535,325.611,259.507,4.642,0.1,6.295
1946,0.049,7.455,0,8.414,5.109,108.931,358.397,432.646,26.062,15.3,39.105,7.032
1947,24.184,10.59,5.597,1.554,0.757,56.682,535.365,432.514,375.819,33.336,2.119,2.943
1948,60.947,7.299,0,1.464,2.351,82.397,445.76,345.141,211.883,19.203,55.399,0
1949,0.049,11.216,1.188,0,1.605,40.3,400.3,373.456,363.632,33.326,0.1,0
1950,12.991,2.074,10.444,0,5.038,27.212,326.362,391.123,159.789,0.234,0.1,11.928
1951,11.306,14.997,13.699,1.594,6.814,77.088,303.28,331.949,255.663,2.094,33.881,0
1952,0.128,18.605,7.802,3.059,1.418,124.355,316.662,538.52,40.615,0.2,0.1,25.305
1953,33.155,4.507,0,1.302,0.384,33.227,345.439,266.154,101.003,4.123,0.1,1.713
1954,27.014,27.365,6.804,0,0,36.7,280.684,279.472,295.796,36.428,0.1,0
1955,37.063,4.046,0.645,0,0.802,158.414,330.112,469.809,271.113,79.626,0.1,0.205
1956,10.848,4.114,10.381,0.103,1.921,133.439,630.93,320.997,138.095,70.856,40.847,13.035
1957,26.994,0.104,28.297,4.11,5.95,48.728,405.794,252.41,202.58,7.749,5.928,3.283
1958,5.523,3.295,7.199,0.023,0.205,28.82,523.64,352.942,261.515,72.015,0.398,3.533
1959,26.403,3.203,0,3.091,28.973,52.263,295.356,415.561,185.458,25.382,7.791,0
1960,24.566,0,17.196,1.164,3.526,34.314,352.414,677.857,79.036,77.69,0.1,5.629
1961,40.045,15.756,0.902,1.67,4.825,79.871,305.292,560.86,176.383,74.184,21.874,1.292
1962,23.928,8.904,6.159,12.85,1.521,24.528,356.355,451.732,330.918,0.2,0.454,4.772
1963,23.302,6.698,4.406,5.58,4.862,68.486,326.744,302.799,380.792,1.285,13.124,8.868
1964,0.049,1.282,9.415,0.462,13.218,39.033,425.948,362.326,285.189,1.665,0.1,2.792
1965,6.241,4.26,4.496,10.691,1.539,21.224,311.611,171.439,185.026,26.2,0.1,7.458
1966,1.05,3.13,0,0,9.02,131.125,244.096,289.056,24.183,0.252,84.031,2.751
1967,0.605,0,24.954,0.517,0.361,43.756,311.356,540.563,198.306,0.223,0.1,53.107
1968,27.164,2.78,6.046,0.002,0,52.973,413.336,186.993,51.923,39.746,0.1,1.682
1969,3.52,6.809,0.502,0,12.161,12.069,517.83,345.663,136.433,0.2,62.805,0
1970,35.501,31.285,12.438,0.207,11.294,104.948,180.928,417.619,254.298,5.979,0.1,0
1971,18.2,7.126,0.551,4.111,10.067,235.914,354.652,282.381,154.581,77.877,2.963,0
1972,6.129,13.922,0,0,1.529,26.428,99.72,397.121,167.293,41.612,18.361,5.576
1973,9.44,7.296,0,0,2.448,9.591,478.984,474.37,196.983,40.639,0.1,8.686
1974,0.049,0.86,0.274,0.896,4.853,39.787,236.029,302.805,31.722,58.643,0.232,0
1975,6.075,7.806,2.784,0.83,0.08,132.682,366.282,270.375,216.08,24.952,0.1,0
1976,10.779,1.118,2.34,6.935,5.906,128.406,256.875,357.927,163.462,0.2,52.853,0.259
1977,21.247,2.398,2.107,6.195,7.063,140.628,442.988,298.497,220.449,32.794,21.771,1.878
1978,6.605,44.785,25.163,5.645,0,174.646,282.335,378.144,217.53,1.64,0.977,25.606
1979,29.767,34.723,1.798,0.571,15.796,51.55,297.525,131.452,14.673,0.71,34.115,4.193
1980,0.399,3.302,8.794,0.142,0.744,141.543,351.768,404.151,50.077,8.955,2.963,33.99
1981,7.464,1.301,13.399,0,10.188,193.863,321.619,254.842,94.674,0.406,12.356,6.459
1982,70.526,6.302,12.61,3.631,8.148,39.226,203.007,643.621,139.206,2.158,100.217,9.345
1983,14.244,2.436,0.264,12.295,14.952,90.558,266.05,416.834,327.767,39.099,0.1,2.366
1984,32.694,16.329,0.167,12.778,2.529,100.325,155.574,329.491,109.518,3.652,0.1,0
1985,12.199,0,1.85,9.311,6.14,59.909,493.079,365.602,206.102,97.388,0.1,13.217
1986,13.189,27.384,8.751,0,16.039,108.719,252.432,172.176,80.425,28.257,0.1,26.545
1987,23.784,19.516,3.088,0,17.172,24.692,150.414,252.662,94.449,15.395,0.1,10.863
1988,4.652,2.153,8.056,7.794,1.537,133.978,287.188,263.389,71.496,2.471,0.1,5.551
1989,8.523,0,13.563,0.23,0.384,44.098,262.144,316.627,98.43,5.549,12.579,11.124
1990,0.049,22.375,1.395,1.287,14.165,215.497,482.235,407.833,344.641,2.502,0.1,6.546
1991,2.302,11.86,7.289,10.574,10.841,45.227,69.87,328.073,93.04,0.2,7.134,25.482
1992,21.963,8.255,6.158,1.06,16.742,17.011,79.383,233.313,229.755,35.33,35.472,0
1993,5.928,4.559,6.924,0.984,8.597,95.091,236.852,161.976,189.776,11.798,0.1,0.439
1994,24.368,17.196,15.523,3.682,9.228,159.959,671.647,324.823,72.056,4.87,0.1,0
1995,37.549,6.677,12.243,7.147,0.463,58.722,242.027,256.939,193.287,5.811,8.862,12.126
1996,23.095,6.072,3.535,11.655,7.631,133.635,232.446,360.121,239.712,32.94,0.1,0
1997,4.075,0,1.718,2.372,11.609,98.346,181.646,242.339,179.638,41.71,87.967,31.687
1998,0.049,3.935,20.737,3.674,5.778,105.547,218.225,343.135,135.215,27.942,29.513,0.2
1999,13.299,34.98,0,0,6.261,122.566,343.087,328.551,285.811,60.23,0.1,1.717
2000,7.143,2.269,0.898,0.76,8.869,49.896,469.672,157.315,103.07,0.289,0.289,0
2001,9.367,3.721,4.053,5.469,20.563,193.33,258.634,231.463,51.052,26.848,3.942,0
2002,10.998,24.36,1.747,1.218,9.147,57.52,63.728,286.255,171.171,20.323,11.099,5.624
