Year,Jan,Feb,Mar,Apr,May,Jun,Jul,Aug,Sep,Oct,Nov,Dec
1901,55.484,6.984,3.834,9.675,20.738,135.487,186.873,322.255,250.924,17.062,2.795,1.076
1902,1.599,0.732,5.324,11.918,13.782,118.689,438.307,196.976,326.703,18.213,0,0
1903,6.925,1.328,2.913,6.634,31.607,244.929,151.127,343.944,179.152,98.203,0,0.061
1904,2.71,0.153,17.18,2.729,125.595,64.17,276.568,486.381,130.318,118.302,7.672,4.685
1905,14.973,19.87,17.887,9.948,13.362,26.992,493.419,291.526,361.487,10.066,0,0.938
1906,6.171,37.306,13.198,3.05,25.103,142.318,406.617,286.998,244.652,56.117,0,0.06
1907,1.45,30.537,17.069,28.895,18.524,167.907,235.673,356.229,118.795,20.715,0,0.002
1908,9.712,23.776,3.477,2.774,9.568,83.16,310.989,294.292,109.427,42.266,0.152,1.115
1909,5.774,4.551,0,43.868,7.485,268.971,467.06,417.858,186.495,9.306,0,8.196
1910,3.301,2.316,10.413,7.901,26.214,228.283,407.769,332.12,236.814,46.628,9.154,0.194
1911,15.73,0.003,17.822,10.115,12.929,235.164,244.367,304.787,282.967,127.957,16.157,0
1912,5.484,6.079,3.191,19.529,32.125,128.109,351.638,332,96.413,14.01,12.207,0.631
1913,0.427,34.254,20.568,2.655,46,398.21,221.996,303.381,141.53,53.557,1.695,13.422
1914,0.848,20.616,13.484,31.545,58.958,79.501,364.999,384.093,220.369,13.193,0.041,0.002
1915,3.877,44.102,25.507,8.341,14.052,186.248,336.261,272.022,269.111,109.395,3.785,1.067
1916,0.04,12.848,1.128,5.431,17.622,215.619,423.321,369.041,175.775,106.969,0.909,0
1917,2.954,18.675,6.312,5.176,70.664,230.61,311.845,477.964,205.896,144.139,0,2.338
1918,0.547,0.003,4.789,9.79,15.296,203.413,236.722,360.415,156.278,10.063,4.878,0.28
1919,27.796,3.053,7.319,12.272,44.822,83.802,338.894,422.59,203.188,92.441,0.526,0.433
1920,0.361,24.508,17.194,3.334,23.549,136.027,363.391,241.589,117.759,22.166,0,0.041
1921,22.845,0.408,1.057,3.359,7.547,137.081,280.218,342.044,153.118,13.624,0,0.002
1922,16.068,10.307,0.874,8.976,4.373,326.477,486.63,401.704,343.367,53.258,1.004,18.858
1923,1.31,38.727,1.147,2.232,7.587,90.776,252.675,472.971,232.69,60.088,4.152,2.294
1924,3.614,4.365,2.175,16.516,16.221,131.661,367.592,240.845,338.922,108.915,20.929,2.553
1925,8.41,0.041,3.576,3.375,57.279,131.036,410.416,482.809,300.972,21.71,6.705,0
1926,13.809,0.831,34.099,13.995,60.73,42.951,522.731,291.994,188.773,41.717,2.36,3.023
1927,16.796,20.384,21.877,3.872,17.446,80.921,280.478,447.598,146.652,101.932,21.833,0.288
1928,23.56,16.63,1.955,19.35,20.57,147.795,458.585,173.171,125.392,90.801,2.581,4.94
1929,28.861,0.494,3.005,7.699,13.49,207.902,405.53,356.201,70.776,172.377,0,18.1
1930,13.239,7.652,4.501,8.317,15.234,122.017,302.924,249.283,202.867,35.639,7.545,14.316
1931,0.961,19.029,10.616,2.941,11.721,78.679,543.82,321.1,233.68,96.142,2.065,0.85
1932,0.04,5.336,2.696,3.837,32.461,168.649,114.067,345.892,157.087,30.016,22.518,9.9
1933,18.795,15.457,2.419,30.348,40.685,152.422,551.086,388.858,154.463,67.208,0,0.002
1934,25.516,13.627,2.149,8.418,6.98,192.612,369.832,304.307,208.83,36.756,1.04,2.363
1935,7.804,16.628,2.61,12.913,12.49,154.014,256.374,447.474,197.395,20.715,2.358,3.063
1936,2.786,10.188,10.639,10.571,33.731,282.23,606.858,320.343,280.853,68.68,1.01,22.059
1937,0.308,37.548,1.823,26.922,22.928,104.439,231.913,319.375,210.689,85.894,0.152,1.626
1938,16.629,12.451,2.857,11.928,35.822,437.452,368.507,316.558,166.875,39.121,0.341,0
1939,4.422,25.582,7.674,9.471,12.238,199.08,339.557,260.877,215.238,35.838,0,0.002
1940,2.769,34.89,27.998,10.8,18.457,117.528,503.056,363.531,173.475,13.781,0,5.796
1941,9.879,5.544,6.773,2.941,24.991,123.522,242.195,370.353,189.888,39.24,0.341,1.301
1942,38.444,24.872,4.871,11.868,10.859,164.772,261.268,338.103,268.806,9.687,0,5.36
1943,13.144,10.092,2.357,33.225,24.804,124.682,232.706,553.534,248.692,24.443,0,0.002
1944,20.679,16.242,25.958,8.79,8.364,237.892,194.695,366.788,148.4,44.314,0.152,0.482
1945,42.214,12.206,1.619,7.728,16.67,100.085,295.774,171.484,209.281,116.889,0,5.486
1946,0.041,21.583,10.735,20.405,17.175,114.109,492.06,335.669,232.56,55.037,12.603,2.239
1947,21.073,8.466,12.697,2.238,15.983,71.537,499.885,281.177,321.931,55.086,0.883,0.366
1948,5.743,11.219,3.606,5.217,25.399,132.059,436.713,388.789,274.131,57.677,5.7,0.193
1949,3.411,46.953,7.123,10.769,52.806,272.357,468.75,419.912,203.199,107.12,0.219,0.174
1950,8.093,7.756,24.831,2.238,10.973,247.419,282.529,422.944,151.764,18.863,0.152,2.838
1951,6.676,4.051,21.051,26.032,11.46,132.759,461.538,375.945,200.054,32.533,16.208,0
1952,1.615,11.567,14.156,5.756,18.769,364.38,253.044,288.17,178.772,29.121,2.579,0
1953,48.561,5.029,1.413,7.431,7.181,202.951,475.193,331.263,219.757,8.85,0,1.152
1954,14.151,13.599,5.358,5.05,15.193,128.654,381.772,311.726,227.284,27.458,0.002,0.068
1955,12.684,12.728,2.435,10.212,6.768,188.952,667.226,200.152,152.392,118.336,0,2.8
1956,18.314,4.541,7.608,13.445,8.785,272.383,193.233,313.87,312.837,133.65,28.965,9.409
1957,10.985,1.555,24.708,2.563,3.323,165.336,371.805,297.655,98.534,1.133,1.004,7.183
1958,21.728,3.57,28.763,9.058,2.291,224.073,235.167,291.405,138.221,37.772,0.664,2.529
1959,68.821,2.297,0.158,0.489,62.096,129.084,228.654,380.591,304.94,174.454,3.583,0
1960,4.702,0,8.792,2.56,1.78,98.45,326.218,449.261,178.217,49.873,0,0.191
1961,14.791,20.589,0,0.45,7.772,176.256,313.644,366.983,239.884,62.699,4.877,2.889
1962,21.608,9.902,6.874,31.167,6.292,131.858,285.503,355.755,367.001,0.792,1.525,5.801
1963,8.019,2.181,28.429,13.427,48.217,178.044,443.115,345.814,179.325,50.912,12.095,1.313
1964,0.992,1.355,2.292,8.021,12.084,101.387,470.024,341.873,180.159,13.196,0,1.26
1965,1.457,3.181,13.99,38.811,6.375,55.072,338.496,179.814,101.467,35.805,3.313,0.589
1966,17.408,18.726,0.038,0.04,1.432,104.262,195.978,192.55,62.767,2.577,23.19,6.36
1967,0.77,0.36,20.164,9.951,12.328,58.15,305.231,488.006,185.554,7.07,1.799,15.201
1968,22.759,4.261,2.633,5.733,7.291,145.359,314.195,248.271,96.367,82.363,0.239,4.711
1969,11.902,7.463,2.06,10.701,50.799,112.138,505.602,266.338,176.041,3.602,9.183,0
1970,17.169,33.397,3.957,2.422,53.215,241.529,396.139,275.094,370.519,42.025,0.407,0
1971,7.62,10.107,4.619,33.463,77.9,308.725,256.812,392.172,165.1,115.439,0.379,0
1972,13.161,29.871,4.777,12.687,11.531,41.046,178.864,307.29,191.175,162.671,12.694,0
1973,23.161,8.592,3.639,3.826,17.547,123.564,358.879,437.714,238.357,131.237,2.065,0
1974,8.988,2.561,1.499,3.943,14.53,122.565,455.601,215.509,175.464,24.032,0.673,2.298
1975,30.515,9.683,13.621,7.777,15.039,210.819,404.959,307.93,276.926,40.29,0,0
1976,23.643,11.219,1.599,14.743,20.854,93.108,212.727,180.532,369.275,2.498,0.564,0
1977,12.58,11.116,1.325,25.924,47.303,142.042,374.686,198.908,134.321,76.348,5.033,12.013
1978,16.682,32.515,16.697,16.014,7.733,153.182,206.703,272.837,261.749,82.882,0.98,4.955
1979,15.952,9.466,2.079,13.515,6.847,124.43,395.792,229.479,80.483,10.535,32.028,7.23
1980,0.889,4.855,9.253,3.54,12.463,321.753,542.764,482.158,185.751,10.668,0.107,7.993
1981,22.797,4.018,9.187,8.689,27.369,149.158,441.7,426.425,258.363,2.548,17.183,2.64
1982,38.302,12.289,27.874,9.589,65.083,140.175,220.54,377.954,389.332,15.508,15.67,4.068
1983,12.604,3.583,5.991,27.768,72.234,145.441,373.796,229.906,210.503,92.083,0,5.282
1984,25.563,20.569,1.582,17.58,6.81,160.685,258.411,293.034,288.391,37.093,0.253,2.399
1985,17.175,2.166,0.817,16.095,15.048,103.245,305.691,247.711,325.282,146.553,0.341,12.607
1986,6.445,16.209,4.469,10.784,82.915,129.393,374.018,335.947,297.063,14.474,0.48,17.723
1987,11.225,11.988,7.121,12.396,35.804,109.931,295.654,304.631,196.359,136.229,0,3.495
1988,8.874,10.024,15.141,5.651,33.906,223.553,335.125,333.967,122.813,22.604,2.324,26.453
1989,12.442,11.814,5.546,6.459,56.757,142.319,350.072,211.812,191.268,29.041,2.293,2.049
1990,0.152,12.037,4.751,13.295,38.902,79.832,348.989,215.215,255.899,20.212,0.038,2.202
1991,14.253,6.504,8.56,14.955,26.5,40.318,93.648,260.538,138.07,2.005,1.512,13.291
1992,17.829,5.106,1.378,6.559,32.394,53.984,223.129,175.75,164.86,60.922,6.653,0
1993,11.566,0.33,7.927,9.042,42.957,54.462,140.718,225.048,312.356,34.598,0,0
1994,56.228,17.644,16.29,16.51,13.01,52.04,288.358,276.613,146.666,23.337,1.612,0
1995,26.578,16.955,12.997,12.505,17.996,39.661,194.574,358.624,216.056,4.433,17.863,9.236
1996,25.914,13.816,2.151,6.095,13.641,77.059,197.367,327.672,154.894,112.432,0,0
1997,13.011,2.529,4.039,15.336,69.439,173.208,172.307,272.403,228.789,38.381,13.392,10.617
1998,0.659,5.569,9.521,13.516,78.164,33.009,231.311,345.6,154.646,29.084,6.78,0
1999,28.222,19.77,1.093,0.04,37.163,73.272,248.481,231.262,181.859,35.736,0.609,1.462
2000,12.828,13.997,5.65,11.693,16.616,140.478,150.486,163.254,218.636,0.555,0,0.637
2001,2.829,2.56,12.153,14.107,20.901,116.255,282.166,247.001,60.401,89.249,0,1.028
2002,14.61,12.505,6.812,9.882,13.018,43.792,188.869,270.967,210.491,115.949,8.103,0.757
