Year,Jan,Feb,Mar,Apr,May,Jun,Jul,Aug,Sep,Oct,Nov,Dec
1901,37.708,15.632,10.747,0.783,21.725,29.478,237.93,433.418,98.726,3.551,0,8.545
1902,0.652,2.287,2.608,10.143,10.14,66.813,342.361,226.721,134.028,14.898,0,0
1903,15.573,3.805,16,2.267,7.121,23.652,151.588,263.428,66.644,68.651,0,0.716
1904,9.13,0.941,17.528,1.191,16.788,108.15,284.525,442.536,159.824,7.932,5.665,13.463
1905,54.974,35.2,12.708,4.465,11.094,29.203,164.066,163.02,93.194,0.274,0,5.29
1906,10.113,48.444,17.817,1.777,3.605,156.484,168.67,301.184,202.127,5.489,0,4.271
1907,10.627,45.887,28.217,25.782,14.134,39.487,231.567,252.466,6.571,0.268,0,0
1908,31.195,13.592,1.164,2.235,13.134,47.468,319.999,340.746,49.717,4.091,0.241,1.207
1909,28.567,9.637,0.294,21.509,15.735,209.884,435.571,256.342,76.243,4.135,0,24.634
1910,12.936,10.443,0.987,2.739,16.165,137.351,307.264,281.79,187.99,21.818,0.875,1.283
1911,44.761,0.394,36.346,5.265,0.586,82.867,56.989,229.36,268.226,11.298,15.672,3.655
1912,27.3,9.741,12.372,9.847,14.344,58.857,238.053,282.182,243.046,1.458,8.853,3.769
1913,2.022,42.497,13.679,3.04,32.994,193.311,140.935,134.491,20.614,2.484,2.53,11.909
1914,0.217,23.692,19.194,14.204,17.735,114.342,395.239,224.041,371.704,15.794,1.798,0.012
1915,11.428,40.357,41.923,8.447,10.667,80.899,196.616,469.817,91.816,15.907,0,2.853
1916,0.19,13.89,0.154,4.304,19.584,189.983,364.23,285.533,181.992,33.101,0.01,0
1917,6.018,20.056,23.886,22.23,50.914,150.789,353.106,276.407,284.445,70.881,0,6.092
1918,11.947,0.154,9.282,12.261,5.745,97.49,78.034,185.182,36.839,3.008,7.113,1.464
1919,49.626,6.129,7.752,16.513,15.11,70.492,253.216,317.96,128.971,15.176,1.303,4.747
1920,5.773,17.33,17.853,0.927,23.53,206.315,319.137,130.502,51.332,3.083,0,0.503
1921,40.088,1.704,1.275,1.268,0.876,51.987,194.801,346.312,226.621,44.297,0,0.172
1922,26.217,9.415,0.45,3.303,1.566,67.985,328.895,430.072,220.774,18.645,1.5,36.082
1923,6.069,35.751,0.339,0.021,10.381,23.528,196.494,266.338,230.107,53.084,6.095,11.16
1924,18.224,20.289,3.623,2.089,11.298,28.478,211.904,297.08,407.119,70.449,1.006,21.965
1925,11.577,0.577,2.146,4.333,24.404,244.598,457.65,296.573,65.315,4.388,10.17,0
1926,8.883,7.101,43.767,15.765,25.847,23.838,312.132,348.09,90.408,6.518,3.697,1.503
1927,1.297,30.738,5.171,4.781,30.641,41.541,176.049,469.739,90.201,92.789,1.4,8.183
1928,25.664,47.798,5.959,10.694,3.731,56.654,261.018,126.924,34.086,32.002,6.011,25.715
1929,33.654,1.578,4.044,8.514,5.849,106.724,172.204,276.573,39.386,35.693,0,29.964
1930,17.73,13.727,4.587,4.995,8.579,120.097,360.442,259.455,63.035,39.755,4.372,7.994
1931,1.599,24.328,7.318,0.956,10.336,28.811,233.354,208.355,330.055,104.862,0.485,0
1932,0.208,3.91,16.561,3.155,8.566,50.199,147.688,277.188,280.936,7.057,0.311,6.553
1933,10.699,21.872,3.627,12.046,36.046,233.562,272.77,322.224,220.469,102.896,0.006,0.202
1934,20.049,1.268,19.784,0.591,7.278,114.989,205.381,413.915,79.998,0.265,0.005,25.048
1935,37.087,11.006,4.747,14.467,1.427,26.073,322.385,181.093,126.243,2.31,3.789,10.704
1936,2.14,16.756,20.982,8.148,18.281,381.888,494.798,416.858,160.756,6.149,4.078,30.163
1937,1.277,57.123,0.996,14.135,16.94,91.873,249.582,176.633,168.708,15.002,0.793,18.493
1938,33.718,13.18,1.413,1.484,3.627,151.982,329.094,267.535,45.939,10.804,0.485,0
1939,13.861,17.695,7.888,6.764,3.724,139.325,238.202,139.527,101.28,20.7,0,0
1940,22.643,39.967,15.769,9.452,12.579,57.253,201.868,274.307,40.422,3.552,0.416,7.107
1941,23.555,6.937,3.099,0,23.479,63.924,111.834,198.364,104.612,5.95,0.485,7.02
1942,33.353,22.911,2.075,10.216,10.58,90.245,483.67,245.454,206.501,0.265,0,14.611
1943,22.087,2.474,5.974,23.611,11.635,128.18,134.756,460.383,105.136,0.267,0,0
1944,26.065,22.061,33.555,20.333,0.368,108.461,198.215,152.029,100.992,9.313,0.241,0.25
1945,25.607,0.154,4.455,12.819,14.109,36.953,296.862,258.451,327.862,50.848,0,0.785
1946,0.405,12.429,2.437,12.242,30.903,90.334,302.892,214.114,38.039,24.102,4.662,8.47
1947,13.684,15.922,17.614,1.24,6.493,44.58,268.554,325.779,280.104,25.785,0.555,4.017
1948,24.159,21.323,19.971,1.52,8.969,23.001,250.88,462.354,151.431,31.58,0.917,1.301
1949,0.828,28.059,5.545,8.864,12.115,37.3,440.874,311.371,234.911,30.277,0.241,0.891
1950,16.722,8.672,17.347,0.47,19.068,123.423,318.51,305.618,155.16,0.458,0.241,1.89
1951,15.157,10,23.891,7.346,11.495,74.738,124.953,263.913,200.361,15.308,12.304,0
1952,7.425,19.39,18.044,8.199,22,101.96,173.206,458.117,27.071,0.265,3.804,13.433
1953,46.944,1.87,1.447,4.85,2.781,57.721,364.548,264.434,54.998,0.355,0,0.789
1954,26.489,53.609,9.45,0.294,0.933,30.777,331.529,257.773,135.753,60.431,0,0.71
1955,34.023,2.363,7.628,9.726,5.424,127.871,310.907,349.129,179.249,113.17,0,0.39
1956,9.707,5.599,22.512,0.658,29.627,89.444,339.642,207.341,69.049,113.943,0.376,10.714
1957,42.61,0.396,28.181,10.072,11.644,59.612,306.724,190.886,257.27,19.172,2.653,20.279
1958,11.337,7.518,9.147,5.06,1.971,54.887,331.469,401.182,225.473,91.79,1.144,12.463
1959,20.728,8.2,6.712,4.931,41.129,39.136,328.712,217.08,90.126,38.982,6.247,0
1960,14.296,0.154,30.449,4.722,9.743,45.795,275.636,370.478,123.532,105.986,0,4.756
1961,41.971,40.138,0.297,5.954,10.918,94.143,272.288,488.998,100.129,82.752,0.611,10.054
1962,33.919,10.231,17.242,4.018,10.297,87.674,258.114,274.086,245.721,0.998,2.425,5.687
1963,13.442,4.765,22.765,9.11,20.658,91.872,194.159,324.684,320.365,10.508,5.871,10.282
1964,4.518,2.488,7.73,2.42,27.103,26.949,469.485,209.085,257.896,0.284,0,8.618
1965,5.549,20.808,10.153,12.535,7.538,19.645,253.605,217.813,88.251,26.137,0.247,0.142
1966,4.023,15.575,1.632,0.374,32.156,111.742,265.103,434.638,82.937,17.462,7.423,2.351
1967,0.68,2.918,38.026,1.88,1.968,61.857,267.611,536.718,112.335,5.062,1.556,28.09
1968,44.457,14.695,9.205,4.411,1.626,98.874,238.065,187.15,72.235,23.882,0,1.821
1969,14.951,11.186,7.326,8.93,21.911,44.335,298.586,301.166,320.497,2.484,0.792,0
1970,31.811,24.137,7.741,0.291,41.719,121.616,161.124,324.436,117.413,31.575,0,0
1971,18.518,15.438,7.251,8.411,32.053,173.439,345.012,321.371,207.149,96.428,4.833,0.024
1972,6.047,24.953,3.545,8.712,1.166,53.14,267.335,266.918,230.544,22.503,1.954,3.193
1973,20.127,15.959,9.803,0,11.691,129.598,177.359,358.078,130.94,80.796,0,0.366
1974,6.381,5.397,2.744,0.906,11.665,49.738,196.039,150.32,24.941,38.338,0,10.796
1975,30.933,11.098,10.267,2.113,3.239,124.429,345.415,256.272,235.909,23.218,0,0
1976,1.308,24.702,5.845,9.783,11.311,109.288,208.028,463.347,77.449,3.97,2.294,0.442
1977,24.061,2.418,0.766,18.256,33.791,75.576,355.784,186.906,167.429,24.726,0,7.917
1978,3.299,13.88,41.77,4.565,2.228,130.447,195.041,299.552,190.715,6.692,1.598,8.443
1979,13.864,42.367,13.406,5.235,29.243,50.08,170.986,137.879,13.467,0.767,7.617,5.95
1980,3.466,10.678,29.826,2.293,4.5,139.261,458.826,375.107,204.758,30.23,0.859,18.267
1981,22.031,6.765,38.136,0.78,37.649,188.259,409.61,137.496,82.269,0.286,15.31,1.775
1982,23.817,9.278,47.299,15.439,32.424,35.931,178.233,450.571,59.3,12.01,6.174,11.232
1983,37.186,8.084,8.743,42.667,47.915,126.28,175.083,244.187,292.536,32.818,0,5.735
1984,5.949,37.684,2.619,29.377,1.577,127.148,171.929,216.753,75.417,2.028,0,3.267
1985,7.108,0.762,3.129,12.094,16.018,90.109,364.749,309.919,162.566,100.937,0,26.792
1986,8.373,24.503,10.665,10.007,41.145,81.679,306.397,165.151,130.753,31.194,3.014,31.484
1987,17.409,16.828,5.808,2.552,50.342,11.474,83.05,197.285,51.9,8.232,0,5.841
1988,5.362,15.392,17.391,16.912,10.73,100.312,375.86,375.965,93.648,1.394,0.241,7.617
1989,33.163,5.25,19.086,0.646,9.569,82.962,223.624,260.43,139.533,5.49,3.094,3.451
1990,0.19,36.076,13.235,4.108,32.549,84.09,354.555,309.336,180.92,11.984,3.896,22.993
1991,2.584,22.378,11.395,10.012,41.13,19.951,8.338,278.676,85.863,0.265,3.768,17.66
1992,22.567,22.222,14.587,6.494,17.715,56.56,136.103,254.149,104.468,34.34,11.827,0
1993,14.853,4.516,20.95,6.941,23.157,176.447,327.799,128.516,273.893,0.371,0,0
1994,11.651,9.649,20.023,9.107,16.719,75.875,416.807,284.526,46.937,0.275,0,0.361
1995,33.299,18.199,29.298,11.158,1.834,53.624,193.331,402.116,217.824,0.295,5.109,1.284
1996,24.295,17.624,5.536,4.447,25.603,165.211,210.825,299.343,295.346,30.654,0,0
1997,9.717,2.728,9.878,2.316,30.191,160.146,65.514,227.511,107.127,42.774,8.83,9.973
1998,4.184,16.159,33.716,16.781,17.342,64.735,251.024,374.648,75.935,44.335,2.606,0.202
1999,11.701,7.863,0.024,0,12.503,150.203,138.682,151.643,195.658,46.971,0,4.594
2000,11.215,26.793,6.757,3.07,20.933,107.029,202.932,234.244,80.359,0.265,0.076,1.832
2001,7.762,9.107,3.981,20.227,45.452,100.388,152.404,154.444,51.351,10.165,0.01,1.203
2002,20.02,26.35,18.627,4.772,5.656,37.636,78.339,178.42,242.127,10.361,0.545,3.728
