Year,Jan,Feb,Mar,Apr,May,Jun,Jul,Aug,Sep,Oct,Nov,Dec
1901,18.562,19.889,26.751,30.363,32.909,33.05,30.464,28.36,28.54,28.456,25.054,21.938
1902,20.711,22.396,27.754,31.159,33.023,32.509,30.58,29.408,28.684,28.959,24.547,20.573
1903,19.453,20.551,24.822,28.779,32.48,32.87,30.383,28.868,28.837,28.103,22.705,20.053
1904,19.945,21.599,25.391,30.524,32.723,31.855,29.144,28.474,28.586,28.599,24.249,21.194
1905,18.746,18.707,24.193,28.346,33.454,32.489,29.567,29.082,29.222,29.008,25.381,20.847
1906,18.543,20.11,24.925,29.448,33.003,31.536,29.668,28.561,28.24,28.156,24.818,21.357
1907,20.662,21.416,25.882,29.546,31.859,32.006,31.086,27.633,28.382,28.151,25.28,19.915
1908,19.488,21.071,24.923,30.425,32.374,32.239,28.833,27.831,28.451,28.524,23.785,19.854
1909,19.243,21.518,26.798,29.509,32.393,31.762,28.927,27.965,27.905,27.529,24.122,20.199
1910,19.643,21.713,26.092,29.578,32.203,31.433,29.126,28.311,28.385,27.125,22.939,20.381
1911,20.38,21.2,24.78,29.134,32.822,30.974,29.901,28.28,27.953,27.939,23.853,21.69
1912,20.71,22.738,25.935,30.363,32.869,32.993,29.607,28.285,28.355,28.227,23.417,20.271
1913,19.618,21.541,24.024,30.277,32.185,31.534,29.311,27.972,28.286,28.647,24.397,20.689
1914,20.875,21.306,25.46,29.64,33.036,31.537,29.281,28.531,28.716,28.566,25.817,20.12
1915,19.579,20.472,26.424,29.479,32.891,33.142,30.671,28.793,29.146,29.112,24.896,21.131
1916,20.561,20.672,27.325,30.533,32.758,31.003,30.148,28.229,28.886,28.192,22.917,20.367
1917,20.677,21.789,26.145,29.084,31.284,31.207,28.973,28.211,27.92,27.482,23.236,20.202
1918,18.697,21.705,26.188,28.68,32.777,31.341,30.168,28.492,28.355,27.927,25.384,20.106
1919,19.86,21.348,26.228,29.542,32.59,31.589,29.164,27.826,28.356,28.094,24.995,20.419
1920,20.309,21.274,26.759,29.949,31.362,31.552,28.95,28.165,29.217,28.958,25.115,20.416
1921,20.197,21.467,27.592,31.059,32.953,32.438,30.539,28.552,27.916,27.939,24.21,21.888
1922,19.176,22.569,26.554,30.677,32.676,32.074,29.521,28.297,28.006,27.706,24.05,20.005
1923,20.064,20.94,26.757,30.046,31.99,32.777,29.435,27.842,28.737,27.178,23.372,21.062
1924,19.612,22.028,27.959,30.813,32.557,32.723,29.872,28.456,28.221,27.26,22.595,20.787
1925,18.111,20.004,26.751,31.344,32.582,31.138,28.992,28.758,28.661,29.379,24.975,21.206
1926,20.359,23.407,26.56,28.481,32.08,33.394,30.101,28.61,27.787,27.516,22.817,19.979
1927,18.278,20.632,25.133,29.06,31.831,31.871,28.769,27.712,28.524,27.914,22.443,20.985
1928,19.669,21.155,26.136,29.878,32.59,31.639,28.881,27.775,27.986,27.519,24.083,19.678
1929,18.708,20.703,27.191,30.383,32.99,31.876,29.465,27.697,28.273,28.013,25.584,19.639
1930,19.661,20.766,26.48,29.745,32.59,32.074,28.366,27.743,28.816,28.892,23.68,21.018
1931,20.73,20.808,25.658,30.672,32.99,33.219,30.147,28.597,28.252,27.224,24.354,21.262
1932,21.073,21.466,26.228,29.747,32.616,31.797,29.048,28.095,28.488,29.227,24.038,21.474
1933,19.544,22.099,26.461,29.646,31.597,31.538,29.17,27.634,28.116,28.192,24.512,20.772
1934,17.964,22.115,25.739,30.139,32.366,31.885,28.987,28.144,27.919,27.324,23.948,21.531
1935,18.138,21.502,25.857,28.646,32.189,32.168,28.863,27.68,27.682,27.805,24.348,21.056
1936,18.977,21.735,25.694,29.012,32.887,30.852,29.17,28.429,28.136,27.552,24.733,20.533
1937,18.894,22.212,25.392,29.045,32.083,31.965,28.501,28.083,28.061,27.626,24.687,19.93
1938,19.713,20.457,27.361,30.353,32.769,30.507,28.894,28.342,28.547,27.694,23.141,21.056
1939,20.309,22.204,24.974,28.95,32.023,31.912,29.274,28.653,28.082,27.975,24.358,21.307
1940,20.743,22.238,24.924,29.23,32.788,31.945,29.201,28.012,28.085,28.362,24.864,20.553
1941,19.393,22.947,26.81,30.586,32.643,32.229,28.112,28.157,28.544,29.191,24.46,21.861
1942,19.269,22.218,26.905,30.944,32.097,32.359,28.645,27.371,27.601,27.764,23.941,19.728
1943,19.248,22.138,26.675,29.555,33.207,30.694,28.113,27.572,27.44,27.635,24.879,21.245
1944,19.641,21.075,25.702,28.953,32.558,31.6,28.354,27.675,28.508,27.795,24.205,21.346
1945,17.888,21.223,26.79,29.247,31.726,31.931,28.014,28.113,27.732,27.109,22.946,19.451
1946,19.454,23.013,25.723,30.53,31.88,31.144,28.692,26.971,27.715,28.195,22.671,20.241
1947,19.27,22.158,26.421,29.443,32.59,32.466,29.474,29.018,27.524,26.396,23.686,20.388
1948,19.009,21.43,26.817,30.838,33.281,32.617,30.764,28.564,28.706,28.716,24.741,21.119
1949,21.608,22.034,27.374,30.962,33.247,32.398,29.693,28.548,28.482,28.211,23.543,19.991
1950,20.017,19.387,25.797,30.255,32.564,32.282,27.685,27.938,27.837,29.062,23.448,20.432
1951,18.669,21.355,26.702,28.478,32.155,32.069,30.492,28.116,29.676,30.1,25.851,21.051
1952,20.738,23.098,26.453,30.722,33.119,31.842,28.857,27.351,28.138,28.802,23.675,21.292
1953,19.571,24.089,28.329,30.507,32.065,31.933,29.166,27.159,27.85,27.839,23.685,21.692
1954,18.869,23.236,27.196,30.355,32.703,32.014,28.982,28.526,26.907,26.481,23.6,20.16
1955,20.352,22.925,28.009,28.691,32.379,31.519,30.075,27.638,27.708,27.525,22.653,20.469
1956,19.896,21.527,27.507,30.47,32.631,31.373,27.101,26.995,27.611,26.156,23.32,20.266
1957,19.269,19.962,24.827,29.428,31.502,31.775,29.667,28.352,28.617,28.769,26.158,21.85
1958,21.498,22.186,27.35,31.131,33.096,32.662,28.987,28.872,27.258,27.504,24.487,21.575
1959,19.57,21.91,27.499,30.768,33.378,31.972,27.79,27.256,27.172,27.412,24.178,21.082
1960,19.284,23.794,25.286,29.645,32.22,31.348,29.503,27.3,28.676,28.184,24.16,21.763
1961,20.078,20.726,27.682,29.866,32.445,31.075,28.257,28.263,27.325,27.036,24.513,20.05
1962,18.455,22.905,26.175,30.127,32.992,31.797,28.971,28.176,27.894,26.417,24.526,21.447
1963,20.661,23.828,26.834,29.738,32.013,32.057,29.311,27.773,27.273,28.195,25.348,21.942
1964,18.122,22.067,27.781,30.817,32.379,31.439,28.696,27.875,28.15,27.603,23.665,20.593
1965,21.747,22.533,26.127,29.644,31.739,32.312,29.107,28.469,28.449,28.966,25.536,21.747
1966,21.461,24.432,25.954,29.574,32.388,31.831,29.901,28.764,28.484,29.502,25.724,20.959
1967,18.661,23.728,26.46,29.749,32.685,31.043,28.702,27.763,28.042,28.55,25.145,22.204
1968,19.138,20.93,26.679,29.928,31.504,32.741,30.169,27.455,29.498,29.074,25.324,21.201
1969,20.355,22.622,28.514,31.228,32.974,32.367,30.165,27.962,28.475,28.799,26.654,22.256
1970,20.412,22.359,26.678,31.032,33.314,30.884,28.984,28.201,27.725,28.995,23.594,20.054
1971,19.279,22.015,26.873,31.49,32.038,30.322,28.38,27.631,28.517,27.095,23.843,20.551
1972,19.909,19.53,27.09,29.421,32.59,32.482,29.368,28.581,29.023,29.138,24.662,21.032
1973,18.493,23.074,26.955,31.576,33.015,32.108,28.314,27.73,26.557,27.617,23.709,20.551
1974,19.556,20.257,27.811,30.627,31.661,32.173,29.852,29.063,29.796,29.135,23.267,20.387
1975,18.698,21.789,25.407,28.22,32.723,31.458,29.403,27.971,27.788,27.879,23.122,20.728
1976,19.975,22.037,26.619,30.137,32.053,31.354,29.01,27.682,27.668,29,27.002,21.672
1977,19.494,22.381,28.546,31.63,32.872,31.159,28.921,28.579,28.283,29.674,26.709,22.049
1978,19.256,22.103,25.354,31.208,33.37,31.729,29.052,28.245,27.536,28.795,26.034,22.067
1979,20.375,20.91,25.576,30.028,32.373,33.097,30,27.84,29.46,28.744,26.43,22.087
1980,20.087,22.638,26.953,29.345,33.771,30.816,29.531,28.423,29.12,29.691,26.083,21.429
1981,20.657,22.449,27.226,31.226,33.039,32.937,29.29,27.812,28.882,28.616,22.822,20.99
1982,20.394,21.633,25.489,30.087,31.036,32.255,30.036,28.426,28.923,29.777,25.049,21.771
1983,19.191,20.455,25.23,28.813,32.703,32.106,29.594,28.149,28.856,27.213,22.791,20.153
1984,18.308,19.674,27.4,31.413,33.105,31.851,28.789,26.967,27.522,27.649,24.114,20.955
1985,19.04,21.327,27.92,30.392,32.752,32.034,29.307,27.831,28.817,27.725,25.225,22.2
1986,20.476,22.117,26.795,30.778,32.831,31.394,29.477,27.531,28.908,29.067,25.91,20.486
1987,20.871,23.105,27.274,30.778,32.721,32.728,31.192,30.436,30.875,30.966,26.931,22.677
1988,21.963,23.973,26.708,31.562,33.409,32.642,28.907,28.461,29.241,28.481,24.821,22.165
1989,19.083,21.83,26.115,30.363,32.986,31.135,28.876,27.66,28.898,28.715,26.445,21.582
1990,21.938,22.436,25.314,30.358,32.778,32.027,29.132,27.616,27.742,28.032,25.398,21.604
1991,19.255,21.958,26.921,30.516,32.871,33.115,29.307,27.966,28.096,27.793,25.331,21.308
1992,20.194,20.194,26.234,29.05,32.768,33.005,29.876,28.165,27.528,27.998,24.75,22.431
1993,20.893,23.171,26.168,30.286,33.099,32.898,29.377,29.527,28.883,29.321,26.181,22.732
1994,21.43,21.65,28.272,30.177,33.08,31.308,27.812,28.519,28.262,28.089,25.216,20.928
1995,19.262,22.238,25.594,29.843,33.176,33.619,30.055,29.053,29.122,29.887,24.793,22.1
1996,20.488,23.155,28.607,30.464,32.838,32.226,29.515,27.684,27.96,28.094,24.368,21.771
1997,19.591,21.546,27.106,29.048,31.695,31.345,29.322,27.923,28.403,27.834,26.119,20.945
1998,20.103,21.675,26.144,31.286,33.792,32.623,29.315,29.005,28.352,30.246,24.58,20.962
1999,19.304,23.199,26.686,30.845,32.084,31.107,29.17,28.159,29.081,27.791,25.049,21.128
2000,20.681,20.87,25.956,31.183,31.984,32.178,28.688,28.666,28.881,29.498,25.84,22.206
2001,19.812,21.829,26.792,30.457,32.568,29.96,27.904,28.177,29.499,29.384,25.556,21.893
2002,19.704,21.995,27.376,31.222,33.466,32.057,29.678,27.872,28.405,29.839,25.562,22.445
