Year,Jan,Feb,Mar,Apr,May,Jun,Jul,Aug,Sep,Oct,Nov,Dec
1901,19.807,20.793,26.576,29.206,31.242,31.279,28.957,26.977,27.338,28.092,25.309,22.73
1902,21.991,23.037,27.616,30.031,31.341,30.75,28.992,28.269,27.298,27.976,24.339,21.427
1903,20.612,21.133,24.449,28.219,30.605,30.958,28.895,27.739,27.255,27.321,23.083,20.921
1904,21.18,22.334,25.166,29.523,30.968,29.777,27.47,27.137,27.258,28.061,24.259,22.226
1905,19.839,19.847,24.25,27.429,31.636,30.569,27.82,27.639,27.677,28.07,25.509,21.698
1906,19.573,20.792,25.005,28.643,31.304,29.513,27.893,27.395,26.92,27.457,25.114,22.087
1907,21.447,22.138,25.445,28.279,30.037,30.213,29.375,26.429,27.281,27.818,25.521,21.067
1908,20.54,21.537,24.778,29.603,30.579,30.17,27.262,26.534,27.39,27.76,24.297,20.881
1909,20.479,22.327,26.699,28.468,30.952,29.53,27.373,26.96,26.879,26.83,24.437,21.379
1910,20.796,22.331,26.001,28.638,30.481,29.113,27.602,27.229,27.182,26.461,23.067,21.395
1911,21.64,22.008,24.679,28.278,31.137,29.075,28.481,27.177,26.873,27.769,24.81,23.338
1912,21.848,23.246,25.562,29.445,31.22,31.196,28.26,27.109,27.266,27.708,23.837,21.419
1913,20.752,22.34,24.131,29.421,30.421,29.193,27.79,26.866,27.416,28.392,24.846,21.812
1914,22.099,22.16,25.077,28.596,31.316,29.56,27.662,27.411,27.534,27.898,25.969,21.585
1915,21.031,21.259,25.95,28.76,31.316,31.37,29.39,27.475,27.98,28.286,25.516,22.047
1916,21.383,21.21,27.401,29.699,31.22,28.791,28.486,27.048,27.756,27.535,23.591,21.205
1917,21.837,22.366,25.756,28.303,29.357,28.98,27.409,27.133,26.951,26.866,23.538,21.28
1918,19.942,22.589,26.134,27.81,31.174,29.381,28.773,27.218,27.255,27.9,25.818,21.513
1919,21.415,22.134,26.105,28.776,30.87,29.397,27.551,26.696,27.42,27.419,25.383,21.476
1920,21.628,22.106,26.598,28.834,29.494,29.645,27.361,26.942,27.938,28.283,25.451,21.89
1921,21.375,22.23,27.352,30.102,31.223,30.141,28.903,27.25,26.606,27.46,24.152,22.822
1922,20.392,23.255,26.495,29.56,30.947,29.931,27.716,26.877,26.951,27.328,24.49,20.754
1923,21.346,21.521,26.599,28.929,30.349,31.077,27.805,26.64,27.49,26.954,23.953,22.614
1924,21.111,22.639,27.68,29.86,30.803,30.715,28.185,27.229,27.243,26.547,23.272,21.935
1925,18.926,20.799,26.599,30.248,30.538,28.903,27.454,27.475,27.672,28.824,25.464,22.213
1926,21.651,23.961,26.242,27.791,30.659,31.741,28.37,27.33,26.992,27.3,23.456,21.169
1927,19.672,21.631,25.188,28.253,30.193,29.879,27.258,26.625,27.391,27.298,22.532,21.95
1928,20.817,21.915,25.729,28.886,30.952,29.685,27.196,26.502,26.951,27.228,24.731,20.866
1929,19.823,21.569,27.068,29.506,31.33,29.855,27.927,26.717,27.336,27.43,25.763,20.974
1930,20.868,21.477,26.286,28.898,30.87,30.073,26.906,26.502,27.534,28.267,23.796,21.88
1931,21.852,22.06,25.516,29.736,31.179,31.134,28.38,27.222,27.181,26.782,24.396,22.006
1932,22.054,21.745,25.767,28.708,30.932,29.896,27.361,27.132,27.258,28.31,24.327,22.328
1933,20.922,22.742,26.321,28.883,29.652,29.432,27.774,26.716,26.977,27.457,24.661,21.602
1934,19.298,22.826,25.778,29.237,30.498,29.939,27.443,26.788,26.735,26.822,24.051,22.244
1935,19.277,22.23,25.766,27.583,30.573,30.073,27.344,26.469,26.34,27.352,24.419,21.986
1936,20.116,22.331,25.79,28.073,31.159,28.833,27.647,27.136,27.131,27.327,25.053,21.311
1937,19.767,22.828,25.085,28.165,30.43,29.88,26.923,26.785,26.935,27.126,25.254,20.926
1938,21.281,21.186,27.074,29.46,30.955,28.042,27.201,27.183,27.412,26.886,23.5,22.082
1939,21.533,23.022,24.886,28.084,30.22,29.965,27.567,27.387,26.7,27.685,24.463,21.739
1940,21.615,22.926,24.376,28.377,30.886,29.895,27.396,26.784,27.034,27.708,24.854,21.408
1941,20.527,23.634,26.874,29.721,30.952,30.326,26.913,27.202,27.617,28.63,24.966,23.291
1942,20.609,22.911,26.986,30.267,30.644,30.482,26.924,26.387,26.585,27.498,24.28,21.04
1943,20.879,22.388,26.599,28.508,31.385,28.625,26.564,26.379,26.545,26.851,25.294,21.743
1944,20.866,21.841,25.438,28.165,31.047,29.67,26.869,26.488,27.508,27.153,24.711,22.656
1945,19.416,21.921,26.564,28.237,30.222,30.085,26.707,26.968,26.726,26.889,23.399,20.421
1946,20.597,23.606,25.851,29.563,30.01,29.127,27.161,26.013,26.837,27.849,23.472,22.25
1947,20.653,22.963,26.574,28.316,30.917,30.643,27.893,28.008,26.561,26.078,24.389,21.792
1948,20.766,22.327,26.651,30.026,31.563,30.444,28.805,27.403,27.48,28.411,25.548,21.836
1949,22.628,22.639,27.222,29.984,31.456,30.155,28.218,27.458,27.278,27.67,24.091,21.007
1950,21.046,20.415,25.615,28.917,30.814,30.399,26.712,26.789,26.838,27.793,23.594,21.049
1951,20.071,22.088,26.325,27.847,30.413,30.073,28.411,26.818,28.505,29.365,26.326,21.821
1952,21.888,23.763,25.878,29.845,31.357,29.879,27.465,26.379,27.143,28.076,23.925,22.821
1953,20.815,24.543,28.031,29.638,30.398,29.879,27.419,26.086,26.896,27.448,24.271,22.544
1954,20.233,23.769,26.87,29.25,30.989,29.94,27.367,27.313,25.856,26.139,24.185,21.488
1955,21.747,23.407,27.502,27.886,30.677,29.444,28.233,26.406,26.907,27.016,23.19,21.484
1956,21.179,22.385,27.233,29.543,30.596,29.097,26.118,26.145,26.787,26.333,24.096,21.585
1957,20.712,20.951,24.621,28.615,30.077,30.182,27.943,27.003,27.464,28.306,26.388,23.157
1958,22.532,22.828,26.99,30.141,31.357,30.667,27.454,27.359,26.532,27.182,25.278,22.833
1959,21.1,22.573,27.102,29.664,31.675,29.931,26.479,26.197,26.527,26.961,24.95,22.664
1960,20.588,24.505,25.453,28.932,30.849,29.295,27.952,26.317,27.631,27.67,24.756,23.117
1961,21.443,21.311,27.483,29.184,30.59,29.2,26.868,27.121,26.28,26.507,25.048,21.541
1962,19.699,23.396,26.114,29.344,31.357,29.89,27.512,26.999,26.838,26.098,24.867,22.506
1963,21.951,24.049,26.577,28.503,30.37,29.931,27.752,26.502,26.43,27.708,25.732,23.041
1964,19.695,22.828,27.648,30.181,30.568,29.502,27.207,26.515,27.034,27.397,24.127,21.786
1965,22.583,23.065,25.921,28.836,30.301,30.341,27.697,27.383,27.603,28.603,25.999,22.975
1966,22.235,24.777,25.919,28.988,30.425,30.175,28.493,27.55,27.474,28.946,26.286,22.386
1967,20.165,24.25,26.343,28.983,31.088,29.365,27.361,26.621,26.977,28.025,25.428,23.725
1968,20.283,21.866,26.276,29.142,30.065,30.85,28.387,26.43,28.505,28.093,25.221,22.396
1969,21.463,23.59,28.362,30.455,31.426,30.449,28.383,26.866,27.411,28.316,27.057,23.338
1970,21.642,23.435,26.614,30.366,31.709,28.825,27.496,26.999,26.823,28.354,23.815,21.035
1971,20.503,22.828,26.652,30.298,30.481,28.527,27.133,26.636,27.519,26.796,24.056,21.31
1972,21.071,20.704,26.962,28.735,30.905,30.557,27.813,27.416,27.938,28.739,24.898,22.315
1973,19.966,23.57,26.757,30.68,31.435,30.208,26.907,26.621,25.811,27.267,24.328,21.842
1974,20.682,21.621,27.495,29.89,29.906,30.349,27.921,27.448,28.461,28.108,23.606,21.269
1975,19.931,22.562,25.418,27.935,30.968,29.502,27.842,26.971,26.85,27.305,23.772,21.465
1976,21.047,22.953,26.738,29.086,30.399,29.219,27.737,26.729,26.918,28.558,27.385,22.911
1977,20.86,23.259,28.307,30.467,31.056,29.534,27.654,27.4,27.399,28.881,26.747,22.742
1978,20.392,22.557,25.203,30.003,31.567,29.658,27.626,27.018,26.775,28.255,26.358,22.889
1979,21.522,21.566,25.712,29.374,30.788,30.835,28.344,26.518,28.419,28.795,26.839,23.071
1980,21.334,23.384,26.757,29.234,31.944,28.529,27.944,27.221,28.199,28.995,26.439,22.328
1981,21.305,23.175,27.029,30.065,31.263,30.923,27.65,26.783,27.508,28.335,23.66,21.935
1982,21.569,22.315,25.406,29.003,29.852,30.408,28.578,27.257,27.81,29.199,25.533,22.923
1983,20.448,21.244,25.245,27.98,30.932,30.407,28.271,27.174,27.714,26.862,23.426,21.444
1984,19.716,21.102,27.486,30.225,31.465,29.879,27.603,26.214,26.806,27.422,24.625,22.182
1985,20.575,22.308,27.771,29.496,31.12,29.975,27.956,26.814,27.81,26.935,25.179,23.116
1986,21.655,22.91,26.611,29.833,31.004,29.605,27.855,26.487,28.005,28.367,26.067,21.546
1987,21.998,23.783,27.194,29.821,30.97,30.522,29.426,28.506,29.294,29.631,26.898,23.38
1988,22.923,24.399,26.369,30.529,31.66,30.528,27.618,27.407,28.188,27.772,25.175,22.864
1989,20.614,22.87,26.017,29.241,31.222,29.235,27.721,26.499,27.868,28.231,26.636,22.568
1990,23.077,23.202,25.333,29.297,30.933,29.753,27.578,26.616,26.965,27.823,25.938,22.89
1991,20.476,22.836,26.611,29.582,31.316,30.808,27.752,26.971,27.489,27.612,25.744,22.024
1992,21.408,21.297,26.361,28.473,30.871,31.032,28.645,27,26.95,27.631,25.436,23.12
1993,21.824,23.595,26.099,29.111,31.334,30.768,27.952,27.92,27.54,28.67,26.262,23.256
1994,22.446,22.315,27.57,29.192,31.317,29.321,26.717,27.296,27.043,27.822,25.55,21.909
1995,20.238,23.01,25.812,29.242,31.357,31.793,28.521,27.96,28.062,29.154,25.183,22.909
1996,21.732,23.806,28.243,29.543,31.075,30.479,28.07,26.775,27.229,27.585,24.983,22.762
1997,20.659,22.064,26.851,27.973,29.98,29.337,27.826,26.777,27.381,27.611,27.007,22.748
1998,21.504,22.397,26.059,30.279,32.19,30.772,27.839,27.943,27.56,29.416,25.255,21.916
1999,20.409,23.991,26.695,30,30.274,29.052,27.619,26.999,27.732,27.336,25.213,22.044
2000,21.824,21.729,25.612,30.545,30.037,29.947,27.246,27.724,27.923,28.992,26.081,23.467
2001,21.199,22.985,26.429,29.446,30.621,28.196,26.563,26.926,28.452,28.578,25.772,22.917
2002,20.541,23.035,26.973,30.318,31.554,29.946,28.242,26.771,27.522,29.279,25.897,23.408
