Year,Jan,Feb,Mar,Apr,May,Jun,Jul,Aug,Sep,Oct,Nov,Dec
1901,19.699,20.407,25.824,28.342,30.441,31.096,29.233,27.433,27.258,27.634,25.722,22.914
1902,21.715,22.36,26.729,29.035,30.673,30.668,29.29,28.464,27.565,28.384,25.063,21.873
1903,20.228,20.828,23.764,27.233,30.129,30.867,29.203,28.146,27.631,27.569,23.693,21.206
1904,20.926,22.152,24.684,28.36,30.224,30.04,27.868,27.333,27.251,28.148,24.609,22.463
1905,19.515,19.706,23.508,26.49,30.569,30.478,28.339,27.888,28.036,28.4,25.928,21.953
1906,19.515,20.441,24.065,27.374,30.348,29.733,28.473,27.671,27.341,27.86,25.453,22.448
1907,21.389,21.856,24.956,27.64,29.509,30.1,29.596,26.832,27.475,27.418,25.819,21.455
1908,20.544,21.19,24.22,28.455,29.899,30.329,27.772,26.736,27.55,27.873,24.368,21.094
1909,19.93,21.894,25.849,27.641,30.181,29.729,27.723,27.284,27.057,26.891,24.718,21.435
1910,20.542,22.005,25.308,27.613,29.734,29.547,28.159,27.405,27.41,26.733,23.606,21.332
1911,21.032,21.606,24.097,27.141,30.161,29.313,28.669,27.292,27.027,27.44,24.909,23.378
1912,21.677,22.619,24.863,28.354,30.368,30.958,28.525,27.458,27.509,27.846,24.179,21.675
1913,20.768,21.803,23.165,27.942,29.813,29.514,28.217,27.286,27.447,28.285,24.963,21.75
1914,21.641,21.544,24.312,27.366,30.348,29.798,28.027,27.635,27.497,27.984,26.272,21.622
1915,20.622,20.781,25.142,27.679,30.404,30.922,29.527,27.783,27.779,28.283,25.797,22.173
1916,21.287,20.602,26.547,28.365,30.206,29.282,28.684,27.244,27.769,27.837,23.903,21.356
1917,21.627,22.103,25.061,27.476,28.886,29.22,27.852,27.258,26.965,27.107,23.931,21.226
1918,19.966,21.895,25.521,26.751,30.311,29.533,28.86,27.351,27.267,27.567,25.8,21.607
1919,20.926,21.671,25.001,27.574,30.122,29.576,27.961,26.743,27.45,27.67,25.507,21.559
1920,21.454,21.723,25.752,27.874,29.235,29.588,27.809,27.258,27.938,28.212,25.743,21.653
1921,21.059,21.822,26.37,28.756,30.319,30.373,29.015,27.489,26.852,27.68,24.686,22.892
1922,20.179,22.442,25.509,28.481,30.068,30.119,28.232,26.97,27.035,27.374,24.961,21.008
1923,21.086,21.132,25.789,27.802,29.522,30.655,28.059,26.97,27.641,27.009,23.972,22.447
1924,20.707,21.858,26.904,28.62,30.177,30.712,28.597,27.405,27.3,26.834,23.77,22.183
1925,18.816,20.255,25.977,28.995,30.125,29.315,27.861,27.545,27.517,28.619,25.629,22.582
1926,21.293,23.373,25.472,27.027,29.756,31.248,28.662,27.627,26.875,26.977,23.661,21.273
1927,19.198,21.241,24.397,26.973,29.453,29.92,27.626,26.928,27.637,27.39,23.094,22.06
1928,20.669,21.29,25.063,28.131,30.122,29.8,27.621,26.759,27.035,27.128,24.758,20.973
1929,19.609,21.218,26.313,28.439,30.712,30.165,28.498,26.972,27.379,27.619,26.202,20.973
1930,20.478,21.212,25.37,27.959,30.12,30.153,27.387,26.759,27.605,28.267,24.304,21.933
1931,21.317,21.447,24.824,28.523,30.398,31.022,28.822,27.593,27.366,26.873,24.956,22.269
1932,21.69,21.768,25.362,27.904,30.105,29.995,27.809,27.244,27.327,28.51,24.829,22.554
1933,20.694,22.117,25.542,27.959,29.259,29.809,28.071,26.906,27.209,27.896,25.034,21.86
1934,18.888,22.231,25.149,28.225,29.804,29.881,27.865,27.102,27.078,27.085,24.578,22.536
1935,19.053,21.74,25.32,26.927,29.698,30.153,27.727,26.607,26.391,27.581,24.715,22.17
1936,19.842,21.964,25.135,27.13,30.248,29.177,27.945,27.385,27.178,27.339,25.443,21.66
1937,19.86,22.205,24.568,27.12,29.571,29.882,27.299,27.046,27.004,27.274,25.434,20.99
1938,20.594,20.963,26.042,28.357,30.333,28.916,27.664,27.31,27.186,26.718,23.845,22.298
1939,21.179,22.471,24.395,27.054,29.397,30.133,27.86,27.344,26.856,27.719,25.114,22.264
1940,21.628,22.576,23.896,27.377,30.136,30.047,27.938,27.193,27.051,27.949,25.575,21.66
1941,20.449,23.019,25.916,28.799,30.367,30.389,27.284,27.485,27.813,28.758,25.149,22.757
1942,20.324,22.664,25.989,28.854,29.918,30.361,27.727,26.759,26.955,27.621,24.644,21.354
1943,20.297,22.339,25.824,27.905,30.491,29.337,27.288,26.896,26.715,27.544,25.722,22.297
1944,20.707,21.295,24.778,27.269,30.38,30.066,27.581,27.169,27.511,27.676,24.941,22.561
1945,19.021,21.595,25.96,27.168,29.451,29.98,27.149,27.532,26.986,26.79,23.714,20.773
1946,20.38,23.044,24.993,28.507,29.735,29.545,27.567,26.163,26.742,27.972,24.026,21.82
1947,20.494,22.395,25.228,27.797,30.119,30.638,28.276,27.872,26.76,26.161,24.528,21.731
1948,20.262,21.696,25.798,28.662,30.822,30.704,29.181,27.427,27.552,27.679,25.326,22.028
1949,22.253,22.107,26.396,28.559,30.257,30.471,28.4,27.572,27.54,27.639,24.246,21.25
1950,20.695,19.733,24.725,28.227,29.964,30.316,26.746,26.962,26.967,27.966,24.103,21.221
1951,19.821,21.6,25.82,26.852,29.479,30.071,28.785,27.147,28.38,28.986,26.455,22.285
1952,21.371,22.941,25.344,28.491,30.583,29.965,27.605,26.539,27.06,27.946,23.947,22.577
1953,20.591,23.941,27.037,28.346,29.74,29.845,27.93,26.487,27.051,27.84,24.537,22.663
1954,19.942,23.185,26.592,28.248,30.136,30.052,27.694,27.368,26.295,26.491,24.273,21.48
1955,21.418,23.043,26.545,27.24,30.117,29.737,28.657,26.662,27.087,27.253,23.585,21.883
1956,20.783,21.87,26.473,28.65,30.091,29.589,26.256,26.15,26.692,26.332,24.5,21.535
1957,20.445,20.474,23.826,27.623,29.176,30.127,28.26,27.18,27.403,28.123,26.722,23.023
1958,22.427,22.287,26.259,28.757,30.467,30.62,27.872,27.731,26.653,27.275,25.5,22.844
1959,20.635,22.112,26.508,29.119,31.042,30.013,26.899,26.564,26.606,27.035,25.033,22.763
1960,20.459,24.093,24.641,28.013,30.271,29.623,28.228,26.447,27.548,27.573,25.216,22.949
1961,21.294,21.178,26.769,28.069,29.865,29.252,27.015,27.337,26.656,26.776,25.334,21.786
1962,19.6,23.145,25.196,28.07,30.436,29.924,27.798,27.221,27.142,26.706,25.328,22.696
1963,21.899,24.1,25.993,27.92,29.699,30.105,27.999,26.927,26.614,27.948,26.036,23.1
1964,19.307,21.948,26.392,28.721,30.071,29.565,27.66,26.946,27.143,27.045,24.73,21.887
1965,22.45,22.88,25.436,27.831,29.272,30.229,27.753,27.534,27.574,28.289,26.048,23.199
1966,22.325,24.398,25.225,27.605,29.943,29.867,28.602,27.711,27.659,29.138,26.352,22.317
1967,20.031,23.767,25.791,28.14,30.224,29.294,27.625,26.981,27.267,28.122,25.617,23.144
1968,20.067,21.244,25.959,27.868,29.055,30.563,28.748,26.665,28.228,28.368,25.856,22.495
1969,21.147,22.664,27.027,29.07,30.657,30.372,28.723,27.059,27.409,28.254,27.119,23.329
1970,21.14,22.414,25.526,28.486,30.593,29.353,27.92,27.244,26.97,28.328,24.38,21.098
1971,20.182,22.054,25.902,29.235,29.528,28.679,27.413,26.497,27.581,26.107,24.476,21.758
1972,20.796,19.872,25.719,27.41,30.098,30.376,28.176,27.584,28.138,28.472,25.363,22.371
1973,19.467,23.034,25.981,29.557,30.501,30.298,27.499,26.883,26.124,27.376,24.867,21.919
1974,20.81,20.94,26.82,28.713,29.548,30.483,28.444,28.006,28.571,28.031,24.125,21.533
1975,20.004,21.918,24.784,27.323,30.153,29.733,28.149,27.143,27.103,27.473,23.807,21.965
1976,20.803,22.421,26.016,27.621,29.073,29.563,27.888,26.972,26.674,28.603,27.085,22.8
1977,20.787,22.645,27.831,29.279,30.422,29.188,27.67,27.731,27.31,28.788,26.887,22.833
1978,20.219,22.023,24.23,28.542,30.587,29.366,27.863,27.271,26.297,28.191,26.133,23.389
1979,21.166,21.193,24.432,28.289,29.452,30.443,28.583,26.895,28.009,27.519,26.656,22.946
1980,21.061,22.888,25.827,28.755,31.128,28.593,27.913,27.281,28.082,28.924,26.536,22.477
1981,21.518,22.836,26.378,28.531,30.09,30.586,27.951,26.814,27.433,28.298,23.719,22.275
1982,21.443,22.074,24.882,27.899,29.363,30.722,28.777,27.615,27.97,29.543,25.795,23.072
1983,20.473,20.97,24.371,26.704,30.124,30.285,28.605,27.453,27.93,27.215,24.243,21.833
1984,19.452,20.798,26.922,29.353,30.72,30.046,27.811,26.486,27.119,27.731,24.993,22.445
1985,20.391,22.184,27.053,28.181,30.212,29.995,28.002,27.032,27.891,27.604,25.75,22.9
1986,21.375,22.27,25.957,28.715,30.637,29.563,28.577,26.845,27.642,28.554,26.283,21.649
1987,21.717,23.375,26.363,28.72,30.455,30.626,29.653,29.039,29.755,30.208,27.41,23.56
1988,22.805,23.651,25.494,29.315,30.993,30.54,27.778,27.678,28.199,27.942,25.316,22.982
1989,20.122,22.082,25.231,28.274,30.603,29.274,27.653,26.833,27.943,28.163,26.906,22.746
1990,22.692,22.793,24.436,27.995,30.311,30.13,28.071,26.859,27.017,27.657,26.007,22.76
1991,20.342,21.998,25.936,28.478,30.492,30.977,27.989,27.083,26.895,27.857,25.968,22.348
1992,21.182,21.268,25.366,27.223,30.253,30.875,28.606,27.333,27.205,27.472,25.629,23.458
1993,21.681,23.539,25.495,28.041,30.495,30.652,28.327,28.571,27.742,28.498,26.665,23.623
1994,22.057,22.166,27.245,28.119,30.552,29.655,26.96,27.208,26.925,28.043,25.979,21.826
1995,20.255,22.593,24.838,28.093,30.966,31.641,28.701,28.263,28.169,29.017,25.241,22.944
1996,21.31,23.346,27.446,28.529,30.45,30.384,28.199,26.906,27.418,27.732,24.879,23.072
1997,20.451,21.674,26.268,27.42,29.397,29.506,28.332,27.25,27.574,27.741,26.722,22.135
1998,21.122,22.07,25.454,29.343,31.234,30.533,28.291,28.031,27.484,29.139,25.64,22.452
1999,20.43,23.479,26.128,28.774,29.884,29.265,27.898,27.244,27.827,27.574,25.831,22.598
2000,21.582,21.587,25.265,28.519,29.829,30.101,27.4,27.347,27.735,28.875,26.507,23.526
2001,21.129,22.206,25.881,28.717,30.281,28.667,26.963,27.332,28.185,28.631,26.28,23.307
2002,20.816,22.783,26.744,29.361,31.117,30.059,28.449,26.909,27.391,29.216,26.328,23.55
