Year,Jan,Feb,Mar,Apr,May,Jun,Jul,Aug,Sep,Oct,Nov,Dec
1901,18.858,7.839,5.51,0.002,9.842,23.211,165.795,188.005,2.073,0.83,0,3.862
1902,0.081,0,1.099,3.07,6.28,95.763,216.31,137.21,67.261,0.679,0,0
1903,1.566,0.335,1.649,0,6.732,2.17,164.035,118.99,70.535,7.767,0,0.2
1904,2.833,0.934,19.386,0.004,19.115,38.469,166.88,173.672,153.539,2.006,25.762,13.393
1905,21.382,12.868,3.361,3.305,0.97,17.19,111.79,2.878,60.857,0.006,0,0.358
1906,0.081,46.495,10.743,0.001,1.222,92.51,162.35,82.839,197.87,0,0,12.091
1907,10.261,37.16,4.749,28.79,4.009,4.147,45.003,203.209,0.949,0.003,0,0
1908,26.083,6.597,0,2.722,8.298,8.361,378.543,469.371,76.257,0.626,0.818,0.238
1909,13.94,9.105,0,29.296,27.061,120.779,294.021,81.162,153.168,0.569,0,17.393
1910,11.972,6.672,0.846,4.216,0.521,29.899,151.341,158.183,131.009,8.014,0,0.002
1911,28.976,0.001,16.356,0.12,0.207,54.376,29.458,30.25,208.903,11.955,62.972,1.359
1912,22.384,10.747,1.747,14.779,8.492,29.384,169.526,224.348,180.131,4.178,7.152,0.809
1913,0.959,26.39,4.964,1.665,19.873,92.784,83.827,58.961,24.499,0.001,0.427,5.829
1914,0.867,5.422,0.079,13.225,17.017,34.824,253.947,87.667,221.071,7.362,18.565,0.009
1915,17.956,23.171,36.347,17.948,1.057,23.954,74.901,74.632,81.526,8.982,0,0.142
1916,0.001,19.946,0.077,2.755,7.598,40,146.307,319.34,121.936,8.885,0,0
1917,5.625,12.122,4.319,15.447,29.921,95.883,264.112,204.95,199.655,25.278,0,8.461
1918,6.086,0,5.246,2.909,2.386,17.51,26.515,161.967,11.281,0,0.003,0.317
1919,35.637,1.063,2.515,11.488,5.817,2.556,139.24,213.291,34.778,0,5.484,6.104
1920,7.096,8.543,9.656,1.242,17.635,92.292,255.99,89.173,9.818,0.299,0,0
1921,17.966,0,0,1.998,0.201,14.466,82.65,245.781,152.179,6.026,0,0.122
1922,10.766,0.572,0.001,0.668,0.516,41.254,133.535,146.748,149.593,2.204,0,15.208
1923,4.756,36.12,0.762,0.015,6.742,2.425,234.57,283.058,42.376,3.904,0,6.305
1924,23.338,13.431,1.014,0.078,11.402,22.585,96.868,225.295,222.125,18.635,3.174,14.223
1925,3.142,0,0.001,0,18.785,80.236,266.176,96.812,3.198,0.523,44.834,0
1926,14.346,0.891,26.857,10.135,15.211,5.289,248.671,248.915,86.414,0,4.06,0.655
1927,0,18.079,10.109,2.523,15.001,12.635,194.732,233.771,21.885,18.48,5.533,14.064
1928,12.207,27.718,5.213,8.272,4.275,30.452,89.101,66.019,34.718,16.428,27.522,11.445
1929,2.128,0.081,0,12.932,1.31,18.331,119.421,110.364,4.644,0.903,0,14.486
1930,25.359,14.2,0,1.467,11.082,72.532,303.589,63.023,28.889,11.668,1.101,0.692
1931,1.917,11.877,3.513,3.339,5.177,5.705,200.536,179.955,103.482,31.296,0,0
1932,0.014,0.72,8.941,5.458,3.675,11.456,87.943,174.575,191.318,0,0,0.019
1933,0.622,14.184,3.862,7.269,38.119,171.909,115.17,466.746,215.55,14.625,0.01,0.001
1934,15.354,0,24.771,0,2.162,64.825,241.568,240.644,12.021,0,0,9.96
1935,23.103,20.1,3.315,13.448,0.813,39.195,193.008,101.525,159.269,4.418,6.184,4.113
1936,1.301,14.388,9.969,0.573,1.376,198.231,155.856,170.191,115.677,0.386,8.596,25.32
1937,0,51.623,0.203,10.27,3.873,29.348,184.631,22.338,127.856,0.54,1.105,3.204
1938,27.841,1.319,6.477,1.121,1.154,52.708,136.108,48.07,22.382,1.25,0,0.197
1939,1.864,20.247,6.193,0.318,0.274,68.522,92.604,104.283,67.187,0.003,0,0
1940,23.688,29.658,5.875,1.379,2.154,13.123,187.511,200.379,7.996,1.094,1.221,0.735
1941,29.13,3.047,1.595,0,14.58,44.068,39.335,109.681,40.536,0.806,0,4.709
1942,11.181,12.097,0.318,10.373,7.773,25.126,375.424,168.312,129.783,0.003,0,6.112
1943,7.732,0,0.04,15.865,5.831,32.829,217.305,111.128,125.658,0,0,0
1944,26.285,30.106,32.627,33.568,0.2,44.673,313.754,103.175,120.382,26.997,0,0.007
1945,15.825,0,0.003,4.679,14.189,23.627,198.235,284.062,122.836,3.206,0,0
1946,0,5.343,0.003,0.103,9.715,79.743,187.516,202.754,35.177,1.846,0,1.765
1947,5.213,5.143,4.581,0.521,3.356,5.364,110.204,104.58,240.796,22.141,0,3.614
1948,34.32,21.041,8.489,0.189,4.312,10.547,212.975,279.219,145.796,6.039,1.417,0.21
1949,5.434,12.101,1.895,0.14,6.64,6.161,403.869,117.703,102.471,2.263,0,0
1950,6.618,1.221,7.752,0,11.408,12.082,384.336,159.44,129.988,0,0,0.234
1951,10.669,0.452,21.285,12.787,5.666,23.763,111.865,123.973,79.708,3.075,38.6,0
1952,3.731,9.765,18.576,4.101,16.259,27.723,121.713,311.358,1.271,0.002,0,5.44
1953,37.773,0,0,2.628,2.605,28.819,207.846,231.44,57.196,0.739,0.005,0.003
1954,15.845,41.719,4.921,0,0.813,15.491,222.378,56.448,95.335,19.158,2.836,0
1955,17.927,0.49,4.077,10.758,6.13,45.936,115.329,257.728,176.668,40.781,0,2.068
1956,18.444,0.674,11.573,1.588,0.2,26.946,334.642,184.908,14.886,46.395,1.61,3.169
1957,29.147,0,19.556,2.687,8.732,32.322,241.169,126.419,138.37,15.645,19.492,6.963
1958,12.606,1.252,6.923,0.521,4.73,5.812,370.726,188.244,244.075,3.532,14.359,5.18
1959,18.996,0.97,1.391,0.358,22.66,27.194,149.076,187.153,101.946,0.012,8.609,0
1960,5.112,0,10.464,3.571,3.288,27.55,201.381,283.939,15.842,39.144,0,0.576
1961,10.089,29.965,0.002,4.936,16.671,51.771,171.054,445.722,94.278,33.804,3.476,3.188
1962,17.186,6.06,6.428,0.318,0.892,16.456,212.295,98.122,134.269,0,3.26,8.751
1963,1.861,6.825,1.775,2.892,9.748,62.31,57.036,244.274,196.183,1.592,5.973,11.051
1964,0.013,0.453,0.627,2.523,17.343,18.472,447.141,357.384,132.019,1.055,0.003,8.301
1965,7.022,5.872,1.646,8.688,3.775,3.991,213.087,143.188,118.434,2.852,0.128,0
1966,1.415,13.272,0.385,0.523,40.863,95.134,112.316,228.028,53.026,11.869,10.327,0
1967,0,0.94,29.27,0.6,2.068,30.169,214.903,432.779,124.7,15.119,15.78,30.916
1968,9.006,4.897,6.399,0.519,5.057,14.469,266.189,174.23,5.573,2.871,0,0.005
1969,4.571,6.093,6.377,0.879,20.834,31.422,209.881,127.305,124.46,0.35,0.869,0
1970,25.247,31.621,23.51,0.311,36.054,81.214,65.178,239.83,127.861,1.868,0,0
1971,8.116,10.724,0.312,8.392,35.943,71.872,181.71,274.263,105.063,7.264,0.547,0
1972,5.151,8.048,0.384,6.776,1.742,28.74,195.743,316.321,34.359,12.076,4.215,1.036
1973,14.443,5.698,0.314,0,15.461,19.954,148.339,353.081,70.552,19.555,0,2.866
1974,0.003,0.005,1.508,0.467,14.768,25.513,307.017,79.599,7.655,17.212,0,5.557
1975,10.009,3.022,4.549,0.003,1.57,76.491,383.366,250.456,218.617,26.818,0,0.157
1976,3.554,15.744,4.768,5.327,39.86,55.107,289.663,304.899,103.517,0.248,1.876,0.551
1977,23.982,0.532,0,26.532,20.332,76.035,382.657,93.243,123.801,14.323,0.428,5.36
1978,0.004,15.793,10.584,9.905,0.2,78.44,255.49,277.463,152.907,0.001,6.438,2.7
1979,9.132,35.813,8.993,2.759,16.328,61.033,167.387,93.892,29.972,7.044,1.789,4.137
1980,1.984,5.105,12.261,0.653,8.385,56.486,304.93,97.402,44.685,4.43,3.685,6.262
1981,14.823,7.535,10.112,0,9.107,130.157,177.493,69.526,72.964,0.279,58.16,6.507
1982,17.623,4.23,23.279,38.687,61.871,49.857,236.544,233.541,3.093,16.09,14.976,7.655
1983,24.637,11.28,3.967,36.459,47.863,46.601,244.439,216.33,99.691,21.098,0,3.196
1984,0.41,2.077,3.064,23.193,2.094,25.768,140.665,269.861,106.105,0,0,0.012
1985,0.894,0,1.933,15.572,13.832,34.796,385.188,239.221,52.95,34.504,0.002,15.274
1986,12.624,23.331,5.298,3.032,24.979,38.188,102.727,125.062,51.64,4.112,0,13.206
1987,19.752,11.074,8.266,2.032,45.237,16.288,44.003,117.039,20.778,1.158,0,5.283
1988,4.796,9.547,20.75,5.45,3.333,50.622,211.95,361.778,121.78,1.116,0,1.024
1989,39.209,1.863,15.327,0.102,1.633,12.009,73.362,145.166,83.596,1.76,11.584,2.592
1990,0.002,26.005,1.526,2.175,30.756,48.151,142.57,267.278,195.542,0.004,2.866,16.771
1991,0,24.98,1.59,1.824,29.18,38.934,109.625,275.547,71.915,0.005,20.568,18.415
1992,14.018,19.275,0.657,4.798,4.6,7.323,87.552,173.91,91.97,7.055,42.541,0.001
1993,7.223,5.346,4.514,4.257,11.416,105.492,317.265,138.304,173.963,3.178,0.349,0
1994,23.997,4.96,9.056,6.619,12.935,42.644,441.236,242.171,16.272,0.003,0,0.489
1995,36.688,15.323,17.225,2.73,0.4,22.277,130.841,410.151,119.401,3.236,1.616,0.432
1996,5.071,12.132,4.434,2.123,19.024,141.801,174.058,318.789,117.685,9.681,0,0
1997,6.504,1.054,4.03,24.497,38.01,104.144,71.647,193.613,74.888,29.025,30.933,10.858
1998,0,22.001,12.071,11.027,8.33,95.168,126.18,189.928,188.547,28.593,24.352,0.745
1999,30.564,7.122,0.004,0,11.188,65.714,120.986,105.085,66.876,17.137,0,0
2000,15.057,31.712,8.249,1.261,13.845,66.155,284.968,115.825,21.321,0,2.578,14.67
2001,7.092,8.163,2.542,23.815,59.552,91.178,137.19,229.005,34.271,5.63,0,0
2002,9.6,10.594,1.468,1.007,2.905,32.206,7.319,112.34,130.365,0.451,1.351,10.109
