Year,Jan,Feb,Mar,Apr,May,Jun,Jul,Aug,Sep,Oct,Nov,Dec
1901,15.67,6.416,4.922,0.021,11.249,21.505,161.116,164.134,0.815,0.418,0,2.345
1902,0.002,0,1.029,3.316,7.069,95.113,178.33,118.964,56.05,1.083,0,0
1903,1.627,0.006,1.285,0,6.715,3.249,161.564,92.471,67.187,5.461,0,1.123
1904,3.311,0.812,19.312,0.204,19.656,32.164,118.255,127.159,148.233,1.869,24.852,14.597
1905,21.358,10.591,2.85,3.535,0.944,14.896,97.133,1.863,56.707,0.036,0,0.622
1906,0.002,59.861,11.24,0,1.155,77.747,145.734,90.144,168.221,0,0,12.591
1907,8.965,30.526,4.514,28.574,2.678,5.444,61.545,161.495,0.798,0.004,0,0
1908,22.752,6.866,0,5.214,7.436,6.291,333.001,431.293,69.129,0.008,0.635,0.038
1909,9.715,9.971,0,33.482,25.222,122.532,271.568,102.703,146.819,0.488,0,17.431
1910,10.492,6.402,0.733,4.466,0.6,26.967,136.35,177.879,109.433,6.081,0,0.021
1911,25.863,0,20.637,0.729,0.282,55.247,27.198,27.241,158.395,11.423,50.258,0.023
1912,19.077,10.78,1.419,17.08,9.509,29.634,142.188,192.005,144.177,4.347,4.711,0.384
1913,0.924,21.918,4.826,2.406,18.553,92.582,76.416,51.175,23.269,0,2.241,5.354
1914,3.612,4.985,0.309,13.633,16.548,32.407,231.058,70.069,194.061,5.64,17.565,0.086
1915,17.288,26.906,31.137,19.782,0.5,19.577,59.606,56.718,71.093,11.804,0,0.211
1916,0.158,18.965,0.299,5.395,11.574,39.368,140.905,281.339,106.707,11.116,0,0
1917,6.33,10.293,3.565,18.251,32.112,87.799,204.139,188.67,190.29,20.71,0,7.77
1918,3.67,0,4.977,3.529,2.428,15.534,18.406,139.283,6.108,0,0.032,1.668
1919,34.682,2.016,2.208,12.527,6.604,0.485,105.448,198.9,63.423,0,5.034,5.567
1920,5.706,5.629,8.366,5.614,18.085,95.059,236.95,79.572,1.703,0.235,0,0
1921,13.561,0,0,2.275,0.209,11.949,114.699,244.519,116.213,5.286,0,0.607
1922,8.963,0.657,0.102,1.673,1.024,33.986,122.592,112.432,128.851,3.041,0,11.179
1923,5.694,35.429,0.667,0.318,9.777,7.249,225.397,250.344,17.372,3.141,0,10.102
1924,24.532,12.045,1.106,0.471,13.131,22.718,75.8,195.403,188.202,15.766,2.814,13.468
1925,3.079,0,0,0,17.403,72.627,198.385,80.4,2.691,0.42,35.762,0
1926,9.679,0.014,22.927,9.671,11.869,1.99,237.071,219.418,63.683,0,3.941,2.942
1927,0,17.225,9.006,2.451,16.776,12.51,181.244,181.479,11.406,16.24,0.088,15.752
1928,11.093,24.701,4.861,9.834,4.428,29.21,72.385,86.734,32.293,9.52,23.501,6.675
1929,2.281,0.002,0,14.318,4.013,12.601,130.222,92.846,4.757,0.503,0,17.222
1930,23.182,13.919,0,3.461,12.97,66.28,261.026,38.663,21.105,8.129,2.444,0.656
1931,1.957,11.833,3.717,3.614,6.139,4.412,205.507,166.953,69.834,23.607,0,0
1932,0.116,0.754,7.825,5.9,4.608,8.148,93.564,133.674,156.499,0,0,0.183
1933,0.58,14.591,3.516,6.038,37.329,143.962,111.216,429.402,172.857,11.009,0.114,0
1934,13.257,0,22.582,0,3.133,55.321,235.117,218.219,6.401,0,0,8.656
1935,19.665,20.818,4.499,17.279,0.624,37.316,164.264,101.522,146.177,3.645,6.116,3.234
1936,1.152,13.73,7.998,0.541,0.319,179.71,128.834,125.952,99.472,0.436,13.802,23.689
1937,0,51.815,0.141,10.769,2.234,24.507,211.858,8.709,105.662,0.418,0.018,4.211
1938,25.912,1.446,5.537,1.524,0.795,48.674,94.503,47.448,19.791,0.956,0,1.091
1939,0.057,20.848,6.011,0.271,0.342,61.825,51.938,96.012,51.601,0.004,0,0
1940,20.715,28.567,3.9,0.021,0.628,13.198,172.705,188.278,4.563,0.887,0.322,0.299
1941,27.802,3.174,1.669,0,13.818,50.469,19.662,91.367,34.761,0.559,0,4.031
1942,9.088,12.168,0.328,10.397,10.418,30.489,368.794,134.384,121.941,0.004,0,5.905
1943,5.155,0,0,15.592,1.855,24.992,213.457,58.716,94.936,0,0,0
1944,23.274,30.609,29.391,33.048,0.39,42.719,304.328,146.823,101.462,23.218,0,0.065
1945,15.913,0,0.032,7.814,14.374,27.148,185.089,236.185,123.585,2.767,0,0
1946,0,5.332,0.032,0.023,7.262,80.203,160.503,172.691,31.362,1.916,0,1.566
1947,4.252,5.183,3.968,0.481,3.508,1.805,68.094,82.242,189.981,17.346,0,3.017
1948,28.747,21.17,9.082,0.249,3.409,11.623,165.565,241.595,113.022,3.914,0.116,1.208
1949,6.994,11.949,1.68,0.198,6.975,6.989,383.294,76.586,76.993,1.608,0,0
1950,7.344,1.468,7.942,0,8.368,12.082,397.551,155.656,105.893,0,0,0.004
1951,9.317,0.464,18.302,14.253,5.443,17.213,98.982,103.353,49.32,2.576,32.42,0
1952,3.648,8.584,16.43,3.113,17.662,28.451,94.511,244.885,0.801,0.004,0,0.978
1953,33.817,0,0,2.844,2.791,27.398,184.219,218.417,47.819,0.643,0.051,0.032
1954,13.478,41.296,4.029,0,0.967,20.98,188.581,26.338,109.897,13.833,2.162,0
1955,14.14,0.655,4.268,12.158,7.14,36.044,75.858,239.678,143.886,28.467,0,1.7
1956,18.529,0.468,11.612,1.948,0.2,20.203,277.339,174.287,10.622,36.774,1.533,2.042
1957,29.522,0,16.128,1.801,8.988,33.927,192.777,111.105,107.994,12.872,17.949,6.824
1958,16.554,0.477,6.107,0.59,5.187,5.769,311.868,138.387,216.997,1.453,16.52,7.377
1959,16.983,1.72,1.77,0.507,15.526,26.322,153.114,179.228,120.579,0.069,8.26,0
1960,5.529,0,8.637,4.024,0.427,33.586,175.009,226.061,6.745,29.889,0,1.956
1961,7.554,27.714,0.021,4.819,19.608,52.87,160.093,364.969,94.95,27.688,5.489,3.728
1962,14.02,6.532,6.664,0.271,1.912,15.523,190.72,76.295,119.174,0,3.286,9.793
1963,0.025,6.887,1.545,2.83,9.232,58.679,42.853,211.065,141.065,1.156,3.452,9.502
1964,0.261,0.474,1.034,2.868,17.49,20.721,400.255,327.519,88.992,0.741,0.04,7.778
1965,6.928,5.25,1.473,8.344,3.904,4.619,184.038,119.993,94.617,0.395,0.711,0
1966,1.872,18.307,0.397,0.619,43.062,89.193,95.048,188.305,56.08,12.974,3.942,0
1967,0,1.021,29.756,1.035,1.618,25.698,177.882,357.913,106.489,14.81,20.309,27.186
1968,5.841,5.673,4.922,0.588,6.262,11.956,227.395,146.142,0.861,0.458,0,0.053
1969,3.276,4.523,5.868,2.517,19.045,30.701,178.262,99.633,102.448,1.333,0.011,0
1970,22.896,33.87,21.625,1.654,34.15,72.936,49.632,183.407,120.095,1.628,0,0
1971,6.302,9.045,0.275,10.385,43.447,63.288,145.309,256.229,86.421,4.694,0.009,0
1972,6.448,5.647,0.378,9.228,1.592,36.383,192.919,282.183,22.811,10.765,3.896,0.623
1973,12.279,3.722,0.288,0,16.814,16.82,129.059,298.534,46.737,13.782,0,3.45
1974,0.021,0.034,1.408,2.504,16.459,28.692,333.51,62.917,7.352,9.758,0,7.186
1975,10.115,3.175,4.768,0.021,1.716,77.453,352.176,229.082,185.408,18.971,0,0.799
1976,4.547,15.142,4.287,6.973,44.129,43.583,276.127,286.911,103.57,0.998,1.693,0.556
1977,21.274,0.455,0,26.728,21.626,90.966,362.685,71.63,126.697,10.468,2.251,5.444
1978,0.123,15.211,8.264,11.831,0.2,69.332,267.232,244.779,130.384,0.093,4.993,0.89
1979,9.908,32.918,8.942,3.163,16.039,57.725,139.663,77.837,36.72,7.058,2.047,4.367
1980,2.142,4.562,10.855,0.613,9.027,50.812,290.645,65.041,44.088,3.396,7.942,7.002
1981,13.872,8.106,8.822,0,6.53,104.832,172.74,55.84,58.55,0.24,54.447,6.623
1982,16.11,4.182,23.582,38.575,67.858,53.462,281.815,206.669,0.828,15.408,5.466,6.922
1983,22.77,11.163,4.998,36.155,54.423,45.317,262.6,225.441,84.632,16.434,0,2.77
1984,0.415,3.178,1.924,18.16,1.802,17.526,125.02,233.228,89.351,0,0,0.107
1985,0.63,0,1.131,14.837,14.692,33.731,330.103,204.888,33.566,24.275,0.021,12.818
1986,11.484,23.308,4.469,3.446,22.125,39.84,105.418,117.048,43.27,0.975,0,10.588
1987,18.157,13.312,8.686,2.267,40.899,16.413,33.485,97.997,12.928,2.119,0,4.071
1988,3.438,9.712,21.539,4.421,3.034,46.133,187.263,312.91,111.284,4.477,0,1.164
1989,40.703,1.973,13.335,0.002,1.855,12.836,66.263,125.274,67.716,1.286,9.557,2.067
1990,0.021,25.245,1.524,2.534,36.541,36.395,125.781,218.897,149.2,0.153,3.463,14.987
1991,0,23.449,1.384,1.862,29.115,36.229,95.354,205.53,57.435,0.162,17.025,15.961
1992,12.451,20.468,0.617,4.613,4.054,6.095,80.902,155.833,82.403,6.469,34.836,0
1993,6.051,5.152,3.16,4.009,9.976,94.374,298.005,108.08,134.714,3.735,0.399,0
1994,22.682,2.644,7.666,6.228,14.54,36.478,368.421,213.226,18.363,0.004,0,0.592
1995,34.012,19.658,14.416,1.996,0.382,23.339,141.986,358.105,100.085,3.872,1.594,0.366
1996,5.1,10.927,4.375,2.308,16.356,148.98,158.55,270.798,75.949,7.454,0,0
1997,6.534,1.497,3.943,27.362,38.999,106.031,65.386,175.476,49.794,26.456,24.068,9.533
1998,0,20.094,10.807,12.97,8.514,87.867,143.873,150.422,169.035,23.11,23.594,1.999
1999,30.808,5.575,0.034,0,16.925,44.518,108.95,66.813,40.809,10.679,0,0
2000,14.124,31.992,7.277,0.856,11.181,68.622,270.346,96.025,13.796,0,3.657,14.85
2001,5.681,7.343,2.1,23.587,59.562,84.729,120.16,186.777,36.962,4.846,0,0
2002,7.976,8.365,1.747,1.668,2.259,27.675,5.22,85.852,99.022,0.345,4.242,13.391
