Year,Jan,Feb,Mar,Apr,May,Jun,Jul,Aug,Sep,Oct,Nov,Dec
1901,14.67,18.022,23.118,29.169,32.78,34.78,30.132,28.204,27.399,26.215,20.186,15.747
1902,16.822,18.645,26.305,29.812,34.085,34.752,29.454,28.98,27.814,25.503,19.603,15.245
1903,16.421,17.683,23.934,29.963,33.268,33.819,30.451,28.841,28.643,25.708,19.076,14.985
1904,16.182,18.133,24.232,30.708,32.579,31.641,28.028,27.692,27.814,25.515,19.274,16.633
1905,15.02,14.869,22.52,26.994,32.897,36.052,29.139,28.23,27.814,25.166,20.236,15.994
1906,15.571,18.259,22.916,29.768,34.608,33.225,29.316,28.241,28.304,25.726,20.625,16.606
1907,16.924,17.584,22.315,27.28,31.828,32.302,30.943,28.182,28.56,26.338,20.246,15.008
1908,14.433,18.704,23.579,31.468,34.228,34.486,29.555,28.521,28.775,25.375,19.446,15.157
1909,18.005,17.925,23.812,27.768,33.418,29.866,28.356,28.142,28.083,25.127,20.475,16.571
1910,15.371,18.384,24.346,29.996,33.295,31.498,29.287,28.132,28.315,25.593,19.542,15.433
1911,18.558,17.845,22.833,29.495,34.468,30.792,30.955,27.955,27.643,25.726,20.098,15.133
1912,16.182,19.633,23.985,29.556,33.379,34.246,29.555,28.131,27.715,25.653,19.663,15.184
1913,15.86,18.655,22.156,30.278,31.707,29.26,29.1,28.216,28.049,25.63,19.317,15.866
1914,16.806,19.543,23.278,28.68,31.862,32.292,29.045,28.33,27.948,24.775,21.331,16.283
1915,16.672,18.308,23.712,29.875,34.829,33.675,30.193,28.58,27.955,26.931,21.536,15.796
1916,15.156,18.87,25.536,31.184,34.036,29.855,29.077,27.931,28.093,26.303,20.209,14.533
1917,15.759,18.482,23.246,27.673,29.744,30.837,28.816,28.065,27.814,26.081,18.931,15.833
1918,14.859,18.605,24.357,28.757,33.468,29.409,30.772,27.751,28.098,25.009,19.569,15.305
1919,17.96,17.509,24.444,28.73,32.173,31.664,28.268,28.065,27.775,25.115,20.401,15.645
1920,15.684,18.521,24.443,29.656,31.079,33.862,28.467,28.181,28.309,26.335,20.735,15.846
1921,16.883,18.095,26.246,31.379,35.768,32.307,29.92,27.305,27.626,24.826,18.635,16.876
1922,16.022,19.305,24.679,29.44,34.291,30.286,27.927,27.255,26.998,23.87,19.257,15.307
1923,15.81,18.183,23.212,30.396,34.046,35.097,28.777,27.784,28.136,24.626,19.747,16.833
1924,15.87,18.782,25.69,30.718,32.974,35.16,28.268,28.131,27.626,25.726,20.152,15.983
1925,14.771,17.332,23.719,30.146,32.107,31.247,27.667,28.354,28.093,25.726,20.079,15.459
1926,15.96,19.394,23.305,26.706,31.331,35.086,29.949,28.343,27.466,24.963,18.145,15.535
1927,15.437,18.42,22.329,29.028,32.24,33.725,29.366,27.916,28.775,25.726,19.881,16.895
1928,16.247,18.794,24.645,28.59,33.501,31.28,28.528,28.715,28.826,26.752,20.885,16.783
1929,16.06,17.51,24.857,30.268,34.378,32.925,28.676,27.282,28.885,24.925,19.964,15.522
1930,15.521,17.984,24.718,29.069,32.463,33.225,28.339,27.892,28.343,26.452,20.102,15.594
1931,17.709,18.321,23.606,30.591,33.88,33.88,29.2,28.632,28.403,25.92,20.152,16.595
1932,17.571,17.982,24.456,29.418,32.78,34.387,29.571,28.093,28.415,26.063,20.342,15.833
1933,14.808,19.344,24.657,27.296,30.585,31.148,28.865,28.054,28.214,25.625,19.664,15.895
1934,15.734,18.545,23.884,29.908,33.478,32.664,28.865,28.181,28.343,24.915,20.024,16.705
1935,15.01,18.971,24.106,27.128,33.652,33.77,29.294,27.592,27.754,25.115,20.084,16.57
1936,15.183,18.295,24.684,28.718,33.379,30.197,28.355,27.96,27.664,24.658,20.564,16.594
1937,14.284,19.17,22.896,27.987,32.379,32.991,29.178,27.458,28.033,24.793,20.357,14.805
1938,16.669,17.021,25.706,30.168,32.881,30.253,28.894,27.892,28.214,26.086,19.712,15.295
1939,16.882,19.47,23.127,28.757,34.318,32.074,28.578,27.531,27.553,25.825,19.774,15.774
1940,15.184,18.359,22.705,28.256,33.079,33.347,28.748,28.065,27.775,25.803,21.113,16.371
1941,16.46,18.745,25.858,31.519,33.665,31.426,29.691,28.454,28.387,25.862,20.125,16.684
1942,15.71,18.718,24.381,29.48,34.432,34.074,28.707,27.994,27.326,25.437,21.188,16.445
1943,18.371,17.778,24.692,28.079,33.853,33.061,29.041,27.333,28.315,26.102,20.636,16.746
1944,16.221,18.66,22.807,27.381,34.232,32.777,28.766,27.945,28.645,24.776,20.674,17.883
1945,14.998,17.617,24.48,27.758,32.741,33.498,29.593,29.342,28.153,24.575,19.675,14.605
1946,16.094,20.056,23.77,28.95,32.526,31.627,28.279,28.194,28.1,25.747,20.734,18.032
1947,15.86,18.757,25.032,30.581,33.591,34.059,29.016,28.443,28.276,25.437,20.897,16.794
1948,17.31,18.921,23.658,30.742,34.299,33.828,28.626,28.054,27.665,25.687,20.898,15.895
1949,16.896,18.855,24.289,29.759,32.698,33.496,29.2,27.794,27.948,26.364,18.626,15.245
1950,16.722,18.132,23.157,28.509,33.615,31.701,28.718,27.804,27.859,25.088,19.524,16.245
1951,15.223,18.333,24.007,28.31,33.009,33.125,29.3,28.508,28.352,27.763,21.435,16.096
1952,17.245,20.794,23.728,30.429,34.326,32.511,29.293,27.931,27.998,25.974,20.313,16.743
1953,16.319,20.705,27.329,30.206,34.216,33.463,28.253,27.708,27.724,25.313,19.687,17.796
1954,15.273,20.71,24.267,31.009,34.389,32.738,29.726,28.28,28.065,24.175,19.197,16.394
1955,16.57,18.854,26.206,28.707,33.907,33.249,28.114,27.931,27.892,25.5,20.102,16.755
1956,16.82,18.732,25.503,30.996,34.288,29.938,28.718,27.516,27.025,24.9,19.225,17.772
1957,17.597,18.132,23.394,29.636,34.076,33.862,28.94,28.504,27.833,26.053,20.835,17.733
1958,18.022,19.982,25.993,31.506,34.421,35.274,29.744,28.202,28.026,26.091,21.551,17.772
1959,17.349,18.572,24.939,30.468,33.755,33.498,29.379,28.033,27.776,25.834,20.597,16.507
1960,16.323,20.695,23.927,29.85,33.37,34.137,28.715,28.333,28.137,25.726,19.577,17.334
1961,16.972,17.671,25.139,29.918,34.005,31.584,28.766,28.132,27.814,25.402,19.374,13.304
1962,14.435,18.757,23.413,29.491,32.741,33.838,30.138,27.841,27.315,24.166,20.463,16.943
1963,14.67,20.22,24.028,29.556,31.979,31.725,28.727,28.393,27.438,26.024,21.631,17.3
1964,15.96,18.318,25.579,30.579,32.029,32.222,27.074,28.143,27.715,25.916,19.964,17.006
1965,17.045,19.305,23.19,27.603,31.798,34.531,29.687,28.466,27.337,25.985,21.546,16.114
1966,16.443,20.965,24.728,31.106,33.93,32.925,30.549,28.181,28.487,26.497,22.738,16.172
1967,16.403,20.621,23.443,28.579,32.979,34.563,29.63,27.46,27.565,24.899,20.246,17.733
1968,15.899,17.972,23.857,28.869,32.741,31.596,28.777,27.945,28.949,25.285,20.586,16.079
1969,16.093,20.569,26.389,30.579,32.307,33.582,28.992,27.679,27.365,26.397,22.185,16.794
1970,17.307,18.392,23.856,30.757,33.117,30.85,28.689,28.104,27.266,25.662,19.836,15.908
1971,15.582,17.913,23.18,28.001,30.18,29.21,27.328,26.979,27.489,25.413,19.934,16.246
1972,15.395,16.642,24.176,29.218,33.678,34.579,29.772,28.033,26.976,24.636,20.723,16.676
1973,16.431,20.204,23.5,30.891,33.7,32.293,29.622,28.131,27.404,25.402,20.101,16.398
1974,15.184,17.883,24.6,30.641,33.001,33.274,28.726,28.131,27.952,26.675,20.162,15.076
1975,15.184,18.958,23.857,30.317,34.012,32.346,28.181,27.831,27.415,26.464,19.779,15.822
1976,16.182,19.559,24.516,28.734,32.801,32.813,29.189,27.841,27.315,26.024,22.394,16.981
1977,15.921,19.47,25.717,29.668,30.903,31.846,28.115,28.142,27.814,25.648,22.359,16.728
1978,15.294,18.246,22.057,28.98,33.974,32.081,28.455,28.048,27.835,25.648,22.035,16.295
1979,17.095,16.729,23.246,29.347,33.125,32.463,29.442,29.211,27.761,27.147,23.568,18.144
1980,16.931,19.78,23.668,31.318,33.802,31.303,28.743,27.709,27.377,26.236,21.673,17.095
1981,15.845,19.216,23.907,29.306,32.228,32.826,28.405,28.58,28.432,25.525,20.212,16.145
1982,18.036,18.509,22.75,29.084,31.647,31.552,31.127,28.409,28.191,26.135,20.985,17.163
1983,15.16,18.701,24.183,28.112,31.584,33.236,29.392,29.019,28.793,25.465,19.813,17.062
1984,16.669,17.749,24.718,30.456,34.04,30.522,28.265,27.604,27.415,26.227,19.797,17.228
1985,17.399,18.993,26.377,30.518,34.029,33.475,28.116,28.243,28.264,25.264,20.946,18.142
1986,16.317,18.743,23.919,29.916,31.506,32.035,27.856,27.393,27.497,24.936,21.951,16.793
1987,15.782,19.873,23.895,29.888,32.069,34.807,29.35,28.348,28.088,25.61,21.036,16.613
1988,16.822,19.792,24.267,30.179,34.05,30.96,28.543,28.368,29.354,25.877,20.909,17.845
1989,15.431,18.842,24.359,29.644,33.779,31.037,28.566,28.142,28.304,26.114,21.334,16.704
1990,17.48,19.68,22.977,29.908,31.602,32.026,27.444,27.952,28.231,25.288,21.089,17.294
1991,15.962,20.33,24.13,28.83,33.638,30.982,29.849,27.243,27.776,25.314,20.18,16.317
1992,15.541,17.166,25.29,29.83,31.889,31.773,30.274,28.107,27.97,26.276,22.285,17.033
1993,17.248,20.761,23.67,29.055,33.856,33.621,30.078,28.736,27.814,26.824,20.308,16.768
1994,17.782,18.831,25.824,28.83,34.331,32.448,28.29,27.704,27.927,26.067,21.489,17.182
1995,15.132,19.324,23.345,29.666,33.077,34.546,29.2,27.592,27.553,26.276,21.401,17.518
1996,17.17,18.479,25.445,28.381,34.028,31.342,28.726,27.23,28.515,26.052,20.969,16.123
1997,15.732,17.606,24.367,27.645,32.218,34.224,29.498,27.916,27.415,26.078,21.638,17.782
1998,15.759,19.667,21.753,28.488,32.389,34.489,28.351,28.432,28.265,27.93,22.291,18.052
1999,15.511,19.994,24.746,31.124,32.847,31.964,28.715,28.093,27.565,27.051,22.908,18.05
2000,16.273,18.679,23.68,30.879,32.847,30.927,29.493,28.503,27.234,27.552,23.474,17.123
2001,15.789,18.917,24.385,29.324,33.413,30.2,27.879,28.581,28.617,27.629,23.41,18.596
2002,16.245,19.389,25.205,30.117,34.369,33.254,30.66,28.093,27.763,26.024,21.534,17.897
