Year,Jan,Feb,Mar,Apr,May,Jun,Jul,Aug,Sep,Oct,Nov,Dec
1901,15.609,18.973,24.1,30.422,31.903,33.097,30.241,29.388,28.98,27.561,21.876,17.433
1902,17.779,19.42,25.731,28.908,31.799,32.128,29.47,29.866,28.98,26.063,21.282,16.271
1903,16.761,18.552,23.633,30.052,33.071,31.827,30.842,29.289,29.276,26.568,21.179,16.535
1904,16.759,19.146,24.615,31.021,30.903,31.132,29.087,29.081,28.98,26.452,20.818,17.338
1905,15.39,15.058,21.662,26.938,30.688,33.229,29.57,28.58,28.777,26.747,21.693,16.737
1906,16.244,18.406,22.293,30.558,32.794,31.996,29.952,28.872,29.461,26.552,21.937,17.568
1907,17.869,18.421,21.415,27.464,31.212,32.1,30.048,30.05,29.451,27.113,21.438,16.861
1908,14.901,18.628,24.714,32.425,32.602,32.383,29.657,30.232,29.286,27.061,21.014,16.162
1909,17.468,18.739,25.903,28.113,32.496,30.685,29.76,29.066,29.596,27.132,21.837,17.469
1910,15.979,18.927,24.688,30.232,31.993,31.106,29.189,29.675,29.28,26.353,20.895,16.623
1911,17.77,18.145,22.836,29.813,32.984,31.025,30.661,29.217,28.771,26.359,20.364,15.942
1912,16.788,19.936,24.1,28.328,31.309,32.137,29.476,29.379,28.98,26.552,20.405,16.448
1913,16.199,18.557,22.391,31.041,30.721,29.806,29.771,29.169,29.479,26.143,20.305,16.446
1914,16.978,19.226,23.443,27.852,31.11,31.119,29.491,29.071,28.98,25.361,21.325,17.643
1915,17.195,18.728,23.411,29.557,32.188,31.294,30.566,29.6,29.28,28.333,23.142,17.055
1916,16.117,18.762,26.587,30.328,34.293,30.806,29.551,29.189,29.18,26.772,21.702,16.172
1917,16.06,18.454,23.215,28.267,29.514,30.935,29.67,29.388,28.612,26.26,21.522,16.742
1918,15.165,18.457,24.898,28.572,31.77,30.206,30.845,28.516,29.48,26.846,21.317,15.881
1919,17.079,17.735,24.905,28.677,31.717,31.487,29.764,29.518,28.89,26.472,21.596,16.852
1920,16.705,18.733,23.213,29.832,31.22,32.525,29.965,29.479,28.981,27.043,21.911,17.433
1921,17.208,18.859,26.094,30.946,34.482,32.009,29.951,29.289,28.776,25.652,20.927,15.811
1922,17.008,19.64,25.771,30.853,33.697,30.625,29.664,28.963,28.562,25.652,21.324,16.971
1923,16.569,18.567,24.68,30.822,32.678,33.196,29.771,29.853,29.19,26.037,21.432,17.192
1924,16.1,18.947,26.325,31.111,32.052,33.9,29.735,29.289,28.387,26.933,21.14,17.443
1925,15.099,17.128,24.296,29.524,31.686,31.137,29.289,29.173,28.956,26.028,20.959,16.371
1926,16.304,19.166,22.926,27.78,31.506,34.428,29.851,29.298,28.98,26.434,20.146,17.201
1927,15.727,18.638,22.815,30.035,31.078,32.416,29.87,29.189,29.305,26.772,21.526,17.382
1928,15.639,18.847,25.394,29.567,32.556,31.099,29.564,29.788,29.977,27.242,21.338,17.767
1929,16.591,18.036,25.01,29.628,33.387,32.638,29.56,29.154,29.18,25.852,21.214,16.723
1930,15.67,18.431,25.063,29.551,32.216,31.821,29.495,29.279,29.344,26.581,20.949,16.432
1931,17.451,18.638,24.187,30.953,32.073,33.281,29.746,29.989,29.29,26.956,21.224,17.757
1932,17.669,18.202,25.086,29.819,32.908,32.832,30.271,29.515,29.709,27.143,21.937,16.666
1933,14.971,19.735,24.83,27.923,31.339,31.291,29.451,28.969,28.981,26.478,21.402,17.243
1934,16.253,18.923,24.041,30.247,32.411,31.243,29.771,29.58,29.461,26.218,21.104,17.536
1935,15.874,19.436,24.889,28.378,33.174,32.514,30.291,28.855,29.149,26.437,21.522,17.15
1936,15.78,19.42,24.815,29.373,31.978,30.573,29.499,29.605,28.791,25.773,21.932,17.463
1937,15.082,18.959,23.429,29.169,31.713,32.607,30.3,28.785,29.566,25.727,21.028,16.462
1938,17.035,17.377,25.881,30.968,31.617,30.926,29.674,29.245,29.791,27.043,20.645,16.962
1939,17.099,19.546,23.055,30.468,33.074,31.552,29.981,29.351,29.274,26.471,21.741,17.473
1940,16.345,18.998,22.345,29.167,32.707,32.426,29.946,29.473,28.98,27.27,22.305,17.273
1941,16.696,19.652,26.42,31.536,32.111,31.516,30.587,29.26,29.189,26.623,21.611,18.423
1942,16.619,18.945,25.085,29.647,33.804,33.132,30.18,29.375,28.256,26.446,22.524,17.242
1943,18.535,18.138,25,27.929,32.918,32.426,29.66,29.06,29.27,26.933,21.891,18.224
1944,16.234,18.918,23.59,27.629,33.702,32.432,29.87,29.478,30.52,26.132,21.438,18.087
1945,15.931,17.55,24.815,28.348,31.783,33.016,30.872,29.776,29.031,25.545,21.004,15.899
1946,16.538,20.671,24.506,28.027,30.832,31.891,29.67,29.773,29.142,26.153,21.229,17.874
1947,16.341,19.259,25.335,31.027,32.182,33.317,29.87,29.875,29.18,26.543,21.712,17.586
1948,17.114,19.462,24.442,30.747,32.667,33.932,29.359,29.45,28.974,26.053,21.757,16.961
1949,17.302,18.712,24.296,28.402,30.509,31.814,29.514,29.473,28.98,27.081,21.021,16.159
1950,17.101,18.628,23.696,29.292,32.451,31.345,29.906,29.051,28.68,26.307,20.203,17.499
1951,16.199,18.992,25.015,29.543,33.104,32.686,29.751,29.825,29.306,28.267,22.412,17.295
1952,17.642,20.671,23.675,29.917,32.289,32.107,30.062,29.255,28.741,27.251,21.627,16.924
1953,16.18,20.234,27.256,30.509,33.189,32.312,29.446,29.471,28.867,26.378,21.053,18.633
1954,15.599,20.754,25.003,31.803,33.383,32.067,29.826,29.28,29.306,25.651,20.326,16.734
1955,16.226,18.191,26.376,29.218,32.715,32.022,29.051,28.813,28.719,26.652,21.946,16.858
1956,15.995,18.414,25.485,31.282,33.344,30.4,29.962,29.281,28.261,26.723,21.104,18.114
1957,17.251,18.62,23.726,30.258,34.16,32.813,30.16,29.793,29.897,27.198,22.062,18.654
1958,18.444,20.015,25.318,31.037,33.539,33.862,30.486,29.057,29.27,27.252,22.614,18.321
1959,17.325,19.18,24.684,30.448,32.593,32.306,30.272,30.085,28.76,26.438,21.692,17.79
1960,16.942,21.68,23.514,30.528,32.839,32.938,29.672,30.235,28.999,26.882,21.224,18.404
1961,17.584,18.478,24.854,29.991,32.934,31.325,29.869,29.86,29.173,26.704,20.799,14.611
1962,15.317,19.263,23.854,29.536,31.758,31.958,30.389,28.6,28.671,25.982,21.602,17.163
1963,15.474,20.058,24.016,29.018,31.068,31.597,29.695,29.264,28.493,27.152,22.013,18.718
1964,16.333,19.459,25.643,30.313,31.003,32.375,28.728,29.673,29.031,27.938,21.647,17.582
1965,17.338,19.539,23.205,28.334,31.943,32.961,29.666,29.307,28.168,26.662,22.158,15.685
1966,16.317,20.055,25.034,30.523,33.089,32.766,30.341,28.718,28.981,26.362,23.084,17.544
1967,16.918,20.458,23.396,28.543,32.232,32.898,30.117,29.36,28.974,25.822,20.753,18.377
1968,16.324,18.376,24.327,29.28,32.147,30.851,29.535,29.308,29.684,26.244,22.091,17.172
1969,15.918,19.362,26.315,30.477,31.749,32.589,30.067,28.76,28.67,27.122,23.178,17.644
1970,16.581,18.638,24.507,30.674,32.834,31.141,29.689,29.583,28.955,27.422,21.621,17.069
1971,15.899,16.316,23.914,27.742,29.673,29.769,28.745,27.798,28.67,26.353,20.785,17.452
1972,16.183,16.992,24.411,28.983,32.752,32.424,29.898,29.404,28.021,25.552,21.429,16.858
1973,16.587,19.516,23.375,30.483,31.643,31.04,29.76,29.476,28.871,26.643,21.244,17.228
1974,16.52,18.428,24.485,30.227,31.582,32.178,29.251,29.065,28.983,27.842,21.243,15.452
1975,16.012,18.808,24.142,30.008,32.167,31.592,28.809,29.18,28.67,27.478,21.075,16.707
1976,16.792,19.834,24.545,29.347,31.193,31.356,29.58,28.708,28.51,26.763,22.834,16.973
1977,16.008,19.273,25.626,29.028,29.583,31.022,29.489,29.418,29.5,26.038,23.123,17.237
1978,15.408,18.154,22.726,28.527,32.172,31.26,29.395,29.506,28.951,26.548,22.598,17.301
1979,17.173,17.185,24.21,29.848,33.224,31.986,30.142,31.154,28.56,27.132,23.807,18.93
1980,16.625,19.479,24.096,31.337,32.162,31.396,30.051,29.17,28.811,26.253,22.138,17.781
1981,15.908,18.965,23.851,28.219,30.684,32.07,29.431,29.274,29.369,26.652,21.244,16.972
1982,17.406,18.825,23.155,29.519,32.717,31.532,31.196,29.741,29.285,26.472,22.122,15.385
1983,15.809,19.878,24.092,28.91,30.894,32.404,30.371,29.98,30.233,26.734,21.363,17.742
1984,15.915,18.198,25.485,30.53,32.661,31.005,29.199,28.9,28.684,27.727,20.624,17.647
1985,17.198,18.726,26.701,30.539,32.013,32.605,29.071,29.479,28.986,26.347,21.655,18.392
1986,16.521,18.487,24.296,29.427,30.635,31.851,29.506,29.061,27.806,25.753,22.988,16.803
1987,15.968,21.028,24.207,29.427,31.707,32.807,29.751,28.459,29.379,26.715,22.009,18.525
1988,17.712,19.847,24.306,30.076,32.492,31.051,29.791,28.756,30.191,27.806,22.193,18.934
1989,15.249,17.963,24.797,29.922,32.773,31.177,29.686,28.457,29.776,27.782,22.122,16.227
1990,15.714,18.75,23.306,30.223,30.441,32.213,29.295,29.152,29.61,26.626,22.66,17.982
1991,17.45,19.396,24.85,29.186,32.382,30.669,29.899,28.738,29.36,26.983,21.109,17.207
1992,14.809,16.771,25.886,30.378,30.732,31.63,30.208,28.991,29.562,27.533,22.252,17.388
1993,17.44,21.1,23.793,28.999,32.134,32.278,30.578,28.698,28.98,27.462,22.011,18.115
1994,17.584,18.628,25.785,29.221,32.139,32.232,29.844,29.009,29.464,27.124,22.325,17.463
1995,14.628,21.78,24.668,29.823,32.822,32.798,29.653,28.79,29.355,27.161,22.639,18.565
1996,16.755,19.136,25.858,28.972,32.583,30.934,29.655,28.006,29.774,27.142,22.981,18.732
1997,15.714,18.095,24.83,29.52,31.226,32.567,30.549,29.408,28.49,26.131,22.525,17.804
1998,16.647,19.745,23.149,28.909,31.99,33.669,29.519,29.59,29.581,29.299,23.122,18.661
1999,16.958,20.498,25.289,32.172,32.603,31.707,29.509,29.189,28.98,27.923,23.311,18.466
2000,17.524,18.95,24.355,30.554,31.903,31.662,30.341,29.372,28.832,28.203,24.003,18.142
2001,17.285,19.871,24.455,30.204,32.728,30.894,29.594,29.727,30.036,28.585,24.239,19.296
2002,16.578,20.242,25.702,29.937,32.799,32.716,31.05,29.254,28.971,27.043,22.613,18.232
