Year,Jan,Feb,Mar,Apr,May,Jun,Jul,Aug,Sep,Oct,Nov,Dec
1901,15.563,18.9,23.887,30.137,31.599,32.975,30.225,29.4,28.962,27.5,21.938,17.551
1902,17.8,19.4,25.449,28.674,31.537,31.936,29.463,29.862,28.962,25.963,21.337,16.351
1903,16.725,18.463,23.312,29.737,32.686,31.712,30.825,29.262,29.3,26.575,21.35,16.651
1904,16.762,19.1,24.35,30.661,30.599,31.05,29.1,29.1,28.962,26.438,20.838,17.3
1905,15.287,14.925,21.349,26.674,30.474,32.961,29.562,28.525,28.8,26.738,21.775,16.776
1906,16.224,18.287,22.087,30.236,32.499,31.837,29.925,28.863,29.5,26.5,22.089,17.613
1907,17.9,18.324,21.111,27.212,30.899,31.936,30.025,30.138,29.463,27.137,21.513,16.988
1908,14.9,18.562,24.45,32.099,32.223,32.312,29.624,30.3,29.262,27,21.075,16.213
1909,17.349,18.663,25.687,27.912,32.123,30.611,29.763,29.137,29.638,27.175,21.875,17.513
1910,16,18.824,24.45,29.899,31.623,31.012,29.087,29.737,29.3,26.3,20.975,16.713
1911,17.649,18.1,22.549,29.537,32.624,30.949,30.587,29.238,28.762,26.263,20.338,16.013
1912,16.725,19.825,23.812,28.037,31.036,31.974,29.425,29.4,28.962,26.5,20.475,16.513
1913,16.162,18.387,22.112,30.623,30.399,29.787,29.725,29.238,29.5,26.138,20.338,16.438
1914,16.963,19.087,23.187,27.612,30.836,31.087,29.5,29.062,28.962,25.262,21.375,17.676
1915,17.162,18.588,23.187,29.274,31.861,31.174,30.487,29.6,29.262,28.338,23.176,17.113
1916,16.1,18.625,26.424,30.037,33.81,30.75,29.487,29.2,29.163,26.7,21.813,16.251
1917,16.025,18.324,22.95,27.898,29.237,30.812,29.624,29.437,28.6,26.2,21.65,16.813
1918,15.124,18.362,24.612,28.274,31.612,30.15,30.712,28.537,29.463,26.8,21.337,15.876
1919,16.912,17.625,24.65,28.337,31.323,31.412,29.725,29.538,28.863,26.438,21.676,16.913
1920,16.7,18.588,22.912,29.499,30.748,32.223,29.925,29.5,28.962,27,21.938,17.551
1921,17.124,18.762,25.925,30.599,34.086,31.761,29.85,29.338,28.724,25.6,21.013,15.7
1922,16.963,19.563,25.587,30.574,33.361,30.549,29.624,29.038,28.6,25.637,21.375,17.013
1923,16.562,18.425,24.525,30.574,32.286,32.999,29.687,29.975,29.087,26,21.513,17.175
1924,16.025,18.824,26.049,30.836,31.548,33.698,29.725,29.3,28.362,26.938,21.213,17.551
1925,15.062,16.987,24.087,29.35,31.323,30.974,29.262,29.163,28.925,26,20.938,16.45
1926,16.262,19.025,22.612,27.437,31.124,34.123,29.825,29.3,29.038,26.4,20.137,17.251
1927,15.625,18.487,22.587,29.662,30.761,32.199,29.825,29.2,29.225,26.7,21.5,17.376
1928,15.487,18.725,25.074,29.274,32.261,31.05,29.562,29.8,30,27.2,21.337,17.775
1929,16.524,17.962,24.825,29.336,32.986,32.361,29.525,29.238,29.087,25.838,21.313,16.776
1930,15.587,18.362,24.849,29.237,31.861,31.561,29.463,29.3,29.362,26.462,20.975,16.476
1931,17.387,18.525,24.025,30.75,31.724,33.174,29.687,30.038,29.225,26.9,21.275,17.813
1932,17.625,18.125,24.924,29.612,32.675,32.599,30.225,29.538,29.662,27.1,22.051,16.675
1933,14.925,19.625,24.624,27.674,30.848,31.211,29.425,29,28.962,26.438,21.513,17.313
1934,16.224,18.9,23.787,29.974,31.986,31.074,29.687,29.638,29.5,26.2,21.176,17.537
1935,15.825,19.362,24.687,28.15,32.937,32.336,30.225,28.9,29.163,26.4,21.575,17.138
1936,15.763,19.325,24.549,29.149,31.661,30.45,29.463,29.6,28.762,25.738,21.938,17.438
1937,15.1,18.824,23.224,28.949,31.436,32.437,30.263,28.8,29.562,25.663,21.037,16.551
1938,16.925,17.263,25.649,30.75,31.299,30.849,29.587,29.3,29.8,26.962,20.638,17.05
1939,17.025,19.387,22.749,30.287,32.761,31.374,29.963,29.437,29.3,26.362,21.888,17.551
1940,16.337,18.824,22.012,28.987,32.474,32.236,29.963,29.5,28.962,27.2,22.338,17.237
1941,16.55,19.563,26.15,31.237,31.799,31.336,30.487,29.262,29.2,26.563,21.638,18.55
1942,16.562,18.824,24.887,29.374,33.424,32.975,30.124,29.437,28.3,26.438,22.576,17.237
1943,18.449,18.062,24.712,27.636,32.599,32.274,29.587,29.137,29.3,26.9,22.089,18.213
1944,16.087,18.787,23.387,27.374,33.398,32.274,29.825,29.538,30.424,26.175,21.513,18.075
1945,15.825,17.424,24.587,28.112,31.499,32.874,30.75,29.763,29.038,25.538,21.113,15.913
1946,16.5,20.562,24.287,27.812,30.536,31.774,29.624,29.838,29.238,26.1,21.35,17.8
1947,16.224,19.162,25.049,30.774,31.861,33.174,29.825,29.937,29.163,26.5,21.775,17.575
1948,16.987,19.325,24.15,30.474,32.399,33.774,29.362,29.538,29.038,26,21.813,17.013
1949,17.263,18.625,24.124,28.249,30.311,31.636,29.425,29.538,28.925,27,21.188,16.213
1950,17.062,18.525,23.487,28.937,32.099,31.174,29.825,29.1,28.6,26.162,20.175,17.575
1951,16.125,18.937,24.862,29.274,32.836,32.399,29.725,29.8,29.3,28.3,22.513,17.2
1952,17.487,20.487,23.487,29.674,31.998,31.974,29.987,29.3,28.8,27.313,21.713,17.013
1953,16.012,20.05,27.125,30.387,32.975,32.349,29.425,29.538,28.9,26.338,21.075,18.575
1954,15.6,20.662,24.975,31.537,33.211,31.936,29.749,29.262,29.3,25.713,20.526,16.637
1955,16.125,18.175,26.187,29.012,32.286,31.874,29.1,28.875,28.662,26.751,22.126,16.913
1956,15.962,18.375,25.363,31.112,33.211,30.462,29.925,29.375,28.338,26.813,21.364,18.024
1957,17.249,18.525,23.411,29.974,33.761,32.599,30.124,29.8,29.862,27.125,22.25,18.562
1958,18.387,19.774,24.974,30.736,33.011,33.523,30.311,29.062,29.3,27.238,22.638,18.413
1959,17.249,19.011,24.487,30.174,32.261,32.061,30.15,30.025,28.762,26.513,21.813,17.813
1960,16.749,21.55,23.287,29.986,32.386,32.624,29.587,30.162,28.962,26.762,21.313,18.512
1961,17.487,18.425,24.512,29.674,32.562,31.211,29.9,29.862,29.2,26.738,20.913,14.688
1962,15.338,19.124,23.625,29.136,31.398,31.774,30.287,28.638,28.662,25.975,21.638,17.175
1963,15.537,19.925,23.711,28.699,30.836,31.474,29.624,29.262,28.462,27.1,21.938,18.663
1964,16.224,19.287,25.387,30.037,30.699,32.212,28.738,29.7,28.962,28.013,21.713,17.424
1965,17.187,19.311,22.95,28.049,31.574,32.699,29.549,29.187,28.162,26.563,22.137,15.751
1966,16.375,19.962,24.787,30.099,32.699,32.574,30.212,28.738,28.887,26.225,23.1,17.424
1967,16.674,20.287,23.149,28.311,31.936,32.661,30.049,29.4,28.962,25.7,20.7,18.262
1968,16.224,18.225,24.087,28.974,31.698,30.774,29.525,29.375,29.662,26.2,22.25,17.05
1969,15.975,19.263,26.087,30.212,31.574,32.474,30.062,28.837,28.7,27.1,23.313,17.751
1970,16.562,18.562,24.325,30.374,32.536,31.05,29.662,29.638,28.962,27.513,21.751,17.189
1971,15.9,16.313,23.762,27.612,29.436,29.687,28.8,27.875,28.662,26.263,20.838,17.362
1972,16.238,17,24.225,28.637,32.361,32.161,29.787,29.362,28.062,25.462,21.537,16.875
1973,16.6,19.387,23.224,30.274,31.361,30.974,29.725,29.425,28.9,26.6,21.238,17.087
1974,16.487,18.362,24.287,30.012,31.299,31.998,29.187,29.062,28.925,27.838,21.275,15.55
1975,15.887,18.687,23.887,29.737,31.861,31.436,28.825,29.163,28.662,27.438,21,16.675
1976,16.687,19.649,24.249,29.112,30.899,31.061,29.449,28.662,28.5,26.662,22.8,16.824
1977,15.887,19.263,25.349,28.699,29.336,30.911,29.5,29.362,29.5,25.925,23.138,17.376
1978,15.325,17.949,22.487,28.236,31.899,31.211,29.324,29.538,28.962,26.537,22.6,17.388
1979,17.124,17.175,24.062,29.612,32.937,31.736,30.087,30.937,28.563,27.024,23.762,18.787
1980,16.524,19.349,23.887,31.112,31.899,31.35,30.1,29.238,28.762,26.124,22.137,17.775
1981,15.862,18.937,23.649,28.037,30.498,31.974,29.387,29.3,29.362,26.6,21.238,16.975
1982,17.362,18.65,22.987,29.312,32.449,31.412,31.012,29.8,29.149,26.325,22.175,15.601
1983,15.763,19.938,23.774,28.75,30.599,32.099,30.325,30,30.3,26.738,21.375,17.813
1984,15.712,18.163,25.363,30.236,32.261,31.062,29.125,28.9,28.662,27.738,20.638,17.676
1985,17.124,18.625,26.625,30.274,31.761,32.474,29.024,29.5,28.962,26.263,21.6,18.338
1986,16.425,18.249,24.124,29.136,30.399,31.636,29.5,29.175,27.649,25.7,22.962,16.663
1987,15.825,20.849,23.987,29.174,31.436,32.562,29.725,28.537,29.4,26.6,21.938,18.287
1988,17.549,19.687,24.087,29.812,32.161,30.987,29.763,28.738,30.124,27.738,22.175,18.838
1989,15.237,17.762,24.549,29.537,32.536,31.149,29.624,28.475,29.8,27.776,22.062,16.213
1990,15.963,18.55,23.125,30.087,30.137,32.149,29.3,29.175,29.562,26.676,22.675,18.013
1991,17.274,19.338,24.662,28.911,31.961,30.549,29.787,28.775,29.437,26.938,20.9,17.251
1992,14.951,16.776,25.725,30.112,30.399,31.436,30.112,29.075,29.562,27.538,22.125,17.376
1993,17.424,20.95,23.55,28.736,31.861,32.024,30.487,28.738,29.038,27.363,22.126,18.151
1994,17.525,18.487,25.625,29.012,31.761,32.111,29.8,29.075,29.538,27.062,22.3,17.362
1995,14.675,21.461,24.562,29.574,32.649,32.562,29.624,28.875,29.437,27.137,22.638,18.575
1996,16.687,19.138,25.687,28.75,32.261,30.812,29.624,28.113,29.763,27.137,23.15,18.738
1997,15.625,17.962,24.587,29.4,30.861,32.399,30.851,29.437,28.462,25.987,22.5,17.8
1998,16.7,19.662,23,28.649,31.674,33.499,29.463,29.6,29.6,29.3,23.213,18.713
1999,16.975,20.538,25.162,32.238,32.374,31.574,29.387,29.2,28.925,27.9,23.375,18.475
2000,17.537,18.975,24.162,30.274,31.599,31.587,30.325,29.4,28.9,28.2,24.076,18.213
2001,17.338,19.976,24.287,29.912,32.399,30.825,29.6,29.737,30.1,28.6,24.237,19.275
2002,16.562,20.163,25.524,29.674,32.499,32.574,31.024,29.3,28.925,26.962,22.675,18.062
