Year,Jan,Feb,Mar,Apr,May,Jun,Jul,Aug,Sep,Oct,Nov,Dec
1901,12.4,14.356,21.317,26.668,30.968,34.836,32.09,30.82,29.887,27.226,20.724,15.243
1902,15.057,17.444,22.855,27.605,31.677,32.836,31.175,31.298,29.319,25.314,19.92,14.522
1903,13.425,15.243,19.356,26.128,31.208,34.981,32.836,30.526,30.158,26.228,19.824,14.884
1904,12.965,16.809,20.366,28.128,31.229,33.875,31.165,30.317,29.277,25.869,19.173,14.992
1905,11.423,11.536,17.155,24.398,32.577,34.38,31.953,31.746,30.406,26.474,20.653,14.88
1906,12.334,13.564,19.015,27.078,33.665,33.056,32.115,29.476,29.087,26.356,21.267,16.193
1907,15.435,13.323,17.266,24.299,29.937,33.189,32.586,30.038,30.739,27.068,20.534,14.723
1908,14.148,16.417,21.298,28.349,31.728,34.94,30.799,28.669,29.389,25.976,19.112,14.612
1909,12.596,14.783,21.829,25.825,31.968,31.928,29.957,29.44,29.2,26.608,20.816,14.603
1910,13.723,15.675,21.288,26.468,32.126,32.798,29.997,29.45,29.49,25.144,19.013,14.375
1911,14.104,16.495,18.546,26.919,33.186,32.858,33.076,31.706,29.568,26.117,17.936,14.444
1912,13.723,17.095,20.805,26.617,31.908,34.437,31.199,29.51,28.551,26.079,18.613,14.403
1913,14.394,14.884,18.315,28.157,29.977,30.987,30.245,30.328,29.978,26.218,19.013,13.613
1914,15.333,14.742,19.866,26.259,31.316,32.6,30.257,30.267,29.08,23.816,19.703,14.184
1915,13.884,14.497,21.126,27.507,34.075,33.487,32.707,31.157,30.128,27.33,20.566,15.131
1916,14.466,15.354,24.237,28.845,31.907,32.608,30.236,29.552,29.099,25.916,19.185,14.143
1917,13.665,16.363,20.534,23.889,27.506,32.019,29.958,29.358,27.627,24.547,18.816,14.484
1918,13.173,16.625,20.794,24.917,33.524,32.469,32.874,31.058,29.977,26.265,19.463,13.811
1919,13.195,15.193,21.233,25.948,30.648,35.014,30.645,29.791,29.328,25.879,19.284,13.841
1920,14.566,14.516,20.097,26.858,28.317,32.435,30.698,30.508,30.197,26.777,20.855,16.224
1921,13.971,17.135,24.396,30.407,35.118,34.108,32.093,29.647,28.978,24.763,19.654,15.755
1922,12.562,16.946,22.896,27.727,32.746,32.817,31.084,29.92,28.598,24.927,19.333,13.862
1923,13.682,14.386,21.885,28.578,31.408,35.157,30.697,29.06,29.278,24.917,19.514,14.67
1924,12.864,15.735,22.427,28.269,28.616,35.591,31.735,29.878,27.852,25.609,19.425,15.303
1925,11.827,14.644,22.054,29.428,31.937,31.239,29.557,29.7,29.689,25.497,18.175,14.735
1926,13.975,17.027,19.295,23.878,29.128,34.927,31.509,29.227,28.959,25.318,17.664,14.693
1927,12.825,13.564,20.056,26.318,30.277,33.589,30.409,29.1,29.241,25.593,19.473,15.656
1928,12.685,16.293,21.066,26.909,33.628,33.379,31.448,31.117,29.921,26.625,19.743,14.303
1929,13.314,14.885,23.365,28.109,32.958,33.446,30.889,29.379,30.018,25.523,19.925,12.592
1930,12.192,15.435,21.865,26.608,31.697,32.328,29.618,30.068,28.66,25.308,18.914,14.814
1931,14.987,13.404,20.384,28.579,31.517,34.338,31.146,30.399,28.838,25.576,19.244,15.303
1932,15.606,15.126,22.113,27.617,30.477,35.238,31.097,29.257,29.149,25.929,19.705,14.655
1933,11.996,16.174,20.917,24.998,29.037,33.217,30.067,28.57,27.95,24.977,19.235,15.703
1934,11.403,18.064,20.175,27.297,30.725,32.949,30.747,29.058,30.249,25.598,19.485,14.852
1935,11.614,16.121,21.068,23.708,32.227,35.099,30.759,29.389,29.04,25.494,19.772,14.214
1936,12.375,15.713,20.577,26.818,33.725,31.307,30.257,29.649,28.79,25.677,19.584,13.951
1937,12.985,15.622,19.729,25.578,31.478,33.847,30.357,31.019,29.38,24.889,18.864,13.794
1938,13.026,14.318,22.266,28.319,33.918,32.299,31.588,30.57,30.437,26.776,18.172,15.535
1939,14.483,15.915,18.567,25.769,33.376,31.997,30.889,30.868,29.667,26.726,19.853,15.764
1940,13.934,15.275,19.145,25.757,32.468,33.559,31.137,29.201,28.921,25.936,20.373,14.322
1941,12.724,16.927,23.566,30.267,33.265,32.097,32.007,30.28,29.58,27.598,19.925,16.563
1942,12.483,16.458,23.078,28.81,32.256,34.59,29.967,28.601,28.202,25.889,20.633,14.104
1943,12.945,16.656,21.766,26.016,31.475,33.448,30.409,28.946,29.841,25.996,20.795,16.152
1944,12.404,14.854,19.807,26.378,33.328,33.144,30.378,29.931,29.047,25.797,20.074,15.645
1945,11.474,15.025,21.815,25.498,30.99,33.889,30.546,29.93,28.55,24.975,19.824,13.844
1946,15.165,18.553,20.624,29.129,31.815,33.138,30.518,29.999,29.891,25.823,19.633,14.145
1947,12.875,16.593,21.955,29.227,33.034,36.186,32.236,30.627,28.499,24.777,20.412,15.093
1948,14.012,15.003,19.973,30.068,33.09,34.686,31.048,29.007,29.28,26.095,18.565,14.163
1949,15.676,15.755,21.973,29.227,33.585,34.08,30.196,30.136,30.376,25.987,18.635,13.923
1950,14.703,14.543,20.056,27.096,33.177,34.236,31.005,29.689,27.978,25.018,19.527,13.365
1951,12.814,16.506,21.676,25.058,31.574,34.108,32.687,30.691,30.246,27.856,21.116,16.012
1952,15.026,18.385,21.043,29.858,32.727,33.14,31.095,29.51,30.516,26.097,20.394,15.494
1953,12.954,18.844,25.266,28.616,33.225,34.239,30.649,29.948,29.628,26.176,20.084,17.48
1954,12.814,16.873,21.996,28.728,33.205,34.116,31.236,30.975,29.889,23.888,19.512,14.652
1955,13.465,17.186,23.763,25.706,30.018,34.887,31.536,29.439,28.797,24.538,19.756,14.821
1956,13.771,17.604,21.663,28.876,34.484,33.529,30.146,29.44,30.167,24.677,19.034,14.603
1957,12.913,15.294,20.504,26.057,30.516,33.287,31.506,30.08,28.2,25.887,20.275,15.183
1958,15.374,16.315,22.712,30.224,31.975,34.887,30.456,29.998,29.092,26.037,20.846,16.045
1959,13.995,15.527,22.787,28.128,31.375,34.592,30.788,30.146,29.389,25.92,19.715,15.952
1960,13.275,20.116,20.605,26.774,33.135,34.938,31.356,30.108,29.978,25.745,19.125,16.075
1961,14.394,14.507,22.527,27.617,32.538,34.037,31.15,29.91,30.238,25.399,18.134,12.904
1962,12.547,16.715,21.32,28.797,32.518,33.827,31.896,30.359,28.031,27.648,19.496,14.171
1963,13.404,18.052,21.307,27.05,30.749,33.718,31.408,28.907,28.55,26.249,19.987,14.604
1964,12.425,15.639,21.747,27.629,29.83,34.449,29.547,30.148,28.879,25.827,19.006,14.623
1965,15.465,16.024,21.037,25.708,31.159,34.939,30.607,29.431,29.38,25.718,20.125,13.585
1966,13.704,17.715,21.494,28.277,32.834,33.419,31.736,30.038,29.18,25.456,19.294,14.523
1967,13.205,18.537,20.867,27.108,31.576,34.47,30.907,29.307,29.38,24.866,18.884,14.643
1968,12.584,14.714,21.655,27.767,32.244,33.826,30.506,29.821,30.721,24.766,19.824,15.343
1969,13.864,17.406,24.535,27.925,30.949,34.419,31.038,30.548,29.058,26.595,20.955,15.735
1970,14.005,16.306,21.774,29.188,33.444,31.979,31.907,29.739,29.61,26.557,19.625,15.534
1971,13.444,16.913,21.744,28.234,30.205,31.787,30.196,28.52,28.588,25.916,19.773,16.093
1972,14.525,14.575,22.816,26.818,33.198,34.988,31.856,29.697,28.458,25.275,20.353,15.314
1973,14.246,18.033,21.106,29.74,32.345,32.877,30.038,29.011,28.832,24.707,19.445,13.434
1974,13.136,14.698,22.366,29.329,31.626,32.329,29.901,29.569,29.22,25.357,19.515,13.493
1975,13.581,15.816,20.895,29.056,33.204,33.085,30.127,29.62,27.852,27.117,18.953,15.631
1976,14.076,16.214,21.302,26.747,31.687,31.52,30.739,28.382,28.55,25.915,20.275,14.595
1977,13.502,15.6,21.978,26.688,28.887,30.836,29.778,29.139,27.9,25.828,21.166,15.305
1978,12.296,14.793,19.454,26.367,33.118,32.261,29.319,28.849,27.94,25.677,20.365,15.427
1979,14.519,15.009,19.877,29.027,31.359,33.679,29.977,30.87,28.484,26.627,21.265,16.456
1980,14.217,16.865,20.875,29.906,33.494,32.367,29.707,29.979,28.329,26.024,19.264,14.764
1981,13.19,16.674,20.947,27.767,31.831,33.477,29.675,29.595,29.319,25.1,19.387,14.762
1982,14.744,15.275,18.821,25.278,28.639,33.424,31.616,29.338,29.738,25.649,20.073,15.856
1983,12.825,15.104,20.445,24.937,29.738,32.449,31.015,29.389,29.406,24.625,18.956,14.891
1984,12.25,14.425,22.86,27.784,34.718,33.325,29.889,29.731,28.029,24.969,19.282,15.076
1985,13.657,16.824,23.507,28.279,32.868,33.772,29.639,29.458,28.716,24.595,19.594,16.259
1986,13.362,15.768,20.932,27.418,29.653,32.946,29.695,29.878,28.629,24.427,20.64,14.024
1987,14.277,17.665,22.066,28.349,28.571,34.051,33.532,31.186,30.928,27.107,20.648,15.903
1988,15.501,17.509,21.598,29.552,33.666,32.697,29.767,28.898,28.887,25.622,20.305,15.682
1989,12.761,15.717,20.998,26.2,31.658,31.745,31.036,27.976,28.679,25.857,19.772,14.775
1990,15.859,16.259,19.683,27.167,31.193,34.157,29.307,29.237,27.959,24.286,20.311,15.149
1991,13.069,16.764,21.183,25.767,32.112,31.805,31.903,29.238,28.647,24.768,18.901,15.141
1992,14.111,15.174,21.166,27.485,30.843,33.492,29.737,28.916,28.389,25.088,20.034,15.983
1993,13.665,17.863,19.713,27.128,33.107,33.177,30.435,30.87,27.81,25.037,20.532,15.286
1994,14.235,16.424,23.076,26.059,32.627,34.15,29.88,29.299,28.29,24.738,20.124,16.063
1995,13.576,16.315,20.277,26.511,33.687,35.02,30.512,27.957,28.778,26.176,20.381,16.002
1996,13.943,16.952,22.284,28.136,31.568,31.89,30.456,28.206,28.289,25.177,19.324,14.272
1997,13.505,16.285,21.185,26.491,30.039,31.457,31.248,29.24,29.399,23.285,19.324,13.27
1998,11.104,16.845,19.718,27.865,33.118,34.195,30.462,29.697,29.347,25.896,21.261,16.49
1999,13.384,18.711,23.773,31.698,33.129,32.194,31.556,30.379,29.899,26.531,21.687,16.337
2000,14.606,15.084,21.016,30.019,33.475,32.049,30.115,30.038,29.65,27.291,21.586,16.656
2001,13.664,17.285,22.478,27.325,32.749,31.608,30.816,30.931,30.173,27.329,21.878,16.595
2002,15.68,16.344,21.051,29.742,34.323,33.4,32.583,30.438,27.789,26.046,21.093,15.974
