Year,Jan,Feb,Mar,Apr,May,Jun,Jul,Aug,Sep,Oct,Nov,Dec
1901,12.766,14.781,21.767,27.017,31.377,35.038,32.271,30.83,30.256,27.663,20.906,15.632
1902,15.212,17.512,23.568,28.147,32.08,32.928,31.245,31.567,29.383,25.99,20.168,14.435
1903,13.777,15.638,20.072,26.415,31.403,35.323,33.117,30.469,30.387,26.344,19.827,14.658
1904,13.249,16.775,20.871,28.478,31.598,34.159,31.063,30.156,29.279,26.192,19.431,15.296
1905,11.969,11.808,17.83,24.85,32.958,34.767,32.275,31.674,30.826,26.86,21.146,15.296
1906,12.744,14.173,19.489,27.314,34.105,33.192,32.204,29.621,29.02,26.818,21.336,16.258
1907,15.543,13.814,18.097,24.622,30.213,33.311,33.09,29.909,30.947,27.222,20.606,14.525
1908,14.027,16.602,21.619,28.583,32.095,34.989,30.645,28.494,29.36,26.085,19.406,14.752
1909,12.977,15.007,21.983,26.069,31.952,32.026,29.789,29.354,29.051,26.656,21.139,14.664
1910,13.663,16.039,21.623,26.747,32.501,32.993,30.305,29.498,29.521,25.285,19.271,14.665
1911,14.812,16.606,19.165,27.223,33.473,33.391,33.308,31.794,29.573,26.619,17.98,14.598
1912,14.144,17.274,21.182,27.215,32.469,34.897,31.463,29.621,28.455,26.35,19.005,14.665
1913,14.632,15.417,18.904,28.65,30.333,31.179,30.436,30.63,30.345,26.836,19.514,14.332
1914,15.577,15.257,20.631,27.072,31.875,32.833,30.33,30.208,29.238,24.369,20.147,14.393
1915,13.939,14.602,21.546,27.771,34.586,33.763,33.183,31.341,30.466,27.569,20.635,15.466
1916,14.774,15.672,24.553,29.345,32.204,32.792,30.434,29.419,29.125,26.089,18.935,14.258
1917,14.077,16.697,21.284,24.444,27.936,32.303,29.923,29.145,27.571,24.63,18.266,14.825
1918,13.365,16.735,21.222,25.255,34.026,32.972,33.599,31.524,30.297,26.663,19.843,14.252
1919,13.769,15.308,21.96,26.677,31.273,35.56,30.577,29.613,29.485,26.089,19.408,14.167
1920,14.243,15.048,20.998,27.281,28.844,32.592,30.84,30.646,30.731,27.397,21.304,16.189
1921,14.579,17.31,24.783,30.871,35.432,34.495,32.723,29.742,29.148,25.227,19.974,16.363
1922,13.236,17.216,23.325,28.351,33.061,33.058,31.249,29.929,28.525,25.296,19.574,14.426
1923,13.801,14.854,22.19,28.777,31.671,35.511,30.973,28.894,29.453,25.296,19.707,15.023
1924,13.128,15.844,22.761,28.51,29.205,35.731,31.802,29.875,28.033,25.616,19.568,15.422
1925,12.131,14.501,22.338,29.744,32.286,31.111,29.349,29.892,30.023,26.001,18.478,14.696
1926,14.331,17.274,20.026,24.351,29.478,35.035,31.656,29.153,28.888,25.383,17.874,14.688
1927,12.856,13.982,20.426,26.615,30.643,33.731,30.43,29.015,29.219,25.917,19.628,15.864
1928,12.977,16.477,21.531,27.346,33.798,33.562,31.592,31.389,30.071,26.992,20.254,14.565
1929,13.737,15.068,23.846,28.611,33.331,33.665,30.982,29.379,30.432,25.934,20.274,13.372
1930,12.65,15.775,22.371,27.023,32.134,32.639,29.52,30.069,28.717,25.928,19.273,14.834
1931,14.978,13.927,20.622,28.852,32.105,34.453,31.233,30.242,28.787,25.75,19.26,15.457
1932,15.59,15.393,22.634,27.877,30.837,35.331,31.233,29.049,29.144,26.129,19.614,14.692
1933,11.977,16.517,21.372,25.63,29.355,33.035,29.896,28.275,27.798,25.089,19.325,15.758
1934,11.909,17.871,20.567,27.507,31.143,32.884,30.781,28.863,30.179,25.666,19.611,15.522
1935,12.062,16.477,21.426,24.23,32.571,35.064,30.652,29.248,29.075,25.731,20.145,14.632
1936,12.61,16.255,20.904,27.163,34.161,31.225,30.123,29.402,28.784,25.868,19.707,14.624
1937,13.097,16.042,20.025,25.836,31.838,33.825,30.324,31.247,29.528,25.174,19.301,13.936
1938,13.228,14.675,22.731,28.684,34.299,32.371,31.71,30.746,30.919,27.138,18.556,15.213
1939,14.626,16.221,19.031,26.163,33.78,32.028,30.989,31.088,29.916,27.184,19.796,15.746
1940,14.058,15.675,19.886,26.29,33.044,33.99,31.274,29.002,29.091,26.089,20.592,14.792
1941,12.991,17.11,23.989,30.685,33.807,32.105,32.553,30.361,29.727,28.255,20.195,16.485
1942,12.625,16.863,23.365,29.288,32.911,34.65,29.817,28.427,27.955,26.024,20.892,14.156
1943,13.509,16.579,22.232,26.345,31.9,33.489,30.342,28.872,29.882,26.089,20.801,16.319
1944,12.862,15.387,20.293,26.681,33.683,33.334,30.218,29.915,29.024,25.784,20.334,15.862
1945,11.831,15.335,22.334,26.071,31.21,33.949,30.668,29.958,28.394,25.362,19.971,13.977
1946,15.025,18.579,21.092,29.455,32.325,33.275,30.421,29.783,29.905,26.327,19.828,14.255
1947,13.13,16.664,22.554,29.665,33.316,36.252,32.357,30.763,28.484,25.137,20.842,15.158
1948,13.831,15.57,20.472,30.462,33.292,34.833,31.124,28.869,29.346,26.696,18.818,14.634
1949,15.927,16.37,22.372,29.558,33.994,34.338,30.229,30.199,30.574,26.19,18.768,14.325
1950,15.137,14.535,20.651,27.239,33.439,34.58,30.835,29.618,28.13,25.233,19.431,13.431
1951,13.197,16.435,22.046,25.611,31.998,33.961,32.913,30.548,30.243,28.436,21.437,15.987
1952,15.231,18.675,21.871,30.476,33.054,33.128,31.235,29.242,30.688,26.751,20.506,15.639
1953,13.465,19.001,25.753,29.065,33.64,34.374,30.66,29.796,29.749,26.617,20.239,17.786
1954,13.197,17.237,22.213,29.037,33.859,34.487,31.391,31.168,30.132,24.09,19.94,15.304
1955,13.837,17.268,24.257,26.273,30.561,34.991,31.878,29.451,28.826,24.79,19.761,15.356
1956,14.159,17.597,22.28,29.205,34.731,33.798,30.251,29.41,30.48,24.989,19.167,15.264
1957,13.299,15.401,21.033,26.511,31.025,33.456,31.504,30.057,28.117,26.132,20.512,15.403
1958,15.632,16.271,23.28,30.584,32.481,34.927,30.445,29.77,29.056,26.186,20.94,16.17
1959,13.998,15.711,23.019,28.462,31.821,34.727,30.977,30.113,29.411,26.306,20.086,16.033
1960,13.511,19.864,21.218,27.186,33.455,35.052,31.36,29.892,30.025,25.98,19.313,15.815
1961,14.699,14.7,22.815,27.808,32.68,34.011,31.189,29.635,29.954,25.354,18.273,12.959
1962,12.668,17.008,21.767,29.169,32.792,34.04,31.881,30.389,27.97,27.052,19.585,14.503
1963,13.361,18.306,21.814,27.411,30.973,33.646,31.817,28.902,28.358,26.496,20.461,14.804
1964,12.337,15.919,22.465,28.194,30.238,34.579,29.416,30.008,28.446,25.789,18.939,14.804
1965,15.528,16.269,21.471,25.936,31.322,35.225,30.862,29.621,29.149,25.999,20.388,13.856
1966,14.059,18.128,21.963,28.611,32.946,33.425,32.063,29.909,29.049,25.996,19.613,14.625
1967,13.164,18.802,21.242,27.366,31.964,34.794,30.985,29.215,29.04,25.238,19.307,14.996
1968,13.071,14.974,22.04,27.919,32.416,34.086,30.718,29.918,30.779,25.242,20.239,15.518
1969,14.099,17.537,24.813,28.478,31.191,34.826,31.152,30.603,29.087,26.984,21.24,15.793
1970,14.405,16.356,22.036,29.465,33.605,31.885,32.082,29.821,29.627,26.824,19.873,15.698
1971,13.393,17.235,21.992,28.999,30.647,32.119,30.284,28.171,28.632,26.15,20.102,16.15
1972,14.661,14.769,23.173,27.084,33.663,35.07,32.114,29.715,28.654,25.842,20.741,15.607
1973,14.426,18.545,21.695,29.869,32.553,34.152,30.501,29.019,29.216,25.187,19.653,13.698
1974,13.81,14.853,22.937,29.942,31.998,32.414,29.977,29.976,29.688,25.693,19.81,14.075
1975,13.66,16.059,21.496,29.267,33.597,32.953,30.187,29.607,27.825,27.171,19.192,15.86
1976,14.587,16.587,21.579,27.304,31.949,31.636,31.002,28.28,28.517,26.464,20.619,14.867
1977,13.709,16.13,22.63,27.149,29.495,31.204,29.611,29.444,27.962,26.237,21.648,16.305
1978,12.806,15.072,20.074,27.061,33.934,32.69,29.31,29.002,28.179,26.042,20.739,15.599
1979,14.657,15.506,20.245,29.231,31.226,33.688,30.416,30.77,28.775,26.999,21.725,16.785
1980,14.428,17.386,21.248,30.405,34.539,32.726,29.68,30.015,28.65,26.627,19.901,15.36
1981,13.938,17.183,21.241,28.418,32.228,33.903,29.72,29.791,29.702,25.656,19.711,15.298
1982,14.864,15.574,19.311,25.902,28.898,33.492,31.963,29.419,29.886,26.234,20.648,16.207
1983,13.183,15.663,21.052,25.196,29.969,32.686,31.016,29.348,29.492,25.211,19.485,15.502
1984,12.75,14.714,23.436,28.413,34.889,33.737,30.089,29.611,28.004,25.375,19.787,15.771
1985,14.075,17.244,23.869,28.747,33.429,33.825,29.729,29.623,28.918,24.829,20.334,16.697
1986,13.719,15.95,21.563,27.846,30.063,33.094,29.902,30.021,28.956,25.081,21.143,14.478
1987,14.677,18.077,22.531,28.783,28.979,34.302,34.006,31.299,31.11,27.463,20.954,16.081
1988,15.648,17.922,21.97,29.77,34.235,32.891,29.829,28.855,29.141,25.852,20.68,16.136
1989,13.177,15.952,21.432,26.625,32.27,32.239,31.357,28.591,28.908,26.241,20.349,15.058
1990,16.029,16.601,20.258,27.605,31.686,34.253,29.699,29.431,28.24,24.813,20.68,15.677
1991,13.621,17.118,21.632,26.463,32.434,32.31,32.436,29.321,29.106,25.14,19.415,15.641
1992,14.605,15.541,21.692,27.671,31.365,34.094,30,29.087,28.467,25.477,19.965,16.596
1993,14.08,18.344,20.254,27.709,33.479,33.527,30.488,30.838,27.76,25.338,20.879,15.564
1994,14.625,16.668,23.385,26.507,32.896,34.127,29.8,29.255,28.474,25.079,20.334,16.387
1995,13.764,16.781,20.729,27.093,33.824,35.133,31.154,28.079,29.024,26.5,20.573,16.177
1996,14.277,17.229,22.756,28.564,31.962,31.889,30.868,28.539,28.434,25.495,19.57,14.725
1997,13.494,16.406,21.486,26.632,30.267,31.424,31.222,29.255,29.383,23.73,19.473,13.391
1998,12.428,17.007,20.088,28.412,33.398,33.779,30.718,29.675,29.364,26.089,21.172,15.999
1999,13.504,18.168,23.657,31.068,33.283,32.505,31.629,30.525,29.774,26.581,21.568,16.16
2000,14.47,15.368,21.553,30.235,33.88,32.086,29.962,30.115,29.562,27.149,21.581,16.5
2001,13.573,17.529,22.616,28.038,32.674,31.39,30.863,30.913,30.098,27.422,21.666,16.631
2002,15.374,16.49,21.771,30.159,34.145,33.482,32.516,30.521,27.822,26.336,21.162,16.332
