Year,Jan,Feb,Mar,Apr,May,Jun,Jul,Aug,Sep,Oct,Nov,Dec
1901,-6.382,-5.763,1.716,4.717,7.918,12.927,15.433,15.287,11.32,7.534,2.284,-2.309
1902,-3.513,-2.889,1.149,5.047,8.833,12.596,14.512,14.311,11.616,6.428,1.246,-2.589
1903,-5.56,-5.107,-1.949,3.845,7.369,13.042,15.515,14.304,12.335,7.306,1.199,-2.369
1904,-6.501,-3.539,0.679,6.179,8.318,12.963,14.735,14.413,11.088,6.194,0.764,-2.636
1905,-6.822,-8.423,-3.458,3.102,8.932,13.253,15.054,14.895,11.83,7.469,2.25,-3.397
1906,-7.153,-6.853,-1.153,5.049,9.457,12.871,15.522,14.692,12.041,7.403,2.745,-0.796
1907,-2.745,-6.188,-2.613,4.289,7.275,12.235,15.069,14.761,11.686,7.157,2.614,-2.911
1908,-3.736,-4.635,0.192,5.822,8.394,13.677,16.041,14.548,11.758,6.304,0.955,-3.174
1909,-7.267,-6.116,1.051,5.264,8.756,11.683,14.525,14.792,11.37,6.693,2.587,-2.658
1910,-4.301,-4.575,0.136,4.37,8.858,12.532,14.723,15.09,12.187,6.701,0.124,-3.421
1911,-5.254,-4.326,-1.732,5.932,10.256,13.306,15.965,15.197,12.027,6.854,0.271,-2.302
1912,-4.671,-2.367,0.295,5.508,8.659,13.582,15.916,14.847,10.971,7.233,0.618,-2.461
1913,-4.359,-5.225,-2.019,5.081,7.586,11.342,14.857,14.724,11.416,6.849,0.046,-3.813
1914,-3.109,-4.834,-0.442,4.827,8.224,13.585,15.751,14.622,12.577,5.078,0.999,-3.431
1915,-6.206,-6.606,0.413,5.366,10.7,13.297,15.548,15.234,13.25,8.705,2.354,-1.781
1916,-4.256,-5.01,2.774,6.308,8.234,11.934,15.142,15.304,12.215,7.361,0.081,-3.696
1917,-5.34,-3.391,-0.664,2.489,6.914,12.027,15.095,15.265,12.179,6.286,0.995,-4.035
1918,-6.827,-4.008,-0.229,3.365,10.913,13.055,15.047,15.324,11.382,6.576,0.097,-5.286
1919,-6.811,-5.549,-0.446,4.177,7.873,13.989,15.501,15.324,11.101,6.761,1.07,-3.386
1920,-3.763,-6.59,-1.552,4.006,5.4,11.645,15.262,14.006,11.286,7.232,1.8,-2.447
1921,-5.712,-3.333,2.098,7.332,10.268,12.943,15.712,14.408,11.747,5.514,0.99,-2.27
1922,-5.754,-2.769,1.537,4.98,8.897,12.021,15.351,14.883,12.103,6.159,1.221,-3.303
1923,-5.401,-4.897,1.253,6.741,8.135,13.627,14.644,15.224,11.141,5.499,0.873,-2.974
1924,-6.18,-4.58,1.357,5.763,5.055,14.372,16.157,15.028,11.083,7.555,1.121,-1.653
1925,-5.997,-5.36,1.297,7.258,7.881,11.737,15.356,14.543,11.765,6.939,0.268,-2.479
1926,-4.808,-3.119,-0.79,2.995,6.994,13.686,15.733,15.763,12.09,6.835,-0.96,-2.481
1927,-5.777,-5.882,-0.47,5.035,7.606,12.896,15.929,14.813,11.661,7.479,1.37,-1.919
1928,-5.893,-3.952,0.222,5.152,10.896,13.025,15.414,14.921,12.011,7.843,1.357,-3.008
1929,-6.563,-6.573,1.942,6.303,8.968,12.9,15.242,14.33,12.238,6.029,1.471,-5.83
1930,-7.476,-4.712,0.588,4.385,8.355,11.819,15.351,14.767,11.728,6.197,1.371,-2.148
1931,-3.454,-6.961,0.047,6.875,8.14,13.063,14.352,15.838,12.261,7.713,1.519,-2.121
1932,-3.782,-5.533,1.404,6.464,7.426,13.888,16.047,14.331,12.222,6.843,1.996,-3.124
1933,-7.022,-4.185,-0.19,3.364,7.453,12.745,15.651,14.551,11.121,6.565,1.555,-1.343
1934,-6.821,-1.956,0.41,5.576,7.165,12.482,15.434,14.355,13.027,6.925,1.545,-2.503
1935,-7.564,-4.514,0.747,2.322,8.919,13.446,15.431,14.689,11.552,6.726,1.022,-4.176
1936,-6.19,-4.738,-0.586,4.742,10.59,11.634,15.142,14.718,12.392,7.491,1.383,-3.673
1937,-5.54,-4.233,0.623,4.347,8.747,13.407,15.038,15.204,11.868,5.98,-0.265,-3.731
1938,-6.494,-5.643,-0.528,6.529,11.026,11.949,15.795,14.906,11.201,7.304,0.163,-1.336
1939,-5.004,-4.942,-2.296,3.763,9.914,11.928,15.709,15.246,12.171,7.233,1.882,-1.117
1940,-3.848,-3.843,-0.685,4.496,9.049,12.657,15.657,14.141,11.038,7.41,1.804,-2.925
1941,-5.728,-3.18,2.459,7.684,10.076,12.723,15.372,15.411,11.885,8.784,1.449,-1.206
1942,-5.863,-4.907,2.337,6.445,8.787,13.442,15.732,14.598,11.817,7.272,2.394,-2.795
1943,-6.345,-4.307,0.83,4.524,7.638,11.922,15.698,14.948,12.873,6.912,1.876,-2.045
1944,-6.525,-6.534,0.233,5.341,10.252,11.93,16.934,15.33,11.247,7.062,1.507,-2.548
1945,-7.349,-5.822,0.216,3.759,8.657,13.305,15.706,15.143,13.008,7.223,1.931,-3.243
1946,-3.388,-1.593,-0.077,8.226,9.8,12.648,16.095,16.044,12.684,8.11,1.246,-4.403
1947,-7.105,-4.441,1.759,7.085,9.807,14.291,15.564,14.854,11.968,5.852,2.373,-2.842
1948,-6.309,-6.602,-1.211,6.752,9.487,12.624,14.486,14.45,11.839,7.309,0.374,-3.04
1949,-3.499,-5.879,0.326,6.603,9.752,12,15.451,14.565,12.54,7.066,0.242,-3.558
1950,-4.837,-5.759,-0.71,3.528,8.071,12.95,15.721,14.531,10.037,5.553,1.015,-3.698
1951,-6.301,-4.585,0.107,3.175,8.614,12.973,15.258,15.355,12.663,8.678,2.123,-1.284
1952,-4.966,-2.409,-0.489,7.316,9.009,12.888,15.129,14.788,12.417,6.367,1.664,-2.918
1953,-6.562,-1.968,3.076,6.001,9.775,13.584,16.521,14.484,12.166,7.172,1.577,-1.163
1954,-7.18,-5.002,1.204,6.636,8.931,12.483,15.024,14.865,12.453,5.344,1.039,-3.644
1955,-5.61,-2.946,2.026,4.228,6.592,13.223,15.048,15.263,11.973,6.542,1.818,-1.697
1956,-6.322,-2.991,0.516,6.472,11.617,13.035,15.628,14.021,12.958,6.623,1.257,-2.9
1957,-5.935,-5.394,0.098,3.544,6.744,11.676,15.645,14.011,11.33,5.935,1.398,-1.991
1958,-3.431,-2.776,1.371,7.383,7.55,12.865,16.133,14.486,12.379,7.217,1.932,-1.203
1959,-5.893,-6.024,1.263,6.608,7.606,13.54,14.826,15.612,12.75,8.739,1.225,-1.76
1960,-5.492,-0.912,-0.382,4.044,8.76,13.221,15.752,15.551,12.318,7.093,0.944,-1.013
1961,-4.721,-5.432,1.55,5.35,9.102,13.93,15.833,15.567,13.805,7.917,0.776,-4.143
1962,-4.722,-2.857,1.201,6.479,8.561,13.358,16.043,15.21,12.081,6.985,1.598,-3.77
1963,-4.56,-3.609,0.059,4.97,8.177,13.873,15.562,15.24,11.894,8.212,2.684,-2.498
1964,-6.073,-5.103,1.984,6.281,7.721,11.259,14.493,15.461,12.786,8.315,1.745,-1.989
1965,-5.444,-4.593,0.009,4.136,7.387,12.351,14.836,13.209,11.518,7.877,3.362,-2.169
1966,-5.667,-3.037,0.829,4.647,7.709,13.271,14.503,14.802,10.789,5.61,0.743,-2.722
1967,-5.782,-3.086,-0.166,5.19,7.097,12.705,16.52,14.932,12.674,5.444,1.063,-2.636
1968,-7.833,-7.448,0.799,5.512,7.056,13.573,15.452,14.381,12.524,5.56,0.7,-2.485
1969,-5.95,-4.113,2.727,4.843,8.038,12.373,15.314,15.718,12.053,7.68,3.227,-2.017
1970,-4.053,-3.447,0.738,7.136,10.235,13.588,15.489,15.641,13.552,7.654,1.813,-1.804
1971,-4.898,-3.634,2.255,7.461,10.484,13.583,15.652,15.112,11.207,7.949,2.346,-1.588
1972,-2.84,-6.367,1.661,4.717,8.198,12.403,14.4,13.813,11.075,5.078,2.008,-1.904
1973,-4.685,-2.729,0.277,6.493,9.47,14.863,15.714,14.619,13.514,6.961,2.206,-2.258
1974,-4.759,-5.899,2.384,7.249,9.337,11.236,14.522,14.503,10.923,7.122,0.686,-3.962
1975,-6.027,-6.081,-1.217,4.641,7.564,12.019,13.041,13.61,11.889,7.926,-0.163,-2.771
1976,-4.093,-4.75,-0.195,5.255,8.868,12.247,15.715,13.371,11.326,6.845,2.154,-1.975
1977,-4.51,-3.97,2.457,6.48,7.998,12.609,16.176,14.797,12.327,8.107,3.318,-2.252
1978,-5.511,-4.107,-0.669,5.911,10.531,15.362,15.424,14.919,12.002,7.683,-0.005,-1.131
1979,-5.901,-3.436,-0.134,7.618,6.922,13.106,15.745,14.576,10.107,8.276,2.707,-1.835
1980,-4.377,-4.046,0.554,7.245,9.667,13.563,15.536,14.438,11.27,6.369,2.076,-3.265
1981,-3.834,-2.739,3.914,6.444,10.931,12.198,15.299,13.851,11.058,6.335,0.626,-3.495
1982,-4.03,-5.102,-0.53,5.733,7.772,11.678,14.456,14.576,10.011,6.304,1.366,-2.218
1983,-4.8,-5.137,-2.338,4.072,8.382,10.773,13.592,14.948,12.765,6.48,1.334,-2.27
1984,-4.675,-5.132,3.036,5.778,9.956,15.34,14.782,15.793,10.653,6.738,1.315,-1.969
1985,-5.049,-2.483,3.139,6.935,8.71,12.822,15.329,15.201,12.503,7.139,1.748,-1.587
1986,-7.924,-3.534,0.067,5.035,7.368,12.039,14.533,14.072,11.517,7.168,2.106,-4.845
1987,-7.492,-3.04,1.861,5.856,6.328,10.983,14.161,14.651,12.28,6.427,2.165,-2.385
1988,-2.494,-2.173,0.195,7.072,9.698,12.66,15.766,14.342,11.962,6.369,2.227,-1.843
1989,-5.637,-3.658,0.494,4.462,8.199,11.777,13.79,13.174,11.653,6.824,1.376,-1.619
1990,-1.607,-2.363,-0.551,4.821,11.065,14.327,15.441,14.728,12.905,7.003,0.555,-2.485
1991,-8.502,-4.398,1.278,4.473,7.914,12.828,15.215,14.477,12.122,6.299,1.317,-1.223
1992,-3.467,-4.331,0.179,5.274,7.444,11.599,14.326,14.473,11.341,7.033,1.928,-0.631
1993,-4.736,-1.642,-0.925,6.345,9.468,13.172,14.266,14.542,12.019,6.868,2.89,-1.76
1994,-3.611,-4.226,2.49,4.303,9.093,13.522,16.018,15.072,11.625,6.348,2.424,-1.644
1995,-7.902,-4.963,0.617,4.739,9.734,13.975,15.56,14.613,11.418,7.049,1.882,-2.471
1996,-4.695,-2.002,1.72,6.08,7.492,12.805,15.412,13.863,12.487,6.395,1.75,-2.391
1997,-4.214,-3.368,1.245,6.07,7.805,11.946,16.411,14.206,12.767,6.603,1.542,-2.398
1998,-5.669,-2.65,-0.21,6.566,9.581,13.228,15.998,15.213,13.027,8.33,1.323,-2.117
1999,-4.634,-1.285,2.031,8.536,9.861,12.734,16.075,15.142,13.49,8.211,3.004,-1.08
2000,-3.472,-4.518,0.834,7.64,11.481,12.442,15.454,14.989,12.633,8.762,3.608,-0.898
2001,-3.259,-2.277,2.351,6.515,10.999,12.32,16.056,15.263,12.036,8.671,2.873,-1.256
2002,-3.964,-3.531,2.676,6.688,10.269,13.608,15.369,15.611,10.503,8.564,3.795,-1.844
