Year,Jan,Feb,Mar,Apr,May,Jun,Jul,Aug,Sep,Oct,Nov,Dec
1901,-6.439,-6.422,1.097,4.002,7.809,11.821,14.661,15.401,11.16,6.627,1.45,-3.763
1902,-5.221,-4.61,-0.511,4.162,9.053,13.17,14.423,13.834,11.41,6.476,0.415,-4.513
1903,-7.227,-6.336,-3.189,2.538,7.117,12.365,14.318,13.868,12.324,6.916,0.362,-4.213
1904,-8.062,-5.375,-0.006,5.092,8.067,13.701,14.977,14.482,10.62,5.281,0.388,-3.728
1905,-7.557,-9.77,-4.301,2.428,8.679,13.037,15.202,14.894,11.261,7.019,1.748,-4.668
1906,-9.283,-7.595,-1.828,3.731,8.927,13.188,15.479,15.523,11.741,7.277,1.951,-1.794
1907,-3.892,-6.538,-2.957,4.291,7.053,11.701,13.943,14.599,11.084,5.959,1.953,-4.627
1908,-4.856,-5.978,-0.933,4.833,8.02,13.062,16.631,14.7,10.943,5.163,0.924,-4.233
1909,-8.933,-8.015,-0.707,5.431,8.581,12.513,14.434,15.197,10.273,5.727,2.359,-3.175
1910,-5.682,-5.7,-1.445,3.425,8.92,12.895,15.118,15.383,11.931,6.23,-0.422,-5.215
1911,-6.427,-6.465,-2.354,5.259,9.76,13.931,15.24,15.196,12.121,6.516,-0.353,-3.602
1912,-5.765,-3.409,-0.949,5.49,8.522,13.58,16.285,14.824,10.095,6.677,0.627,-3.745
1913,-5.959,-6.032,-3.01,3.793,8.23,12.31,15.124,14.557,10.337,5.996,-0.677,-4.419
1914,-4.331,-5.883,-1.37,4.57,8.488,14.786,16.314,14.612,12.967,4.674,0.403,-4.898
1915,-8.465,-8.481,-0.281,4.931,10.788,13.896,15.552,15.522,13.514,8.181,1.815,-2.46
1916,-5.136,-5.661,1.529,5.807,7.962,12.801,15.563,15.577,12.001,7.469,-1.318,-4.994
1917,-6.043,-3.46,-1.016,2.957,8.859,12.943,15.434,15.533,12.39,5.793,-0.185,-5.075
1918,-8.829,-5.512,-1.48,2.959,11.322,14.15,15.19,15.68,10.376,5.653,-0.73,-6.748
1919,-8.068,-6.99,-1.634,4.245,8.453,14.464,16.041,15.515,10.293,5.832,0.24,-4.526
1920,-6.381,-8.324,-2.634,2.533,5.461,12.045,15.825,13.887,10.977,6.259,0.634,-5.455
1921,-7.172,-4.902,-0.038,6.1,8.99,12.601,15.589,14.575,11.769,5.018,0.577,-3.276
1922,-6.059,-3.863,0.251,4.415,8.396,12.412,15.906,15.681,12.158,5.504,0.593,-3.452
1923,-6.893,-5.459,-0.281,5.623,8.012,13.592,14.282,15.513,10.478,4.721,-0.055,-4.271
1924,-7.291,-5.813,-0.241,4.577,4.835,13.819,16.541,15.405,10.797,6.862,0.357,-3.086
1925,-6.832,-7.168,0.379,6.18,8.012,12.718,16.154,14.366,11.119,6.443,-0.216,-4.238
1926,-5.724,-4.047,-1.02,2.711,7.479,13.429,15.496,16.484,11.797,6.058,-1.72,-3.737
1927,-7.025,-6.351,-1.55,4.435,7.727,12.946,16.402,15.283,11.075,7.474,0.787,-3.425
1928,-6.934,-5.411,-1.269,4.815,10.005,13.251,15.417,14.795,11.267,7.498,1.164,-4.61
1929,-8.204,-8.585,0.664,5.944,8.43,13.034,15.367,14.708,12.151,5.235,0.662,-6.713
1930,-9.368,-5.739,-0.821,3.386,8.497,12.057,15.779,14.907,10.947,6.003,1.4,-3.511
1931,-4.684,-7.42,-0.733,6.045,7.899,12.342,13.255,15.903,12.447,8.087,0.975,-3.925
1932,-5.997,-6.693,0.248,6.208,7.253,13.3,16.452,14.265,12.282,6.02,1.095,-5.048
1933,-9.147,-5.131,-1.581,3.023,8.711,12.493,16.499,14.556,10.72,6.316,1.145,-2.372
1934,-7.738,-3.542,-0.573,4.465,6.683,12.256,15.686,14.712,12.523,5.977,0.579,-2.818
1935,-8.699,-5.798,-0.569,2.035,8.417,11.912,15.348,14.775,11.299,5.98,0.312,-5.014
1936,-7.544,-5.019,-2.519,3.763,10.883,12.245,15.274,14.595,12.568,7.446,0.545,-4.014
1937,-6.883,-4.839,0.319,3.879,8.935,13.591,15.015,15.247,11.508,5.158,-1.256,-5.363
1938,-8.518,-6.473,-3.23,5.584,11.258,12.003,15.761,14.888,10.579,6.369,-0.139,-3.304
1939,-6.977,-6.465,-3.6,2.66,9.425,12.445,16.073,15.111,12.298,6.57,0.941,-2.514
1940,-4.617,-4.066,-0.665,4.378,8.88,12.962,15.851,13.897,10.634,6.818,1.167,-3.58
1941,-6.714,-4.459,0.744,6.297,10.139,13.436,15.172,15.704,11.319,8.95,1.015,-3.358
1942,-7.008,-6.261,0.765,5.583,8.656,13.208,15.988,14.917,11.655,6.48,2.215,-3.728
1943,-6.68,-5.532,-0.541,3.745,7.129,11.417,16.035,15.442,12.763,6.01,0.663,-3.689
1944,-7.72,-8.066,-0.176,4.988,10.141,12.192,17.715,15.791,10.591,6.055,0.502,-4.368
1945,-8.337,-7.116,-1.612,3.557,8.241,12.688,16.172,15.334,13.203,7.408,1.311,-4.814
1946,-5.22,-3.108,-1.065,7.753,10.32,12.964,16.299,16.272,12.408,8.633,0.217,-5.769
1947,-9.338,-6.483,1.366,6.469,9.726,13.701,15.391,15.281,12.022,5.441,1.734,-4.673
1948,-8.672,-7.87,-2.452,4.9,8.687,11.901,14.329,14.795,11.635,7.305,-0.185,-4.357
1949,-5.298,-7.463,-1.049,5.399,9.51,10.994,15.895,14.38,12.028,6.286,-0.877,-5.053
1950,-6.489,-7.484,-1.6,2.349,7.901,12.751,16.114,14.848,9.824,5.052,-0.115,-5.572
1951,-7.325,-7.07,-1.623,2.781,8.43,12.099,14.062,14.934,12.19,8.124,1.369,-2.55
1952,-7.136,-3.933,-1.555,6.277,8.438,13.145,14.978,14.613,12.014,6.211,0.575,-4.573
1953,-7.757,-3.753,1.036,4.85,9.661,13.527,16.905,14.283,11.947,6.236,0.56,-2.53
1954,-8.713,-6.805,-0.42,5.647,8.793,12.573,14.681,14.712,12.303,5.007,0.417,-5.221
1955,-7.286,-4.026,0.487,2.98,6.702,12.914,14.806,15.814,11.864,6.321,1.102,-2.329
1956,-7.987,-4.516,-0.507,5.545,11.789,13.315,16.427,14.136,13.156,6.363,0.876,-3.839
1957,-6.988,-7.413,-0.785,2.712,6.455,11.528,15.363,13.747,11.016,4.692,0.207,-3.609
1958,-4.869,-4.238,0.141,6.218,6.97,12.311,16.39,13.801,12.025,6.304,0.862,-2.44
1959,-8.049,-7.899,-0.555,5.883,7.354,13.473,14.923,15.825,12.571,8.634,0.5,-3.437
1960,-6.995,-2.946,-1.476,3.095,8.145,12.998,15.708,15.664,11.785,6.52,0.139,-3.567
1961,-6.309,-7.136,-0.282,4.304,9,13.51,15.838,15.084,12.696,5.995,-0.961,-5.418
1962,-6.497,-4.257,0.099,5.195,8.454,13.055,15.723,14.807,10.847,6.32,-0.586,-5.859
1963,-6.418,-4.397,-0.273,4.287,7.874,13.683,15.305,14.894,11.566,7.582,1.073,-3.891
1964,-8.496,-6.91,0.733,4.844,7.195,11.432,14.399,15.387,11.914,7.178,0.367,-4.167
1965,-6.992,-6.831,-1.169,3.227,7.358,12.605,14.733,13.316,11.138,7.036,1.973,-4.374
1966,-6.235,-3.69,-0.316,3.838,7.546,13.913,14.314,14.583,10.4,5.158,0.217,-4.012
1967,-8.054,-4.559,-1.082,4.569,7.24,13.011,16.4,14.954,12.542,5.186,0.082,-3.927
1968,-8.647,-8.186,0.083,4.793,6.947,13.558,15.744,14.573,12.344,5.307,0.333,-3.859
1969,-7.944,-6.211,1.662,3.777,7.862,12.579,15.456,15.964,11.699,7.206,1.967,-3.269
1970,-5.639,-3.743,-0.617,6.481,10.018,13.529,15.256,15.991,12.837,6.835,1.215,-3.109
1971,-5.777,-4.196,1.809,6.841,10.248,12.937,15.554,15.049,10.686,7.017,1.582,-2.304
1972,-4.673,-7.724,0.157,3.962,8.206,12.499,13.71,13.585,11.278,4.796,1.788,-3.615
1973,-6.29,-3.403,-1.138,6.195,9.195,15.187,15.834,15.31,12.965,6.443,1.929,-3.147
1974,-6.178,-7.637,0.514,7.053,9.394,11.641,14.67,14.168,11.244,6.339,0.399,-6.717
1975,-7.447,-7.068,-1.572,4.511,7.567,12.329,13.721,14.224,11.816,7.659,-0.459,-4.892
1976,-5.452,-6.21,-1.96,4.775,8.962,12.493,16.142,13.85,11.392,6.541,0.748,-3.692
1977,-6.613,-5.25,1.405,5.804,8.284,13.599,16.235,15.147,12.213,7.774,2.576,-3.205
1978,-7.676,-6.238,-1.597,5.741,10.778,15.373,15.958,15.697,12.191,7.505,0.373,-2.308
1979,-5.849,-4,-0.941,6.947,6.531,13.487,16.281,14.644,10.79,8.226,1.606,-2.86
1980,-5.453,-5.558,-0.616,6.932,9.903,13.831,15.974,14.731,11.211,6.433,2.199,-3.768
1981,-4.738,-4.042,3.089,5.962,10.83,12.132,15.262,13.666,10.819,5.682,0.519,-4.252
1982,-5.469,-6.122,-1.408,5.31,8.128,12.068,14.745,14.631,10.159,6.284,0.393,-3.652
1983,-6.089,-5.264,-3.152,3.945,8.678,11.511,13.859,15.59,12.451,6.165,1.284,-3.296
1984,-6.138,-6.918,1.535,4.753,9.306,15.251,15.471,16.736,10.406,5.874,0.797,-4.91
1985,-6.504,-3.297,1.158,6.276,8.553,13.049,16.104,15.175,12.162,6.577,0.925,-2.92
1986,-8.69,-4.417,-1.522,4.113,7.532,12.165,15.012,14.424,11.691,7.1,0.856,-4.928
1987,-7.534,-4,0.957,5.08,6.131,10.944,13.825,15.048,12.43,5.585,1.561,-2.468
1988,-3.676,-3.627,-1.223,6.33,9.395,12.994,15.86,14.199,11.799,6.072,2.156,-2.299
1989,-5.784,-4.91,-0.544,3.729,7.841,11.856,13.598,13.173,11.445,6.91,0.462,-1.901
1990,-3.382,-3.639,-1.16,4.248,10.637,14.464,15.398,15.184,12.979,6.591,0.241,-3.808
1991,-8.894,-5.842,0.006,3.983,7.578,12.643,14.845,14.436,12.039,5.647,0.545,-2.273
1992,-5.442,-4.983,-1.575,4.928,7.187,11.884,14.767,14.211,10.938,6.336,1.615,-1.767
1993,-6.921,-2.801,-1.709,5.945,8.638,13.168,14.154,14.107,12.226,5.98,1.901,-2.902
1994,-5.088,-5.12,0.993,3.38,8.904,13.715,16.612,15.626,10.824,5.803,2.293,-3.203
1995,-8.581,-5.856,-0.817,3.708,9.314,13.803,15.648,15.39,11.112,6.417,1.136,-4.124
1996,-6.481,-3.536,0.021,4.741,6.801,12.41,15.011,14.055,12.504,5.874,0.646,-3.539
1997,-6.699,-4.17,0.289,5.417,7.669,12.329,16.934,14.576,12.53,6.608,0.951,-3.459
1998,-5.804,-3.838,-0.722,6.39,9.178,13.016,16.22,15.657,12.763,8.16,0.811,-3.59
1999,-5.663,-2.745,0.787,6.87,9.915,13.432,15.865,15.229,13.602,7.982,2.023,-2.152
2000,-5.22,-4.667,0.058,7.109,12.052,12.715,15.485,15.206,12.086,8.028,2.522,-2.377
2001,-4.919,-2.674,1.651,6.339,11.425,12.975,15.843,15.122,11.506,8.184,1.969,-2.809
2002,-5.127,-4.835,1.385,6.138,10.159,14.084,15.05,15.638,10.445,8.272,2.905,-3.197
