Year,Jan,Feb,Mar,Apr,May,Jun,Jul,Aug,Sep,Oct,Nov,Dec
1901,12.229,13.374,20.259,24.13,29.592,32.73,30.559,30.98,28.943,26.108,19.21,13.915
1902,13.423,16.057,20.219,25.161,31.147,33.093,31.015,29.976,28.952,25.132,18.626,12.856
1903,12.049,14.528,17.395,23.003,28.863,33.615,30.583,29.792,30.1,25.768,18.509,13.096
1904,10.756,14.48,18.783,25.686,30.153,34.273,31.607,30.452,28.714,24.684,18.557,14.103
1905,11.01,9.98,16.06,23.316,31.154,33.804,31.619,30.861,28.995,25.181,19.394,13.212
1906,9.891,12.597,17.276,24.074,31.27,33.104,31.847,31.254,28.705,25.801,19.902,15.308
1907,14.819,13.299,16.664,24.156,28.758,31.845,30.545,29.789,29.879,25.3,19.923,12.928
1908,13.814,14.894,19.374,25.454,29.791,33.424,31.466,29.007,27.812,24.012,18.624,13.004
1909,10.18,11.858,18.678,24.831,29.66,32.793,30.06,30.247,27.285,24.388,20.079,13.09
1910,11.839,13.897,18.124,23.479,30.655,33.017,30.637,30.088,29.877,24.963,18.095,12.052
1911,12.453,13.452,16.859,24.399,30.579,33.597,31.731,31.161,30.032,25.655,16.606,12.803
1912,13.259,16.096,18.287,24.679,29.827,33.813,31.949,29.706,27.882,24.968,18.075,13.203
1913,13.006,14.201,16.624,24.978,29.741,31.895,30.148,29.772,27.96,24.38,17.519,13.03
1914,14.135,13.326,17.954,24.33,30.226,33.994,31.049,29.68,29.565,22.905,18.53,12.349
1915,10.698,11.939,20.156,25.114,33.135,33.885,32.726,31.004,30.893,26.097,18.886,13.716
1916,13.391,14.286,21.349,26.014,29.064,33.16,30.269,29.779,29.202,25.689,16.855,12.816
1917,12.85,16.134,18.993,22.612,28.363,32.478,31.061,29.61,28.726,23.701,16.827,13.151
1918,10.468,14.516,18.071,22.467,32.951,33.592,31.822,31.071,27.653,23.939,17.934,12.018
1919,12.223,13.197,18.674,24.531,29.66,35.428,31.937,29.986,27.959,24.179,17.611,12.296
1920,11.22,11.895,17.741,23.073,26.569,32.381,32.623,29.864,29.647,25.255,19.117,12.88
1921,12.077,15.022,21.268,27.736,31.565,33.387,31.723,29.88,29.38,23.575,18.493,14.491
1922,12.495,15.723,19.987,25.034,29.5,32.405,32.24,31.477,29.21,23.592,18.015,13.772
1923,11.823,14.014,19.379,25.699,28.988,34.008,30.135,29.789,28.496,23.167,17.405,13.146
1924,11.185,13.713,19.512,24.775,26.056,33.853,32.425,30.284,27.893,24.989,17.822,13.744
1925,11.317,12.607,20.175,27.254,29.651,32.194,30.95,29.39,28.875,24.763,17.118,12.712
1926,12.807,15.698,17.847,22.165,27.868,33.532,31.648,30.306,28.578,24.225,16.323,13.009
1927,11.405,12.807,18.076,23.963,28.759,32.584,31.461,30.189,28.779,25.471,18.768,14.407
1928,12.255,14.889,18.907,25.143,31.682,33.32,31.77,30.513,28.617,25.927,18.611,12.515
1929,11.526,11.895,20.995,26.118,30.482,33.008,30.686,29.698,29.602,23.992,18.421,11.727
1930,10.392,14.484,19.69,23.595,30.075,32.113,30.278,30.321,28.504,24.86,18.418,13.615
1931,14.11,12.807,19.314,26.439,30.059,33.111,29.26,31.17,29.394,26.182,19.082,14.208
1932,12.807,14.464,19.95,26.327,28.652,33.911,31.761,29.89,30.18,24.791,18.603,12.615
1933,10.277,15.265,18.75,22.91,29.937,32.899,32.029,28.505,27.596,24.902,18.895,15.107
1934,11.39,17.19,18.967,25.167,28.863,32.508,32.329,30.072,30.501,24.33,18.224,14.393
1935,10.777,14.597,19.551,21.824,29.972,32.075,31.246,29.569,29.281,24.297,18.854,13.875
1936,11.204,15.386,17.757,24.058,33.415,32.172,30.84,30.388,29.822,25.417,18.116,13.661
1937,11.968,14.798,19.958,24.25,30.819,34.477,30.549,31.379,29.393,23.52,17.438,12.168
1938,10.099,13.01,17.568,25.918,33.012,31.922,32.132,30.677,28.995,24.684,17.373,13.627
1939,12.399,13.905,16.492,22.754,30.999,32.579,31.633,30.479,30.352,25.204,18.577,14.023
1940,13.191,14.89,18.285,23.984,30.847,32.813,31.861,29.282,28.484,25.074,19.474,13.332
1941,12.167,15.172,20.771,27.022,31.823,33.535,31.04,31.08,28.417,27.485,19.445,14.431
1942,11.582,14.309,20.751,26.213,30.247,33.221,30.945,29.868,28.605,24.697,20.178,13.413
1943,11.681,14.196,19.662,24.172,28.711,31.92,31.145,30.856,30.401,24.8,19.31,14.406
1944,11.686,12.159,19.056,25.022,31.744,32.588,32.253,30.41,27.997,24.53,18.819,14.104
1945,10.887,13.498,18.894,23.54,29.763,32.928,31.633,30.302,30.074,25.29,18.895,12.771
1946,13.629,16.826,18.678,28.323,31.924,33.468,32.409,31.475,30.016,26.678,17.939,11.619
1947,9.59,13.612,20.739,27.103,31.719,35.199,33.077,30.188,29.001,23.716,19.618,13.143
1948,11.058,12.583,17.634,25.733,31.526,32.805,30.583,29.582,29.48,25.928,17.502,13.32
1949,13.63,12.452,18.883,26.421,32.202,31.836,31.267,30.083,30.479,24.517,16.942,12.591
1950,12.35,12.815,17.535,22.91,30.165,33.62,31.262,29.824,26.885,23.676,17.817,12.141
1951,11.933,13.104,19.236,22.658,29.651,32.527,30.419,30,29.98,26.961,19.905,14.796
1952,12.223,16.221,18.486,27.022,30.658,33.396,30.608,30.021,29.909,25.452,18.385,13.149
1953,11.093,16.501,21.542,25.978,31.433,33.824,32.177,29.593,28.914,25.235,18.425,15.767
1954,10.603,14.019,19.666,25.954,31.274,33.48,31.483,31.079,29.484,22.802,17.758,13.411
1955,12.251,15.594,20.693,23.129,27.663,33.983,31.204,30.23,29.185,23.998,18.858,13.935
1956,11.73,14.965,18.99,25.848,33.492,33.034,29.878,28.913,30.404,24.122,18.099,13.491
1957,11.249,13.205,18.291,22.597,27.658,31.908,32.012,29.257,28.78,23.79,17.998,13.454
1958,14.323,15.408,19.738,26.763,29.449,32.763,31.957,29.585,28.706,24.634,18.657,14.328
1959,10.983,12.128,19.95,26.056,29.747,34.226,30.431,30.788,29.118,26.586,17.984,14.119
1960,11.426,17.051,18.179,23.588,30.458,33.46,31.174,30.489,29.306,25,17.95,13.473
1961,12.61,12.642,19.812,24.391,30.179,33.541,31.069,30.389,29.924,24.645,16.861,11.715
1962,12.127,15.422,19.4,25.861,29.755,33.325,31.544,30.101,27.628,24.217,17.866,12.436
1963,12.691,15.653,18.862,23.986,28.855,33.897,31.983,30.113,28.308,25.496,18.944,13.339
1964,9.834,13.149,20.901,25.554,28.944,31.848,29.913,30.401,28.909,25.218,17.698,13.039
1965,11.716,13.773,18.886,22.421,28.332,33.033,30.767,28.656,28.936,25.349,19.749,13.119
1966,11.988,16.105,19.356,24.057,29.783,33.066,30.475,29.98,27.712,23.791,17.754,12.961
1967,11.577,16.046,18.356,24.418,28.999,33.601,32.13,29.813,29.505,23.555,17.754,13.081
1968,10.038,11.855,19.596,25.266,27.947,34.013,31.134,29.696,30.259,23.468,17.717,12.979
1969,11.18,14.366,21.858,24.239,28.916,32.786,31.861,30.761,29.194,25.284,19.801,13.798
1970,12.959,15.258,19.26,27.398,31.795,33.257,31.831,30.431,29.749,25.3,18.522,13.708
1971,12.064,15.414,20.908,27.623,31.178,32.388,30.661,29.921,28.148,25.145,18.967,13.839
1972,13.343,12.496,20.27,23.663,30.217,33.279,30.455,29.28,28.368,23.051,19.226,13.89
1973,12.247,15.697,18.806,26.91,31.074,34.574,30.07,29.792,29.95,24.325,18.915,13.125
1974,12.048,12.442,20.847,27.013,30.668,31.725,30.631,30.316,28.819,24.734,17.881,11.847
1975,12.135,12.701,18.043,25.013,29.859,32.132,29.055,29.185,28.514,25.777,17.198,13.428
1976,13.187,13.82,18.087,24.642,30.466,32.417,31.372,28.392,28.216,24.805,18.895,13.413
1977,12.143,15.318,21.564,25.787,28.413,32.65,30.918,29.45,28.614,25.885,20.413,14.204
1978,11.919,14.786,18.06,25.886,33.146,34.606,30.301,29.985,28.985,25.375,18.261,13.57
1979,12.884,14.915,18.195,27.027,28.39,33.436,31.398,30.037,27.702,25.813,19.783,14.315
1980,12.768,14.813,18.655,27.454,32.031,33.333,30.733,29.29,28.373,24.859,19.061,13.303
1981,13.187,15.482,21.202,26.249,31.704,32.642,29.961,29.277,28.356,24.085,18.228,13.291
1982,12.495,13.03,16.82,24.657,28.48,32.516,31.102,29.399,28.276,24.577,18.405,13.819
1983,12.436,14.257,17.209,22.748,29.145,31.355,29.772,29.713,29.678,24.104,18.579,13.927
1984,12.392,13.383,21.567,25.343,32.126,34.906,30.277,30.598,27.141,24.114,18.214,13.24
1985,12.623,16.006,21.4,25.976,30.91,33.272,30.598,29.977,29.561,24.098,18.993,14.291
1986,9.986,14.762,18.414,24.622,28.376,32.477,30.124,29.484,28.676,24.885,18.981,12.259
1987,11.25,15.622,19.795,25.645,26.888,31.71,31.115,30.832,30.355,24.673,19.109,14.409
1988,14.511,16.214,18.675,27.382,31.915,33.132,30.558,29.386,28.801,24.405,19.495,14.208
1989,12.539,14.538,18.806,24.486,30.116,32.465,29.932,28.321,28.948,24.965,18.826,14.321
1990,14.655,15.192,18.367,24.754,32.084,33.914,30.845,29.682,29.585,24.702,18.395,13.299
1991,10.238,14.318,19.079,23.687,29.243,32.676,31.131,29.682,28.904,23.885,18.035,14.713
1992,13.307,14.517,18.485,24.454,28.871,32.386,30.236,29.473,28.136,24.697,19.109,15.009
1993,11.631,16.889,18.135,26.436,31.441,33.568,29.804,30.73,28.914,24.673,19.87,14.359
1994,13.861,14.442,21.321,23.846,31.023,34.236,31.073,29.905,28.005,24.06,19.394,14.146
1995,10.821,14.101,18.776,23.862,31.087,34.384,30.697,29.474,28.819,25,18.949,13.331
1996,12.39,16.311,20.07,26.014,29.393,31.533,30.825,28.953,29.086,23.913,18.525,13.095
1997,11.36,15.015,19.374,24.69,28.3,31.993,31.943,29.182,29.509,23.742,18.421,13.21
1998,12.871,15.313,18.563,26.026,31.262,33.424,31.429,30.498,29.302,25.89,18.064,12.622
1999,12.479,16.509,20.191,28.046,31.618,33.164,31.465,30.077,30.437,25.713,19.805,14.412
2000,12.823,14.594,19.374,27.614,33.607,32.875,30.55,29.88,28.946,26.404,20.119,14.84
2001,12.965,16.682,21.018,26.311,32.892,31.806,30.882,30.584,28.533,26.207,19.501,14.803
2002,14.302,14.183,19.105,25.956,32.315,33.677,31.447,30.548,27.397,25.31,20.17,14.635
