Year,Jan,Feb,Mar,Apr,May,Jun,Jul,Aug,Sep,Oct,Nov,Dec
1901,19.049,21.427,26.303,31.266,33.979,33.618,28.327,27.082,27.435,26.81,21.876,18.72
1902,20.178,22.311,28.549,31.674,34.974,33.698,28.235,28.24,27.614,26.374,21.67,18.77
1903,20.079,20.989,26.974,32.069,33.922,32.485,28.271,27.884,27.626,25.655,20.833,17.932
1904,19.567,21.58,26.902,32.576,33.809,30.622,27.385,27.076,27.241,26.137,21.409,19.493
1905,19.002,19.649,26.098,29.415,33.891,34.846,27.822,27.961,27.126,25.81,22.075,18.713
1906,19.362,22.166,25.776,32.29,35.514,31.889,27.934,27.675,27.541,26.08,22.197,19.598
1907,19.582,21.793,25.805,28.978,33.017,31.441,28.751,26.639,27.821,26.685,22.562,18.119
1908,17.759,22.278,26.263,32.836,34.89,32.73,27.654,26.89,27.795,25.875,21.137,17.602
1909,20.744,22.085,26.996,28.941,33.916,29.933,27.022,27.652,27.277,25.052,21.479,19.512
1910,18.886,21.441,26.874,31.911,34.303,30.767,28.005,27.368,27.509,26.064,20.697,17.677
1911,20.7,21.104,26.06,31.239,34.932,29.807,28.859,26.564,27.312,26.034,22.445,18.103
1912,19.163,22.782,27.299,30.906,34.423,33.699,27.834,27.169,27.314,26.094,21.479,17.838
1913,18.578,22.361,25.782,32.027,33.165,29.288,27.616,27.061,27.421,25.645,21.032,18.834
1914,19.008,22.985,26.506,29.514,32.738,31.016,27.593,27.544,27.282,25.393,22.551,19.088
1915,19.449,21.991,26.191,31.231,35.044,33.059,28.729,27.951,27.514,27.072,23.676,18.711
1916,18.285,22.366,27.306,32.299,34.26,29.154,28.061,27.319,27.485,26.679,22.474,17.583
1917,18.852,21.455,25.777,29.796,31.172,29.415,27.294,27.169,27.104,26.073,21.131,18.373
1918,18.09,21.592,26.568,30.355,33.033,28.419,28.756,26.623,27.506,25.282,22.259,18.964
1919,21.494,21.944,26.836,30.463,32.792,29.888,27.368,26.93,27.409,25.586,22.325,18.438
1920,19.089,22.078,27.237,30.979,32.419,32.726,27.261,27.199,27.795,26.56,22.021,18.343
1921,19.959,21.465,28.336,32.163,36.914,31.438,28.273,26.768,27.019,25.229,19.821,19.161
1922,19.216,22.098,27.369,31.46,34.877,30.071,26.734,26.893,26.69,24.706,21.492,17.565
1923,18.874,21.585,25.663,31.261,34.824,34.484,27.423,26.703,27.479,25.084,21.377,19.261
1924,19.42,22.482,27.922,32.069,33.531,33.873,27.463,27.575,27.176,25.706,21.541,18.444
1925,18.319,21.069,26.253,31.62,32.386,30.284,26.424,27.163,27.767,26.078,22.371,18.486
1926,19.769,22.775,26.509,29.081,32.374,34.504,28.279,27.161,27.214,25.315,20.329,18.584
1927,20.382,22.701,26.087,31.359,33.772,32.301,27.605,26.833,27.941,25.75,21.34,19.272
1928,19.612,21.997,27.026,30.566,34.374,30.789,27.275,27.768,27.882,26.878,21.819,19.412
1929,19.667,20.742,26.863,30.551,34.845,31.378,27.085,26.577,27.967,25.137,21.077,19.02
1930,18.936,20.93,26.907,30.504,33.51,32.004,27.129,27.046,27.499,26.547,21.31,18.69
1931,19.987,22.456,26.39,31.724,34.69,33.163,27.724,27.381,28.004,26.268,21.646,18.856
1932,19.698,21.06,26.827,30.953,33.738,33.081,27.504,27.476,27.648,26.618,22.374,18.696
1933,19.008,22.97,27.01,29.811,31.862,29.58,27.71,27.156,27.401,25.878,21.575,18.982
1934,18.774,21.624,26.739,31.341,34.78,31.72,27.523,27.17,27.428,25.18,21.153,18.958
1935,18.852,22.392,26.789,29.372,35.006,33.182,27.455,27.007,27.241,25.877,21.454,19.781
1936,20.165,21.579,27.291,30.687,34.016,29.009,27.498,26.975,27.421,25.396,22.899,19.488
1937,17.902,22.773,25.931,30.139,33.846,32.314,27.478,27.17,27.469,25.533,21.85,18.206
1938,21.007,21.244,28.33,31.344,33.889,29.025,27.602,27.323,27.534,25.897,21.011,18.095
1939,19.974,22.849,26.085,30.887,35.408,31.896,27.085,26.95,27.114,26.418,21.136,18.433
1940,17.79,21.973,25.726,30.231,33.543,31.603,26.89,27.067,27.694,26.366,22.95,19.556
1941,20.314,22.388,27.991,32.887,34.691,30.439,27.902,27.676,27.928,25.578,20.927,19.518
1942,19.189,21.973,26.979,30.892,34.979,33.219,26.901,27.104,27.437,25.217,21.973,19.425
1943,21.191,20.452,26.733,29.834,33.739,30.963,27.339,26.59,27.507,26.301,21.858,18.187
1944,19.567,21.793,25.128,29.041,34.458,32.116,27.041,26.868,27.556,25.319,21.439,19.904
1945,18.584,20.981,26.768,29.538,33.891,32.152,27.414,27.934,27.06,24.753,20.642,17.146
1946,18.038,21.958,26.8,29.853,33.767,30.255,27.062,27.03,27.433,26.362,23.355,21.412
1947,20.266,21.554,27.417,32.293,35.025,32.672,27.306,27.605,27.509,25.493,21.814,19.48
1948,20.577,22.803,26.037,31.9,35.279,32.712,27.854,27.17,27.263,26.27,23.61,18.251
1949,19.45,21.651,27.174,31.415,33.853,31.707,27.543,27.185,27.408,26.49,21.147,17.497
1950,19.537,21.786,25.79,30.857,34.808,30.844,26.995,27.251,27.495,25.33,21.04,18.657
1951,18.52,22.123,26.866,30.06,33.746,31.793,27.937,27.304,28.299,27.747,22.838,19.269
1952,20.182,23.642,26.422,31.874,35.049,32.628,28.285,27.183,27.384,26.36,21.659,20.221
1953,19.525,23.412,29.226,31.613,35.867,33.341,27.556,27.032,27.838,26.22,21.338,19.439
1954,18.671,23.718,26.867,32.316,35.136,31.981,28.16,27.755,27.217,24.809,20.323,19.462
1955,19.603,22.861,28.296,30.438,34.245,32.633,27.263,27.276,27.406,26.086,21.059,18.777
1956,20.101,21.617,28.305,32.546,34.607,29.346,27.05,26.809,27.024,25.088,21.592,20.268
1957,20.848,21.784,25.786,30.857,34.392,32.576,27.101,27.469,27.496,26.676,22.221,20.344
1958,20.518,23.146,28.019,32.462,34.56,34.393,27.746,27.706,27.425,26.354,23.243,20.066
1959,20.313,22.317,27.346,31.828,34.871,31.895,27.536,26.869,27.078,26.33,21.714,18.982
1960,19.429,22.875,26.348,31.298,34.139,32.297,27.423,27.16,27.815,25.833,21.336,20.289
1961,20.137,21.163,28.061,31.626,34.505,30.413,27.017,27.211,26.892,25.678,20.808,17.146
1962,17.327,21.499,26.084,30.597,33.441,31.121,27.807,27.163,27.274,25.141,21.808,19.537
1963,17.881,22.747,26.687,30.262,33.358,31.021,27.423,27.368,27.214,26.329,22.642,19.486
1964,20.064,22.15,27.894,32.093,33.98,31.229,26.428,26.836,27.508,26.16,21.693,19.479
1965,19.778,22.306,26.168,29.883,33.297,32.882,27.89,27.748,27.17,26.417,22.669,19.682
1966,19.493,23.609,27.372,32.298,35.289,31.972,29.042,27.577,27.88,26.559,24.42,19.191
1967,20.029,23.467,26.062,30.622,34.649,33.295,28.487,26.868,27.264,25.204,21.849,21.084
1968,19.198,21.974,25.976,29.824,33.734,31.536,27.634,26.893,27.883,25.479,22.089,19.121
1969,19.384,24.154,28.781,32.403,33.388,32.104,27.493,27.106,26.966,26.971,23.83,19.366
1970,20.22,22.95,26.891,31.746,34.485,29.68,27.225,27.069,27.11,25.797,20.856,17.857
1971,19.533,22.194,26.083,30.383,30.878,28.842,26.623,26.18,27.485,26.364,22.182,18.186
1972,19.936,21.569,28.025,31.216,35.34,34.489,28.42,27.115,27.439,26.145,23.222,20.937
1973,20.895,23.993,27.098,32.682,35.406,32.232,27.836,27.169,27.484,25.785,21.872,19.183
1974,19.383,22.25,27.686,32.327,33.58,32.017,28.066,27.899,28.209,26.476,21.904,19.072
1975,18.405,22.687,26.498,32.628,35.614,32.024,27.175,27.109,27.016,26.68,20.553,18.242
1976,18.372,22.804,27.238,30.373,33.753,31.92,27.392,27.192,27.116,27.148,25.713,20.632
1977,19.573,23.379,28.458,30.903,31.751,31.68,27.461,27.169,27.561,26.609,24.073,19.221
1978,18.544,21.8,25.218,30.481,35.459,31.216,27.274,26.547,27.51,26.364,24.045,18.997
1979,20.482,20.155,26.478,30.746,33.469,31.98,28.476,27.477,26.781,27.34,25.601,20.318
1980,20.728,23.675,26.894,32.196,34.901,29.275,26.66,26.732,27.013,26.278,23.282,19.762
1981,18.967,23.434,26.196,30.155,32.982,32.11,27.428,27.488,27.437,26.384,22.591,19.074
1982,21.211,22.482,25.828,31.496,33.372,31.565,29.748,27.119,28.342,26.732,23.144,21.026
1983,19.873,21.967,27.407,30.851,33.272,32.936,28.618,27.834,27.711,25.324,21.319,19.092
1984,19.636,20.884,27.453,31.752,35.305,30.451,27.543,26.87,27.147,26.587,21.775,20.218
1985,20.738,22.378,28.5,32.241,33.862,32.024,26.499,26.386,27.751,24.867,22.075,20.317
1986,18.974,21.702,26.105,31.255,32.776,31.245,26.731,27.008,27.49,25.408,22.65,19.253
1987,18.646,21.967,26.27,31.247,32.431,32.65,27.383,27.198,27.589,25.78,21.826,18.663
1988,19.367,22.644,26.318,30.712,34.591,30.151,27.018,27.976,28.444,25.964,22.691,20.717
1989,19.125,23.421,26.813,32.352,35.11,30.451,28.057,27.498,27.746,26.531,23.33,19.481
1990,21.518,22.959,26.369,31.094,31.695,30.363,27.009,27.62,27.321,25.5,22.957,19.95
1991,19.784,24.115,27.408,30.822,34.591,30.591,28.227,26.819,27.839,26.147,21.662,19.233
1992,18.838,21.378,27.821,31.53,33.545,31.424,28.967,27.299,27.599,26.799,23.786,19.442
1993,20.553,22.955,26.695,31.274,35.015,32.776,28.514,27.654,27.504,26.974,21.855,19.05
1994,20.936,22.474,28.268,30.762,34.418,31.226,26.826,26.634,27.272,26.741,22.844,19.51
1995,18.492,22.441,26.435,31.136,32.41,33.774,27.83,27.591,27.598,26.47,23.045,20.323
1996,20.865,21.681,28.14,30.348,35.174,31.424,27.967,27.063,28.253,26.079,22.89,19.033
1997,18.708,21.176,27.169,29.07,33.323,33.211,27.813,27.157,27.448,26.697,24.268,21.407
1998,20.246,22.811,25.413,30.413,33.58,33.672,27.783,27.95,28.106,27.992,23.584,19.632
1999,18.152,23.375,27.487,33.06,33.477,31.027,27.618,27.13,27.114,27.194,23.176,19.972
2000,20.396,22.122,26.294,32.568,33.823,30.072,28.131,27.661,27.347,27.721,24.015,19.48
2001,19.315,22.497,27.468,30.741,34.513,29.274,26.856,27.38,28.328,27.566,24.696,20.735
2002,19.569,23.245,27.795,31.724,35.361,31.794,28.912,26.974,27.476,26.618,23.177,21.126
