Year,Jan,Feb,Mar,Apr,May,Jun,Jul,Aug,Sep,Oct,Nov,Dec
1901,71.697,10.195,31.182,30.564,40.575,48.64,288.024,62.997,22.205,0.794,0.055,1.469
1902,1.041,13.651,68.522,70.043,57.26,113.949,191.581,116.399,50.978,14.617,23.6,0.51
1903,56.098,40.418,21.447,10.717,21.184,38.78,475.346,124.851,40.465,5.761,0.277,12.68
1904,86.534,11.132,90.814,32.594,68.668,66.231,161.715,79.672,34.26,28.36,17.888,11.079
1905,108.478,35.189,18.459,17.118,7.074,48.374,79.669,162.447,130.064,8.953,0.172,50.158
1906,19.457,145.013,40.784,43.917,175.371,45.851,54.021,241.23,124.724,0.44,0.055,8.553
1907,44.619,99.432,51.155,83.243,4.926,172.534,46.535,267.606,12.784,8.313,0.397,0.299
1908,62.625,22.583,1.865,89.107,118.677,75.279,94.794,343.428,300.517,2.764,0.072,17.116
1909,52.686,19.865,24.162,104.855,16.479,77.537,268.408,172.656,228.745,1.533,19.526,82.796
1910,98.76,23.82,31.556,154.142,25.565,105.084,147.227,203.265,36.099,7.188,0.225,26.687
1911,112.58,26.226,107.225,21.996,15.85,41.534,171.087,140.772,127.332,11.334,24.905,14.3
1912,112.088,37.222,25.955,60.345,67.32,30.737,77.381,111.4,4.877,1.206,9.401,46.268
1913,89.989,88.788,91.96,104.304,84.715,45.57,113.122,216.329,47.707,5.191,1.845,32.977
1914,75.796,66.209,29.133,45.626,36.529,41.431,157.517,162.44,132.032,56.229,26.171,39.994
1915,14.355,137.403,37.921,20.468,26.546,63.308,22.692,238.052,66.734,87.173,0.055,6.222
1916,16.769,24.618,14.008,35.296,17.696,61.971,257.721,179.059,64.453,12.75,0.626,0.738
1917,17.457,4.003,11.864,60.241,25.686,151.99,105.473,450.58,184.538,39.027,0.055,30.462
1918,2.911,7.36,90.062,78.065,1.232,46.412,112.341,63.833,43.687,0.952,11.835,54.704
1919,86.426,39.119,60.498,25.084,17.077,5.42,132.025,84.971,29.489,6.155,1.524,27.023
1920,85.986,59.19,49.271,116.948,20.574,18.005,17.545,67.649,114.026,3.651,0.055,0.881
1921,19,3.474,14.708,35.214,100.064,108.538,102.689,171.843,56.369,32.126,0.207,86.137
1922,45.893,73.994,67.243,34.483,67.28,61,27.167,103.145,201.979,11.8,0.569,75.595
1923,63.614,83.367,26.951,69.4,38.815,4.684,412.195,257.354,18.796,21.166,2.411,53.828
1924,106.562,134.765,37.594,27.725,54.509,7.6,204.618,40.357,161.504,5.327,0.632,114.928
1925,23.629,16.075,7.987,6.761,41.861,94.737,184.387,244.042,33.277,6.047,27.002,0.299
1926,44.379,14.953,67.366,32.166,30.107,53.778,103.01,150.003,105.696,1.228,2.825,41.015
1927,7.566,30.367,88.733,24.685,24.975,41.005,68.25,228.972,56.169,8.438,0.172,60.297
1928,33.699,29.505,26.874,47.934,8.006,21.502,89.263,133.497,290.826,0.181,28.396,29.696
1929,26.635,5.748,2.781,25.793,12.48,108.863,184.515,197.013,9.547,5.415,0.102,77.418
1930,117.445,14.892,5.807,63.623,12.267,15.332,193.896,93.21,22.174,3.724,1.657,13.117
1931,89.875,82.991,26.919,130.022,67.481,36.501,469.123,171.592,83.04,28.234,0.412,0.44
1932,46.708,4.906,26.581,49.271,14.438,103.018,84.548,100.497,10.164,0.474,0.072,61.019
1933,27.435,28.818,71.757,34.051,7.388,46.699,103.803,392.007,92.324,5.22,26.444,5.687
1934,45.002,30.18,35.635,9.934,9.313,22.364,215.651,232.021,3.598,0.181,0.172,34.551
1935,105.455,109.001,38.427,81.25,64.838,5.102,28.487,119.44,45.27,8.473,32.965,19.759
1936,34.028,100.857,152.418,63.763,17.039,132.912,314.423,87.565,26.822,44.259,1.875,44.61
1937,35.663,97.647,67.515,54.486,35.546,38.16,289.895,24.315,69.562,47.174,2.653,34.738
1938,95.191,38.06,11.116,28.017,1.599,137.969,94.047,161.993,17.016,18.717,0.959,14.637
1939,63.446,112.44,95.852,48.648,15.92,22.171,124.925,65.394,24.853,30.198,0.181,0.443
1940,54.626,39.003,64.744,57.711,44.07,141.983,51.535,193.727,107.118,4.941,6.728,11.279
1941,50.258,51.495,26.432,84.368,67.869,54.093,140.881,24.776,207.019,0.632,8.977,32.765
1942,98.527,141.789,24.77,80.653,63.984,51.043,232.293,177.978,70.168,12.938,10.225,32.241
1943,38.32,8.504,32.537,21.194,16.553,72.735,50.588,31.627,130.626,0.181,0.207,1.889
1944,87.915,84.312,50.821,44.609,20.532,89.336,104.615,263.619,101.131,3.174,23.37,34.095
1945,105.284,13.207,104.184,130.705,35.6,141.129,272.687,82.289,118.648,34.748,0.7,23.817
1946,11.894,22.375,21.679,17.143,28.698,75.401,100.507,101.246,33.684,26.644,10.326,22.362
1947,30.067,32.835,17.8,11.314,43.296,39.644,149.207,186.052,37.858,36.511,0.748,72.13
1948,19.987,83.675,123.794,68.721,46.972,164.928,342.548,196.817,90.347,4.89,0.846,29.738
1949,49.58,119.011,43.821,39.547,44.308,66.517,114.412,101.737,55.97,12.638,2.436,7.961
1950,243.649,54.132,94.983,62.138,57.897,34.335,283.194,165.467,266.977,5.686,2.209,3.004
1951,63.438,102.53,84.573,52.956,60.855,124.516,103.178,193.749,43.024,16.706,25.91,16.704
1952,72.692,54.568,93.254,27.063,27.095,32.974,63.244,45.611,4.803,2.736,2.955,72.11
1953,66.956,71.186,108.399,45.314,6.068,79.249,343.747,158.087,187.709,43.223,6.842,63.075
1954,59.888,135.703,12.073,14.744,84.035,69.189,105.678,49.62,388.43,27.006,0.312,11.802
1955,54.72,3.742,156.133,33.701,75.561,28.443,69.526,188.306,136.884,38.519,0.055,10.085
1956,61.895,63.198,88.904,163.001,6.405,149.394,116.744,215.757,4.854,75.812,0.102,18.204
1957,151.824,41.559,69.039,189.643,40.48,67.601,50.276,463.504,12.587,85.397,49.957,52.391
1958,40.068,15.741,37.231,46.393,41.252,30.954,83.609,169.191,158.491,14.677,0.785,77.857
1959,78.033,39.846,55.859,20.716,169.662,17.83,504.751,121.122,28.928,26.6,48.445,7.698
1960,29.779,21.15,52.426,52.276,67.026,89.121,212.885,158.167,30.085,3.152,0.242,24.702
1961,113.676,31.524,14.907,57.36,17.619,88.481,157.118,90.529,72.942,24.917,4.296,21.636
1962,32.306,46.735,24.886,85.494,19.734,16.967,194.462,99.943,268.916,0.586,16.244,49.602
1963,0.501,28.737,131.138,22.592,34.556,11.089,48.587,32.409,32.18,1.325,12.809,59.043
1964,58.932,59.1,29.463,113.378,40.463,166.97,213.119,223.55,82.175,0.181,4.007,31.283
1965,28.591,58.853,31.732,118.209,32.972,1.539,214.847,78.469,9.238,16.798,14.649,1.169
1966,0.737,114.685,86.824,47.13,87.09,63.802,129.621,78.988,367.562,55.192,7.167,4.299
1967,7.702,100.408,104.506,25.858,145.066,12.128,63.654,197.175,36.807,16.504,6.819,98.347
1968,46.634,45.206,19.975,49.729,14.49,14.86,115.624,205.622,0.784,25.499,3.434,38.824
1969,43.359,91.013,58.037,181.922,39.977,23.543,99.548,59.553,33.726,49.431,0.055,0.299
1970,49.115,40.889,42.678,30.12,39.156,58.113,53.371,104.869,27.439,32.592,0.055,0.44
1971,2.092,21.061,6.365,82.597,46.218,84.122,135.192,241.324,12.724,18.272,0.825,0.812
1972,16.795,60.069,202.157,23.374,146.609,17.401,201.613,124.193,89.369,82.626,17.082,30.803
1973,109.692,72.206,110.101,102.978,46.025,17.217,118.294,365.353,49.58,2.79,0.055,30.932
1974,157.603,151.632,115.512,10.959,29.455,143.824,165.56,33.638,69.404,0.819,1.9,66.134
1975,64.344,106.487,189.124,23.73,47.475,78.464,355.176,391.768,100.877,1.553,0.277,10.408
1976,46.375,105.921,46.519,22.599,20.215,73.723,87.084,720.412,102.872,44.698,0.055,7.122
1977,79.56,7.657,10.08,116.82,52.504,66.359,108.815,96.931,28.321,91.564,7.659,50.797
1978,43.445,21.453,125.515,28.518,38.995,146.857,385.352,290.913,91.263,0.192,51.444,10.191
1979,24.792,54.643,109.751,25.541,64.406,28.226,72.818,88.001,84.246,14.685,44.199,27.929
1980,29.024,74.11,51.089,24.562,18.225,95.39,393.874,170.274,135.876,19.914,16.983,23.02
1981,129.487,52.804,94.723,104.518,32.76,60.504,316.013,111.376,1.092,14.024,65.17,0.685
1982,36.186,62.979,149.672,36.707,61.535,14.245,33.393,149.524,12.785,79.227,88.16,62.282
1983,88.782,55.483,205.203,125.004,106.39,124.643,195.309,165.677,64.013,36.678,0.37,2.062
1984,6.575,67.353,38.877,79.047,80.148,18.623,317.697,162.489,78.829,0.181,5.604,47.853
1985,43.758,10.272,21.538,55.477,58.069,43.095,146.393,220.65,47.867,39.102,2.675,99.321
1986,4.872,90.038,103.832,63.66,38.16,125.629,189.863,187.619,42.99,9.175,63.333,38.568
1987,50.8,68.389,52.604,101.796,59.16,182.088,53.014,31.455,3.073,68.695,0.055,9.388
1988,89.459,64.156,196.778,35.003,4.041,129.768,272.976,132.728,272.219,47.006,0.055,72.864
1989,55.035,33.763,51.901,28.362,59.596,31.116,245.856,191.426,32.739,22.544,28.014,6.279
1990,87.279,142.287,165.862,72.845,24.674,11.729,335.533,169.236,143.618,10.491,14.316,113.5
1991,54.46,60.111,70.342,125.2,58.459,74.936,32.152,102.747,37.861,5.797,2.269,23.262
1992,169.945,89.919,91.668,38.532,52.276,16.744,84.71,167.652,232.779,14.756,20.964,15.087
1993,62.352,40.333,105.328,57.888,51.32,59.311,303.309,12.966,69.339,0.192,0.055,0.299
1994,107.906,73.166,93.784,59.662,86.453,32.269,101.066,150.784,124.383,5.205,0.066,84.864
1995,52.313,172.469,28.471,35.859,17.081,76.608,434.521,243.245,71.759,4.956,11.874,19.407
1996,116.019,131.597,131.819,92.256,91.256,265.236,103.408,448.908,12.939,22.732,2.004,24.452
1997,34.287,30.879,65.606,63.187,36.368,135.212,204.51,316.879,79.953,19.159,29.551,15.977
1998,111.598,112.604,57.557,110.498,75.883,34.433,97.634,60.124,127.101,38.326,0.678,24.351
1999,90.173,67.939,45.398,113.181,54.156,51.691,138.155,253.664,34.886,2.357,19.36,0.943
2000,62.182,65.002,46.655,21.121,38.815,54.173,111.315,97.848,55.011,0.181,6.761,8.773
2001,20.83,38.392,40.497,37.502,39.071,76.825,248.227,147.648,73.445,9.239,18.402,12.469
2002,44.045,95.947,91.826,39.78,30.988,109.193,67.992,171.885,139.48,4.234,0.055,5.539
