Year,Jan,Feb,Mar,Apr,May,Jun,Jul,Aug,Sep,Oct,Nov,Dec
1901,16.305,9.316,26.067,16.306,17.193,16.983,58.188,42.622,11.598,1.69,2.338,6.721
1902,8.378,9.555,15.559,38.011,24,19.446,55.92,30.432,15.048,8.731,8.025,3.948
1903,29.427,23.025,17.304,11.687,16.459,16.423,21.071,28.635,5.216,10.273,1.451,3.848
1904,31.22,9.154,36.752,20.97,28.032,23.256,44.169,29.568,17.235,13.123,24.541,10.368
1905,55.785,19.096,13.286,25.733,9.319,17.331,21.288,51.542,6.541,1.602,3.139,21.712
1906,16.846,49.03,15.887,24.514,54.666,18.923,17.99,65.472,12.153,2.613,1.717,3.63
1907,21.541,28.255,35.085,31.027,7.784,38.557,28.832,43.319,5.474,3.34,1.619,2.804
1908,22.917,30.668,10.508,31.777,66.639,21.286,18.297,44.1,46.042,2.153,3.104,5.875
1909,28.779,10.019,10.578,19.078,12.072,25.212,63.191,47.631,39.353,2.378,18,12.141
1910,38.474,17.055,21.218,62.395,20.744,29.38,43.916,53.033,19.12,6.013,3.702,14.914
1911,39.456,12.721,36.202,11.018,7.283,14.581,32.416,40.326,40.408,4.446,20.416,10.424
1912,39.823,23.252,17.239,21.943,38.73,15.164,28.043,22.847,12.211,1.878,13.276,27.128
1913,31.156,36.83,44.033,55.202,21.162,25.155,20.647,42.596,14.815,3.138,7.697,16.995
1914,29.513,29.152,27.74,26.668,13.225,18.92,36.727,45.775,38.631,6.374,19.857,12.123
1915,10.165,54.531,17.233,19.753,20.865,23.246,13.908,80.713,14.035,28.287,2.902,6.026
1916,11.342,12.262,9.988,22.482,14.388,37.18,42.37,40.868,23.838,4.12,1.952,3.612
1917,12.056,15.814,22.041,17.906,20.306,49.488,32.418,94.666,25.844,10.134,2.95,16.837
1918,5.193,5.909,29.399,23.741,6.414,13.924,27.987,15.408,13.428,1.045,16.77,26.636
1919,33.408,14.7,33.535,21.417,10.225,10.851,21.563,20.985,13.947,6.137,3.606,5.251
1920,30.884,25.357,31.018,31.045,13.451,21.728,16.982,10.99,31.81,3.016,2.434,2.62
1921,18.679,5.604,13.409,21.085,48.405,34.996,14.477,50.571,16.184,14.494,2.1,43.368
1922,28.173,36.198,33.841,19.408,36.503,17.046,36.632,44.085,28.946,8.537,5.543,34.469
1923,18.145,40.47,14.699,8.48,11.537,10.25,87.703,56.944,15.252,12.766,21.452,12.038
1924,36.179,45.918,22.336,16.42,19.373,8.37,36.596,18.651,51.545,12.194,4.263,31.698
1925,26.664,8.514,9.468,11.618,18.689,21.596,43.747,63.545,13.132,2.887,13.344,2.804
1926,21.298,12.065,27.127,14.328,28.716,21.106,33.498,21.389,26.931,3.077,9.908,16.478
1927,8.292,23.122,47.663,13.7,19.958,17.989,13.164,64.293,17.845,26.769,2.383,7.678
1928,24.976,28.084,19.601,20.348,4.936,8.55,26.53,29.071,60.865,1.42,13.067,16.509
1929,28.785,5.156,11.967,20.511,11.272,22.102,39.483,39.537,4.83,13.077,1.487,16.375
1930,40.911,11.08,12.338,16.442,11.246,9.836,39.77,33.149,4.521,8.337,8.85,14.575
1931,27.905,38.304,14.623,64.721,31.017,18.796,72.856,31.13,30.493,13.844,3.742,3.294
1932,23.522,6.317,17.733,29.085,10.354,40.633,11.726,37.4,15.483,2.371,3.208,13.417
1933,20.865,20.46,30.694,14.75,13.376,19.156,36.744,81.198,22.593,15.876,14.141,6.41
1934,23.686,20.152,21.396,10.083,10.092,9.029,52.17,69.39,5.581,1.387,2.464,22.89
1935,26.576,22.005,23.221,18.6,21.632,4.056,17.556,29.322,17.217,5.073,21.974,22.508
1936,5.651,26.974,51.949,30.785,24.671,56.86,87.549,37.893,9.365,12.803,6.87,29.582
1937,20.45,39.23,10.127,37.304,27.14,19.648,50.218,26.151,19.221,11.549,5.498,15.66
1938,39.822,13.702,11.904,11.133,10.411,31.172,27.269,43.702,8.367,6.988,6.505,9.41
1939,24.768,28.221,33.404,26.157,12.834,12.089,35.927,23.718,8.867,11.742,3.526,3.031
1940,26.137,23.102,32.622,28.285,21.021,28.158,19.484,41.197,23.457,4.094,3.605,13.655
1941,18.479,26.508,15.088,46.341,32.605,14.612,25.983,14.28,49.398,3.642,10.261,15.872
1942,27.669,51.983,5.324,29.604,68.103,14.804,39.151,23.88,14.393,1.676,2.464,16.446
1943,15.28,3.966,22.804,24.343,2.915,17.189,41.504,52.782,45.825,0.033,0.07,0.185
1944,46.072,16.936,14.849,13.02,6.712,29.803,15.796,44.173,12.782,1.025,16.837,4.997
1945,15.157,8.433,50.874,30.646,16.843,29.606,66.984,46.118,30.514,17.466,0.054,9.874
1946,2.892,17.839,17.075,21.795,17.353,26.312,25.08,16.962,7.841,4.415,15.291,9.144
1947,17.605,15.552,21.09,6.786,32.847,11.689,28.223,58.102,11.467,7.928,1.627,12.211
1948,3.171,30.907,51.152,11.067,9.999,31.612,76.849,43.903,12.067,4.243,0.07,9.44
1949,16.532,27.689,9.442,28.564,36.924,13.185,26.932,54.109,17.073,6.294,1.329,2.091
1950,113.651,88.794,25.532,9.732,39.449,19.181,34.452,25.01,31.723,0.827,31.127,1.19
1951,14.451,38.611,66.461,13.58,13.99,29.215,14.368,104.278,11.183,4.988,102.747,0.12
1952,14.517,14.137,24.534,10.535,15.942,11.386,8.955,21.199,6.016,17.949,12.511,28.125
1953,38.885,16.498,104.508,27.488,1.724,21.859,63.701,22.589,23.046,32.607,62.822,21.05
1954,35.672,103.697,7.864,3.787,20.133,42.565,21.658,32.706,37.179,7.422,0.287,13.535
1955,22.019,1.609,36.803,41.56,17.534,28.157,25.14,53.614,12.854,17.707,0.011,1.154
1956,63.6,16.948,24.107,41.653,19.674,23.433,18.31,31.106,4.494,19.64,0.011,26.472
1957,82.196,20.507,19.819,49.365,10.406,28.877,23.862,103.089,15.169,20.382,20.014,33.392
1958,14.794,6.686,15.217,18.328,22.41,8.69,25.461,51.414,21.296,16.207,3.353,20.926
1959,22.32,11.21,17.378,14.133,81.26,12.294,57.783,31.719,5.749,9.165,22.452,10.716
1960,10.856,8.754,15.225,38.32,36.433,21.627,52.535,32.179,11.665,14.09,3.09,4.017
1961,51.817,19.197,17.601,9.286,6.356,17.548,36.529,20.026,7.203,1.657,7.344,30.241
1962,28.695,4.154,15.36,24.674,3.246,3.007,30.003,18.385,48.61,1.804,18.303,36.446
1963,0.677,38.599,122.078,7.539,8.89,1.486,11.151,20.599,13.253,0.053,5.489,19.781
1964,22.96,22.594,16.933,27.226,19.713,39.28,35.716,42.911,11.841,0.004,0.466,12.847
1965,8.088,34.492,23.535,23.706,11.751,2.861,38.252,31.275,2.266,25.569,1.645,0.12
1966,4.084,32.481,86.15,48.786,20.915,24.578,19.304,37.916,54.465,19.954,52.546,4.914
1967,4.687,49.809,28.811,8.281,46.542,2.573,13.73,36.452,3.987,2.742,2.429,21.093
1968,15.747,17.774,6.193,20.799,2.195,7.653,38.853,42.28,0.163,2.422,1.167,9.796
1969,32.363,28.973,22.254,150.477,27.812,3.762,19.056,46.891,34.315,16.957,0.011,0.12
1970,24.072,18.292,8.99,11.298,13.512,12.609,11.53,29.892,12.541,10.229,0.011,0.529
1971,4.281,9.821,2.231,23.483,68.795,21.831,38.926,38.374,16.751,18.498,0.013,19.134
1972,12.942,36.84,53.494,11.149,74.87,9.898,32.224,29.065,52.525,36.939,18.622,5.398
1973,35.464,21.845,28.277,30.237,19.479,37.085,31.368,83.073,7.948,17.02,0.011,2.486
1974,69.87,68.259,46.63,12.846,31.711,39.175,29.664,20.232,21.62,3.41,0.896,23.521
1975,35.424,26.548,70.14,5.623,14.435,12.204,52.504,82.565,27.02,9.6,0.011,10.884
1976,9.032,45.804,57.518,4.417,6.437,86.636,18.248,122.728,10.204,20.619,0.011,2.021
1977,46.727,5.564,2.172,84.628,18.794,67.828,30.633,20.541,11.593,28.547,29.75,17.966
1978,28.589,14.25,42.948,22.519,11.477,39.888,75.051,66.31,44.147,0.004,23.922,4.249
1979,11.538,36.937,19.481,4.41,21.6,5.679,31.851,10.842,27.564,4.13,18.581,9.055
1980,5.32,43.164,17.522,3.689,25.542,12.414,64.864,31.179,26.957,3.4,3.196,7.01
1981,23.917,12.616,20.741,65.974,26.49,18.228,35.7,37.676,1.189,0.947,40.14,1.227
1982,4.881,11.006,18.407,28.326,16.111,4.032,6.577,22.558,3.918,22.334,32.426,18.006
1983,24.167,11.295,106.055,25.447,13.68,59.842,52.544,25.625,13.211,5.871,0.011,8.324
1984,1.41,32.677,6.684,14.66,27.411,4.913,59.447,36.238,33.412,0.004,1.884,20.038
1985,35.446,1.93,17.105,41.2,11.924,26.146,78.782,46.575,4.297,11.979,0.292,31.211
1986,0.436,14.957,42.555,11.666,18.662,21.627,45.286,27.67,28.949,7.513,60.711,51.813
1987,37.796,16.46,11.132,61.025,33.841,38.912,8.861,26.135,0.164,21.464,0.011,31.824
1988,26.329,28.281,72.984,42.567,15.63,48.575,63.851,34.884,42.607,4.219,0.011,40.498
1989,38.541,10.669,10.478,19.581,17.408,6.417,46.228,30.46,3.11,6.853,9.704,7.604
1990,54.592,61.891,57.722,16.822,72.474,3.8,55.502,35.416,20.4,1.816,8.675,34.389
1991,18.528,12.377,17.856,26.419,26.51,14.042,2.102,24.402,13.32,0.808,1.168,16.035
1992,44.838,49.913,116.24,5.597,16.921,14.561,28.317,24.753,30.941,2.683,44.934,3.679
1993,31.944,27.1,33.6,4.142,14.477,37.815,37.035,1.839,18.347,0.004,0.011,0.52
1994,49.578,26.146,28.083,14.286,15.6,4.486,33.359,45.99,14.729,0.263,0.011,21.727
1995,39.835,64.51,2.276,12.729,5.165,25.24,57.419,60.083,9.647,6.158,51.705,5.274
1996,49.741,36.3,58.21,41.922,28.699,49.435,53.202,69.521,11.129,11.234,0.22,15.644
1997,7.582,13.563,13.175,37.657,12.289,36.077,16.984,40.589,11.968,4.095,18.663,9.782
1998,34.515,24.388,41.013,36.716,15.141,16.117,20.068,45.594,21.839,10.45,5.837,15.526
1999,35.775,16.673,6.884,54.906,16.638,11.064,31.18,58.247,9.08,4.144,7.689,4.464
2000,11.323,23.516,10.838,13.33,25.586,28.749,18.621,28.335,8.196,0.033,1.439,1.331
2001,5.17,8.115,6.525,19.711,26.832,13.344,47.533,32.784,8.126,17.957,4.313,45.657
2002,90.721,26.043,33.329,27.779,4.786,17.402,63.906,20.456,32.223,1.039,0.255,7.024
