Year,Jan,Feb,Mar,Apr,May,Jun,Jul,Aug,Sep,Oct,Nov,Dec
1901,75.755,17.229,35.265,36.564,45.313,50.622,276.336,64.836,31.807,2.101,0.121,1.219
1902,1.092,14.007,71.859,70.752,59.384,114.033,189.017,117.529,49.81,15.268,25.418,0.518
1903,61.227,38.514,31.598,15.809,25.268,35.693,482.899,146.414,62.616,7.454,0.815,16.772
1904,92.969,11.56,99.525,34.634,69.945,65.007,168.326,108.306,34.4,32.618,16.947,17.311
1905,109.989,37.968,26.314,19.138,11.866,47.109,79.014,148.5,150.809,9.903,0.487,52.322
1906,24.198,149.872,47.295,45.59,166.308,48.281,55.97,240.293,133.052,0.678,0.121,9.415
1907,47.893,112.337,53.589,87.373,7.227,170.913,59.846,261.465,11.092,10,0.485,0.3
1908,65.179,25.792,3.86,103.631,112.066,69.425,100.865,368.45,266.934,5.741,0.121,25.675
1909,56.701,28.094,29.267,104.898,18.841,74.528,303.48,157.887,228.736,4.293,18.247,81.453
1910,104.923,31.594,35.759,152.854,24.422,104.49,130.041,190.761,30.855,6.566,0.2,27.135
1911,126.056,31.574,111.317,26.89,17.184,43.043,155.195,137.214,122.891,11.601,26.049,14.813
1912,114.824,36.512,31.107,65.811,66.621,28.086,86.847,118.951,3.665,1.513,9.218,43.137
1913,88.505,89.16,90.043,102.549,83.72,44.928,106.768,207.83,46.324,5.775,3.377,32.088
1914,74.216,74.888,32.522,51.088,40.904,37.221,157.913,154.541,121.636,64.07,27.923,44.14
1915,14.588,141.549,41.089,31.459,24.251,59.615,30.998,212.079,68.911,83.975,0.121,6.19
1916,17.795,30.215,16.223,36.759,18.489,56.851,259.414,194.708,60.361,12.414,0.615,0.821
1917,20.097,4.995,15.75,62.941,26.208,148.103,99.848,435.885,183.357,43.155,0.121,31.049
1918,4.241,11.752,96.9,86.317,0.935,47.385,114.423,73.583,40.003,2.503,12.069,56.664
1919,97.264,44.298,59.705,28.177,19.004,6.19,127.392,96.781,28.196,5.598,1.504,32.141
1920,88.459,60.821,59.884,115.708,24.162,18.211,17.562,70.849,108.566,4.447,0.121,2.09
1921,29.002,9.252,16.116,35.435,92.374,106.607,106.293,187.684,57.509,37.727,0.596,86.955
1922,48.851,70.392,67.11,38.938,63.472,58.618,25.506,94.223,201.54,12.431,0.357,71.431
1923,71.464,84.652,33.391,71.559,49.261,4.939,393.498,271.209,15.607,22.535,1.639,53.563
1924,108.928,139.035,40.601,36.599,58.86,6.483,201.914,51.376,153.254,3.821,1.226,110.567
1925,31.164,22.837,10.811,12.042,47.574,91.637,178.771,244.026,36.811,7.314,27.51,0.3
1926,45.208,20.804,72.478,39.198,39.198,55.57,99.521,160.934,114.254,1.105,2.185,38.976
1927,13.307,34.62,85.819,25.994,27.751,38.97,83.991,219.703,54.376,6.295,0.487,60.986
1928,35.659,40.788,31.792,55.571,9.465,21.116,84.249,150.549,292.957,0.2,30.14,33.99
1929,30.458,10.008,4.795,26.737,15.702,106.733,198.043,236.361,17.047,10.699,0.267,77.318
1930,112.925,19.775,13.096,78.614,18.45,18.869,207.729,83.989,39.885,7.89,0.963,11.335
1931,92.194,84.728,26.638,125.262,71.02,32.29,477.687,165.187,71.372,28.328,0.785,0.738
1932,61.844,12.003,31.973,48.176,20.46,101.075,134.84,100.536,6.859,0.751,0.121,58.976
1933,28.775,33.84,77.778,38.766,8.106,52.443,136.157,383.098,85.896,5.919,26.032,5.281
1934,50.207,31.733,37.591,14.4,12.448,21.459,193.823,210.765,6.411,0.2,0.487,34.139
1935,112.431,113.134,45.35,86.793,62.365,12.047,48.137,134.596,51.096,9.431,37.028,18.22
1936,35.891,106.95,157.371,65.742,15.769,122.504,280.469,83.934,24.21,43.923,4.667,43.821
1937,37.495,104.401,70.824,58.233,35.543,36.172,293.089,20.94,66.546,49.599,2.793,35.781
1938,101.807,47.491,17.418,31.532,3.814,138.128,88.912,160.973,15.863,20.524,0.826,15.145
1939,66.558,120.992,100.23,49.052,16.455,21.579,124.403,65.156,24.766,31.33,0.242,0.445
1940,60.211,37.076,65.058,58.928,44.76,143.934,47.675,196.908,105.86,5.085,7.251,10.306
1941,54.262,53.499,32.777,81.408,65.334,49.443,158.476,33.132,203.26,1.262,11.177,34.731
1942,101.561,147.945,27.385,85.538,67,49.914,227.241,185.025,68.199,13.974,11.025,32.912
1943,46.394,10.838,37.194,25.659,26.515,68.689,66.131,50.499,119.27,0.2,0.596,5.233
1944,92.559,90.081,52.588,50.114,21.24,87.839,104.989,273.803,99.497,3.195,25.07,36.505
1945,109.668,13.951,106.544,133.109,37.148,128.33,242.37,79.593,107.901,32.433,1.435,22.217
1946,14.65,28.051,26.948,18.077,29.139,77.178,101.612,101.826,30.102,28.67,13.66,27.127
1947,29.498,34.743,20.139,10.991,43.784,42.201,146.672,179.998,36.456,38.089,0.609,75.037
1948,21.502,88.639,126.752,73.71,48.079,166.207,351.254,195.392,88.476,4.268,1.656,32.764
1949,52.823,124.499,46.76,38.523,44.586,65.49,115.71,100.474,52.932,12.149,2.527,8.066
1950,256.676,57.773,100.121,65.104,59.056,30.171,288.109,169.837,268.582,6.002,2.242,2.947
1951,67.697,106.328,88.556,57.66,63.132,123.506,106.201,196.906,39.6,16.963,26.466,17.086
1952,76.391,55.778,96.173,27.116,29.793,36.968,82.092,61.819,11.128,2.819,3.132,67.367
1953,69.769,68.641,106.962,48.113,6.632,71.94,303.54,172.971,183.116,42.06,7.656,65.644
1954,67.745,141.797,14.814,15.11,85.447,65.839,97.858,47.405,375.679,31.594,0.925,11.085
1955,54.306,3.984,154.548,36.574,78.997,25.03,78.729,198.673,130.161,39.505,0.121,10.084
1956,65.533,62.961,91.609,160.845,7.021,142.427,143.319,248.77,6.3,76.04,0.267,17.691
1957,156.322,44,76.054,194.788,48.916,66.739,53.148,448.941,9.187,91.201,55.214,49.811
1958,44.633,15.855,38.326,48.342,42.534,30.253,89.814,168.642,153.314,13.418,1.484,80.042
1959,93.297,49.773,60.986,20.307,160.637,16.598,510.549,117.489,32.707,27.679,54.945,8.077
1960,32.281,20.085,61.425,57.949,65.656,81.684,209.978,162.788,30.704,1.739,0.706,27.786
1961,115.99,32.29,17.464,66.869,18.746,88.481,159.457,88.398,74.494,27.356,6.912,19.747
1962,28.937,52.307,24.432,93.421,20.399,23.425,194.671,107.619,259.785,0.612,18.568,52.999
1963,0.537,28.064,134.509,33.174,37.27,14.052,54.804,37.816,31.337,2.05,16.774,61.04
1964,65.46,58.469,31.205,115.414,40.235,163.071,226.119,212.154,77.123,0.2,4.19,40.646
1965,37.492,65.09,33.827,121.001,42.447,1.935,197.192,82.893,11.49,15.391,16.512,3.004
1966,0.615,130.481,89.844,49.724,89.39,58.095,129.903,86.662,349.247,60.253,5.12,5.363
1967,8.042,99.35,107.451,30.131,139.088,16.783,63.808,193.247,40.235,18.922,7.288,104.285
1968,51.836,46.126,26.785,53.275,17.15,19.707,116.747,206.316,0.752,28.297,5.809,38.999
1969,46.016,94.176,63.197,181.279,45.021,28.786,112.818,52.591,26.917,51.315,0.121,0.3
1970,47.908,39.359,45.624,30.835,40.045,67.327,65.16,117.654,33.13,34.513,0.121,0.738
1971,3.483,24.977,6.294,85.807,41.428,87.016,125.117,228.017,12.355,16.406,2.533,1.126
1972,19.764,66.818,197.331,25.311,140.358,17.922,194.461,147.54,83.842,86.371,17.453,33.945
1973,116.697,72.786,111.023,103.136,45.887,16.909,124.83,366.754,54.183,2.991,0.121,31.228
1974,154.785,160.065,122.878,12.765,31.779,144.869,158.69,31.18,61.929,1.847,2.044,65.803
1975,64.764,109.013,191.713,27.719,54.678,78.849,347.695,433.303,103.121,0.886,0.815,9.589
1976,55.347,110.361,51.416,25.851,22.343,63.144,86.061,691.64,109.56,46.348,0.121,8.224
1977,83.107,8.783,10.1,114.847,53.046,58.039,111.412,108.672,25.983,90.404,8.773,51.608
1978,43.849,25.113,128.018,31.6,39.137,134.334,401.19,275.472,82.871,0.237,54.575,9.317
1979,28.941,56.934,111.193,26.845,74.386,31.304,67.614,96.366,91.968,14.363,48.887,27.969
1980,32.517,81.74,53.352,26.031,20.393,101.2,374.324,168.365,133.155,20.445,20.313,22.983
1981,134.647,59.418,105.704,101.265,33.13,68.371,333.574,111.164,1.447,14.814,63.525,0.663
1982,38.229,69.983,152.569,41.355,62.908,17.806,47.359,153.962,20.648,78.193,87.211,61.208
1983,88.085,56.396,218.456,127.032,107.762,114.41,183.884,180.243,76.501,37.18,1.108,2.223
1984,10.285,70.654,42.523,86.226,77.912,19.987,307.008,180.095,70.75,0.2,9.513,46.337
1985,44.782,13.22,21.964,55.447,61.348,41.011,149.382,204.301,42.165,41.044,3.018,108.073
1986,5.765,91.922,110.871,74.644,39.35,115.8,186.048,192.304,37.205,9.234,70.498,41.904
1987,60.98,74.905,54.249,96.374,69.655,179.965,64.389,26.931,7.155,74.426,0.121,15.003
1988,90.189,70.893,198.672,34.761,6.024,125.975,314.573,132.782,261.147,45.8,0.121,69.013
1989,52.434,38.89,56.347,32.998,61.254,34.619,256.073,194.708,51.801,24.586,29.505,8.876
1990,91.425,140.558,173.604,74.26,19.864,15.386,308.233,191.723,128.751,10.627,14.496,111.282
1991,53.964,58.09,73.187,131.619,61.519,70.179,52.937,109.309,47.891,5.746,2.155,23.834
1992,171.697,87.129,100.219,38.811,56.568,21.991,94.999,175.49,237.46,15.592,20.651,15.478
1993,67.378,48.2,113.524,57.257,51.489,67.465,304.432,14.58,64.523,0.237,0.121,0.3
1994,108.71,77.391,94.825,63.256,88.745,37.979,105.476,157.55,115.136,7.969,0.158,90.629
1995,51.674,174.115,34.176,42.509,19.713,73.362,455.205,258.469,64.315,6.912,12.607,20.356
1996,114.657,128.74,133.513,91.624,93.049,264.66,98.588,426.905,12.964,26.268,5.034,23.286
1997,35.628,31.484,70.582,65.17,39.921,125.583,187.993,319.495,73.453,23.113,31.728,15.83
1998,104.811,122.015,55.479,110.011,73.334,37.228,94.63,54.704,112.084,38.818,0.42,21.995
1999,95.139,65.179,47.152,105.44,52.085,51.833,143.903,239.105,36.153,1.92,22.105,0.575
2000,66.404,64.708,47.466,21.454,38.682,51.947,116.908,97.64,53.609,0.2,7.824,9.059
2001,21.9,39.649,43.94,36.233,38.106,77.912,257.659,151.348,72.565,9.721,19.827,12.599
2002,44.432,97.327,90.244,40.235,33.888,110.53,68.568,176.946,135.911,4.357,0.121,6.479
