Year,Jan,Feb,Mar,Apr,May,Jun,Jul,Aug,Sep,Oct,Nov,Dec
1901,54.81,42.944,4.931,14.928,24.316,77.406,250.566,322.173,238.305,29.914,12.613,0
1902,5.977,3.801,10.224,26.112,22.583,75.104,313.388,207.815,399.518,19.3,0.772,3.945
1903,7.879,16.132,8.71,15.484,46.021,129.59,129.242,244.68,192.478,128.12,0.005,0
1904,0.448,7.208,43.782,1.26,196.594,281.345,356.875,420.24,91.638,45.646,3.637,0.382
1905,13.356,48.202,49.161,18.572,43.464,36.852,393.396,347.4,375.872,22.118,0,1.111
1906,20.791,115.1,36.088,0.393,22.644,200.019,398.911,240.362,200.739,112.724,1.608,1.111
1907,0.157,72.322,44.645,57.568,28.873,351.295,198.377,278.927,185.515,11.843,0,4.273
1908,16.897,70.165,7.662,0.443,18.086,211.938,341.064,352.698,109.503,87.107,0.121,0.298
1909,8.457,10.18,0.16,71.915,16.408,311.379,313.621,356.6,197.208,12.76,0.732,6.701
1910,7.07,35.998,26.031,20.254,23.957,188.691,261.376,368.973,228.714,63.115,13.185,0
1911,4.465,0.325,35.098,3.023,25.275,615.264,109.121,297.96,277.581,116.32,28.553,0
1912,1.785,9.357,17.216,26.187,46.059,139.911,318.438,323.069,52.951,24.377,18.38,0
1913,0.157,67.848,46.246,2.221,74.5,461.548,241.108,380.095,173.966,82.355,4.031,14.384
1914,0.157,39.617,25.149,44.614,75.809,107.131,330.916,407.308,117.668,14.566,0,9.395
1915,3.117,44.926,28.017,5.008,38.466,149.836,250.74,304.135,266.432,49.502,26.628,0
1916,0.157,21.524,1.611,10.347,12.687,368.087,316.046,353.826,240.629,219.737,4.257,0
1917,1.786,53.348,10.508,10.655,91.717,180.888,302.385,406.774,217.27,255.699,1.475,0.378
1918,1.349,0.418,10.303,17.031,41.699,330.619,117.507,504.674,215.294,5.685,0.121,2.908
1919,43.85,26.485,21.299,21.854,71.353,267.257,305.603,499.61,185.639,127.57,7.523,0
1920,0.157,35.915,58.987,2.374,30.684,91.134,583.511,366.79,235.512,13.258,0,0
1921,48.14,13.203,5,8.758,11.124,298.576,314.871,503.816,134.228,12.601,0,0
1922,13.12,5.02,0.16,10.289,9.023,420.744,375.626,377.128,373.988,65.346,5.292,4.77
1923,0.467,83.245,3.273,2.881,7.012,144.678,351.565,502.794,206.685,45.896,6.06,1.187
1924,13.304,24.354,0.842,25.272,17.527,176.658,384.13,303.511,260.14,91.341,33.232,0
1925,31.162,13.958,7.689,22.923,34.55,252.844,395.933,417.994,187.707,28.048,9.126,0.014
1926,25.729,1.262,76.842,11.402,93.501,54.043,424.617,376.841,226.206,55.473,2.923,10.568
1927,20.483,106.012,50.612,3.282,32.482,157.94,335.325,375.836,124.81,46.199,17.688,0
1928,37.389,10.282,1.385,24.038,55.701,318.834,452.807,213.407,196.754,147.508,0,1.735
1929,25.69,9.008,13.206,12.116,26.598,137.624,361.58,278.154,103.929,287.024,0,12.375
1930,7.106,11.599,4.885,15.789,19.438,111.158,370.1,254.705,214.405,34.274,26.809,8.025
1931,10.253,102.964,25.391,1.607,26.789,108.183,449.31,328.544,319.56,71.29,13.55,1.892
1932,0.157,51.835,3.456,8.357,66.812,70.604,466.212,325.693,209.976,41.193,21.473,3.669
1933,45.697,31.294,2.643,44.107,56.903,251.665,267.866,439.591,162.874,95.843,0,0
1934,18.091,29.736,1.277,21.605,13.854,177.683,270.361,436.518,267.609,59.733,16.98,2.234
1935,9.669,13.643,7.199,21.115,5.759,158.753,289.299,593.693,277.981,5.107,0,1.27
1936,6.437,17.007,20.222,3.358,100.292,321.476,328.67,289.442,407.081,152.045,0.893,17.778
1937,0.157,61.684,6.643,40.61,38.072,157.609,305.199,391.151,269.199,149.2,0.56,0.513
1938,6.978,31.296,3.964,3.271,90.521,266.809,207.67,315.301,150.326,52.494,0.373,0
1939,9.547,21.028,13.189,10.182,13.221,219.555,488.034,340.97,292.471,84.851,1.284,0.183
1940,0.157,49.789,90.506,10.484,34.054,103.784,272.219,407.968,173.178,24.023,0,4.072
1941,30.907,5.328,13.432,5.379,34.179,310.357,308.398,440.532,239.77,112.033,14.283,0
1942,17.234,88.687,22.195,12.126,5.594,137.831,423.705,529.936,430.074,36.946,1.167,0.298
1943,35.699,17.53,8.738,63.584,47.594,135.268,554.671,533.3,241.928,60.233,0,0
1944,26.004,70.871,76.049,16.742,26.077,150.635,406.815,559.636,140.737,93.72,0,0
1945,45.965,39.296,2.971,22.883,46.462,222.961,250.413,254.839,317.542,154.287,0,1.745
1946,0.157,10.341,20.718,27.81,54.405,250.624,341.546,414.983,336.201,133.117,22.064,0.75
1947,23.785,16.815,28.319,1.74,24.082,171.35,331.077,284.477,372.059,75.271,0,5.787
1948,11.989,19.268,17.07,25.852,43.444,206.146,336.041,303.759,240.752,84.879,30.493,0.75
1949,2.653,25.122,18.347,20.022,92.106,212.905,323.323,515.486,168.55,115.849,0,0
1950,1.353,16.337,60.701,5.081,12.377,314.724,336.431,396.299,152.627,41.149,10.162,4.49
1951,4.902,2.115,54.809,31.016,13.083,171.291,347.685,336.823,288.863,91.483,12.536,0
1952,0.332,16.54,38.489,21.691,17.481,256.143,225.239,278.994,249.866,79.795,8.657,1.48
1953,60.985,11.497,14.251,5.549,11.662,170.275,372.997,350.756,299.376,10.181,1.034,0
1954,13.781,16.754,1.572,0.735,26.674,209.41,204.4,300.157,301.805,43.549,0,5.069
1955,20.94,13.954,6.403,7.936,9.602,122.389,306.613,169.609,158.05,123.897,12.417,0.099
1956,14.26,46.424,15.889,15.564,105.039,329.461,266.304,405.465,404.1,105.115,12.419,6.041
1957,39.689,12.901,19.823,3.176,3.184,103.423,371.761,220.268,233.565,36.94,0,0.129
1958,24.817,33.057,21.188,20.419,8.511,99.465,422.384,394.395,265.956,176.492,2.005,0
1959,47.281,2.345,4.796,6.117,33.257,124.771,300.432,310.379,241.998,256.342,0,0.473
1960,0.467,0.279,40.95,8.63,14.045,125.376,343.987,367.41,196.507,61.923,0.72,0.003
1961,22.137,103.231,0.776,0.282,20.325,244.86,196.789,395.37,287.298,115.08,0.573,6.544
1962,17.401,16.189,4.405,3.015,18.924,160.766,247.17,340.608,230.875,52.15,0,2.949
1963,3.1,5.579,34.79,23.532,100.914,205.656,284.103,288.031,227.4,170.234,11.518,0
1964,0.332,8.848,10.967,36.402,38.144,211.028,329.857,388.238,220.991,69.373,16.645,0
1965,2.997,13.769,11.668,39.113,15.933,82.319,302.888,273.794,220.666,45.255,1.514,3.283
1966,57.674,5.315,0.571,2.601,5.885,207.587,93.581,239.329,118.678,15.733,16.848,20.62
1967,22.642,0.892,52.048,22.489,19.849,155.978,262.426,460.952,177.615,25.49,0,1.55
1968,27.688,10.514,5.514,4.269,6.521,263.353,305.567,369.623,91.763,76.563,6.269,3.555
1969,3.578,7.91,12.416,22.44,67.857,141.577,368.401,385.608,223.01,31.686,16.081,0
1970,14.041,23.173,18.676,1.627,34.419,246.323,291.982,260.843,357.352,99.081,3.93,0
1971,34.583,29.295,4.837,71.551,105.152,438.437,491.081,592.97,236.305,105.479,2.915,0
1972,7.008,64.997,1.211,34.09,5.952,60.647,230.983,425.873,149.277,152.231,14.045,0.968
1973,33.988,5.657,12.697,3.3,40.681,294.196,207.003,300.884,414.963,198.171,12.456,12.039
1974,5.043,3.543,26.186,5.766,38.295,74.992,404.893,237.885,272.611,109.518,3.827,0.508
1975,40.354,10.772,22.809,3.317,34.517,118.672,449.397,148.241,208.317,87.988,4.676,0
1976,3.559,14.601,2.272,33.687,33.671,62.715,369.08,250.575,445.538,10.357,0.562,0
1977,2.29,23.995,0.539,52.716,167.274,277.368,585.061,271.676,226.621,72.516,28.743,18.819
1978,6.738,92.286,48.506,63.127,32.696,353.692,290.158,344.117,501.999,103.219,8.937,15.419
1979,26.118,33.28,1.977,26.62,8.793,116.803,317.178,207.386,185.087,35.753,15.06,18.785
1980,32.418,17.617,35.931,0.964,48.423,306.111,309.226,298.286,96.378,46.596,1.868,0.977
1981,19.947,21.499,43.441,33.135,66.089,79.988,384.671,189.146,198.941,0.792,5.397,10.533
1982,19.708,19.861,53.998,36.009,47.045,125.6,189.405,354.818,277.845,16.833,9.452,1.997
1983,10.739,24.926,20.217,28.322,85.723,179.392,326.243,241.18,137.429,116.241,0.171,4.451
1984,39.485,27.077,2.413,31.407,21.297,455.859,323.886,308.479,285.625,54.371,0,0
1985,23.281,7.092,0.63,8.871,22.901,123.309,417.658,269.579,164.306,111.881,0.425,7.366
1986,15.696,30.204,1.476,22.211,44.825,178.846,335.261,296.41,312.079,32.293,16.322,7.06
1987,2.099,10.235,12.379,15.05,33.502,62.231,276.597,386.809,356.119,56.167,15.616,3.004
1988,8.299,33.818,35.514,9.006,50.821,199.435,264.715,318.078,144.983,55.983,10.692,1.929
1989,7.123,1.076,6.691,0.259,76.805,249.051,231.851,300.956,228.412,83.73,8.349,18.743
1990,0.157,39.525,22.966,10.08,101.402,334.689,569.57,265.048,259.544,147.713,3.562,0.393
1991,10.451,9.453,41.901,13.815,30.274,207.126,250.149,545.173,219.316,52.138,2.285,21.735
1992,21.599,6.447,0.932,6.935,20.214,124.192,249.56,153.912,134.12,73.589,0.312,0
1993,6.72,0.36,24.328,17.066,45.864,153.233,205.071,260.504,317.008,105.449,4.032,0
1994,41.581,27.274,21.3,28.771,26.671,250.156,291.414,354.03,67.643,159.705,0.894,0
1995,16.558,22.482,23.722,4.88,37.866,56.186,248.994,238.05,315.904,41.811,10.445,0
1996,18.515,17.084,3.163,11.112,17.616,245.338,212.66,402.219,139.675,165.707,0.005,0
1997,29.132,7.306,11.168,16.585,99.558,35.42,269.827,389.564,165.846,43.442,19.656,16.017
1998,20.766,42.036,11.951,18.335,97.207,69.337,190.586,247.471,208.648,242.24,22.13,0
1999,16.412,9.129,0.45,0.372,59.033,149.786,284.548,343.462,240.253,45.088,4.512,0
2000,9.027,33.988,1.532,25.37,35.42,186.476,129.754,174.265,247.091,12.999,2.028,0.694
2001,1.711,3.598,41.91,18.035,36.638,88.029,208.874,288.607,76.892,114.204,3.088,0
2002,29.348,11.619,8.448,19.263,20.758,100.271,191.311,326.56,192.96,110.011,13.222,0
