Year,Jan,Feb,Mar,Apr,May,Jun,Jul,Aug,Sep,Oct,Nov,Dec
1901,16.391,15.585,13.989,217.935,252.597,426.262,380.663,388.854,316.04,257.79,205.013,1.1
1902,1.665,3.346,32.108,217.981,326.255,601.48,542.852,501.752,262.386,58.024,9.69,5.326
1903,1.596,12.747,49.23,146.312,196.746,546.648,378.569,656.352,186.522,116.197,150.322,1.1
1904,1.3,46.423,20.279,424.46,323.811,345.48,401.5,418.619,146.622,89.062,64.578,1.374
1905,2.695,14.639,164.656,179.54,351.181,348.891,529.178,716.698,348.041,333.248,10.6,5.972
1906,7.57,63.079,22.738,157.925,177.042,303.153,620.199,589.37,255.429,155.665,49.31,0
1907,16.061,48.945,65.58,139.908,256.796,542.814,469.278,361.31,177.919,78.745,9.525,5.344
1908,5.875,7.886,1.409,91.455,230.83,489.743,400.095,271.053,302.86,91.717,9.46,1.1
1909,3.479,9.8,0.905,151.112,347.933,550.26,322.501,461.283,134.344,158.527,33.943,4.474
1910,6.751,18.409,133.355,150.284,239.687,493.575,596.666,488.513,215.557,182.855,54.906,0.9
1911,11.84,11.244,34.093,194.88,535.538,665.248,397.25,424.92,305.754,438.26,7.299,0.4
1912,2.379,45.177,80.952,158.895,292.172,452.287,382.619,447.319,207.664,286.508,161.623,8.326
1913,2.109,48.083,55.82,220.557,372.527,630.883,371.313,393.553,247.931,285.859,22.336,8.308
1914,1.065,32.37,25.754,85.51,481.406,492.301,384.27,559.383,167.857,41.998,11.806,9.644
1915,4.614,34.647,30.742,78.421,958.575,387.858,545.259,574.504,183.02,143.785,20.692,2.2
1916,3.074,8.51,79.097,182.418,628.833,388.858,380.899,548.729,287.954,449.79,164.624,0.6
1917,0.665,52.653,10.068,94.72,332.097,501.672,397.597,422.516,156.693,249.474,162.47,1.265
1918,1.33,3.691,49.267,97.686,412.974,722.065,520.793,504.423,266.553,63.844,4.397,1.5
1919,7.124,4.637,4.049,120.06,211.251,480.723,441.644,375.441,352.051,319.836,81.297,1.2
1920,0.93,21.293,88.44,114.799,262.156,322.342,304.14,590.229,385.228,114.866,5.493,0.6
1921,15.058,5.591,28.599,161.844,706.707,538.642,531.715,493.768,227.31,66.009,8.329,1.065
1922,5.244,0.9,71.45,237.949,194.697,689.774,384.068,372.256,243.228,317.015,8.795,4.014
1923,1.531,53.244,8.633,165.357,421.97,621.221,402.275,274.539,196.994,122.554,12.897,1.365
1924,3.614,7.086,1.274,189.598,385.643,550.859,609.951,492.267,309.455,123.797,218.313,0
1925,10.914,17.181,27.934,180.74,507.737,296.193,436.306,350.73,249.551,128.368,11.404,1.3
1926,9.972,9.686,53.536,82.891,211.016,546.198,564.972,373.451,191.604,261.574,5.528,11.868
1927,14.235,23.22,10.802,191.134,261.839,542.224,376.311,302.722,453.448,248.964,24.095,1.1
1928,3.54,9.551,31.227,97.569,415.861,536.703,462.726,369.969,296.39,270.688,16.286,0
1929,10.458,2.916,25.278,237.911,656.188,511.766,393.34,344.207,244.101,119.361,7.951,4.984
1930,7.268,17.595,40.366,85.861,310.719,586.425,325.86,595.639,191.164,123.673,212.962,1.1
1931,0.535,20.964,11.209,231.732,388.912,656.438,606.656,225.194,220.99,69.584,19.383,2.17
1932,2.714,16.21,5.688,79.357,719.858,471.349,409.766,733.096,232.696,89.361,185.576,1.17
1933,2.995,11.188,4.258,158.184,412.626,466.701,443.923,495.35,185.345,116.956,7.609,0
1934,8.812,38.593,4.558,229.621,292.828,731.211,517.557,399.573,224.916,379.659,29.871,3.439
1935,2.23,28.202,15.78,80.63,342.058,546.558,283.643,704.867,283.62,46.666,6.493,3.13
1936,8.189,24.681,26.225,127.576,495.048,473.138,474.775,332.07,340.467,263.651,11.585,11.103
1937,1.065,18.772,2.845,28.083,439.263,499.986,507.288,450.983,147.537,102.167,4.793,2.87
1938,17.161,7.367,73.185,133.225,527.762,716.757,508.427,567.709,416.545,109.249,51.438,0
1939,0.265,14.407,2.649,131.396,365.554,624.77,525.896,339.547,334.566,205.479,16.594,1.2
1940,0,35.879,103.37,16.816,405.856,404.772,414.249,379.753,438.908,129.634,10.334,0.865
1941,0.93,30.286,52.562,120.389,378.316,596.372,432.859,398.355,331.175,241.051,14.211,0.57
1942,12.672,10.475,73.489,110.83,356.857,709.413,243.665,402.493,378.627,73.231,20.652,0
1943,15.414,31.651,65.856,177.005,415.385,489.939,392.61,428.106,339.988,51.62,10.19,0.335
1944,25.079,6.656,33.489,65.887,606.263,377.238,301.829,351.344,292.704,131.544,9.525,0.9
1945,22.11,16.435,71.723,128.348,265.074,415.867,414.056,629.72,203.93,227.534,7.309,0.4
1946,0.965,21.814,44.476,116.556,327.778,416.528,455.481,389.601,311.025,455.764,32.503,1.065
1947,1.33,6.598,32.345,216.838,409.778,508.105,581.742,362.538,518.424,398.706,3.072,21.006
1948,0.434,59.721,49.628,327.005,411.363,719.272,1104.983,414.059,397.413,212.104,25.428,0.584
1949,1.237,0.644,121.201,491.444,445.987,958.84,809.014,695.694,331.208,172.314,3.433,0.535
1950,0.923,24.745,36.199,60.46,209.752,437.605,331.741,609.057,200.908,306.432,115.263,0.3
1951,0.439,0.4,33.067,239.732,293.907,619.841,948.479,660.843,406.497,441.5,60.379,1.304
1952,10.275,0.2,32.465,423.59,427.619,911.75,754.724,486.456,577.767,419.146,133.309,0
1953,3.067,2.112,47.903,60.97,361.666,766.012,643.321,432.766,506.33,176.896,5.805,0
1954,5.533,47.741,79.386,144.763,257.304,1052.708,471.538,437.251,271.829,250.076,0.535,1.379
1955,0.584,1.414,104.393,93.076,296.697,381.357,760.118,416.041,289.937,62.341,167.105,0.235
1956,7.513,2.846,99.118,149.828,365.654,905.8,527.204,477.322,405.438,133.072,28.54,2.673
1957,21.035,48.994,9.812,97.365,231.368,496.273,438.83,874.759,380.651,58.092,4.051,2.025
1958,3.509,64.665,43.681,126.45,308.457,316.719,355.043,822.153,287.691,289.293,4.279,2.633
1959,17.03,61.12,159.246,124.07,382.863,757.416,489.127,622.669,252.109,331.811,2.921,0.635
1960,0,0.565,40.986,41.508,311.91,426.291,700.811,381.322,452.12,138.128,57.698,0.469
1961,1.195,10.287,30.035,121.227,136.598,641.9,441.882,613.491,155.751,145.524,3.286,0.3
1962,9.548,23.832,4.302,169.684,234.316,534.892,491.616,321.384,94.189,218.035,1.925,0.335
1963,0,7.163,54.37,169.604,296.201,442.504,490.603,387.636,213.424,158.173,11.149,0
1964,18.051,35.746,61.4,271.59,364.004,677.566,971.784,502.023,418.936,490.454,32.323,1.005
1965,0.2,10.803,24.523,17.724,86.128,828.583,647.49,856.014,291.039,63.784,112.235,20.572
1966,11.536,0.665,43.181,68.029,168.301,709.726,419.668,447.121,514.179,334.649,28.967,44.568
1967,27.056,0.265,86.948,149.349,160.753,318.67,388.736,382.605,394.859,184.857,0.466,0
1968,12.572,9.684,51.754,110.76,385.679,441.229,709.171,624.955,186.311,85.085,20.91,0
1969,2.705,0.2,64.899,261.348,179.86,823.54,640.496,657.878,337.648,41.437,34.068,0
1970,22.049,15.383,76.91,166.288,162.667,241.025,699.142,324.238,103.824,287.539,69.933,0
1971,5.291,9.735,6.279,8.049,40,216.517,361.65,373.408,192.85,212.933,75.073,0.335
1972,1.359,11.481,28.136,154.209,240.677,451.783,312.012,418.816,98.685,85.948,0.955,0.3
1973,8.7,38.595,53.1,121.09,470.939,605.48,415.187,194.627,162.826,186.216,156.746,6.817
1974,0.87,0.565,85.371,262.629,270.845,583.044,877.255,368.455,461.904,209.423,61.066,0
1975,0.3,36.297,7.797,102.458,231.164,311.187,574.031,244.429,272.872,172.569,132.838,0.434
1976,0,11.049,52.097,61.376,268.049,638.348,653.355,482.184,38.946,111.043,21.207,0.07
1977,0.235,69.612,21.883,422.476,406.2,503.223,502.528,212.589,160.418,170.388,51.84,8.817
1978,0,0.2,13.517,81.528,500.013,546.525,300.721,236.181,244.324,95.046,1.265,0
1979,6.197,7.353,39.342,30.693,121.924,276.196,320.294,506.433,364.051,160.744,30.196,24.882
1980,0.3,28.614,62.668,133.672,451.166,248.254,526.749,471.084,260.409,216.258,0.466,2.746
1981,16.28,15.637,110.039,444.964,500.008,359.291,631.771,345.937,165.779,13.376,0.466,42.186
1982,0,13.865,12.517,275.506,325.167,662.843,301.78,616.977,225.504,33.323,38.453,4.953
1983,9.972,24.197,134.255,132.128,312.89,289.517,516.443,591.183,414.138,224.553,15.372,26.221
1984,10.997,5.884,7.12,112.378,661.833,485.346,483.628,515.55,310.333,200.524,1.303,4.261
1985,3.309,10.573,94.886,191.767,254.222,396.908,297.723,383.691,292.231,34.217,1.461,3.824
1986,4.756,1.01,7.455,243.589,165.312,240.066,449.747,309.305,380.02,260.766,157.31,0.749
1987,1.186,3.587,55.258,236.167,125.372,202.292,521.517,443.477,368.445,153.509,58.367,20.772
1988,0.235,18.34,59.884,39.27,541.667,441.043,536.495,556.537,261.004,274.741,81.251,13.072
1989,1.002,20.098,19.316,111.75,261.921,446.959,446.892,159.791,318.905,196.925,3.121,0.684
1990,3.768,39.548,85.247,315.266,226.943,363.435,483.659,115.253,400.118,171.498,42.668,12.606
1991,6.684,26.677,72.479,58.891,421.859,386.908,387.636,514.009,253.985,423.316,14.501,24.873
1992,6.184,24.706,9.796,63.246,335.182,388.533,656.64,465.897,272.912,124.298,16.643,12.165
1993,28.847,28.698,74.868,113.483,366.927,663.313,623.962,501.604,353.197,83.814,17.144,0
1994,10.203,30.763,142.207,161.719,253.921,473.648,417.583,519.745,141.986,53.794,19.737,2.905
1995,11.249,21.432,4.628,88.514,288.295,495.762,509.409,484.966,233.434,43.299,133.762,0.7
1996,0.279,17.779,98.817,204.527,622.127,384.322,402.594,509.733,234.948,163.277,4.663,0.535
1997,4.304,6.368,63.76,127.159,170.279,314.459,715.661,397.73,411.578,40.44,11.348,19.238
1998,6.049,9.843,76.398,183.778,404.132,321.505,665.66,685.54,163.223,77.77,110.159,0
1999,3.426,3.281,14.103,31.522,439.882,324.829,495.055,423.487,160.549,221.546,24.184,2.07
2000,12.003,27.916,38.124,300.976,516.295,147.721,293.794,572.268,246.527,123.033,20.764,4.484
2001,2.205,8.735,56.77,135.061,413.235,455.487,365.419,599.042,216.131,226.364,37.883,1.265
2002,16.921,4.407,38.348,262.931,290.439,674.48,588.903,397.385,235.672,98.895,48.873,1.2
