Year,Jan,Feb,Mar,Apr,May,Jun,Jul,Aug,Sep,Oct,Nov,Dec
1901,20.717,6.048,2.858,0.452,7.285,21.724,172.489,265.723,17.181,10.316,0,5.014
1902,3.495,0.065,0,0.59,0.605,45.699,341.354,150.896,108.961,4.798,6.518,0.721
1903,3.151,1.199,3.402,0,4.461,5.353,219.675,297.216,63.888,19.668,0,0
1904,4.542,1.951,10.46,0,15.024,64.055,373.716,355.162,39.476,3.944,14.369,6.864
1905,12.26,12.492,4.658,0.726,3.529,18.915,199.421,27.326,95.137,0.036,0,0.87
1906,0.49,11.87,7.948,0,0.709,122.761,206.436,131.798,188.017,0.212,0,6.888
1907,10.678,31.243,2.55,19.953,8.292,18.946,121.869,438.962,2.572,0.036,0.415,0
1908,18.398,0,0.515,1.283,6.908,36.453,576.125,398.765,57.663,5.187,0.448,0.866
1909,17.914,2.144,0,7.821,17.503,52.283,437.727,185.643,125.611,0.036,0,10.028
1910,6.995,1.648,0,2.816,3.264,55.452,189.543,259.387,120.683,16.252,0.772,0
1911,15.546,0,5.728,0,0,27.967,58.023,106.86,230.352,0.591,62.563,5.299
1912,16.678,1.346,4.396,0.636,0.626,19.503,284.657,261.701,140.329,2.381,15.743,1.781
1913,0,22.923,0.455,0,18.006,56.261,162.411,63.68,47.522,0.036,0,2.847
1914,0,2.577,1.307,7.117,22.765,83.517,434.234,170.558,184.969,9.103,3.21,0.537
1915,8.902,13.52,21.299,2.715,5.285,45.284,199.437,162.127,55.121,32.057,0.068,0.495
1916,0,6.58,0,1.027,7.113,62.968,329.687,364.31,114.598,12.223,1.879,0
1917,1.377,6.725,6.422,14.958,39.093,45.424,455.052,348.367,252.803,39.557,0,3.521
1918,12.109,0.029,2.653,0,10.894,26.138,85.732,168.768,48.881,0.036,2.677,0.029
1919,19.874,0,0.912,8.781,3.81,31.274,283.985,440.499,65.715,6.886,9.215,4.464
1920,6.411,11.146,3.342,0,9.095,81.994,340.87,82.385,63.699,0.036,0,0
1921,20.442,0.05,0,0.464,0,42.494,150.881,141.057,258.461,0.036,0,0
1922,10.909,1.141,0.306,1.424,0.108,58.618,258.634,212.299,204.571,1.298,3.681,22.577
1923,0.448,6.59,0.808,0.883,2.285,2.502,258.75,286.341,205.259,2.808,0.029,4.236
1924,9.925,6.99,0,0,5.991,14.216,207.17,252.348,256.528,13.337,1.592,18.811
1925,0,0,0,0,22.967,131.445,574.242,98.12,28.999,0.587,59.396,0.026
1926,18.321,3.923,18.577,7.162,23.757,21.855,258.145,368.101,132.027,0.375,1.685,0
1927,0,12.745,0.956,1.681,4.903,23.208,277.196,347.551,94.218,7.423,37.326,9.406
1928,3.288,20.157,0.282,0.13,2.341,22.393,255.808,121.494,85.116,53.904,17.344,24.337
1929,1.668,3.728,0,7.862,0.105,55.526,192.683,113.064,18.342,4.755,0,11.068
1930,7.225,4.028,0,0.896,8.658,102.256,467.414,211.921,50.089,18.176,0.272,0
1931,0.029,2.962,0,0.464,1.541,28.503,197.198,287.695,224.019,49.654,1.312,0
1932,0,4.034,7.966,2.571,1.241,24.367,190.303,333.577,165.804,1.367,0,0
1933,0,3.81,1.765,7.031,23.253,218.984,148.268,348.584,240.41,16.472,0.865,2.064
1934,10.712,0,8.118,0,0,101.536,176.986,301.084,99.638,0.036,7.764,21.591
1935,17.337,1.492,0.32,12.515,1.088,21.469,414.161,157.255,97.088,11.111,0,3.873
1936,0.464,3.088,12.905,0.567,12.104,207.364,223.403,334.367,90.955,0.036,37.501,8.028
1937,0,24.858,0.32,3.29,6.884,36.721,145.133,102.76,133.253,3.269,6.528,12.907
1938,5.563,0,1.085,0.572,15.803,53.843,405.449,139.059,38.887,9.365,0,0
1939,9.451,5.807,2.96,0.108,0,67.618,345.55,101.371,88.459,0.64,0.752,0.933
1940,11.854,10.354,8.387,6.071,14.534,41.32,162.487,273.999,37.832,4.656,6.243,2.019
1941,14.807,6.864,1.242,0.452,11.798,18.83,225.97,143.3,56.06,0.521,0,0.514
1942,13.958,7.385,0,3.463,3.955,30.173,482.83,380.094,251.34,0.036,0,4.57
1943,13.744,0,0.607,16.529,18.743,73.663,194.046,367.309,173.806,2.953,0,0
1944,17.334,8.98,23.474,18.981,0.279,24.894,276.776,247.572,85.331,3.088,0,0.065
1945,16.907,0,0,5.856,16.931,25.619,210.331,369.303,227.019,0.726,0,0
1946,0,3.114,0,1.541,14.161,63.725,291.394,326.666,22.883,2.238,9.357,3.469
1947,6.281,2.83,2.475,1.361,1.207,24.959,335.849,341.729,327.437,36.127,0,4.099
1948,37.403,6.829,0.043,2.498,8.39,15.513,436.245,240.696,161.154,13.421,11.766,0
1949,1.27,7.648,1.227,0,4.639,15.079,440.024,383.078,220.302,7.132,0,0
1950,0.451,0.029,2.542,0,15.161,5.474,290.538,281.006,180.636,0.608,0.026,2.065
1951,5.635,0.342,9.561,7.374,3.736,48.121,156.923,282.48,186.869,11.728,40.327,0
1952,0,9.475,2.311,5.629,3.808,49.02,246.983,572.827,20.59,0.285,0,19.933
1953,25.652,0,0,0.666,0.275,12.799,237.427,254.246,50.011,2.605,0,0
1954,13.756,20.367,4.232,0,0.029,4.602,320.253,258.247,197.127,32.898,1.367,0
1955,20.153,0,0.335,0.172,1.177,114.823,306.594,454.219,181.121,61.472,0,0.566
1956,7.425,0.797,11.76,3.161,1.33,70.141,508.944,223.961,44.278,65.132,3.611,9.864
1957,18.908,0,15.054,6.601,9.098,26.523,449.618,180.913,157.574,8.025,7.564,2.671
1958,1.623,2.794,0.671,0.674,6.238,10.362,480.495,359.821,258.924,23.201,8.171,3.272
1959,10.048,0.108,0,1.688,35.174,34.62,295.964,254.299,115.152,10.507,13.39,0
1960,4.492,0,14.028,0.065,13.545,31.835,292.252,485.819,73.01,47.605,0,4.473
1961,24.319,17.576,0.036,2.893,5.613,55.308,206.407,572.794,83.736,34.633,6.724,1.047
1962,16.271,0.195,8.639,4.006,3.234,16.559,305.534,235.463,186.987,0.036,3.815,4.042
1963,9.312,2.095,2.735,1.681,7.368,35.542,203.093,274.34,279.9,3.819,15.807,7.131
1964,0,0,1.034,0,11.833,16.663,481.19,358.654,253.098,1.875,0,3.272
1965,4.365,3.786,1.073,6.695,1.739,9.066,388.746,179.483,99.316,23.768,0,0.702
1966,0.059,1.633,0,0,35.89,62.176,220.444,380.412,48.189,0.036,52.751,0.61
1967,0,0,17.289,0.452,1.635,42.514,306.533,566.647,124.969,3.638,0,25.405
1968,18.807,5.533,5.973,0.465,0.298,18.63,305.904,268.263,46.375,22.003,0,0
1969,3.78,6.74,0.029,0,14.458,17.837,378.131,248.01,130.127,0.036,22.101,0
1970,23.268,17.501,3.42,6.324,26.367,92.797,133.571,449.424,157.297,0.05,0,0
1971,10.255,6.576,0,1.918,11.201,120.211,298.322,213.949,106.616,26.797,3.194,0
1972,1.811,9.749,0,0.26,0.562,31.202,96.154,321.501,119.279,0.98,6.157,3.631
1973,8.284,12.486,0,0,2.024,21.943,276.021,431.944,147.18,38,0,0.245
1974,0,2.761,0,8.521,20.696,16.351,159.582,165.578,32.175,52.292,0,0.566
1975,2.085,0.238,0,0.086,2.639,71.362,394.461,242.626,170.058,21.599,0,0
1976,1.181,2.495,0.655,1.409,1.658,99.866,236.767,299.826,102.434,0.036,24.256,0.65
1977,15.794,0.411,1.905,12.298,6.041,34.065,451.66,221.816,193.799,24.409,8.148,0
1978,6.079,16.231,18.012,2.662,0,105.914,276.06,218.928,133.993,2.263,4.833,8.068
1979,8.365,28.981,0.781,0.464,15.96,26.442,242.104,129.069,14.736,7.616,7.494,4.415
1980,0.671,2.482,9.988,0.464,2.602,64.389,233.497,315.314,25.577,8.969,3.366,22.009
1981,8.931,0.029,12.862,0,21.501,183.141,376.699,236.658,76.236,2.198,18.562,0.459
1982,17.23,2.931,11.596,7.523,20.861,29.439,163.723,426.475,27.023,4.767,58.216,7.727
1983,8.933,2.468,0,27.012,27.843,58.331,118.828,435.25,147.245,21.67,0,1.889
1984,1.82,2.574,3.624,30.765,1.822,56.877,192.292,268.575,97.041,3.96,0.035,0
1985,3.291,0,4.036,14.786,12.953,29.96,482.925,327.2,126.943,62.931,0,11.23
1986,6.229,12.747,4.913,0,25.337,70.512,225.608,111.433,46.427,25.482,0,10.46
1987,16.397,6.283,1.256,0,37.854,18.692,107.881,168.918,58.356,3.195,0,5.033
1988,6.531,1.016,6.719,14.111,2.009,74.107,246.871,274.34,73.173,0.151,0,0.055
1989,9.583,0,7.113,0.46,0.241,9.364,218.083,335.381,83.76,2.242,9.471,2.629
1990,0,20.049,0.073,0.46,18.92,97.857,296.667,376.324,259.069,0.591,0,8.144
1991,0.086,8.706,1.846,1.919,23.673,27.547,98.201,385.373,86.939,0.036,16.048,17.704
1992,12.447,5.43,6.564,2.685,19.11,12.408,86.073,217.908,145.233,29.374,34.466,0
1993,4.388,0.865,5.472,2.497,12,92.368,308.913,187.143,176.701,5.161,0.048,0.007
1994,23.165,9.602,6.483,5.43,14.784,72.75,628.125,301.643,39.576,1.024,0,0
1995,22.265,0.794,5.375,9.234,0.558,30.332,258.087,290.83,113.657,5.937,0.45,0.173
1996,6.62,2.515,3.125,8.364,20.004,108.757,208.358,386.028,228.388,15.611,0,0
1997,3.982,0,1.587,1.76,21.652,83.844,149.05,236.776,145.364,33.363,48.26,12.202
1998,0,10.001,10.004,12.151,4.162,83.308,148.857,263.931,89.071,32.596,6.883,0.196
1999,8.397,13.038,0,0,2.573,125.714,227.937,317.437,210.007,45.292,0,0.115
2000,4.999,3.603,0.941,1.995,14.283,15.569,365.835,143.667,46.826,0.639,1.697,0
2001,5.987,3.754,1.997,13.221,39.144,116.873,205.177,254.415,31.473,10.832,0.348,0
2002,5.911,11.813,1.066,1.579,9.516,37.972,27.934,205.112,144.708,3.221,3.214,3.899
