Year,Jan,Feb,Mar,Apr,May,Jun,Jul,Aug,Sep,Oct,Nov,Dec
1901,31.543,68.732,34.966,42.3,9.865,139.672,271.684,416.488,151.988,4.179,1.661,0.155
1902,11.388,0.989,0.12,1.661,1.269,48.558,337.193,287.304,167.199,17.634,7.357,28.107
1903,5.938,3.275,0.632,1.154,45.676,173.004,690.123,423.482,184.471,100.255,0.192,0.371
1904,1.08,6.86,37.874,0,15.436,205.551,213.098,388.633,201.255,35.446,0.276,3.241
1905,9.189,20.436,10.917,18.832,7.95,164.385,316.083,451.301,550.588,0.998,0.001,1.108
1906,3.625,27.527,21.449,0,11.573,414.561,512.247,510.893,148.847,12.158,0.431,10.135
1907,1.555,65.103,6.23,40.517,2.383,327.798,272.2,426.383,145.08,0.585,10.542,5.676
1908,22.518,15.858,15.459,0.847,1.424,272.559,444.037,433.742,249.862,16.952,0.001,6.068
1909,4.528,8.16,1.838,36.186,36.968,198.561,661.493,257.612,130.102,1.85,0.001,47.007
1910,2.952,0.516,1.493,2.014,4.625,296.64,366.857,341.236,359.292,94.647,44.182,0.155
1911,16.153,1.298,11.315,0.219,2.578,335.707,171.605,366.883,276.915,71.66,24.069,0.249
1912,14.165,55.398,0.242,8.48,4.76,49.34,479.133,431.96,216.582,5.812,24.375,5.432
1913,0.068,47.225,18.704,1.432,29.159,240.019,338.686,453.162,153.317,15.628,0.325,17.508
1914,0.531,16.648,26.182,40.287,10.31,213.663,493.376,281.905,251.693,16.446,0.132,24.857
1915,41.203,24.778,35.945,14.766,10.336,184.319,398.336,335.034,278.073,114.155,9.243,2.719
1916,0.068,20.677,0.119,3.262,19.538,212.237,280.094,437.308,307.629,140.459,11.439,0.155
1917,0.411,70.192,9.45,4.802,45.726,218.162,411.766,268.676,369.262,121.732,0.217,0.241
1918,18.132,8.418,4.16,4.466,46.188,402.664,190.626,338.42,75.082,4.976,9.495,29.13
1919,87.282,86.116,22.731,2.35,17.374,281.614,388.316,551.323,207.416,87.942,34.382,16.493
1920,26.658,1.646,25.654,3.208,6.548,101.968,405.135,333.011,129.601,5.081,0.001,0.155
1921,17.489,2.086,0.068,2.072,0.031,233.132,450.654,281.313,379.85,6.661,0.001,0.155
1922,27.198,0.289,0.068,1.993,2.067,268.676,324.766,288.602,302.346,18.152,44.266,0.241
1923,0.609,14.118,34.059,12.498,1.645,65.417,506.269,377.138,294.181,13.104,1.98,0.155
1924,60.255,10.679,16.975,5.343,3.111,38.529,377.257,302.476,218.681,47.316,14.038,16.628
1925,0.068,0.43,0.97,1.552,39.645,174.104,381.564,716.424,149.885,15.114,26.909,0.155
1926,29.602,3.215,59.805,27.564,48.839,84.331,437.857,628.699,374.181,123.226,2.319,4.289
1927,11.528,20.848,27.733,0.316,2.75,256.416,577.192,350.922,72.55,97.417,38.146,11.795
1928,6.766,37.467,8.325,1.244,7.623,156.977,677.912,196.106,198.622,129.042,0.001,19.806
1929,13.026,38.929,0.523,6.348,1.354,165.54,774.468,409.526,307.468,36.308,0.001,41.944
1930,0.376,0.224,8.205,22.923,10.913,218.846,393.136,239.588,174.854,66.798,10.95,2.98
1931,4.503,20.223,21.503,6.866,9.167,77.859,568.697,403.146,246.228,181.685,18.649,4.624
1932,0.068,29.121,12.539,3.997,10.825,172.072,567.933,222.132,285.976,17.398,13.817,0.362
1933,0.684,9.436,23.776,43.109,44.578,189.52,480.632,435.583,240.359,93.04,4.809,11.962
1934,9.118,0.431,3.164,6.896,0.082,239.985,439.886,532.407,307.604,48.382,34.817,7.33
1935,5.255,6.712,0.538,19.2,1.799,165.375,497.646,252.633,225.33,7.068,0.001,0.621
1936,3.45,56.154,26.343,6.321,17.209,272.064,398.972,342.835,241.099,93.852,18.778,5.343
1937,0.068,65.949,36.666,50.64,4.25,258.204,552.046,208.434,210.019,103.279,0.001,0.237
1938,13.212,16.371,5.963,11.978,16.233,330.312,388.298,388.113,198.452,147.306,2.858,0.155
1939,7.82,10.487,51.072,17.019,0.173,105.909,410.156,503.549,109.621,48.559,2.012,0.279
1940,0.101,19.1,12.091,16.804,8.374,177.929,697.46,418.385,80.89,73.122,13.433,13.741
1941,28.291,24.742,19.754,3.883,6.486,210.145,283.678,275.393,103.715,7.61,2.182,0.155
1942,9.332,81.1,2.044,17.295,2.672,123.057,596.257,340.098,218.147,25.605,0.394,4.729
1943,80.885,0.721,0.086,6.912,24.544,118.544,378.868,328.599,330.223,136.405,2.855,0.155
1944,23.19,87.836,67.875,3.948,3.797,154.627,703.494,457.18,251.962,108.483,1.487,0.155
1945,60.689,1.745,0.068,20.977,8.615,235.971,648.863,240.283,285.177,52.111,3.396,3.01
1946,0.068,24.532,2.512,20.123,14.436,251.596,451.993,296.369,138.93,26.639,22.613,3.048
1947,71.182,25.69,36.736,6.869,1.483,92.58,658.78,428.583,364.469,14.715,2.703,7.616
1948,45.889,10.67,22.895,8.754,3.523,241.015,326.741,382.433,293.413,35,65.739,0.362
1949,0.068,16.719,1.132,6.544,37.499,251.989,373.526,435.998,343.96,209.615,0.001,0.205
1950,1.994,51.175,23.546,3.03,5.263,112.777,518.69,140.295,156.221,3.429,7.574,6.639
1951,10.33,4.323,36.599,9.305,19.728,138.304,492.341,303.168,175.796,84.166,0.336,0.155
1952,0.069,22.433,13.082,6.978,9.269,102.509,282.901,277.301,200.025,17.016,0.001,9.883
1953,16.117,0.752,0.068,18.693,1.033,88.661,431.317,400.061,252.626,36.699,0.609,0.155
1954,1.618,1.232,9.315,6.032,4,152.773,488.513,364.94,350.716,13.255,0.001,0.241
1955,31.534,1.214,15.505,9.91,3.106,149.222,471.823,628.087,424.072,154.344,0.495,0.155
1956,2.716,2.575,0.783,0.683,41.023,235.197,659.997,287.981,261.947,33.343,54.867,12.733
1957,6.78,0.942,33.471,45.115,5.506,194.26,500.528,331.791,143.351,22.729,0.001,7.584
1958,7.965,16.645,11.324,14.163,3.165,78.221,474.639,353.208,265.536,91.251,27.986,0.155
1959,15.01,16.841,0.136,18.916,43.741,209.221,370.505,372.94,290.249,58.392,0.001,2.114
1960,40.997,0.191,9.302,17.792,18.847,211.717,520.303,314.655,119.641,103.554,0.001,0.155
1961,19.562,32.328,13.25,6.172,17.965,62.983,519.473,449.77,452.857,97.383,7.905,34.631
1962,5.969,41.267,23.821,16.036,16.321,102.742,337.108,387.571,301.755,5.738,13.57,102.599
1963,1.641,19.05,12.037,19.95,10.544,139.532,388.282,350.644,320.865,100.066,0.171,0.155
1964,0.068,31.8,9.69,5.589,2.317,128.647,397.784,486,163.256,34.062,2.285,0.155
1965,14.541,3.19,27.481,9.789,5.788,178.829,323.876,220.547,229.851,3.041,0.001,0.806
1966,34.378,0.26,13.371,7.443,38.441,206.479,390.081,262.399,148.785,12.25,25.211,15.332
1967,0.566,0.191,50.312,8.139,11.325,208.485,437.743,444.661,159.519,5.198,0.001,128.013
1968,27.373,23.89,24.543,24.097,1.863,160.243,398.279,331.039,401.065,32.826,1.928,3.861
1969,2.698,0.346,7.638,1.428,9.76,107.353,678.333,375.828,256.353,7.282,4.587,33.254
1970,24.787,22.523,31.715,3.752,24.051,219.463,495.99,615.856,251.701,3.37,0.001,0.155
1971,12.586,13.035,12.433,9.011,8.859,309.864,239.534,349.887,188.197,126.831,0.001,0.155
1972,1.998,18.17,0.069,6.208,1.165,110.193,321.31,443.497,150.901,18.279,15.975,2.749
1973,1.652,23.961,1.733,2.664,0.425,96.298,605.841,391.49,231.741,60.633,0.12,0.91
1974,0.068,2.089,3.042,1.6,6.142,196.774,370.397,337.116,125.238,171.678,5.22,0.155
1975,11.752,34.342,22.297,1.825,2.795,304.907,322.537,348.13,276.307,84.343,0.405,0.155
1976,5.775,0.567,11.287,38.221,20.951,84.369,391.118,454.161,299.437,0.405,32.753,1.578
1977,3.035,2.739,8.095,7.736,19.291,276.851,388.215,360.986,249.706,28.952,56.075,50.131
1978,27.98,49.466,31.778,32.086,9.243,221.176,314.205,417.131,112.131,20.104,11.058,43.309
1979,50.915,43.962,0.068,1.267,10.034,145.11,379.503,466.159,224.522,43.195,18.259,8.571
1980,1.242,6.466,3.185,2.346,1.476,230.028,296.22,399.822,110.595,6.763,0.001,22.679
1981,19.293,0.652,35.853,10.593,11.649,149.596,451.271,305.395,378.339,14.058,1.451,28.331
1982,38.234,14.34,16.025,5.284,7.8,158.698,403.115,349.425,222.95,28.68,9.305,1.54
1983,2.905,10.722,3.267,2.429,7.308,169.944,354.394,426.672,306.221,52.163,0.386,10.55
1984,47.244,39.875,0.89,4.026,3.037,208.652,427.524,292.388,81.096,15.218,0.001,0.155
1985,26.779,4.896,0.233,9.062,8.429,184.59,493.019,423.143,121.305,225.458,0.001,2.603
1986,34.048,47.071,1.133,1.516,13.901,203.024,295.89,400.141,146.452,5.787,10.716,53.654
1987,11.385,11.515,20.865,0.285,10.614,116.015,323.876,457.932,117.984,52.743,42.363,9.34
1988,2.11,3.462,13.803,23.882,2.787,192.799,306.466,357.525,287.456,34.069,14.521,2.432
1989,0.139,0.191,55.729,0.098,5.005,190.474,302.578,320.329,130.961,13.356,2.036,40.739
1990,1.253,28.336,17.575,0.784,43.85,321.073,421.246,475.35,134.129,67.079,0.437,24.064
1991,27.274,7.235,7.842,10.829,1.018,198.007,464.929,426.758,73.783,5.416,4.611,16.158
1992,7.492,7.71,0.068,6.757,4.643,86.195,281.182,442.298,302.623,38.932,5.761,0.155
1993,1.441,22.37,61.197,2.435,15.986,171.597,494.147,278.232,346.405,54.316,0.001,1.812
1994,41.408,62.15,29.816,9.566,3.825,200.34,813.601,455.828,314.195,124.147,0.27,0.155
1995,43.438,3.52,79.907,8.881,4.742,171.699,462.548,348.947,303.114,27.666,2.016,2.029
1996,10.524,15.05,4.966,43.009,0.305,74.229,350.194,338.323,162.91,63.116,13.802,0.155
1997,27.311,0.191,2.927,6.095,9.89,79.78,287.488,302.497,244.59,68.788,49.419,90.692
1998,23.649,50.153,34.907,9.454,14.8,97.639,271.312,379.174,229.627,56.655,58.676,0.155
1999,8.867,25.555,0.068,0,23.813,118.282,342.052,445.469,269.809,86.068,0.001,0.155
2000,1.556,29.257,0.068,1.667,25.11,182.735,460.997,180.127,134.784,13.11,0.001,0.155
2001,4.205,0.229,21.638,21.374,20.297,245.238,352.545,383.917,115.123,127.168,1.349,0.155
2002,28.698,19.922,1.314,6.329,20.645,291.913,171.708,415.521,161.191,40.455,3.09,0.524
