Year,Jan,Feb,Mar,Apr,May,Jun,Jul,Aug,Sep,Oct,Nov,Dec
1901,19.131,0.355,4.171,1.188,5.711,70.712,377.989,347.608,71.845,55.279,0.282,0.58
1902,8.763,0.292,0,0.957,0.446,47.031,293.213,152.478,201.28,29.89,116.396,9.168
1903,1.223,0,0,0,7.151,47.376,405.016,301.448,232.878,18.191,0.282,0
1904,0.157,3.503,11.178,0,22.301,62.84,236.231,139.988,133.496,20.947,2.821,4.873
1905,0.686,3.258,0.545,0.001,5.9,16.668,415.559,113.436,291.081,0.231,0.718,0.42
1906,0,1.103,0.801,0,0.686,171.84,390.827,222.373,300.235,1.866,0.282,9.183
1907,18.081,8.151,0.203,7.15,1.515,78.713,259.8,368.773,19.995,0.231,10.227,0
1908,1.646,0,8.648,2.074,0.142,126.933,429.266,358.098,96.911,1.007,2.428,0.225
1909,5.658,0.829,0,3.249,6.292,129.79,351.149,300.877,323.659,0.307,0.282,14.578
1910,0.361,0,0,0.511,6.814,172.36,153.516,344.168,247.627,44.032,28.775,0
1911,2.892,0,3.071,0,0,140.686,144.62,219.655,132.785,2.336,78.83,0.687
1912,0.668,1.22,0,0.593,0.274,63.354,365.355,262.735,77.828,0.893,107.92,0.489
1913,0,1.047,0.952,0,6.252,125.657,354.166,143.921,238.942,0.231,0.282,10.543
1914,0,0.343,3.918,1.535,32.104,155.447,435.673,166.98,402.82,0.82,12.067,6.554
1915,4.688,12.466,21.906,6.182,7.769,128.08,257.268,182.992,234.525,112.178,2.806,5.766
1916,0,1.311,0,0.426,8.911,96.715,370.51,271.917,281.974,52.473,29.654,0
1917,1.593,3.656,1.265,0.698,31.626,87.18,192.409,222.29,424.845,58.888,0.282,0.231
1918,0.463,0.222,0.352,0,23.179,103.691,149.734,150.02,68.397,0.758,38.579,1.457
1919,17.631,0.093,0,4.844,4.481,179.564,266.735,363.287,151.702,55.992,44.069,1.266
1920,3.399,0.234,0.115,0.089,11.636,83.263,258.316,95.993,85.146,0.231,0.282,0
1921,5.054,0.229,0,0,0,184.007,289.464,225.722,274.309,0.404,0.282,0
1922,8.838,2.215,0.064,0,0.392,116.168,295.216,85.748,354.149,5.974,55.444,7.062
1923,0.649,0.223,6.932,2.199,2.645,17.731,542.036,306.696,331.316,5.179,1.246,4.34
1924,7.377,0.165,0,0,11.256,70.516,234.216,233.852,218.639,70.065,0.414,5.718
1925,0,0,0,0,25.332,91.202,284.564,190.987,92.309,2.073,98.669,1.582
1926,5.526,1.285,4.912,4.347,12.242,26.982,220.475,466.249,166.209,7.299,18.506,0.509
1927,0,2,5.805,2.073,0.129,85.315,420.072,140.227,187.85,38.63,114.263,10.766
1928,0.772,14.483,1.052,0.823,0.399,66.82,323.697,148.112,224.014,68.993,3.532,72.351
1929,3.778,6.532,0,13.919,0,162.464,305.973,158.707,84.582,11.529,0.282,7.037
1930,0.269,0.219,0,1.279,10.776,159.663,339.599,174.468,280.51,5.038,7.651,0
1931,0.527,0.714,0,0.059,0.777,126.184,343.44,441.36,372.166,96.208,59.964,0.362
1932,0,7.981,11.776,1.999,0,67.425,492.647,231.111,308.076,15.621,0.282,0
1933,0.06,0.857,1.788,3.188,14.747,235.379,192.35,332.718,525.177,7.382,13.763,21.267
1934,8.251,0,1.981,0,0,184.503,396.141,608.066,427.694,1.353,112.717,9.116
1935,1.409,0.756,0,12.054,1.339,87.709,411.306,219.973,270.267,53.352,1.403,8.909
1936,0,0.806,6.078,2.001,18.305,197.308,139.635,139.061,289.679,0.231,142.333,0.995
1937,0,2.948,1.299,3.239,0.896,112.863,346.089,82.828,323.239,31.726,6.909,2.196
1938,3.625,0,3.828,0.335,33.181,294.459,443.964,205.072,246.026,73.328,0.718,0
1939,2.459,0.254,5.333,0.413,0,47.561,375.4,353.747,142.394,6.816,11.663,8.874
1940,1.066,1.484,4.388,1.286,19.919,160.565,364.297,300.031,124.689,30.739,20.215,5.41
1941,13.494,13.263,7.405,1.309,0.618,31.641,347.321,158.634,142.795,0.233,0.282,0.001
1942,8.13,4.133,0.203,1.582,0.826,100.737,444.902,520.233,181.228,0.404,0.282,25.874
1943,7.579,0,0,5.499,9.386,130.287,260.379,136.593,272.092,31.644,0.282,0
1944,4.602,2.13,15.148,4.797,0.697,71.239,546.058,463.398,212.228,23.644,0.282,1.731
1945,15.712,0,0,3.303,1.713,78.284,301.466,418.955,350.555,2.716,0.282,0
1946,0,3.86,0,4.416,5.334,309.691,267.006,351.874,126.015,5.755,138.612,10.933
1947,7.557,2.285,4.347,3.258,0.433,50.877,344.463,396.168,377.158,9.14,0.459,16.79
1948,32.652,0.166,0.468,3.33,7.073,162.11,482.745,243.734,159.869,5.488,79.825,0
1949,0.001,0.171,0,0.122,7.054,125.093,315.746,269.855,400.901,48.457,0.282,0
1950,1.892,0.131,1.866,0,2.84,18.342,349.655,147.908,329.848,3.902,1.177,18.797
1951,0.912,2.03,2.495,10.358,2.988,61.198,237.246,196.985,156.688,64.29,7.199,0
1952,0,3.365,0.392,1.302,2.049,115.269,278.285,192.799,100.796,1.535,0.282,8.492
1953,2.91,0,0,1.346,0.216,66.634,302.178,279.04,133.867,20.932,0.282,0
1954,18.013,1.891,3.294,0,0,50.059,287.619,269.111,562.389,7.454,0.292,0
1955,6.728,0,0.059,0.285,0.129,153.374,181.586,400.502,412.74,71.372,0.282,0.002
1956,14.175,0,0.763,5.941,3.881,189.048,394.054,270.946,189.084,21.234,58.925,2.639
1957,2.759,0,8.826,3.717,6.453,102.168,267.563,247.282,153.899,4.79,5.014,0.544
1958,3.001,0.013,0.791,1.482,13.256,100.292,362.193,388.84,263.243,64.686,44.884,0.34
1959,15.951,0.308,0,4.274,10.218,93.856,367.379,376.582,500.315,75.412,58.246,0
1960,25.945,0,2.93,1.269,7.016,205.189,226.781,408.348,98.805,60.197,0.282,0.807
1961,13.233,0.342,0.367,0.331,10.661,105.852,339.741,273.008,276.196,135.112,14.68,12.011
1962,1.567,0.987,16.369,10.957,5.895,60.193,323.851,198.168,404.565,0.231,52.439,49.664
1963,5.28,3.908,1.281,1.725,2.653,113.315,272.682,264.701,174.498,22.369,47.026,1.407
1964,0,0.001,4.612,0,4.773,156.142,293.549,409.213,197.1,8.694,0.282,0.34
1965,10.855,0.155,2.081,3.571,0.444,48.003,286.162,309.57,85.516,3.749,0.282,11.293
1966,0.732,0.007,5.526,0,20.452,43.469,310.367,175.182,215.127,0.26,85.732,7.655
1967,0.001,0,12.232,0.791,0.093,147.35,295.715,326.929,115.702,3.499,0.282,77.518
1968,1.861,7.257,5.058,1.176,0,36.54,290.768,538.525,106.038,13.6,0.282,0.186
1969,1.861,0.165,0.203,0,2.603,99.934,396.736,321.058,353.365,0.231,85.944,0
1970,19.253,1.384,5.209,11.891,16.098,282.74,108.723,408.243,293.919,0.899,0.282,0
1971,1.525,0.391,0.06,0.484,16.179,118.663,185.459,265.254,191.969,41.745,0.721,0
1972,0.026,0.212,0,0,0.738,98.842,152.122,358.056,208.793,15.642,43.848,2.107
1973,0.3,8.024,0,0,1.172,98.002,340.964,422.69,206.142,47.913,0.282,7.334
1974,0,5.01,0.064,16.208,26.504,92.32,295.734,446.9,152.136,47.057,0.282,0.002
1975,1.059,1.322,1.968,0,4.798,116.879,322.642,413.829,229.911,37.126,0.282,0
1976,1.199,0.094,5.665,2.779,2.596,102.761,351.184,235.839,153.362,0.231,57.345,8.181
1977,0.86,0.096,8.583,1.218,2.47,227.498,263.572,267.159,174.69,27.528,122.121,0.504
1978,17.288,21.317,12.871,2.497,0,167.597,279.844,383.146,124.65,16.423,22.517,20.883
1979,20.109,3.604,2.607,0,6.249,95.112,333.658,299.025,90.562,27.776,60.122,10.011
1980,1.599,0.208,0.575,0.059,0.014,184.061,157.38,358.552,104.826,0.891,0.723,34.132
1981,13.849,0.131,1.521,0.062,7.439,69.369,251.188,440.916,138.815,15.924,21.353,8.365
1982,19.883,1.096,6.051,0.937,4.773,148.644,166.019,339.578,84.988,18.547,61.27,1.237
1983,1.201,0.017,0.09,0.942,1.991,76.83,371.802,386.721,426.159,45.712,0.282,1.512
1984,9.108,6.587,1.061,0.629,0.941,71.159,211.534,240.598,51.054,31.24,1.625,1.179
1985,2.421,0,1.954,13.527,9.634,50.469,238.654,320.605,142.837,108.413,0.282,0
1986,1.816,6.167,3.374,0,6.686,89.069,331.046,251.271,58.351,14.166,0.282,10.957
1987,8.728,6.363,2.723,0,12.108,100.015,162.379,322.565,86.89,20.649,9.741,29.356
1988,3.033,0.288,0.641,8.421,0.261,143.003,272.135,256.822,183.425,30.468,1.079,0.929
1989,2.509,0,12.404,0,3.433,133.45,120.046,290.25,130.482,0.231,0.282,5.184
1990,0.447,9.036,0.483,0,23.839,211.004,319.882,475.542,304.391,4.348,2.699,22.697
1991,0,0.477,2.977,2.927,4.597,159.401,281.489,235.357,46.835,0.806,3.32,4.502
1992,2.488,1.095,0,0,17.66,47.3,111.904,222.224,342.062,16.902,0.282,0
1993,0,0.423,2.069,0.216,5.038,128.837,291.721,226.21,212.425,18.37,1.759,1.847
1994,31.473,1.447,6.549,2.615,7.873,233.35,396.766,395.783,165.829,4.221,0.573,0
1995,13.032,0.883,13.464,3.386,6.413,69.289,437.113,164.765,184.527,32.609,3.243,4.148
1996,13.222,1.031,5.278,10.216,8.355,133.34,420.015,401.782,118.951,24.747,1.079,0
1997,6.01,0,0,5.974,5.107,125.974,349.594,357.945,85.235,34.147,119.193,41.454
1998,4.081,2.828,7.563,2.7,3.942,119.868,158.771,252.174,309.61,22.802,54.34,0
1999,2.908,12.995,0,0,1.905,137.801,220.064,233.639,343.197,68.153,0.282,1.848
2000,0,1.525,0,0.043,17.509,86.462,444.776,126.821,31.222,8.982,1.849,0
2001,2.424,0.001,3.609,1.325,16.166,295.677,241.784,138.296,14.98,34.892,2.423,0
2002,0,11.427,5.061,8.998,5.98,143.549,39.833,277.035,114.858,2.495,13.963,2.747
