Year,Jan,Feb,Mar,Apr,May,Jun,Jul,Aug,Sep,Oct,Nov,Dec
1901,3.389,5.526,9.365,13.354,14.631,17.313,17.277,17.068,15.772,14.028,9.247,5.768
1902,5.067,5.606,10.368,11.551,15.177,16.568,17.078,17.321,15.772,12.48,8.798,5.472
1903,3.207,4.796,8.062,12.376,14.523,16.309,17.724,16.766,16.116,14.135,9.753,5.677
1904,4.032,5.369,9.374,11.95,13.619,16.761,16.912,16.923,15.772,13.19,8.561,6.015
1905,2.717,2.012,6.838,9.867,14.075,16.774,17.117,16.121,15.865,13.68,9.894,5.983
1906,3.57,4.551,7.87,12.694,14.924,16.472,17.616,16.413,16.583,13.373,10.01,6.525
1907,4.967,4.704,6.823,10.746,13.889,16.264,17.023,17.612,15.919,13.82,9.634,6.02
1908,3.072,4.904,9.261,14.197,14.476,17.119,17.232,17.365,15.971,13.524,8.856,5.382
1909,3.953,4.85,10.914,11.808,14.323,16.078,17.423,16.721,16.877,14.419,10.442,6.673
1910,3.722,4.962,8.911,12.093,14.022,16.177,16.078,17.213,16.365,13.188,9.16,5.889
1911,4.829,4.654,8.215,12.25,14.27,16.571,17.126,16.813,15.673,12.771,8.35,5.229
1912,4.224,5.806,7.916,10.448,14.331,16.467,16.729,16.916,15.772,13.229,8.807,5.84
1913,3.823,4.864,7.216,12.158,13.338,15.773,16.975,16.923,16.165,13.281,8.305,5.574
1914,4.163,5.203,8.665,10.647,14.524,17.024,17.416,16.667,15.565,12.03,9.055,6.473
1915,4.779,4.762,8.665,12.051,14.273,16.261,17.078,17.121,15.905,15.465,11.06,6.193
1916,4.131,5.058,11.052,12.287,14.827,16.919,16.423,16.821,15.971,13.331,9.96,5.582
1917,3.525,5.054,8.155,11.263,14.432,16.279,16.964,17.227,15.673,13.034,10.048,6.083
1918,2.924,4.558,9.169,11.651,15.726,15.968,16.617,16.31,16.066,13.381,8.898,5.19
1919,4.418,4.356,10.118,11.598,14.026,17.123,16.983,17.479,15.416,13.578,10.113,6.235
1920,4.335,4.803,8.12,11.643,13.189,16.171,17.577,16.718,15.722,13.88,9.805,7.045
1921,4.176,4.754,10.365,12.528,15.024,15.478,16.771,17.121,15.823,12.38,9.166,5.689
1922,4.329,5.8,10.761,14.162,15.483,16.171,16.923,16.879,15.779,13.081,9.554,6.184
1923,4.041,4.662,10.064,12.896,13.984,16.577,16.972,17.612,15.677,13.035,9.857,6.188
1924,3.823,5.05,10.919,13.602,13.441,16.916,16.972,16.813,15.172,14.239,9.354,6.676
1925,2.615,3.422,9.464,12.399,13.267,16.329,16.923,16.929,15.173,12.578,8.855,5.227
1926,3.842,5.203,7.81,10.914,13.892,16.526,16.771,16.821,16.173,13.58,8.107,6.269
1927,3.234,4.106,7.405,11.856,13.573,16.221,17.222,16.813,15.364,13.37,8.855,6.183
1928,3.132,5.551,9.565,12.646,14.462,16.571,17.216,16.757,16.727,13.323,8.656,5.933
1929,2.969,4.449,10,12.044,14.175,16.069,16.972,16.771,15.865,12.884,9.206,5.385
1930,2.375,4.763,9.213,11.997,14.623,15.419,17.275,16.923,16.01,12.773,8.961,5.387
1931,4.422,4.873,9.212,12.549,13.777,16.76,16.823,17.615,14.964,13.586,8.699,6.227
1932,4.075,3.441,9.462,12.581,13.17,16.575,17.222,16.926,16.083,13.674,10.46,5.695
1933,2.336,5.501,10.259,11.403,13.285,16.626,17.222,16.727,15.959,13.635,9.405,6.232
1934,3.529,5.487,9.265,12.706,13.577,15.572,16.925,17.121,16.676,12.884,8.856,6.336
1935,4.216,6.138,10.372,12.377,16.131,17.373,17.527,16.566,16.627,13.584,9.911,6.467
1936,4.039,4.641,10.019,13.008,15.033,16.044,17.23,17.514,15.974,12.786,10.598,6.683
1937,4.086,5.054,9.514,13.571,14.831,17.828,18.237,16.675,16.072,13.329,9.57,6.466
1938,4.913,4.019,10.959,14.045,14.677,17.085,16.726,17.673,16.072,13.975,7.804,6.212
1939,4.619,5.891,8.822,14.007,15.068,16.229,16.915,17.31,15.772,13.081,9.567,6.778
1940,4.164,5.514,6.863,12.35,14.334,16.618,17.073,17.22,15.673,13.776,9.734,6.778
1941,2.979,5.207,10.909,13.205,14.522,15.431,17.275,16.887,16.088,12.715,9.445,7.066
1942,4.03,5.943,9.622,12.242,16.409,17.475,17.441,17.063,15.537,13.577,10.155,6.498
1943,5.109,5.048,8.772,10.989,15.165,17.349,16.376,17.206,16.474,13.786,10.663,6.719
1944,3.375,4.543,9.312,10.666,15.478,17.82,17.237,17.42,17.143,13.779,9.745,7.669
1945,3.722,3.854,9.859,12.312,13.984,17.606,17.729,17.516,16.577,12.783,9.005,4.993
1946,4.189,6.501,9.565,11.334,14.188,17.076,17.086,17.612,16.726,13.081,9.923,7.082
1947,3.656,5.275,9.766,14.158,14.293,17.912,16.98,17.453,15.971,13.68,9.74,7.536
1948,4.419,5.111,9.188,13.267,15.015,18.242,16.984,17.511,16.734,12.888,10.696,5.975
1949,5.252,5.208,9.573,11.529,14.425,16.072,16.933,17.052,15.769,14.134,9.113,4.836
1950,4.758,5.056,9.065,12.422,15.123,16.063,17.426,16.659,16.087,12.984,9.003,6.633
1951,3.325,5.655,10.458,12.355,15.278,17.312,17.728,17.615,16.477,15.271,9.997,5.494
1952,4.09,5.906,7.854,12.643,14.651,16.576,16.764,16.828,15.576,14.517,9.94,5.813
1953,3.229,5.704,11.343,13.426,15.613,16.564,16.564,17.726,15.874,13.381,9.312,7.087
1954,3.567,7.246,10.897,14.464,16.067,16.304,16.423,16.421,16.385,13.378,9.2,5.832
1955,4.127,5.945,10.745,12.246,15.931,16.313,16.811,16.557,16.038,14.879,10.401,5.524
1956,4.032,4.996,10.059,14.421,17.257,17.21,16.129,16.669,15.564,14.418,10.492,5.289
1957,3.998,5.246,8.166,12.694,15.292,16.509,17.526,16.764,16.544,13.109,9.984,7.182
1958,4.978,4.97,9.016,13.566,15.01,17.137,17.536,16.923,16.564,15.141,11.302,7.119
1959,4.376,4.851,10.104,14.04,15.141,16.863,17.003,16.95,15.562,14.484,10.529,7.418
1960,3.203,6.949,8.676,12.958,15.859,16.943,16.972,17.268,15.714,13.749,9.407,8.09
1961,5.36,5.702,10.309,13.456,15.674,17.173,17.129,17.622,16.454,13.944,7.881,3.378
1962,3.919,3.988,8.346,12.671,14.268,16.794,17.077,16.453,15.874,12.706,9.993,5.659
1963,3.271,5.493,8.525,11.498,14.307,16.568,17.264,17.155,15.6,13.533,9.184,6.257
1964,4.651,5.507,10.219,13.97,13.728,16.854,16.671,16.874,16.26,15.184,10.103,6.218
1965,4.203,4.108,7.526,12.553,15.008,16.498,16.345,16.317,14.99,12.04,8.489,5.857
1966,1.021,6.211,10.263,12.689,15.855,16.68,17.28,17.265,14.65,11.793,10.601,6.392
1967,4.864,6.711,8.791,12.064,14.431,16.521,17.043,16.691,15.731,11.615,7.076,6.222
1968,2.626,5.04,9.945,12.237,14.697,16.104,16.713,16.873,16.479,11.201,7.689,4.464
1969,3.491,6.31,10.708,12.421,14.978,16.884,16.983,16.91,15.972,12.865,11.233,6.897
1970,3.963,4.395,8.701,13.1,16.028,16.766,17.411,17.117,16.367,13.952,8.559,6.557
1971,4.304,5,9.006,12.12,13.562,16.549,16.419,16.084,16.023,14.013,9.328,6.967
1972,6.027,5.457,10.69,11.863,15.704,16.325,17.83,16.439,14.876,13.29,8.219,6.354
1973,5.662,5.8,8.636,13.354,14.88,16.314,17.04,16.608,16.173,12.545,8.607,6.307
1974,4.057,6.558,10.218,13.792,14.72,16.327,16.53,17.013,15.472,16.071,9.23,5.441
1975,3.721,5.117,9.021,13.023,14.652,16.878,16.227,16.673,15.521,15.913,10.098,6.106
1976,3.46,6.513,10.175,12.613,14.279,16.184,16.336,16.331,15.088,13.386,12.794,6.609
1977,5.249,6.894,11.406,12.691,12.802,15.554,16.883,17.215,16.002,13.242,11.326,5.687
1978,1.666,4.382,7.395,11.657,15.341,16.591,16.671,16.3,15.665,14.187,11.034,6.573
1979,4.68,4.21,9.476,13.002,15.514,16.595,17.059,17,15.171,14.103,12.535,6.186
1980,3.627,6.107,9.258,13.476,14.186,16.748,17.32,17.321,16.283,13.269,9.955,8.118
1981,2.522,6.357,8.859,12.32,14.189,16.76,17.196,17.722,15.755,14.094,9.418,5.558
1982,4.863,4.852,8.662,12.635,13.963,16.421,17.832,17.556,16.242,12.296,9.559,7.328
1983,3.036,3.214,9.269,10.916,13.871,16.498,17.824,17.658,16.855,14.082,8.434,5.405
1984,4.179,6.248,11.455,12.618,16.045,16.839,16.577,16.424,14.976,15.332,8.549,8.463
1985,3.838,6.624,12.748,13.574,14.324,16.919,15.835,17.609,15.9,13.217,8.833,7.23
1986,4.971,5.54,9.517,11.841,12.741,16.94,16.58,17.005,15.472,12.602,10.425,5.04
1987,3.424,5.551,9.565,12.011,13.678,17.431,17.478,16.656,16.415,12.039,7.593,6.258
1988,5.776,7.161,10.378,13.253,15.137,16.278,16.899,17.214,16.519,13.856,9.224,6.448
1989,4.318,5.729,10.12,12.436,15.236,16.355,17.307,16.633,16.854,14.376,9.565,5.383
1990,7.661,5.559,8.065,11.841,15.057,17.607,17.197,17.028,16.305,13.52,10.961,7.131
1991,2.716,6.668,10.32,12.966,15.092,16.454,17.757,17.069,15.944,14.338,9.461,5.92
1992,4.968,4.46,12.204,12.955,13.275,15.945,16.228,16.683,16.051,14.312,9.453,5.7
1993,6.041,6.943,8.283,11.992,14.547,16.681,17.629,17.594,15.811,14.983,10.931,8.044
1994,4.989,4.232,10.941,11.896,14.986,17.457,17.544,17.165,16.774,13.863,8.677,6.189
1995,1.929,4.934,10.461,12.213,16.887,18.078,17.493,17.079,16.462,14.74,8.538,6.985
1996,4.48,5.155,9.956,12.273,15.58,15.703,17.452,17.021,15.867,14.6,10.999,7.585
1997,2.972,4.805,9.824,12.659,14.398,16.289,17.656,17.567,15.272,12.096,9.88,6.638
1998,4.518,6.126,8.919,12.654,16.038,17.963,16.972,17.215,16.623,15.871,11.051,7.179
1999,4.981,7.211,11.46,16.846,15.931,17.234,16.681,16.923,15.884,14.667,11.054,7.039
2000,5.211,5.352,9.305,12.513,14.683,17.422,17.287,16.617,15.707,14.491,11.088,7.126
2001,5.453,7.194,8.972,13.148,15.83,16.6,17.539,17.718,16.968,14.522,11.398,7.88
2002,4.373,6.953,10.269,12.694,14.43,17.274,17.772,16.93,15.92,13.635,10.65,7.297
