Year,Jan,Feb,Mar,Apr,May,Jun,Jul,Aug,Sep,Oct,Nov,Dec
1901,12.738,14.543,17.711,20.92,22.707,24.94,25.14,25.235,24.364,22.006,17.104,13.477
1902,12.874,14.3,18.466,19.12,23.645,24.159,25.404,24.99,23.98,20.419,16.236,12.53
1903,11.581,14.174,17.483,20.661,22.8,24.719,25.908,24.634,24.756,22.306,17.132,13.32
1904,11.867,14.54,17.515,19.37,22.751,25.334,25.541,25.235,24.348,21.711,16.026,12.366
1905,11.554,12.346,16,18.598,23.396,25.733,25.74,24.034,24.937,21.458,16.841,12.79
1906,12.363,13.563,16.73,19.094,23.258,25.156,26.047,23.888,25.17,21.558,17.022,13.13
1907,12.973,13.905,16.072,18.823,22.152,23.587,24.162,25.433,23.377,21.946,17.467,13.43
1908,12.381,14.684,18.326,21.102,22.259,24.733,24.74,25.15,23.962,21.458,16.685,12.73
1909,11.67,14.436,18.96,19.603,21.383,23.554,25.231,24.488,25.258,22.777,18.746,13.873
1910,12.363,14.342,17.226,19.802,22.827,23.28,24.014,24.634,24.652,21.476,17.499,13.362
1911,13.377,13.635,16.872,19.97,21.889,24.055,24.441,24.534,24.374,21.458,16.848,12.434
1912,12.482,14.505,16.726,18.613,22.659,24.219,24.373,24.488,24.163,21.13,17.229,13.241
1913,12.389,14.281,16.619,18.516,20.75,23.881,24.829,24.945,24.156,21.689,16.239,12.519
1914,12.551,14.011,17.684,18.963,22.202,24.891,25.578,23.738,24.001,20.248,16.941,13.805
1915,13.51,14.937,17.881,20.326,22.062,23.231,24.14,24.007,23.764,23.329,18.942,14.35
1916,12.544,14.611,18.53,19.69,22.428,24.833,24.037,25.026,24.693,21.442,18.211,13.258
1917,11.505,13.778,17.34,18.821,22.933,24.092,25.035,25.249,24.292,22.225,18.126,13.182
1918,12.035,14.277,17.664,19.723,23.912,22.993,24.748,24.669,24.359,21.989,17.035,13.388
1919,13.02,14.416,19.262,20.108,22.868,24.672,25.144,26.504,23.356,21.02,18.199,13.982
1920,13.805,14.073,16.643,19.423,21.779,23.956,25.688,24.641,24.395,22.153,17.891,14.508
1921,13.391,14.543,18.126,20.24,21.762,23.225,24.773,24.977,24.063,20.716,17.712,13.942
1922,12.825,15.359,18.641,20.626,23.153,24.035,24.809,24.604,24.82,21.689,17.979,13.619
1923,13.262,14.171,19.398,20.67,21.626,24.227,24.84,26.079,23.901,21.37,18.196,14.357
1924,12.565,14.419,19.575,20.626,21.686,24.893,24.75,24.568,23.901,22.981,17.791,14.404
1925,11.368,13.687,17.696,20.032,21.588,24.861,25.211,24.595,22.97,21.428,17.157,12.362
1926,12.393,14.566,16.741,19.523,22.793,24.011,24.814,25.66,25.402,22.263,17.059,14.005
1927,12.393,13.037,16.068,19.053,22.263,23.961,25.51,25.372,23.664,22.1,17.508,13.285
1928,12.324,15.336,19.047,21.692,22.565,24.559,25.829,25.02,24.524,20.586,16.273,13.332
1929,11.811,14.149,18.639,19.932,21.363,23.772,25.29,25.626,24.432,21.184,16.788,12.518
1930,11.26,14.069,17.095,19.93,23.485,23.525,26.631,25.667,24.285,20.385,16.592,12.828
1931,12.907,13.993,18.297,20.254,22.297,24.026,24.902,25.788,23.696,22.76,17.258,13.577
1932,12.738,12.875,18.45,21.21,21.462,24.621,25.41,24.842,23.998,21.668,17.88,13.826
1933,12.067,14.609,19.004,19.886,21.864,24.643,25.364,25.271,25.127,22.154,16.744,13.68
1934,12.455,14.729,18.466,20.317,21.873,22.869,25.478,25.293,24.518,21.324,16.798,13.195
1935,11.733,14.114,18.682,20.168,22.325,23.059,25.649,24.605,23.802,22.375,18.302,12.334
1936,11.051,13.569,18.264,20.431,23.286,24.636,25.385,24.854,24.897,21.207,17.96,13.572
1937,11.298,14.801,18.133,21.194,23.328,25.181,25.655,25.294,24.436,22.167,16.55,14.076
1938,12.413,14.368,17.515,21.107,23.916,24.281,24.786,25.111,24.277,22.371,16.361,13.669
1939,13.274,14.757,18.501,19.521,22.994,24.164,25.172,25.99,24.287,21.678,17.479,13.669
1940,12.49,14.664,16.143,20.942,22.59,24.933,25.394,25.655,24.142,22.17,17.038,14.745
1941,12.295,14.574,18.952,21.397,22.789,24.746,25.854,25.392,23.962,21.566,16.91,14.193
1942,13.171,15.453,18.48,21.183,22.216,24.38,26.126,25.705,24.443,22.67,17.932,13.398
1943,13.04,14.034,17.414,19.886,22.14,24.691,25.958,24.992,24.428,21.17,18.367,14.081
1944,12.135,14.121,18.667,20.195,22.492,24.492,26.018,25.679,23.399,21.837,17.139,14.11
1945,12.852,12.864,18.344,21.632,22.577,25.181,25.294,24.668,25.078,21.251,17.472,13.039
1946,13.778,17.001,18.272,21.358,23.227,24.643,25,26.058,24.685,21.852,18.347,14.015
1947,12.645,15.188,18.962,19.932,22.666,25.012,25.266,25.427,24.801,20.915,17.974,14.342
1948,13.131,14.036,17.419,21.217,20.998,24.213,24.803,25.28,25.155,21.279,17.878,12.961
1949,12.812,14.85,17.504,18.922,22.659,23.902,24.902,24.451,24.552,22.406,16.895,12.627
1950,12.913,14.052,17.846,20.307,22.59,23.843,25.287,24.597,24.126,21.664,17.608,13.807
1951,12.953,15.126,18.541,18.831,22.22,23.911,24.233,25.671,24.102,22.114,17.754,14
1952,13.336,16.195,17.655,21.451,23.094,25.507,25.772,25.182,24.011,22.282,18.638,14.973
1953,12.861,15.31,19.058,20.976,22.727,24.988,24.826,26.215,24.483,21.683,18.021,15.001
1954,12.782,16.364,18.953,20.775,22.919,24.289,24.827,24.686,24.43,21.599,17.666,13.609
1955,13.157,15.471,18.192,20.491,23.355,24.118,24.802,24.693,25.348,22.657,17.998,13.369
1956,12.501,15.776,17.881,21.987,23.302,24.802,25.381,25.239,24.62,21.685,17.809,13.822
1957,12.746,12.826,17.564,19.674,21.312,24.493,25.509,25.2,24.532,20.32,17.806,13.723
1958,12.999,13.137,19.22,22.054,21.74,26.454,26.331,24.349,25.265,22.42,18.485,14.439
1959,12.893,13.006,17.824,21.476,22.213,24.761,26.393,26.258,24.076,21.215,17.385,14.891
1960,12.729,16.522,18.877,21.391,24.141,25.343,25.469,26.209,24.548,22.484,17.582,15.262
1961,14.037,14.013,16.593,21.377,22.462,25.677,26.251,26.069,24.848,22.656,16.068,12.135
1962,11.607,14.536,17.026,20.586,21.478,24.055,25.931,24.372,24.491,21.832,17.442,13.78
1963,12.156,15.132,18.374,20.385,22.963,24.621,25.51,24.744,25.207,20.73,16.041,13.507
1964,11.877,13.78,17.028,20.114,22.464,23.447,24.44,24.874,24.149,22.827,17.732,12.931
1965,12.799,13.912,16.476,20.596,22.919,24.737,24.747,24.184,23.635,21.459,15.742,13.908
1966,13.074,15.956,19.594,20.426,23.683,23.009,25.434,24.509,23.781,20.435,18.942,13.915
1967,13.494,14.616,16.729,20.584,22.905,24.077,25.168,25.743,24.095,21.058,15.707,13.581
1968,12.264,12.959,17.744,19.798,22.171,24.058,24.583,25.405,24.998,21.317,17.697,13.645
1969,11.562,14.887,19.532,21.385,23.623,24.628,25.358,24.848,24.717,21.828,18.165,14.456
1970,12.132,13.765,17.426,19.602,21.697,24.09,25.14,25.235,24.026,20.897,17.243,13.498
1971,12.346,13.95,19.392,22.193,22.964,24.733,25.111,24.751,25.204,21.363,15.936,12.82
1972,13.386,14.543,18.642,19.146,22.756,25.002,25.695,25.623,23.883,21.918,17.091,13.763
1973,13.508,14.654,19.081,21.2,23.402,24.126,25.835,25.194,24.908,22.166,16.854,13.341
1974,12.09,15.333,17.689,20.227,23.417,24.733,23.88,25.071,23.794,23.814,18.342,12.882
1975,12.631,15.116,18.141,20.843,21.927,25.685,24.716,24.854,24.378,22.669,17.339,13.079
1976,12.84,15.189,16.748,20.251,22.861,23.816,24.796,24.964,24.3,21.149,18.591,13.995
1977,12.053,14.707,18.776,19.71,21.217,23.287,25.762,24.487,24.249,20.403,16.85,13.499
1978,11.67,14.484,17.228,20.52,23.311,24.908,25.049,25.815,23.958,22.397,16.76,13.451
1979,12.834,14.827,17.435,22.483,24.21,25.877,24.668,25.384,23.431,20.551,18.671,13.894
1980,12.073,14.297,17.966,20.542,23.056,24.878,25.411,25.206,24.66,20.853,17.443,14.351
1981,12.628,15.542,16.948,20.558,23.51,25.815,25.22,25.783,24.756,22.676,17.902,13.681
1982,14.152,13.927,17.827,19.855,23.206,24.123,25.41,26.111,23.97,21.471,16.901,13.538
1983,11.325,13.052,17.025,18.711,22.988,24.917,25.647,25.566,24.526,22.747,17.592,12.777
1984,11.856,15.613,19.319,20.352,22.498,25.42,24.606,25.418,23.326,22.455,16.375,13.742
1985,12.908,14.599,18.062,20.622,23.022,24.096,24.279,26.032,24.163,22.355,17.229,14.453
1986,13.178,15.237,17.881,19.277,23.657,25.733,25.239,25.235,23.64,20.235,17.172,14.017
1987,13.26,16.238,18.002,20.09,22.803,25.658,24.786,24.511,24.03,21.765,18.035,14.169
1988,13.268,15.631,17.814,20.776,22.024,25.817,25.104,24.747,24.137,21.969,17.613,15.165
1989,12.744,13.721,18.976,19.103,23.761,25.15,24.558,25.461,24.874,21.866,16.936,12.918
1990,14.283,14.274,17.316,18.753,23.122,24.719,25.263,25.82,23.534,21.069,18.543,14.809
1991,12.21,15.745,18.537,19.745,21.471,24.389,25.043,24.548,23.761,21.897,16.679,12.945
1992,11.888,12.367,17.017,20.159,21.779,24.449,24.525,25.138,24.535,20.753,16.984,12.2
1993,11.66,15.229,17.106,20.941,22.152,24.049,25.232,24.683,23.821,21.825,17.949,14.811
1994,14.157,14.605,17.163,20.701,24.228,25.786,25.95,25.984,25.549,20.928,17.021,13.016
1995,12.177,14.588,18.597,20.374,23.114,25.387,25.122,25.583,23.869,22.285,18.373,13.635
1996,13.017,15.842,18.468,21.57,22.521,25.394,25.419,25.627,25.075,22.258,18.53,14.594
1997,12.287,13.3,17.691,19.508,23.104,24.44,25.489,26.003,23.454,21.354,17.976,13.923
1998,13.155,15.396,17.742,21.325,24.851,24.581,25.674,25.078,25.54,23.583,19.223,14.871
1999,13.786,18.296,20.325,22.381,23.809,25.965,25.498,25.04,25.141,22.191,18.578,14.59
2000,12.763,14.941,17.408,20.216,22.901,25.327,26.453,25.263,24.182,22.613,17.794,14.076
2001,13.876,16.294,19.204,20.479,22.707,25.227,25.367,25.994,24.869,22.166,18.453,14.687
2002,13.236,16.712,18.838,21.052,22.458,25.789,25.558,25.623,24.616,21.675,18.47,14.551
