Year,Jan,Feb,Mar,Apr,May,Jun,Jul,Aug,Sep,Oct,Nov,Dec
1901,20.928,22.582,27.555,31.69,34.737,33.24,28.352,26.412,27.619,26.866,22.313,19.794
1902,22.36,23.863,29.713,33.06,36.093,34.454,28.839,28,27.164,26.4,21.944,19.586
1903,21.492,22.049,27.691,32.499,33.054,33.31,28.233,27.385,27.065,24.928,20.437,18.859
1904,21.552,23.329,27.965,33.831,35.038,31.365,28.258,27.19,26.797,26.102,21.576,20.312
1905,20.681,20.934,27.569,30.331,35.432,34.57,28.158,27.485,26.427,25.728,22.606,19.401
1906,20.734,23.522,27.078,33.457,36.371,31.421,27.671,27.185,26.632,25.641,22.413,20.399
1907,20.898,23.029,27.183,29.318,33.984,32.54,28.747,25.88,27.763,27.068,23.072,19.086
1908,19.611,23.663,27.383,33.565,35.965,33.568,27.466,26.373,27.338,25.901,21.571,18.267
1909,22.067,23.684,29.022,29.606,34.534,31.065,27.33,27.651,26.792,25.997,22.382,20.394
1910,20.878,22.597,28.177,33.351,35.283,30.618,28.049,27.098,26.798,25.52,20.585,19.419
1911,21.748,22.297,27.268,32.671,36.525,31.013,28.946,26.679,27.045,26.489,23.082,19.563
1912,21.188,23.998,28.559,32.088,35.384,35.524,28.604,27.044,27.385,26.295,21.981,19.062
1913,20.26,24.089,27.669,34.117,34.218,30.712,28.131,26.897,27.79,26.768,22.567,20.195
1914,20.976,24.389,27.867,30.581,34.657,31.207,28.038,27.279,27.165,26.362,23.223,19.995
1915,20.591,22.896,26.765,31.692,35.744,34.834,29.031,27.105,27.566,26.966,24.064,19.239
1916,20.576,23.396,28.639,33.432,34.972,29.412,28.53,27.27,27.191,26.401,22.741,18.569
1917,20.464,22.004,26.271,30.376,32.698,30.1,27.764,27.464,26.592,26.069,21.563,20.109
1918,19.377,23.646,27.932,32.052,33.648,29.441,29.102,27.086,27.985,25.989,23.064,19.993
1919,21.82,22.835,27.819,31.439,33.887,30.61,27.983,26.698,27.587,25.587,23.338,19.468
1920,21.05,23.361,28.083,31.692,33.403,33.374,27.783,27.726,28.193,27.303,22.773,20.229
1921,21.685,23.455,30.026,33.832,37.589,31.596,28.61,27.365,26.785,26.136,21.026,20.315
1922,20.589,23.911,29.229,33.436,35.965,31.677,27.816,27.316,26.784,25.78,22.263,18.967
1923,20.864,22.989,27.417,32.586,35.297,35.857,27.729,26.426,27.098,24.72,22.273,20.343
1924,21.587,24.855,29.498,33.753,35.568,34.739,28.349,27.498,27.056,25.407,21.283,19.915
1925,19.909,22.854,28.057,33.825,33.561,30.721,26.912,27.177,27.85,26.576,22.88,19.075
1926,21.108,24.162,27.769,30.103,32.746,35.565,28.766,26.897,27.284,25.623,20.926,19.501
1927,22.588,23.716,27.421,33.369,35.47,32.374,27.372,27.273,27.691,26.004,20.811,20.276
1928,21.879,23.29,28.251,32.336,36.452,32.251,27.756,28.166,27.691,26.4,22.583,20.096
1929,21.704,21.918,28.366,31.475,36.093,31.6,27.485,27.07,27.032,25.997,21.91,20.107
1930,21.206,22.098,28.559,31.479,34.977,32.421,27.95,27.098,27.501,26.803,21.674,20.516
1931,21.383,25.415,28.05,33.52,36.332,33.738,27.929,26.811,27.49,25.533,21.954,19.576
1932,21.321,21.997,27.802,32.259,34.83,33.547,27.438,27.657,27.451,27.094,23.072,20.075
1933,21.744,24.953,28.232,31.176,31.416,30.241,28.176,27.098,26.797,25.701,22.206,20.04
1934,19.69,23.369,28.121,32.845,35.676,32.292,27.83,26.796,26.417,25.114,21.019,19.849
1935,20.702,23.523,28.05,30.469,36.311,33.189,27.072,27.097,26.79,26.486,22.554,21.169
1936,22.687,22.889,28.378,31.977,35.631,29.614,28.343,27.098,27.102,25.613,23.435,20.273
1937,19.882,23.59,26.803,31.197,34.237,32.821,27.464,26.953,27.212,25.587,22.782,19.687
1938,23.336,22.443,29.622,32.385,35.391,28.624,27.163,27.27,27.43,25.507,21.855,19.575
1939,21.839,24.445,26.948,32.342,36.291,31.946,27.457,27.183,27.083,26.6,21.86,19.747
1940,20.241,23.931,27.649,32.244,35.239,31.909,27.039,27.042,27.49,26.4,22.804,20.358
1941,21.889,23.128,29.085,33.95,36.525,32.923,28.577,27.669,28.151,27.162,22.476,21.361
1942,21.27,23.117,28.65,32.852,36.729,33.947,26.798,26.897,26.887,26.237,22.295,19.821
1943,22.192,21.895,28.623,32.212,35.026,31.073,27.471,26.217,26.664,25.062,21.922,18.09
1944,20.803,22.226,26.159,31.171,36.368,32.958,27.258,27.085,27.192,25.527,21.896,21.591
1945,20.412,22.997,28.623,30.879,35.777,33.039,27.371,27.387,26.872,25.669,21.254,18.908
1946,20.501,23.528,28.648,31.858,35.257,29.827,27.755,26.797,26.437,26.993,23.076,21.574
1947,21.333,22.998,28.017,32.815,35.88,33.668,27.432,27.472,26.804,25.473,22.728,20.749
1948,21.39,23.521,27.659,33.232,37.33,32.856,27.953,27.098,26.69,27.262,23.797,18.656
1949,21.072,22.943,28.916,33.06,35.065,30.713,27.737,27.458,26.888,26.236,21.002,20.112
1950,21.266,22.595,26.956,32.642,35.855,32.36,27.358,27.586,27.148,25.694,21.48,19.849
1951,20.111,24.021,28.51,31.604,35.16,32.934,28.838,26.898,27.817,27.766,23.014,19.965
1952,21.5,24.67,27.849,33.918,36.839,33.75,28.557,26.897,27.687,26.768,21.852,21.828
1953,21.292,25.615,31.034,33.252,37.001,34.662,28.15,26.797,27.762,26.019,21.98,20.471
1954,20.385,25.238,28.925,33.646,37.26,33.158,27.663,27.571,26.29,24.792,21.621,20.766
1955,21.394,24.82,29.699,31.298,35.073,32.17,27.83,26.881,26.897,25.428,20.72,19.558
1956,21.359,23.239,29.732,33.931,35.373,30.111,27.044,27.098,26.619,25.86,21.932,20.748
1957,22.159,22.623,26.018,31.22,34.318,33.168,27.666,27.244,27.684,26.52,23.64,22.045
1958,21.974,24.471,28.658,33.441,36.168,35.059,27.652,27.67,26.924,26.03,23.779,20.183
1959,21.654,23.918,28.959,32.592,35.784,31.709,27.163,26.598,26.917,26.695,22.683,20.452
1960,20.471,23.979,26.983,31.976,35.451,32.106,27.884,26.644,27.883,25.695,21.899,21.709
1961,22.361,22.518,29.843,33.172,35.137,31.12,27.264,26.897,26.012,25.427,22.242,19.539
1962,19.758,23.364,27.949,32.053,34.199,32.672,27.873,27.264,26.976,25.347,22.488,20.241
1963,19.849,23.725,27.577,30.66,34.417,30.991,27.957,27.164,27.559,26.567,23.755,20.46
1964,21.868,24.475,29.257,34.184,35.801,32.593,27.941,26.606,27.567,26.86,21.871,19.955
1965,21.092,23.497,27.876,31.769,36.782,32.406,28.037,27.598,26.975,26.822,23.372,21.186
1966,20.938,25.004,28.902,33.459,35.046,33.261,30.004,27.526,27.657,27.169,24.861,20.168
1967,21.486,24.751,27.45,32.005,35.508,33.007,28.336,26.89,27.184,26.197,23.214,22.068
1968,20.091,23.042,26.521,30.613,34.617,33.05,28.329,26.616,28.032,25.867,22.571,20.451
1969,21.452,25.57,30.751,34.143,34.987,33.561,27.864,26.951,26.882,26.209,24.355,20.424
1970,21.694,25.448,28.458,33.246,36.143,29.453,27.951,26.87,27.184,26.601,21.407,19.142
1971,21.078,23.609,26.728,32.469,33.569,29.2,27.585,27.312,27.334,26.198,21.296,18.875
1972,20.508,22.931,29.558,32.663,35.716,34.34,28.472,26.73,27.347,26.225,22.624,21.772
1973,22.485,25.017,29.57,35.428,37.576,33.071,27.386,26.897,27.01,25.622,21.629,20.601
1974,20.12,24.008,29.55,33.624,34.383,31.919,28.785,26.851,28.565,26.215,21.498,19.366
1975,19.461,23.346,28.003,33.205,36.698,32.001,27.584,27.388,27.449,27.233,20.726,18.682
1976,19.733,24.369,28.39,31.721,34.999,31.738,27.987,27.29,27.201,27.102,26.061,22.36
1977,21.349,25.08,30.327,32.736,33.887,32.23,28.342,27.044,27.309,26.628,24.898,20.294
1978,20.221,23.104,27.039,31.802,36.878,31.352,27.051,26.274,27.851,26.815,25.265,19.636
1979,22.137,22.346,27.533,32.264,32.8,33.45,28.433,27.104,28.119,27.894,25.833,20.908
1980,22.71,25.417,29.499,33.797,36.917,30.24,27.843,26.727,27.915,27.091,24.103,20.327
1981,20.086,24.889,27.306,32.523,34.566,32.848,27.317,27.052,27.793,26.781,22.116,19.833
1982,22.805,24.279,27.461,31.938,33.701,32.724,29.294,27.079,28.156,26.601,23.766,21.95
1983,21.477,23.935,28.713,32.117,35.105,34.187,28.858,27.891,27.691,25.718,21.282,19.301
1984,21.611,22.721,28.311,32.473,36.974,32.005,28.159,26.642,27.321,26.8,21.887,21.474
1985,22.89,24.008,30.278,33.052,36.015,31.136,27.571,27.082,27.903,25.433,22.302,21.402
1986,20.694,24.142,28.398,32.905,35.309,31.964,28.014,27.109,28.572,26.871,23.818,21.37
1987,21.004,23.601,27.62,33.01,33.78,33.861,28.679,28.171,29.063,26.822,23.906,20.115
1988,22.789,25.46,29.089,32.419,37.415,32.713,27.736,27.796,28.174,25.9,22.419,20.413
1989,21.101,24.256,27.443,32.422,36.315,31.185,28.171,27.118,28.073,26.606,23.673,20.101
1990,22.784,24.182,27.528,33.137,31.569,29.105,26.944,27.576,27.677,25.963,24.063,21.195
1991,20.937,25.575,29.267,31.896,36.679,31.272,28.151,26.731,28.653,26.664,22.842,20.48
1992,21.306,23.93,30.116,33.353,35.615,33.543,30.003,26.811,27.802,26.873,23.167,20.087
1993,22.233,23.786,27.274,32.677,36.595,32.807,28.497,27.331,27.501,26.543,22.326,19.16
1994,22.187,23.364,29.295,31.27,36.321,30.531,26.605,26.44,27.291,26.434,22.866,20.06
1995,18.937,23.778,27.481,31.345,33.236,34.306,28.095,28.008,28.108,26.776,23.287,22.141
1996,23.173,25.208,29.558,31.685,36.354,34.308,28.559,27.217,28.183,26.094,23.289,20.06
1997,19.85,23.082,28.943,30.197,34.609,32.178,28.283,27.803,27.782,26.329,24.991,20.512
1998,21.816,23.468,26.501,31.884,35.424,33.254,28.862,28.157,27.988,27.509,23.339,19.511
1999,19.647,24.988,29.004,34.068,34.764,31.018,27.849,27.086,26.817,26.736,23.323,20.01
2000,21.895,23.35,27.704,33.977,34.19,29.66,27.397,27.777,27.396,27.529,24.196,20.665
2001,21.67,25.65,29.076,31.432,35.805,29.939,27.612,27.164,28.85,26.907,24.613,21.18
2002,21.21,24.991,29.177,33.571,36.556,31.534,28.998,26.597,27.782,27.192,23.755,22.875
