Year,Jan,Feb,Mar,Apr,May,Jun,Jul,Aug,Sep,Oct,Nov,Dec
1901,23.37,23.747,28.404,31.371,30.727,28.523,26.235,25.765,26.902,26.725,23.488,22.257
1902,23.573,25.049,29.406,31.442,32.807,29.525,27.591,27.325,26.199,27.01,22.595,22.367
1903,22.981,24.122,28.034,31.432,31.107,30.049,26.263,25.97,26.342,25.389,22.575,21.34
1904,22.749,24.256,27.838,31.509,31.729,28.312,26.813,27.011,26.185,26.317,22.213,21.528
1905,22.214,23.66,27.44,29.686,32.43,29.913,27.166,26.308,26.197,26.889,23.983,21.345
1906,22.965,24.411,28.007,32.233,32.841,28.153,26.698,26.425,25.707,25.94,23.931,22.568
1907,22.87,25.083,28.068,29.752,30.996,28.564,26.824,25.024,26.435,27.162,24.739,21.433
1908,22.387,24.592,28.04,32.206,32.127,29.507,26.029,25.626,26.248,26.319,22.533,20.183
1909,23.715,25.153,29.505,29.937,32.216,27.745,25.706,26.504,25.921,26.176,23.718,23.279
1910,22.941,24.491,28.722,31.988,32.138,28.622,27.197,26.386,25.742,25.53,21.421,20.807
1911,23.291,23.88,27.958,31.795,32.923,28.324,27.31,25.617,26.782,27.737,25.239,22.894
1912,23.407,25.742,29.061,32.029,32.576,30.998,27.023,26.144,26.953,26.727,23.251,21.409
1913,21.734,25.916,28.302,32.442,31.636,27.817,26.432,26.401,26.833,26.561,23.682,23.334
1914,22.62,25.703,28.206,30.73,32.175,28.54,26.089,25.82,26.003,26.311,24.169,22.719
1915,22.798,24.732,27.703,31.296,31.792,30.207,27.17,26.232,26.262,26.176,25.024,21.025
1916,23.086,24.867,29.24,31.698,32.255,27.346,27.269,26.417,26.454,26.127,23.705,20.793
1917,22.066,23.846,27.032,29.679,30.793,27.274,26.655,26.58,25.912,25.429,22.569,21.271
1918,21.45,24.626,27.782,30.529,30.175,28.198,28.092,26.701,27.014,27.36,25.161,23.001
1919,24.025,26.049,29.07,31.316,31.771,27.632,26.84,26.504,26.696,25.941,24.404,21.563
1920,23.275,24.347,28.79,30.932,31.198,28.993,26.495,26.96,27.096,27.284,24.008,22.156
1921,23.511,24.681,29.804,32.201,33.103,28.638,26.922,26.032,26.038,25.767,22.074,21.685
1922,23.04,25.077,28.821,32.051,31.9,28.673,26.259,26.46,25.883,25.995,23.194,20.564
1923,22.308,23.943,28.091,31.253,31.602,30.784,26.277,26.202,25.896,25.515,23.384,22.696
1924,23.686,25.837,29.616,32.581,32.669,29.627,27.393,26.942,26.115,25.011,22.08,21.618
1925,21.724,24.106,28.604,32.411,31.06,28.121,26.49,26.071,26.751,26.21,24.314,21.552
1926,23.662,25.9,28.735,29.619,31.504,30.932,27.298,26.311,26.424,26.777,23.391,22.174
1927,24.181,25.463,29.431,31.932,32.139,28.432,25.917,26.118,26.922,26.238,22.179,22.314
1928,23.531,25.143,28.74,31.457,32.52,29.04,26.648,26.512,25.925,26.244,24.121,22.538
1929,23.386,24.89,29.494,30.811,32.91,28.544,26.841,26.733,26.77,26.316,24.078,23.304
1930,23.738,23.457,28.951,30.799,32.291,29.345,26.33,26.225,26.377,26.524,22.811,23.191
1931,22.809,25.802,28.375,32.436,32.468,29.706,26.275,26.291,25.914,25.405,23.039,21.441
1932,21.838,23.569,27.499,30.68,31.533,28.679,26.043,26.759,26.199,26.918,24.015,21.856
1933,22.668,25.429,27.936,30.579,29.782,27.32,26.024,25.618,25.813,25.425,23.777,21.574
1934,21.831,24.49,27.806,31.619,32.218,28.907,26.12,25.618,25.794,26.226,22.332,21.235
1935,22.358,24.803,27.643,29.714,32.639,29.225,26.092,26.295,25.45,26.727,22.771,22.771
1936,23.739,24.227,27.953,30.82,32.275,27.484,26.76,26.133,26.935,26.423,24.222,22.142
1937,21.985,25.224,27.922,30.616,32.149,29.307,26.011,26.616,26.47,25.76,23.597,22.215
1938,24.396,24.328,29.41,31.707,31.679,26.236,25.748,26.108,25.666,24.823,22.475,21.292
1939,22.852,25.159,27.555,30.929,32.167,29.085,26.2,26.336,26.104,26.494,22.175,20.905
1940,21.52,24.927,27.477,30.933,31.529,28.719,25.647,25.65,26.431,26.04,24.547,22.483
1941,23.196,25.684,29.953,32.491,32.703,29.464,27.321,26.842,26.906,27.135,24.193,24.017
1942,23.526,25.389,29.604,32.204,32.48,29.24,26.011,25.955,25.737,26.303,23.349,22.584
1943,23.98,23.343,28.565,30.696,31.145,27.606,25.903,25.98,25.47,25.527,24.198,20.713
1944,23.317,24.435,26.959,30.461,32.84,29.209,26.25,26.407,26.514,26.109,23.622,22.88
1945,22.436,24.406,28.66,30.326,32.384,28.879,26.243,26.051,25.682,25.959,22.267,20.769
1946,21.678,24.61,28.875,31.161,31.477,27.911,26.316,25.918,26.314,27.306,24.506,23.949
1947,23.731,25.367,29.153,30.875,32.598,29.885,26.514,26.847,25.7,25.1,23.605,22.277
1948,23.744,25.177,28.289,31.578,32.779,29.177,26.863,26.323,25.835,26.822,25.329,20.709
1949,23.002,24.225,29.034,31.497,31.491,28.213,26.707,26.628,25.807,26.435,22.804,22.104
1950,22.755,24.193,27.673,31.406,31.868,28.876,26.371,27.104,26.124,25.481,22.871,21.993
1951,22.813,24.694,28.736,30.878,32.193,28.943,27.086,26.324,27.518,27.175,24.783,21.651
1952,23.232,25.742,27.889,32.015,32.566,29.245,27.259,26.077,26.573,26.655,22.608,23.877
1953,23.26,26.453,30.64,31.893,33.242,29.986,27.005,26.107,26.453,26.692,23.585,21.668
1954,22.58,26.085,28.716,32.091,33.21,28.815,26.281,26.408,25.328,25.177,22.558,22.866
1955,23.564,26.026,29.282,30.949,31.901,28.774,26.695,25.64,26.389,25.913,22.215,21.695
1956,23.335,24.462,29.532,32.023,31.222,28.202,25.148,25.818,25.81,25.521,23.792,22.167
1957,23.547,24.582,27.713,31.153,32.238,29.81,26.484,25.854,26.5,27.261,24.597,23.667
1958,23.552,25.318,28.866,31.938,32.701,30.851,26.171,26.447,26.239,26.599,24.981,22.96
1959,24.054,26.235,29.437,32.03,33.068,29.076,25.992,26.045,26.103,26.2,24.145,23.159
1960,23.92,25.526,28.473,31.79,32.216,28.598,27.191,26.488,26.516,25.984,23.969,23.448
1961,23.733,24.322,30.002,32.211,31.334,28.355,26.097,26.382,25.888,25.476,23.776,22.682
1962,21.674,25.039,28.359,30.983,31.976,29.208,26.587,26.239,25.863,26.128,23.476,22.16
1963,23.049,24.609,28.644,30.032,31.926,28.104,26.638,25.46,26.311,26.407,24.371,23.109
1964,23.156,25.575,29.802,32.501,32.258,28.839,26.419,25.517,25.681,26.308,23.277,21.792
1965,23.294,25.102,28.449,31.018,31.951,29.003,26.198,26.699,26.764,27.233,24.921,23.942
1966,23.634,26.182,29.353,31.943,31.69,29.83,27.648,26.977,26.47,27.048,25.413,22.785
1967,23.307,25.606,28.668,31.877,32.719,29.407,26.608,26.187,26.201,26.335,23.968,24.292
1968,22.233,25.305,28.189,31.096,32.048,29.424,26.809,26.326,26.72,25.527,23.596,23.313
1969,23.268,26.366,30.618,33.063,32.67,29.754,26.822,26.645,25.878,26.692,25.469,22.851
1970,23.559,26.597,29.742,32.423,32.667,27.829,26.939,25.903,26.22,26.469,22.799,20.557
1971,22.23,25.835,28.274,32.326,31.57,27.883,27.554,26.544,26.949,25.597,22.848,21.094
1972,22.082,24.391,29.942,31.851,32.534,30.438,27.648,26.893,27.848,27.849,24.475,23.818
1973,24.207,26.626,30.146,33.505,34.033,29.007,26.309,25.371,25.668,25.529,23.116,22.858
1974,23.175,26.139,30.137,32.317,29.9,28.215,27.23,26.181,26.694,25.73,23.359,21.524
1975,21.875,25.449,28.834,32.9,32.664,28.587,26.392,26.113,25.981,26.641,22.095,20.672
1976,21.531,24.649,29.112,30.898,31.943,28.155,26.585,25.828,26.823,27.902,25.748,23.523
1977,23.161,26.379,29.974,30.936,31.412,28.906,27.249,26.255,27.049,26.914,26.03,22.072
1978,22.995,24.77,27.811,31.085,32.453,27.79,26.118,25.534,26.368,26.661,25.375,22.898
1979,24.351,25.183,28.466,31.809,31.421,30.419,27.66,26.221,26.397,27.525,25.125,23.041
1980,23.966,26.683,29.156,31.212,32.959,27.706,26.706,25.345,27.058,28.538,25.995,22.893
1981,22.348,26.343,28.201,31.763,31.652,28.93,27.043,26.085,25.985,26.737,23.829,22.589
1982,24.091,26.39,28.989,31.093,31.152,29.372,27.216,26.907,26.884,27.536,24.913,23.611
1983,23.265,25.417,29.241,31.895,33.509,30.433,27.53,26.632,25.964,25.989,23.475,22.499
1984,23.873,25.082,29.65,32.072,34.122,29.184,26.591,26.08,26.866,26.818,23.671,23.909
1985,24.648,26.021,30.243,32.055,32.598,28.331,26.521,26.62,27.639,25.945,24.483,23.834
1986,23.183,25.914,30.129,32.698,32.841,28.359,27.292,26.094,27.835,28.867,25.924,23.527
1987,24.619,25.646,29.334,32.503,31.431,29.851,27.35,27.025,28.708,27.095,25.01,22.482
1988,23.834,26.792,29.524,31.835,33.368,29.068,26.334,26.556,26.733,26.92,24.115,22.598
1989,23.613,24.979,27.673,31.986,33.116,28.094,26.441,25.818,26.451,26.996,25.21,22.76
1990,24.072,25.322,28.104,31.8,29.473,26.92,26.455,26.144,27.19,25.903,25.257,23.083
1991,23.659,26.045,29.591,31.264,32.916,28.15,26.01,26.529,27.863,27.589,24.928,22.665
1992,22.309,24.288,29.405,31.885,33.063,29.824,27.993,26.314,27.073,27.398,25.034,22.236
1993,24.037,24.823,28.019,32.024,33.147,30.375,27.146,26.306,26.437,26.681,24.949,21.441
1994,23.485,25.239,30.252,30.426,32.921,28.257,26.208,26.37,27.017,26.692,23.872,21.686
1995,21.074,25.299,28.641,31.729,30.973,31.181,27.323,27.968,27.376,26.736,25.1,24.045
1996,24.931,26.57,30.522,31.676,33.301,30.182,27.5,26.547,26.772,26.097,24.379,22.857
1997,22.332,24.432,29.099,29.901,31.839,29.252,27.332,26.48,26.75,27.109,26.752,24.89
1998,24.616,25.912,29.525,32.889,33.819,30.621,27.834,27.134,26.957,26.897,25.037,21.971
1999,22.424,26.552,29.947,32.732,31.311,28.001,26.811,26.378,25.989,26.533,24.526,22.576
2000,23.993,25.517,28.398,32.911,31.32,27.771,26.319,26.707,26.935,27.794,25.066,22.418
2001,24.099,26.591,29.149,31.774,32.753,28.242,26.808,26.122,27.547,26.685,25.199,23.458
2002,22.89,26.659,29.802,33.083,32.836,28.675,27.602,25.884,26.872,27.514,24.523,23.427
