Year,Jan,Feb,Mar,Apr,May,Jun,Jul,Aug,Sep,Oct,Nov,Dec
1901,18.395,19.863,26.59,30.881,34.058,33.604,29.202,26.257,27.427,27.842,22.849,20.776
1902,20.951,22.937,28.399,31.912,34.013,32.92,29.048,27.982,26.75,26.084,21.293,18.914
1903,19.782,20.242,24.727,29.73,32.797,33.236,29.108,27.066,26.481,25.646,20.114,18.622
1904,20.138,21.047,25.02,31.711,33.79,31.014,27.339,26.767,27.115,26.758,21.867,20.109
1905,18.747,18.073,24.412,28.902,35.206,32.831,27.625,27.458,27.089,26.35,23.252,19.58
1906,18.066,19.888,25.617,31.08,34.678,30.83,27.449,27.073,25.952,25.473,22.8,19.894
1907,20.154,21.048,25.217,29.28,32.203,32.312,29.902,25.756,26.88,27.59,23.404,18.445
1908,18.859,20.94,24.635,31.793,33.303,31.926,26.84,26.345,26.95,26.359,22.457,18.805
1909,19.987,21.64,27.315,29.707,33.597,30.826,27.245,26.489,26.342,25.652,22.397,19.633
1910,19.642,21.516,26.31,30.407,33.295,30.037,27.185,27.065,26.643,24.682,20.381,19.906
1911,21.33,21.213,24.43,30.315,34.399,30.232,28.907,27.124,26.356,27.159,22.722,21.377
1912,20.559,23.116,25.932,31.375,34.206,33.555,28.453,26.48,26.657,26.361,21.394,19.181
1913,19.154,21.895,24.727,32.005,32.792,30.327,27.55,26.186,27.346,27.446,22.991,20.306
1914,21.428,21.856,25.419,30.779,34.381,30.829,27.615,27.169,27.449,26.592,23.893,19.802
1915,20.225,20.559,26.313,30.58,34.495,34.232,29.82,27.155,28.387,27.245,23.324,20.182
1916,20.114,20.848,28.098,32.198,34.408,29.427,28.821,26.863,27.64,25.781,21.026,19.197
1917,20.605,21.295,26.004,29.401,31.31,30.14,27.067,26.977,26.647,25.26,20.315,19.813
1918,18.132,22.421,26.206,29.61,34.256,30.813,29.33,27.081,27.247,27.327,24.166,19.432
1919,20.644,21.463,27.2,30.796,33.617,30.917,27.35,26.573,27.158,25.739,23.405,19.62
1920,20.157,21.143,26.913,30.631,31.014,31.544,27.062,26.586,27.939,27.495,23.392,20.709
1921,20.472,21.627,28.415,32.682,34.398,31.613,29.703,26.876,25.954,25.945,21.57,21.209
1922,19.055,23.421,27.277,31.614,34.077,31.222,27.454,26.787,26.625,25.961,21.784,18.665
1923,20.048,20.823,26.924,31.087,33.083,34.009,27.94,25.984,27.126,25.549,22.183,21.217
1924,20.188,22.654,28.314,32.199,33.028,32.648,28.037,26.996,26.836,24.762,20.478,19.725
1925,17.536,20.233,26.865,32.606,32.507,29.741,27.138,27.461,27.82,28.13,23.289,19.873
1926,20.646,23.691,26.422,28.611,33.392,34.538,28.64,26.947,27.049,26.468,21.093,19.118
1927,18.711,20.484,25.339,30.519,32.931,31.541,27.226,26.098,26.881,25.939,19.599,20.025
1928,19.386,21.53,26.008,30.239,33.607,31.3,26.957,26.301,26.841,26.165,22.968,18.845
1929,18.565,20.447,27.501,30.898,33.829,31.018,27.435,26.195,27.23,25.944,23.29,19.237
1930,20.041,20.43,27.094,30.427,33.609,31.827,26.567,26.254,27.435,27.339,21.282,20.339
1931,21.445,21.569,25.729,32.011,34.018,33.431,28.33,26.759,26.649,25.27,21.701,19.881
1932,21.409,20.222,25.507,30.021,33.817,31.737,27.237,26.96,27.147,26.873,21.618,20.301
1933,19.561,22.439,26.898,30.309,31.482,30.512,27.919,26.378,26.272,25.38,22.308,19.425
1934,18.362,22.512,25.727,31.019,33.224,31.841,27.235,26.284,25.851,24.969,21.383,20.103
1935,17.957,21.615,25.514,28.436,33.602,31.815,27.126,26.264,26.156,25.675,22.375,19.938
1936,18.802,21.515,25.826,29.698,34.271,29.836,27.691,26.763,26.836,25.957,22.619,18.931
1937,18.058,22.434,24.931,29.898,33.303,31.803,26.766,26.474,26.721,25.558,23.291,19.034
1938,20.975,19.851,28.114,31.417,33.6,27.924,26.854,27.074,27.819,26.218,21.122,19.99
1939,20.735,22.492,24.558,29.837,33.2,31.347,27.565,27.627,26.343,26.463,21.601,19.086
1940,19.941,22.045,24.224,30.029,33.709,31.524,27.138,26.169,26.849,26.154,21.986,19.246
1941,18.875,22.021,27.205,31.72,33.914,32.459,27.415,26.741,27.359,27.435,22.778,21.201
1942,18.587,22.118,27.123,32.307,33.989,32.823,26.66,26.556,26.16,25.772,21.498,19.217
1943,20.458,20.911,26.712,30.391,34.394,30.117,26.74,25.691,26.736,25.358,23.103,18.789
1944,19.07,21.132,25.423,29.918,33.809,31.155,27.067,26.18,27.047,24.882,22.186,21.21
1945,18.161,20.151,26.102,29.706,33.127,32.131,26.764,26.976,26.542,25.663,20.882,17.941
1946,19.742,23.137,26.053,32.468,33.104,30.207,27.061,25.897,26.656,26.47,19.19,21.41
1947,18.758,21.843,26.602,30.308,33.818,31.953,27.364,27.565,26.434,24.953,22.589,20.602
1948,20.061,21.431,26.618,32.118,34.802,31.038,27.437,26.454,26.26,27.269,22.698,19.174
1949,21.324,21.619,27.014,31.628,34.199,30.794,28.029,27.39,26.906,26.438,21.781,19.422
1950,20.641,20.062,25.6,30.446,33.231,32.036,27.353,26.997,26.557,25.369,20.229,18.945
1951,18.643,21.055,26.527,29.331,33.461,31.652,28.75,26.463,28.309,28.748,24.076,19.193
1952,20.457,23.615,26.002,32.108,34.388,31.349,27.682,25.887,27.432,27.058,22.164,21.746
1953,19.266,24.327,29.187,31.589,33.61,31.96,27.919,26.471,27.17,25.87,22.08,20.991
1954,18.731,22.95,26.54,31.419,34.715,32.026,27.937,27.172,25.338,24.366,22.35,19.917
1955,20.546,22.201,28.304,29.015,33.231,30.846,28.314,26.454,26.262,25.071,20.609,19.49
1956,20.265,21.954,27.51,31.398,33.654,29.917,26.242,25.892,26.544,25.285,21.298,20.206
1957,19.383,20.062,25.028,30.614,32.733,32.052,27.904,26.862,26.547,26.737,24.412,21.647
1958,21.139,22.05,27.126,32.388,34.129,32.751,27.454,27.573,26.142,25.866,22.802,20.5
1959,20.047,21.763,27.619,31.204,33.738,31.542,26.657,26.049,26.342,26.347,22.69,20.613
1960,18.164,23.426,25.412,30.545,33.015,31.388,28.33,25.67,27.535,26.248,22.288,21.996
1961,20.073,20.143,27.922,31.1,33.8,30.646,27.327,26.753,25.425,24.959,22.578,18.534
1962,18.047,21.821,26.267,30.683,33.714,31.93,27.861,26.79,26.368,24.667,22.907,20.371
1963,18.859,23.534,26.205,29.775,32.895,31.245,27.945,26.261,26.445,26.079,24.29,20.399
1964,18.368,21.852,28.205,32.492,33.204,31.151,27.645,26.667,26.935,26.962,21.775,20.218
1965,21.035,21.924,26.116,30.492,34.598,32.515,28.705,27.756,27.019,27.721,23.847,20.38
1966,20.23,24.078,26.174,31.072,32.774,32.036,29.523,26.577,26.868,27.959,24.413,20.301
1967,18.688,24.005,26.014,30.013,33.322,30.681,27.873,26.104,26.061,26.889,23.816,21.614
1968,18.738,20.555,25.894,30.378,32.327,32.313,27.642,25.693,28.134,26.143,22.599,20.132
1969,19.965,22.854,28.726,31.515,33.642,31.829,27.922,26.156,26.542,27.436,24.693,20.411
1970,20.142,21.994,26.529,32.324,34.691,29.742,28.154,26.887,26.367,26.847,21.678,19.787
1971,19.162,21.865,26.421,32.491,32.686,29.515,26.497,26.413,27.168,25.754,22.172,18.897
1972,20.036,20.089,28.123,30.318,33.805,32.135,28.618,26.658,26.738,27.277,22.992,20.834
1973,19.863,23.119,27.219,33.318,35.169,31.633,26.462,26.372,25.935,25.898,22.48,20.553
1974,19.313,21.425,28.628,32.075,33.082,32.017,28.382,26.753,28.36,26.727,21.546,19.412
1975,18.231,21.293,25.647,31.883,33.813,31.205,27.337,26.748,26.651,26.762,21.162,19.762
1976,20.404,22.636,27.377,31.004,33.4,29.646,28.025,26.37,26.568,27.442,25.757,21.668
1977,19.617,23.072,29.109,31.237,32.686,31.289,27.7,26.556,26.363,27.74,24.589,21.068
1978,19.331,21.649,25.697,31.499,34.508,30.742,26.87,25.87,27.447,26.967,24.429,19.627
1979,21.091,20.658,25.626,31.59,32.62,32.445,28.158,26.409,28.724,27.962,24.997,21.087
1980,20.757,22.816,27.216,32.784,34.284,29.633,27.381,26.725,27.851,28.073,24.436,20.107
1981,18.921,23.159,26.84,31.689,33.778,32.995,27.235,26.101,27.827,26.965,21.9,19.908
1982,20.562,21.154,25.229,30.225,32.113,32.359,29.057,26.485,27.559,27.765,23.137,22.018
1983,19.57,20.675,26.143,29.146,33.707,32.459,28.651,27.466,27.533,25.561,21.289,19.593
1984,19.21,19.683,27.896,31.9,34.586,31.501,27.97,25.586,26.116,26.466,22.684,21.1
1985,20.182,21.935,28.972,31.366,34.391,31.814,28.801,26.29,27.564,24.989,22.981,21.703
1986,20.537,22.233,27.15,31.715,33.589,31.814,27.055,26.179,28.147,27.015,24.032,19.755
1987,20.374,23.242,27.575,31.702,32.881,32.643,29.715,28.318,28.459,27.837,23.909,20.423
1988,21.66,24.038,27.126,32.639,34.903,32.111,27.834,27.406,28.605,26.256,22.998,20.677
1989,19.543,22.51,26.282,30.705,34.373,30.608,28.217,26.513,28,27.248,24.602,20.474
1990,22.305,22.532,25.69,31.501,32.874,30.274,26.84,27.147,26.76,27.104,23.698,20.922
1991,19.055,23.046,27.401,30.877,34.482,32.194,28.134,26.687,27.098,27.061,23.557,20.586
1992,20.627,21.145,27.434,31.344,33.589,33.335,29.619,26.932,26.531,26.84,22.989,20.985
1993,21.128,22.598,26.173,30.814,34.706,32.578,27.951,27.335,26.968,27.652,23.972,20.865
1994,21.42,21.252,27.136,30.552,34.785,30.433,26.915,26.155,26.069,26.876,23.291,20.506
1995,18.399,22.123,26.205,31.175,34.083,34.427,28.741,27.477,28.145,28.305,23.614,21.743
1996,21.44,23.63,28.906,31.534,34.189,32.996,29.052,26.691,27.619,26.451,23.747,20.685
1997,19.91,21.983,27.888,30.148,32.608,30.623,27.918,27.066,27.513,26.769,25.4,20.436
1998,20.145,22.505,26.867,32.591,35.382,33.144,28.262,28.042,28.016,28.428,24.36,21.561
1999,20.339,23.434,28.174,32.96,34.253,30.981,28.121,27.046,27.406,26.859,23.465,20.293
2000,21.054,21.125,26.98,33.602,32.288,31.083,26.961,27.973,27.57,28.373,25.468,21.805
2001,20.146,23.936,27.413,31.181,33.116,29.45,26.569,26.872,28.466,27.441,23.969,21.843
2002,19.384,22.709,27.709,32.395,34.506,31.202,28.845,26.026,26.91,27.752,24.445,22.865
