Year,Jan,Feb,Mar,Apr,May,Jun,Jul,Aug,Sep,Oct,Nov,Dec
1901,16.898,19.179,24.708,29.545,33.099,33.111,28.042,25.469,26.201,25.499,20.466,17.603
1902,19.152,20.82,27.362,30.839,33.908,32.965,27.342,26.897,25.947,24.64,19.561,16.829
1903,18.258,18.972,24.61,29.737,31.994,32.724,28.293,26.234,26.031,23.474,18.707,16.531
1904,18.388,20.013,24.971,31.036,32.906,30.634,26.217,25.554,25.698,24.595,19.486,17.929
1905,17.103,16.837,23.765,27.607,33.407,33.604,27.033,26.135,25.834,24.299,20.738,17.233
1906,17.325,19.645,24.159,30.7,34.565,30.808,26.514,26.02,25.567,24.295,20.592,18.08
1907,18.434,19.492,23.871,27.466,31.989,31.73,28.738,25.074,26.882,25.879,21.086,16.576
1908,16.61,20.464,24.627,31.476,34.058,32.692,26.347,25.385,26.497,24.575,19.821,16.323
1909,19.375,19.707,26.244,27.679,32.932,29.091,25.828,26.059,25.642,24.52,20.672,17.679
1910,17.472,19.872,25.411,30.303,33.164,29.575,26.862,25.716,25.982,23.765,18.707,17.209
1911,19.422,19.569,23.816,29.952,34.51,29.745,27.915,25.779,25.491,24.828,20.23,17.017
1912,18.21,21.151,25.068,29.743,33.452,33.573,27.286,25.716,25.943,24.595,19.667,16.679
1913,17.495,20.595,23.961,31.448,31.86,28.804,26.911,25.916,26.76,25.83,20.445,17.711
1914,18.904,21.179,24.69,28.832,32.756,30.601,26.489,25.903,26.289,24.758,21.337,17.586
1915,17.939,19.244,24.063,29.343,34.268,32.957,27.649,25.72,26.294,25.432,21.28,17.286
1916,17.611,19.899,26.416,31.042,33.352,27.92,27.096,25.728,26.06,24.74,19.626,16.148
1917,17.615,19.289,23.748,27.711,30.068,29.15,26.359,26.027,25.568,24.514,18.843,17.66
1918,16.28,20.665,25.407,29.301,32.967,28.587,28.254,25.979,26.843,24.997,20.901,17.124
1919,18.348,19.047,25.214,29.19,32.361,30.556,26.076,25.464,26.242,24.024,20.777,17.13
1920,17.855,20.069,25.331,29.601,31.07,31.675,26.123,26.11,27.142,26.083,21.088,18.032
1921,18.795,20.328,27.407,31.827,35.374,30.62,28.013,25.605,25.642,24.536,19.337,18.686
1922,17.527,21.269,26.319,30.652,34.162,30.422,26.24,25.554,25.694,24.188,20.066,16.86
1923,17.759,19.813,25.158,30.44,33.262,34.256,26.553,25.132,26.177,23.482,20.319,18.127
1924,18.004,21.07,26.944,31.335,32.947,33.511,26.506,25.911,25.895,24.202,19.441,17.478
1925,16.536,19.28,25.289,31.119,31.625,29.381,25.228,26.148,26.309,25.129,20.029,16.547
1926,17.81,21.163,24.44,27.07,31.035,33.857,27.711,25.883,25.811,23.693,18.446,16.656
1927,17.639,19.572,23.779,30.109,33.05,31.487,26.369,25.928,26.602,24.54,18.642,18.013
1928,18.183,20.201,25.388,29.68,34.183,30.837,26.31,26.41,26.698,25.055,20.97,17.529
1929,17.987,18.7,25.962,29.795,34.208,30.694,26.298,25.207,26.522,24.274,20.16,17.041
1930,17.775,19.268,25.907,29.176,33.022,31.2,26.205,25.609,26.209,25.483,19.622,17.827
1931,19.019,20.906,25.055,31.406,34.104,32.784,27.139,25.941,26.143,23.848,19.82,17.566
1932,19.219,19.002,25.131,29.823,32.948,32.433,26.883,26.007,26.243,25.27,20.377,17.711
1933,17.63,21.454,25.64,28.284,29.69,29.508,26.848,25.932,25.732,24.299,19.936,17.582
1934,16.913,20.519,24.854,30.205,33.425,30.9,26.409,25.609,25.471,23.567,19.411,17.751
1935,16.931,20.251,25.189,27.634,34.066,32.016,26.07,25.443,25.613,24.39,20.584,18.136
1936,17.929,19.801,25.437,29.336,33.81,28.805,26.506,25.613,25.744,24.157,20.777,17.696
1937,16.655,20.302,23.76,28.375,32.399,31.167,26.402,25.232,25.866,23.594,20.886,16.855
1938,18.877,18.628,26.755,30.382,33.561,27.475,25.871,25.866,26.432,24.533,19.734,17.298
1939,18.943,21.013,23.974,29.551,34.074,30.253,26.111,25.665,25.638,25.126,19.984,17.279
1940,17.444,20.179,24.162,29.397,33.393,31.222,26.449,25.724,26.139,24.728,20.804,17.48
1941,18.136,20.102,26.679,31.709,34.2,31.088,27.441,26.263,26.843,26.009,20.651,18.778
1942,17.416,20.218,25.86,30.653,34.676,32.667,25.704,25.657,25.69,24.861,20.741,17.367
1943,19.346,19.222,26.14,29.393,33.835,30.686,26.498,24.761,25.938,23.857,21.039,16.998
1944,17.575,19.293,23.543,28.67,34.524,31.187,26.111,25.732,26.142,23.81,20.504,19.379
1945,16.585,19.742,25.94,28.403,33.354,31.899,26.631,26.518,25.88,23.918,19.453,16.429
1946,18.202,21.436,25.551,30.231,33.127,29.097,26.269,25.581,25.822,25.256,20.262,18.959
1947,17.349,20.163,25.761,30.69,33.94,32.411,26.218,26.164,25.864,24.038,20.953,18.38
1948,18.112,19.931,24.94,31.277,35.154,31.662,26.549,25.716,25.597,25.469,20.558,16.856
1949,18.782,20.339,26.057,30.906,33.311,30.677,26.766,25.961,25.986,24.831,18.849,17.439
1950,18.497,19.301,24.188,29.647,33.755,31.281,26.328,25.94,26.097,24.225,19.552,17.515
1951,16.925,20.359,25.422,28.981,33.111,31.758,27.792,25.665,26.359,26.583,21.426,17.515
1952,18.935,21.988,25.092,31.382,34.809,31.469,26.696,25.328,26.56,25.292,20.171,18.941
1953,17.801,22.617,28.644,30.902,34.436,32.695,26.327,25.299,26.268,24.294,19.987,18.968
1954,17.041,21.947,25.851,31.184,35.053,31.762,26.924,25.943,25.28,23.161,19.982,18.269
1955,18.237,21.274,27.216,28.877,33.297,30.891,26.207,25.665,25.748,23.593,19.144,17.802
1956,18.325,20.218,26.621,31.284,33.88,28.596,25.852,25.476,25.31,24.239,19.292,18.454
1957,18.572,19.283,23.448,29.131,32.554,31.832,26.561,26.148,25.933,24.832,21.649,19.421
1958,19.434,21.195,26.13,31.528,34.327,33.482,26.514,26.168,25.777,24.276,21.313,18.311
1959,18.425,20.208,26.414,30.527,33.479,31.16,26.302,25.482,25.828,25.008,20.765,18.332
1960,17.296,21.811,24.7,29.849,33.614,31.943,26.553,25.261,26.543,24.21,19.722,19.144
1961,18.613,18.929,26.798,30.514,33.38,30.313,26.144,25.497,25.068,23.693,19.826,16.514
1962,16.569,20.31,25.001,29.856,32.732,32.429,27.187,25.554,25.292,23.289,20.516,18.223
1963,16.687,21.037,24.542,28.389,31.87,29.368,26.186,25.607,25.833,24.945,22.254,18.076
1964,17.932,20.95,26.898,31.648,33.014,31.396,26.5,25.661,26.055,25.321,19.971,18.123
1965,18.564,20.689,24.838,29.047,33.881,32,27.22,26.499,25.698,25.328,21.553,18.333
1966,18.131,22.485,25.923,30.832,33.096,31.221,28.677,25.939,26.915,26.05,22.598,17.549
1967,17.875,22.018,24.186,29.234,33.477,31.751,26.878,25.228,25.625,25.131,21.33,19.107
1968,17.049,19.579,24.81,28.631,32.441,30.684,26.807,25.514,27.176,24.528,20.993,18.186
1969,18.17,22.1,27.813,30.96,32.601,31.85,26.444,25.211,25.638,25.836,22.519,18.21
1970,18.595,21.078,25.541,31.446,33.945,28.948,26.924,25.728,25.554,25.057,19.752,17.521
1971,17.892,20.35,24.692,30.008,31.388,27.074,24.861,25.236,26.626,25.333,19.899,17.087
1972,17.998,20.029,26.481,29.746,32.715,32.791,27.507,24.641,26.278,24.532,21.166,19.552
1973,19.093,21.615,26.156,31.497,34.639,31.623,26.218,25.716,25.835,24.402,20.803,18.418
1974,17.47,20.577,27.354,31.483,32.945,30.999,27.004,25.877,27.94,25.48,19.941,17.878
1975,17.206,21.743,25.823,31.849,34.925,31.281,26.056,25.791,25.956,25.452,18.808,16.788
1976,17.789,20.817,25.216,28.863,33.273,29.607,26.467,25.795,25.425,25.238,23.559,18.995
1977,18.392,21.369,27.616,29.873,31.338,30.734,26.705,25.24,25.907,25.365,22.775,18.477
1978,16.95,19.438,23.302,28.663,35.089,29.902,25.922,24.622,26.118,24.798,22.147,17.166
1979,18.662,18.846,23.965,29.318,30.972,31.21,26.852,25.946,26.698,26.188,24.687,18.901
1980,19.284,21.728,25.962,31.794,34.659,29.472,25.917,24.394,26.371,25.64,22.264,18.069
1981,17.856,21.706,24.808,29.423,32.339,31.766,26.129,25.533,26.159,24.561,20.448,17.372
1982,19.55,19.886,23.536,29.031,31.254,31.359,27.522,25.127,26.415,25.627,21.438,19.878
1983,17.705,20.078,25.685,29.416,33.11,32.744,27.511,26.557,26.301,24.035,18.874,17.517
1984,17.801,18.741,25.888,30.226,34.782,30.798,26.881,24.764,25.665,25.328,20.152,18.556
1985,18.768,20.452,27.273,30.607,34.14,31.355,26.177,25.182,26.505,24.145,20.79,18.929
1986,18.209,18.991,24.701,30.664,32.464,31.105,25.117,25.891,25.725,24.911,21.639,17.951
1987,17.701,20.75,25.613,30.483,31.643,32.788,27.445,26.901,26.93,24.89,21.507,17.527
1988,18.803,21.933,25.982,31.146,35.289,31.657,26.813,26.594,27.626,24.675,20.845,18.286
1989,16.976,21.09,24.704,30.06,33.977,29.213,27.258,26.277,26.481,25.288,22.204,18.248
1990,20.276,21.199,24.767,30.498,30.812,28.164,25.364,26.588,25.486,24.915,21.737,18.976
1991,17.649,22.417,26.179,29.24,34.701,30.634,27.694,25.203,27.253,24.976,20.46,18.243
1992,18.583,19.841,26.642,30.647,32.477,33.332,28.198,25.927,25.959,25.119,21.696,17.796
1993,18.568,21.355,24.147,29.755,34.297,31.276,27.544,25.976,25.621,25.49,21.228,17.586
1994,19.952,20.271,27.108,29.237,34.455,29.746,25.706,25.268,26.293,24.925,21.488,18.344
1995,16.885,20.734,23.802,29.625,32.537,33.244,27.313,26.109,26.897,25.625,20.84,19.209
1996,18.644,20.641,26.516,29.568,33.974,32.833,27.382,25.565,26.909,24.816,20.708,16.776
1997,17.229,19.831,26.023,28.173,32.221,30.943,27.495,26.16,26.188,24.485,21.894,17.644
1998,17.654,20.873,23.439,29.77,33.795,31.807,27.049,26.661,26.831,26.352,21.991,18.049
1999,17.123,21.576,25.968,31.511,32.96,29.889,26.553,25.53,25.542,25.299,22.283,18.155
2000,18.628,20.259,24.989,31.658,32.131,28.709,26.169,26.549,25.71,26.405,23.147,18.62
2001,18.067,22.135,25.89,29.097,33.176,28.578,25.873,26.152,27.34,25.805,22.49,19.006
2002,18.327,20.613,26.411,31.153,34.565,30.709,28.472,25.581,26.272,25.717,22.015,20.061
