Year,Jan,Feb,Mar,Apr,May,Jun,Jul,Aug,Sep,Oct,Nov,Dec
1901,14.324,17.364,24.619,29.753,34.16,35.514,30.74,26.836,27.968,27.759,21.547,17.567
1902,17.525,19.875,27.174,30.949,34.382,34.063,29,28.57,26.991,25.967,20.219,15.915
1903,16.454,18.023,23.603,28.856,32.645,35.682,30.774,27.249,27.294,25.063,19.694,15.726
1904,16.202,18.663,23.702,30.87,33.409,33.347,27.15,26.248,26.859,26.041,20.394,16.762
1905,14.918,14.215,21.849,27.756,34.999,35.551,29.514,28.081,28.453,26.757,22.466,17.009
1906,15.352,17.171,23.064,30.155,35.838,32.914,28.434,27.855,26.262,25.692,21.655,17.303
1907,17.467,17.396,22.631,27.965,32.264,34.13,31.465,26.584,28.02,27.114,21.696,15.522
1908,15.511,18.938,23.733,31.085,33.838,34.672,27.427,26.409,27.218,25.721,20.637,15.804
1909,16.09,18.2,25.307,27.978,33.082,31.8,27.409,26.809,26.6,25.947,21.983,15.954
1910,15.594,19.094,24.756,29.344,34.04,31.933,28.486,27.362,27.092,24.572,19.612,16.643
1911,17.943,19.075,22.584,29.847,35.25,32.643,30.237,27.89,26.363,26.397,19.634,16.607
1912,16.93,19.974,23.893,30.071,34.461,35.372,29.472,27.228,26.393,25.941,19.797,16.14
1913,16.434,18.646,22.594,31.296,32.327,31.344,28.86,27.961,28.71,27.739,21.17,16.652
1914,18.179,19.018,23.872,30.207,34.091,32.667,28.363,27.282,27.763,26.014,22.116,16.27
1915,16.235,16.87,23.944,29.495,35.189,34.812,30.809,27.868,29.017,27.414,21.268,17.323
1916,16.882,18.149,26.846,31.3,34.026,31.182,29.43,26.836,27.246,25.032,19.006,15.514
1917,16.706,18.488,23.744,27.514,30.539,31.763,27.63,26.617,26.435,24.594,18.379,16.632
1918,14.866,19.188,24.425,28.379,35.255,32.748,31.023,28.39,28.201,27.117,21.574,15.658
1919,16.259,17.83,24.938,29.347,33.139,34.127,27.569,26.428,26.968,25.448,20.596,16.008
1920,16.204,18.456,24.987,29.771,30.899,32.22,27.548,27.346,28.862,27.872,22.398,17.713
1921,17.233,19.429,27.108,32.295,35.664,33.814,31.076,26.757,26.201,25.654,20.785,18.446
1922,15.714,20.303,25.763,30.786,34.196,32.563,28.415,26.531,26.449,25.588,20.49,16.066
1923,16.047,18.265,25.067,30.582,33.159,36.03,29.304,26.192,27.229,25.174,20.772,16.801
1924,15.328,18.715,25.984,30.884,32.123,34.886,28.528,26.912,26.595,24.764,19.75,16.331
1925,14.248,17.075,24.774,31.627,32.493,30.381,26.656,28.051,28.233,26.758,20.149,16.128
1926,16.512,20.316,23.165,26.609,31.866,35.369,29.343,27.076,26.381,24.369,18.334,14.955
1927,13.972,16.641,22.531,28.892,33.051,33.642,28.342,26.575,27.155,25.499,18.958,16.921
1928,15.59,18.792,24.519,29.52,34.532,33.253,28.488,28.191,28.104,26.316,21.669,15.78
1929,15.548,17.023,25.99,30.162,34.37,33.266,28.16,26.514,28.173,25.977,21.696,15.806
1930,16.063,18.419,25.524,29.361,33.302,33.233,27.323,26.944,28.035,26.974,20.378,16.99
1931,17.993,17.698,24.082,31.56,34.282,34.913,29.715,27.591,26.911,24.645,20.355,16.863
1932,18.929,17.907,24.444,29.383,33.339,34.562,29.318,27.084,27.435,26.19,19.963,16.793
1933,14.729,19.215,24.755,28.377,30.976,32.286,28.399,26.69,26.126,24.839,20.388,16.519
1934,14.745,19.582,23.344,29.783,33.222,32.6,28.064,26.731,26.474,24.142,19.848,16.932
1935,14.248,18.763,24.221,27.061,33.965,34.304,28.203,26.62,26.806,24.954,21.271,16.446
1936,14.389,18.575,24.078,29.217,35.135,31.459,28.043,26.836,26.764,25.472,20.755,16.241
1937,15.142,19.182,22.778,28.468,33.669,33.963,28.279,27.717,27.414,25.284,21.552,15.639
1938,15.917,17.192,26.119,30.87,35.305,30.237,28.457,27.6,28.596,26.391,19.872,16.589
1939,17.359,18.864,22.268,28.786,34.39,32.214,28.194,28.572,26.961,26.668,20.714,16.495
1940,16.135,18.302,22.953,28.787,34.214,33.749,29.294,26.669,27.087,25.947,21.702,16.249
1941,15.524,19.251,26.394,31.757,34.797,33.305,30.012,27.959,28.341,28.395,21.796,18.447
1942,14.586,19.362,25.84,31.564,34.757,34.945,27.472,26.606,26.52,25.808,21.441,15.868
1943,16.755,18.351,25.382,28.922,34.345,32.731,28.272,26.145,27.266,25.339,22.768,17.309
1944,15.493,18.174,22.991,29.034,34.62,32.276,27.892,27.201,27.347,24.716,21.245,18.039
1945,14.107,18.111,25.38,28.836,33.538,33.896,28.443,27.586,26.676,24.867,20.318,15.266
1946,16.756,20.532,24.366,31.857,34.149,32.515,28.291,26.728,27.385,26.294,19.798,17.185
1947,14.467,19.035,25.515,30.737,34.748,34.237,28.746,27.692,26.56,24.406,21.642,17.285
1948,15.751,17.94,23.787,31.376,35.44,34.194,29.119,27.159,26.859,26.455,19.993,16.692
1949,17.908,19.351,25.361,31.471,35.147,33.853,28.762,27.403,27.397,25.659,19.812,16.263
1950,17.264,17.532,23.395,29.095,34.429,34.236,28.591,26.805,26.95,25.366,19.884,15.718
1951,15.067,18.414,24.393,28.168,33.791,33.577,30.43,27.207,27.498,28.762,22.614,16.74
1952,17.658,20.871,24.491,31.608,35.554,32.679,28.274,26.311,27.99,26.591,21.16,17.617
1953,14.85,20.613,27.85,31.467,35.037,34.767,29.069,27.182,27.436,25.929,20.736,18.987
1954,15.01,20.327,24.852,31.101,35.682,34.394,29.347,27.363,26.315,23.978,21.381,16.894
1955,16.055,19.495,26.596,28.587,33.726,33.676,29.05,27.059,27.143,24.188,19.878,17.104
1956,16.173,18.76,25.189,30.749,35.026,32.058,27.138,26.447,27.196,24.652,19.29,17.274
1957,15.517,17.384,22.627,29.113,32.784,33.169,28.387,27.721,26.186,25.961,22.493,17.791
1958,18.33,19.501,25.671,31.983,34.51,34.783,28.11,27.303,26.473,25.054,21.291,18.236
1959,16.22,18.488,26.026,30.464,33.5,33.693,28.112,26.84,26.909,26.226,21.223,18.032
1960,15.4,21.484,24.367,29.888,34.606,34.656,28.944,26.216,27.589,25.091,20.304,17.833
1961,15.627,17.007,25.312,29.817,33.971,32.684,28.2,26.64,26.556,24.416,20.147,15.093
1962,14.779,18.979,24.073,30.299,33.462,33.435,29.158,26.694,25.922,23.873,20.922,17.825
1963,15.358,20.586,24.036,28.364,32.577,32.125,28.784,26.097,26.22,26.314,23.262,17.279
1964,15.226,19.264,26.782,31.814,32.983,32.658,28.513,27.54,26.738,26.307,20.48,17.631
1965,17.725,19.235,24.176,29.036,33.314,34.562,29.341,28.192,26.987,26.718,22.273,16.974
1966,17.001,21.648,24.728,30.116,33.601,31.922,30.624,26.748,27.999,27.473,22.484,16.617
1967,15.601,21.319,23.152,29.11,34.211,33.132,28.526,26.141,25.898,26.688,21.924,17.655
1968,15.523,17.962,25.339,29.12,32.453,32.87,27.962,26.771,28.113,25.815,22.002,17.69
1969,16.339,19.968,26.751,29.812,32.786,33.489,28.346,26.512,26.528,28.357,23.006,17.713
1970,16.847,18.589,24.82,32.112,34.731,32.055,29.597,27.158,26.672,26,20.673,17.434
1971,15.906,19.452,24.256,30.122,32.247,29.886,25.866,26.011,26.713,25.459,20.403,16.611
1972,16.234,17.219,25.306,29.396,34.487,34.072,30.23,26.32,26.37,25.666,21.732,17.624
1973,16.249,20.111,23.889,32.224,34.872,33.885,28.333,26.922,26.88,25.229,20.74,16.683
1974,15.506,18.063,26.016,31.248,33.375,33.152,27.586,26.683,28.418,26.433,20.445,16.18
1975,14.837,18.173,24.059,30.926,34.806,31.967,27.855,26.753,26.313,25.806,19.35,17.28
1976,16.773,19.629,24.735,29.492,34.097,31.066,28.707,26.586,26.558,26.45,22.821,17.668
1977,15.998,19.119,26.686,29.408,32.055,31.954,26.144,26.781,26.069,26.672,22.759,18.212
1978,15.763,18.264,23.164,30.017,35.802,32.321,26.764,25.279,26.377,26.421,22.848,17.023
1979,17.481,17.927,22.981,29.67,30.872,32.091,27.064,27.441,28.616,26.654,23.907,18.091
1980,16.801,20.652,24.72,31.247,33.044,30.755,26.985,25.523,28.346,27.506,22.334,17.287
1981,16.394,20.415,24.264,30.234,33.163,34.061,26.809,26.793,27.765,26.67,20.993,16.725
1982,17.086,17.311,22.907,29.356,31.41,33.804,30.234,26.527,27.517,27.627,21.83,18.286
1983,15.621,18.116,24.005,28.138,32.531,33.094,28.685,27.477,27.12,25.303,19.114,16.876
1984,15.948,17.014,26.256,30.971,36.31,33.502,28.779,26.366,25.966,25.657,20.816,17.74
1985,16.454,19.738,26.798,31.368,34.972,33.981,28.846,26.572,26.666,24.15,21.735,18.741
1986,16.026,18.441,24.495,30.698,33.266,32.198,27.123,27.121,28.352,27.095,21.952,16.311
1987,16.718,20.537,25.746,31.053,32.396,34.53,31.04,29.301,28.496,26.891,21.539,16.994
1988,16.809,20.882,25.401,31.715,36.181,33.068,27.771,27.566,28.682,25.947,21.512,18.068
1989,15.203,19.079,24.269,29.778,34.674,31.567,29.339,27.438,28.096,27.015,22.127,17.514
1990,18.439,19.301,23.663,30.961,33.478,32.192,27.349,26.383,26.367,26.178,22.012,17.828
1991,15.95,20.177,25.184,29.587,34.689,34.038,30.409,26.748,27.56,26.115,21.216,17.719
1992,16.71,18.485,25.043,29.983,33.087,35.631,30.13,27.201,26.359,26.161,21.582,18.179
1993,16.341,19.722,23.193,29.745,35.284,33.596,29.086,28.202,26.526,26.728,22.139,17.421
1994,17.961,18.84,26.404,29.374,34.881,32.734,27.523,26.586,26.506,26.106,21.586,17.489
1995,15.06,19.066,23.288,29.623,34.517,35.195,29.604,26.84,27.808,27.514,21.518,17.948
1996,16.372,19.543,25.742,30.099,34.053,33.609,29.102,26.209,27.609,25.754,21.095,15.868
1997,15.622,18.892,25.116,28.383,31.777,31.553,28.708,27.193,27.439,24.727,21.22,14.885
1998,15.625,19.471,22.871,30.375,35.074,33.598,28.929,27.991,28.261,26.867,21.862,17.956
1999,16.235,19.48,25.585,32.095,34.153,32.324,29.137,27.295,26.78,26.109,22.685,17.325
2000,17.307,17.966,24.319,32.175,33.427,31.78,27.936,27.992,27.717,27.693,23.465,18.482
2001,16.207,20.502,25.366,29.899,33.591,30.521,27.701,28.083,28.831,27.526,22.819,18.996
2002,16.606,19.609,25.877,31.94,35.238,33.302,31.037,27.461,27.17,27.228,22.426,19.544
