Year,Jan,Feb,Mar,Apr,May,Jun,Jul,Aug,Sep,Oct,Nov,Dec
1901,47.566,12.73,17.854,3.717,26.663,28.617,301.764,220.314,55.493,0.485,0,6.658
1902,0.28,4.171,11.85,16.031,16.588,56.233,210.417,159.69,102.069,6.468,2.23,0
1903,24.875,7.224,19.183,3.054,12.381,25.597,251.782,174.892,72.275,13.188,0,4.983
1904,27.812,2.075,49.581,5.455,16.291,67.085,141.283,198.338,89.977,3.624,20.934,7.113
1905,76.527,42.87,11.09,5.427,8.501,28.47,124.868,120.831,221.277,3.398,0,15.278
1906,12.312,81.341,15.859,5.19,17.301,65.203,106.544,230.484,240.933,1.355,0,4.151
1907,18.403,50.665,40.404,30.081,7.582,77.325,153.255,195.417,7.577,1.823,0.157,0
1908,41.12,16.968,1.736,12.267,16.033,62.5,172.448,411.171,141.422,0.743,0.572,4.8
1909,31.367,14.698,1.787,41.645,4.566,167.287,345.732,194.292,197.709,0.977,1.862,50.622
1910,30.943,12.051,3.268,16.962,14.219,143.552,222.636,209.583,78.878,2.743,1.172,5.187
1911,68.195,4.006,67.587,9.892,6.152,79.689,86.084,177.309,119.596,4.555,38.833,0.997
1912,46.214,12.036,11.101,22.921,15.733,44.206,130.017,216.891,87.027,0.443,21.855,8.333
1913,11.392,40.764,30.095,8.206,47.966,117.065,172.948,213.275,26.802,1.807,5.867,19.346
1914,18.395,45.028,28.124,19.836,18.755,62.36,306.431,158.813,270.038,22.088,14.006,10.286
1915,8.62,64.327,26.453,9.877,8.946,63.252,95.857,277.9,100.681,18.159,0,5.289
1916,1.799,11.846,2.251,6.815,17.93,101.953,402.648,177.19,110.659,11.702,0.299,0
1917,7.466,17.46,19.912,28.473,34.234,142.353,178.625,320.239,245.097,24.257,0,8.049
1918,3.656,1.582,26.6,30.572,3.929,83.3,67.223,122.058,29.299,0.741,18.522,8.23
1919,71.499,18.201,14.876,19.438,16.237,33.476,250.428,161.634,73.173,3.967,2.399,10.198
1920,22.363,19.558,22.074,6.598,20.929,87.09,129.197,132.809,52.51,0.973,0,0.643
1921,26.086,2.193,2.609,3.013,9.837,67.174,232.76,246.034,103.526,16.009,0,11.219
1922,28.051,20.862,5.356,5.685,7.658,59.552,180.506,222.059,297.077,5.235,3.521,43.005
1923,28.822,52.27,4.336,16.444,18.72,13.083,233.14,223.868,85.477,17.253,14.149,27.443
1924,38.936,46.528,9.052,4.045,22.895,13.184,258.523,125.773,230.472,15.804,1.768,45.306
1925,18.448,2.583,4.996,5.58,20.087,189.745,263.811,246.272,36.952,2.748,20.533,0
1926,15.298,6.399,45.715,18.948,15.304,17.823,191.579,295.617,68.507,1.547,8.354,9.752
1927,1.676,29.452,10.236,7.816,26.288,32.633,128.135,283.567,55.084,21.79,0.063,24.006
1928,28.999,44.175,10.473,18.539,4.68,45.456,184.803,137.584,160.863,0.257,19.034,21.43
1929,37.21,3.102,5.632,9.682,5.468,150.308,155.295,319.967,26.475,8.644,0,54.144
1930,27.992,12.136,6.347,19.494,8.764,44.263,265.397,139.532,42.394,6.783,10.035,9.978
1931,27.216,39.127,16.36,8.468,18.64,18.16,331.092,225.609,187.366,29.393,1.172,0
1932,17.195,4.916,16.172,6.006,8.638,52.095,146.906,136.888,115.775,1.589,0.572,28.764
1933,14.866,25.36,12.557,16.311,17.946,76.373,200.84,306.29,142.038,22.036,7.107,0.676
1934,22.015,5.532,16.485,1.446,6.605,55.053,189.572,282.481,29.857,0,0,17.3
1935,68.312,47.644,9.581,18.895,7.86,5.799,135.029,128.536,73.396,0.562,16.808,10.855
1936,5.949,38.71,28.199,17.023,13.527,273.149,382.714,217.626,104.375,12.025,2.92,35.971
1937,5.017,82.912,6.17,28.532,13.241,50.113,303.095,78.807,106.626,8.327,0.976,20.179
1938,52.541,28.444,2.048,5.389,1.888,191.562,162.15,166.363,24.438,8.117,1.253,1.268
1939,16.776,46.336,22.699,10.591,6.168,71.628,145.08,95.924,64.11,8.432,0,0
1940,42.775,48.209,22.008,10.282,9.807,99.577,125.309,177.003,65.636,1.214,0.586,7.837
1941,30.593,13.953,6.149,4.42,24.237,70.633,113.522,98.42,173.037,1.483,1.911,14.352
1942,40.412,41.007,12.218,23.352,19.673,70.93,291.605,199.203,92.311,2.154,0.968,28.931
1943,28.826,3.744,9.242,18.715,6.768,111.848,110.337,181.224,64.334,0,0,0
1944,34.516,35.104,19.924,21.532,1.898,93.904,153.743,165.013,91.462,1.101,2.745,8.809
1945,31.92,1.096,15.873,36.327,9.404,76.924,279.255,134.669,209.834,14.91,0.157,2.147
1946,1.866,16.112,8.704,15.895,26.666,85.695,196.806,160.097,27.698,16.184,11.699,13.043
1947,18.241,22.689,19.403,1.334,7.418,23.993,139.013,262.727,111.051,10.85,1.253,12.11
1948,5.514,38.961,45.628,10.245,8.868,70.11,284.333,288.348,83.212,5.766,3.472,14.346
1949,8.681,47.693,15.23,12.32,11.451,36.053,371.029,133.301,127.123,7.837,0.825,1.945
1950,75.277,26.386,39.976,4.346,12.733,71.113,335.049,219.072,291.475,0.559,0.659,1.075
1951,28.282,21.255,25.99,17.581,18.921,58.276,141.013,169.789,73.081,4.86,23.34,1.45
1952,18.664,19.304,29.617,7.298,18.828,68.924,139.82,145.611,14.157,1.186,9.412,5.42
1953,47.841,8.436,8.634,10.231,4.471,53.53,324.919,223.096,152.937,3.24,2.532,8.266
1954,33.229,67.457,6.515,1.47,9.734,44.921,259.829,117.369,308.55,14.515,0,1.774
1955,28.937,2.816,28.087,15.292,15.496,49.931,172.931,185.722,241.445,31.536,0,3.687
1956,23.505,11.523,24.033,9.053,22.445,132.377,210.368,195.022,29.989,35.375,0,5.883
1957,82.701,4.915,28.327,29.544,13.266,44.956,147.845,312.283,97.474,10.345,12.663,25.273
1958,13.343,7.971,11.34,8.939,5.085,58.684,176.438,211.96,243.568,24.245,2.348,32.136
1959,35.407,18.367,16.24,6.502,30.888,17.277,373.025,228.081,72.34,16.421,29.646,0.521
1960,27.817,1.906,25.843,12.376,7.744,52.827,186.397,159.393,94.805,17.344,0,7.221
1961,91.919,38.334,8.024,14.929,10.582,38.783,289.335,191.374,152.845,22.784,1.535,17.94
1962,43.17,29.373,22.661,2.544,12.242,28.132,188.134,167.444,231.049,0.118,11.877,14.107
1963,4.787,23.143,44.365,9.038,25.631,34.901,133.15,144.327,122.411,2.234,7.144,19.114
1964,26.03,6.717,12.605,10.442,20.618,59.385,351.221,173.201,112.426,0,2.457,10.668
1965,11.673,34.922,20.525,35.459,15.864,9.218,188.027,162.453,11.441,12.393,8.878,0
1966,4.305,54.062,21.291,11.79,23.348,118.122,191.156,216.064,191.766,16.243,13.277,1.798
1967,0.44,21.346,50.651,6.199,3.548,19.399,143.808,375.652,52.517,4.036,3.061,46.705
1968,41.526,35.759,12.641,5.523,5.877,42.114,170.978,211.646,20.062,12.273,0,9.01
1969,13.203,12.469,25.151,34.614,24.735,24.516,248.154,181.344,205.493,2.786,0.739,0
1970,28.237,20.698,10.644,0.628,18.326,67.588,85.654,227.611,63.056,5.631,0,0.123
1971,8.619,19.502,9.032,20.399,49.108,102.175,224.836,308.454,84.142,19.989,6.767,0.044
1972,14.378,22.349,7.495,8.718,3.995,25.678,157.735,161.583,229.574,18.087,12.916,9.073
1973,22.125,18.431,14.661,1.074,16.826,89.667,180.47,291.066,100.571,13.02,0,14.199
1974,13.19,15.02,3.284,1.379,18.398,42.672,217.6,110.517,27.724,1.705,0,13.095
1975,40.312,29.402,28.207,3.199,1.886,128.721,259.476,203.605,217.812,4.467,0,0
1976,14.862,38.854,14.767,13.373,14.659,144.306,202.651,537.433,146.167,12.493,0,0.269
1977,38.954,2.531,1.728,38.27,44.438,151.577,237.537,162.996,78.802,21.456,0.775,11.083
1978,6.779,10.637,59.607,10.871,1.093,101.11,306.064,384.425,203.336,1.073,10.208,2.922
1979,17.593,50.838,35.299,7.461,26.605,50.074,187.503,106.208,100.426,6.895,13.159,2.634
1980,14.947,19.514,26.418,6.144,8.354,135.223,502.093,332.067,136.037,9.541,8.057,10.015
1981,86.743,21.154,44.536,5.845,11.969,22.439,435.975,122.192,21.652,7.099,41.906,0.994
1982,30.372,18.763,88.973,19.979,38.102,18.382,84.104,257.432,15.356,1.88,20.592,22.299
1983,56.854,25.23,42.605,43.266,60.891,81.151,208.753,242.57,130.871,22.711,0,4.187
1984,3.752,71.091,8.932,18.78,0.648,49.554,410.163,244.983,149.516,0.269,0,19.23
1985,17.927,1.701,7.626,25.202,21.607,94.84,347.328,219.539,135.986,25.612,1.55,26.696
1986,4.279,40.121,16.374,15.135,33.353,88.362,301.916,222.673,145.376,8.526,5.088,35.538
1987,34.441,27.285,17.028,10.066,26.41,56.193,89.228,129.483,18.129,13.058,0,10.612
1988,7.905,19.264,44.661,12.474,4.765,70.478,335.654,210.831,152.444,19.356,0.37,26.566
1989,57.873,8.927,18.217,2.645,9.911,52.133,272.129,155.542,71.988,1.145,8.478,4.556
1990,4.231,72.001,54.983,12.441,32.985,34.801,243.758,264.675,224.491,4.499,14.092,42.023
1991,1.862,26.537,15.34,39.164,25.323,112.61,42.961,210.735,77.674,2.617,5.107,9.761
1992,41.529,47.43,17.211,9.931,32.802,41.698,154.155,223.644,106.12,4.934,30.613,1.602
1993,15.695,18.906,18.576,18.29,18.177,87.791,199.023,51.861,181.645,0,0,0
1994,20.421,11.3,12.552,7.391,50.126,45.716,214.815,168.961,132.356,2.016,0,6.362
1995,38.935,89.665,33.437,7.248,1.016,86.586,186.791,340.772,145.468,2.297,20.366,1.197
1996,46.588,40.749,22.202,9.659,26.566,209.435,153.034,338.924,90.582,10.826,0,1.841
1997,24.656,11.468,17.207,46.506,23.134,151.238,235.448,279.764,72.806,21.933,19.326,5.255
1998,31.293,37.963,40.554,26.351,21.916,16.34,235.19,191.857,85.086,20.346,4.115,1.847
1999,14.522,11.506,7.198,5.206,16.887,84.019,99.077,155.264,101.64,5.372,1.638,4.677
2000,19.16,35.704,9.048,2.986,17.67,101.817,224.145,149.678,59.899,0,3.112,0.7
2001,8.693,9.721,12.271,13.718,29.643,75.751,276.862,60.365,52.907,0.81,1.716,2.225
2002,17.679,34.148,31.664,7.732,12.826,60.514,99.425,143.928,192.912,0.979,0,3.77
