Year,Jan,Feb,Mar,Apr,May,Jun,Jul,Aug,Sep,Oct,Nov,Dec
1901,19.36,21.981,24.981,28.299,28.005,27.736,27.333,27.335,27.773,27.39,23.859,20.643
1902,19.91,21.736,25.821,26.75,27.853,27.391,27.241,27.275,27.765,26.36,23.217,20.246
1903,19.072,20.642,25.133,28.459,28.411,27.539,27.64,26.386,27.373,27.342,23.843,20.744
1904,19.3,21.828,26.001,27.109,27.653,27.477,26.94,27.081,27.863,26.698,23.56,19.893
1905,19.097,19.284,24.132,25.945,27.909,27.737,27.383,27.081,27.972,27.091,23.949,20.941
1906,19.795,21.391,24.133,28.022,28.804,27.628,27.736,26.632,28.46,26.591,23.859,20.791
1907,20.831,20.796,24.591,26.662,27.702,27.238,27.041,27.234,27.67,26.989,23.857,20.282
1908,19.67,21.096,25.528,28.754,27.897,27.479,27.027,27.184,27.874,26.743,23.391,20.529
1909,19.871,21.438,25.889,26.849,27.868,26.901,27.812,26.574,28.215,27.478,24.493,20.489
1910,19.496,20.838,24.482,26.34,27.905,27.132,26.691,26.883,27.768,26.49,23.801,19.289
1911,19.495,20.83,24.434,26.457,27.256,27.152,26.945,26.996,27.579,26.89,23.819,19.689
1912,19.568,21.851,25.435,26.515,27.846,27.399,27.142,26.793,27.332,26.395,23.743,20.226
1913,20.438,22.96,24.84,27.781,27.473,27.035,27.428,26.684,27.477,26.299,23.2,19.391
1914,19.251,21.603,25.176,26.353,27.254,26.93,27.192,26.441,27.574,25.661,23.662,20.591
1915,20.741,21.396,25.127,27.492,27.214,27.286,26.402,27.183,27.473,27.891,24.952,21.177
1916,19.152,21.571,25.375,26.616,28.315,27.283,27.041,26.725,27.473,26.591,24.168,19.934
1917,19.195,20.938,23.915,26.312,26.903,26.783,26.841,26.684,27.072,26.691,24.011,19.499
1918,19.346,21.137,24.928,26.444,27.391,25.892,27.346,26.682,27.773,26.89,23.559,20.182
1919,20.698,21.132,26.019,27.105,28.262,27.431,26.841,27.084,26.835,26.65,23.859,20.098
1920,20.346,21.238,24.841,26.75,27.909,27.237,27.276,26.784,27.572,26.691,23.461,20.29
1921,21.279,21.084,25.177,27.16,27.951,26.805,26.982,26.725,27.373,25.589,23.105,20.402
1922,20.747,21.82,25.637,27.707,28.605,27.217,26.94,26.883,27.326,26.087,23.396,20.433
1923,20.876,21.346,24.906,27.507,27.517,27.592,26.684,26.634,27.572,25.995,23.859,20.633
1924,20.25,21.337,26.488,28.095,27.416,27.435,27.041,26.784,26.972,26.94,23.956,19.833
1925,18.274,20.434,25.172,27.153,27.455,27.053,26.541,26.883,27.23,25.595,23.062,19.733
1926,19.99,21.337,24.746,26.6,27.905,26.739,26.841,26.679,27.459,26.432,22.756,20.986
1927,19.264,20.838,23.482,26.956,27.311,27.299,27.042,26.78,27.239,26.482,23.261,20.541
1928,20.696,21.981,25.225,27.539,27.36,26.682,26.841,27.084,27.773,26.596,23.32,20.88
1929,20.268,20.734,24.986,27.151,28.125,26.841,26.838,26.883,27.473,26.492,23.261,20.197
1930,18.466,21.578,24.881,27.096,27.791,26.498,26.982,26.786,28.116,26.458,23.992,20.586
1931,19.227,21.719,24.969,28.71,27.112,26.964,26.796,27.441,27.473,26.838,22.933,21.186
1932,19.727,20.691,25.195,27.704,27.893,26.995,26.94,26.8,27.427,27.3,24.356,20.99
1933,19.184,21.821,25.89,27.539,27.466,27.428,27.335,26.536,27.522,26.932,23.356,20.088
1934,19.787,20.946,25.82,28.145,28.335,26.679,26.923,26.831,27.616,26.594,22.555,20.081
1935,19.157,21.819,25.57,27.043,29.717,27.34,27.085,26.476,27.434,26.841,23.698,20.179
1936,18.665,21.179,25.67,27.535,27.535,26.829,26.975,26.968,27.124,26.25,24.257,20.85
1937,18.163,21.358,24.645,27.963,27.685,27.279,27.194,26.683,27.42,26.677,23.119,20.43
1938,20.606,20.825,27.094,28.698,26.481,27.336,26.85,26.952,27.213,26.582,22.807,20.68
1939,19.526,22.242,25.143,28.727,27.795,27.237,26.695,27.127,27.168,26.847,24.257,21.099
1940,18.723,21.173,23.315,29.077,27.566,27.279,26.684,26.971,26.972,26.932,24.275,20.827
1941,19.516,21.804,26.823,27.731,27.36,26.73,26.9,27.38,27.02,26.295,22.857,21.643
1942,19.675,21.847,26.087,27.351,27.846,27.389,26.982,26.52,26.618,27.2,24.023,20.246
1943,19.977,19.883,24.256,26.16,28.355,26.836,26.684,26.184,27.268,26.894,24.089,21.102
1944,18.935,20.649,24.942,26.192,28.316,26.787,26.795,26.787,27.177,26.597,23.307,20.641
1945,19.47,20.789,25.476,27.29,27.703,27.883,27.232,26.78,28.217,26.194,23.545,20.643
1946,19.745,23.027,25.889,26.249,27.447,27.289,27.194,27.225,27.773,26.231,24.363,21.637
1947,19.907,21.84,26.078,28.117,28.164,27.73,26.936,27.144,27.37,25.984,23.61,21.635
1948,20.043,21.851,24.755,26.46,27.027,27.456,26.894,27.389,27.514,26.391,24.707,20.641
1949,19.81,21.379,24.799,25.049,26.542,27.042,26.741,26.64,27.281,27.39,23.66,19.283
1950,19.573,20.979,24.88,27.324,28.514,27.241,26.942,26.536,27.928,26.995,23.45,20.441
1951,19.169,21.228,24.564,28.61,27.595,26.742,27.188,27.435,28.02,27.16,24.261,22.313
1952,20.374,22.893,24.292,26.927,27.908,27.982,27.343,27.232,27.565,27.53,24.257,20.44
1953,19.11,22.132,26.365,28.246,27.505,27.578,26.687,27.169,27.411,26.848,23.812,21.795
1954,18.721,23.632,25.73,28.355,28.314,26.744,27.198,27.088,27.975,26.297,22.416,20.82
1955,19.57,21.324,25.663,26.898,27.964,27.441,26.283,26.679,27.689,27.588,24.561,20.093
1956,19.673,21.142,26.145,27.853,27.483,26.847,26.892,27.084,27.066,27.201,23.92,20.797
1957,20.003,20.678,24.289,28.346,29.069,27.583,27.147,27.084,27.321,26.108,23.317,20.93
1958,18.453,21.445,24.446,28.143,27.801,28.227,27.124,26.392,27.721,26.772,22.737,21.244
1959,19.749,20.791,24.836,26.704,27.311,26.444,27.007,26.225,26.825,26.496,22.864,20.826
1960,19.343,20.51,24.578,28.214,28.719,27.531,26.029,27.326,27.266,26.29,23.803,19.414
1961,18.945,20.789,25.347,27.655,28.569,26.733,26.885,27.093,27.612,26.944,22.979,18.832
1962,18.04,21.192,25.6,28.103,28.118,26.835,27.64,26.776,27.996,26.355,23.283,20.372
1963,19.597,23.234,25.662,26.327,26.774,26.352,26.552,27.282,28.164,26.598,23.522,20.842
1964,19.561,21.903,26.6,26.47,27.42,27.304,26.349,27.093,27.77,27.17,24.787,20.999
1965,19.668,20.96,24.346,27.667,28.566,26.944,26.396,25.995,27.48,26.736,24.187,21.415
1966,20.07,22.855,25.72,28.472,28.847,26.397,27.428,26.848,27.567,26.139,25.004,20.539
1967,20.306,22.533,24.937,27.129,28.493,28.467,27.48,27.66,27.522,26.73,22.992,20.735
1968,19.717,21.177,25.933,27.388,27.464,26.571,27.142,27.415,27.886,27.034,24.168,20.785
1969,19.594,22.056,26.125,28.017,27.885,26.788,27.873,26.618,28.042,27.067,24.135,20.833
1970,19.07,21.832,25.636,28.003,28.721,27.885,26.647,27.084,27.194,26.647,23.795,21.077
1971,19.919,21.522,25.899,25.775,27.632,26.787,26.39,25.932,27.65,27.08,23.588,21.062
1972,20.389,20.61,25.536,27.705,29.104,27.765,27.636,26.723,28.464,27.239,24.891,20.894
1973,20.448,22.593,25.236,28.58,26.93,27.282,27.562,26.728,27.461,27.007,24.006,20.08
1974,19.536,21.307,24.79,26.962,27.464,27.022,25.636,26.78,26.807,27.239,25.16,19.628
1975,19.448,21.56,26.042,27.738,27.851,27.77,26.097,27.183,26.927,27.4,23.152,19.929
1976,19.594,22.786,26.128,27.547,27.451,25.439,26.285,26.57,27.399,26.485,24.669,20.04
1977,18.824,20.628,25.804,24.409,26.049,26.6,26.757,26.999,27.68,26.281,24.592,20.93
1978,18.746,22.957,25.068,27.505,26.922,26.957,26.942,27.63,27.013,27.791,24.786,21.156
1979,20.416,22.129,26.034,28.501,30.07,27.962,27.692,27.084,27.364,27.134,25.882,21.773
1980,20.244,21.637,25.391,28.913,26.71,27.58,27.917,27.367,27.686,26.382,24.954,21.704
1981,19.896,21.637,24.436,25.642,27.431,27.776,27.655,27.477,27.616,27.153,24.861,20.946
1982,20.629,21.934,25.412,26.795,29.15,27.228,27.48,27.176,27.585,27.306,23.839,20.673
1983,20.484,21.207,24.895,27.024,27.322,28.085,27.322,27.126,28.274,27.248,24.327,20.29
1984,18.643,20.706,24.84,27.108,26.461,26.301,27.24,27.135,26.97,26.502,24.102,22.248
1985,20.341,21.859,25.733,27.37,27.501,26.671,26.69,27.122,27.559,27.725,23.671,22.295
1986,19.828,22.155,26.125,26.742,27.496,27.773,26.84,27.626,27.317,26.421,23.393,21.093
1987,19.747,21.508,24.463,26.214,28.363,28.249,27.384,27.293,27.556,26.263,24.581,20.859
1988,21.013,22.573,26.099,28.341,27.963,27.237,27.3,27.34,27.782,27.242,25.111,22.502
1989,18.658,22.291,25.708,28.411,28.637,27.884,27.358,27.775,27.67,26.785,23.549,20.791
1990,20.893,22.144,24.651,26.353,28.414,28.179,26.776,27.631,27.724,27.042,26.102,21.447
1991,19.163,22.645,26.789,27.801,26.947,26.694,27.434,27.47,27.823,27.533,23.157,20.639
1992,19.253,20.206,26.316,28.503,27.588,28.036,27.291,27.565,27.472,26.894,24.466,19.857
1993,19.472,21.817,24.287,25.998,27.006,26.639,27.603,27.001,27.43,27.687,24.599,21.932
1994,20.716,21.493,25.54,27.412,28.446,27.498,27.54,27.388,28.669,26.71,24.706,21.087
1995,20.012,22.026,26.083,28.552,28.954,27.661,27.456,27.481,27.937,27.734,25.344,20.942
1996,20.066,22.138,25.39,27.827,27.821,27.596,27.407,26.77,28.272,27.137,25.062,22.789
1997,19.69,21.021,25.173,26.011,28.299,27.948,26.758,27.492,27.531,26.5,25.255,21.586
1998,19.802,21.832,23.779,27.45,28.565,28.64,27.749,27.282,28.032,28.188,25.351,22.085
1999,21.063,24.498,26.37,28.954,27.799,27.778,27.742,27.084,27.518,27.872,24.847,21.426
2000,18.997,21.431,24.27,27.484,27.293,27.12,28.08,26.678,27.015,26.828,24.275,21.198
2001,20.245,22.737,25.624,28.306,27.893,27.419,27.616,27.576,28.716,27.393,24.413,21.443
2002,20.403,22.942,26.079,27.444,27.906,27.237,27.67,27.084,27.422,26.982,24.405,21.941
