Year,Jan,Feb,Mar,Apr,May,Jun,Jul,Aug,Sep,Oct,Nov,Dec
1901,19.019,21.374,23.811,27.518,27.3,26.722,26.355,26.339,26.737,26.654,23.344,20.147
1902,19.464,21.083,24.522,26.144,27.116,26.528,26.274,26.219,26.718,25.619,22.621,19.783
1903,18.682,19.903,24.137,27.7,27.736,26.782,26.637,25.375,26.339,26.464,23.099,20.283
1904,18.775,21.138,24.704,26.263,27.052,26.419,25.974,26.037,26.836,25.974,22.884,19.293
1905,18.609,18.746,23.138,25.252,27.252,26.865,26.393,26.039,26.937,26.283,23.281,20.538
1906,19.491,20.737,23.137,27.146,28.065,26.675,26.773,25.655,27.4,25.785,23.145,20.211
1907,20.273,20.119,23.62,26.026,26.909,26.259,26.075,26.157,26.637,26.182,23.216,19.558
1908,19.216,20.349,24.241,27.738,27.145,26.557,26.037,26.101,26.835,25.984,22.646,19.893
1909,19.482,20.701,24.45,26.1,26.903,25.959,26.754,25.538,27.12,26.645,23.711,19.838
1910,19.065,20.03,23.311,25.943,27.163,26.184,25.755,25.91,26.665,25.682,23.1,18.71
1911,19.103,20.011,23.311,25.862,26.41,26.221,26.012,26.037,26.626,26.083,23.289,19.235
1912,19.11,21.139,24.385,26.106,27.01,26.548,26.174,25.736,26.32,25.618,22.93,19.594
1913,19.927,22.066,23.467,26.748,26.729,26.163,26.356,25.637,26.473,25.501,22.5,18.85
1914,18.693,20.849,24.137,25.744,26.429,25.976,26.193,25.42,26.537,24.955,23.018,20.011
1915,20.227,20.701,24.191,26.628,26.32,26.375,25.492,26.138,26.436,27.01,24.147,20.612
1916,18.628,20.73,23.986,25.783,27.581,26.221,26.075,25.691,26.436,25.784,23.619,19.239
1917,18.729,20.202,22.64,25.409,26.092,25.802,25.874,25.637,26.037,25.812,23.263,18.913
1918,18.881,20.474,23.675,25.581,26.509,24.992,26.445,25.637,26.737,26.083,22.99,19.665
1919,20.264,20.402,24.649,26.262,27.634,26.402,25.874,26.035,25.855,25.829,23.145,19.565
1920,19.846,20.502,23.658,25.999,27.182,26.294,26.274,25.808,26.537,25.883,22.891,19.711
1921,20.78,20.301,23.94,26.4,27.056,25.859,25.973,25.656,26.338,24.819,22.38,19.811
1922,20.282,21.011,24.229,26.547,27.936,26.113,25.903,25.765,26.373,25.282,22.648,19.739
1923,20.381,20.656,23.692,26.628,26.656,26.694,25.673,25.556,26.537,25.218,23.181,20.03
1924,19.818,20.567,24.958,27.299,26.555,26.42,26.002,25.736,25.937,26.102,23.299,19.139
1925,17.957,19.629,24.011,26.543,26.537,26.2,25.573,25.837,26.238,24.854,22.418,19.039
1926,19.582,20.603,23.647,25.674,27.199,25.757,25.874,25.601,26.401,25.6,22.102,20.41
1927,18.867,20.1,22.313,25.831,26.508,26.34,26.037,25.7,26.238,25.663,22.619,19.93
1928,20.319,21.13,23.904,26.77,26.664,25.587,25.837,26.037,26.702,25.73,22.666,20.381
1929,19.936,19.966,23.794,26.4,27.554,25.642,25.801,25.836,26.436,25.646,22.618,19.666
1930,18.207,20.784,23.711,26.298,26.891,25.468,25.957,25.735,26.965,25.792,23.371,20.065
1931,19.742,21.13,24.177,27.704,26.554,26.238,25.982,26.508,26.436,25.812,22.209,20.612
1932,19.616,19.945,24.384,26.774,27.735,26.237,25.974,25.827,26.339,26.411,23.755,20.412
1933,18.873,21.101,24.763,26.537,26.801,26.229,26.284,25.437,26.436,26.083,22.82,19.583
1934,19.283,20.257,24.468,27.068,27.616,25.793,25.902,25.837,26.536,25.682,22.045,19.284
1935,18.414,21.101,24.241,26.076,28.873,26.322,26.073,25.347,26.339,26.019,23.108,19.909
1936,18.462,20.412,24.51,26.718,26.783,25.738,25.902,25.837,26.036,25.383,23.619,20.51
1937,17.929,21.17,23.623,27.258,26.622,26.293,26.193,25.691,26.357,25.847,22.771,19.919
1938,20.236,20.155,25.496,27.915,25.476,26.286,25.802,25.799,26.101,25.646,22.343,19.994
1939,18.974,21.396,24.224,27.656,26.964,26.22,25.532,26.035,25.964,26.153,23.618,20.439
1940,18.068,20.313,22.077,27.824,26.864,26.149,25.601,25.8,25.937,26.048,23.548,20.137
1941,19.154,20.92,25.449,26.846,26.627,25.72,25.928,26.302,25.937,25.501,22.273,21.147
1942,19.622,21.228,24.804,26.337,26.866,25.946,25.605,25.276,25.734,26.454,23.777,20.07
1943,19.923,19.227,23.579,25.597,27.592,25.748,25.602,25.137,26.416,26.083,23.777,20.584
1944,19.121,20.828,24.332,25.579,27.439,26.214,25.702,25.97,26.542,26.204,22.774,20.399
1945,19.189,20.371,24.528,26.769,26.765,26.641,26.204,25.665,27.271,25.454,22.603,20.272
1946,19.12,22.131,24.836,25.813,26.683,26.357,26.275,26.157,26.737,25.437,23.719,21.163
1947,19.591,21.101,24.874,27.262,27.5,26.683,25.937,26.164,26.166,25.381,23.116,21.361
1948,19.492,21.14,23.85,25.876,25.997,26.313,25.974,26.408,26.455,25.582,23.982,20.274
1949,19.292,20.622,23.17,24.371,25.637,26.163,25.845,25.638,26.257,26.582,23.108,18.766
1950,18.867,20.256,23.872,26.321,27.621,26.294,25.974,25.538,27.008,26.479,22.979,19.721
1951,18.379,20.157,23.72,26.58,26.815,25.811,26.31,26.357,27.073,26.544,23.691,21.091
1952,19.682,22.173,23.282,25.968,27.148,26.885,26.374,26.066,26.536,26.61,23.618,19.811
1953,18.668,21.301,24.896,27.33,26.551,26.694,25.728,26.035,26.408,26.073,23.208,21.111
1954,18.266,22.628,24.593,27.832,27.387,25.929,26.346,26.037,26.846,25.609,21.918,20.354
1955,19.269,20.603,24.581,26.283,27.368,26.366,25.346,25.674,26.726,26.711,23.846,19.383
1956,19.156,20.475,24.939,27.082,26.236,26.136,25.875,26.037,26.037,26.328,23.27,20.371
1957,19.474,20.135,23.791,27.359,28.09,26.675,26.012,26.038,26.24,25.356,22.721,20.393
1958,18.012,20.648,23.204,27.392,27.156,27.068,25.983,25.411,26.601,25.976,21.925,20.448
1959,19.173,20.245,23.872,26.021,26.714,25.326,25.884,25.001,25.837,25.611,22.345,20.534
1960,18.831,19.561,23.465,27.426,27.902,26.486,25.012,26.076,26.204,25.439,23.236,18.726
1961,18.543,20.4,24.238,26.802,27.775,25.625,25.701,25.893,26.393,26.102,22.446,18.374
1962,17.538,20.315,24.458,27.316,27.535,25.822,26.638,25.818,26.937,25.537,22.672,19.811
1963,19.109,22.391,24.458,25.4,25.984,25.312,25.504,26.274,27.101,25.854,22.99,20.381
1964,19.163,21.203,25.241,25.845,26.63,26.411,25.445,25.894,26.827,26.139,24.136,20.215
1965,19.244,20.274,23.177,26.879,27.861,25.903,25.428,25.027,26.436,25.863,23.616,20.938
1966,19.69,22.083,24.511,27.767,28.092,25.421,26.418,25.908,26.536,25.455,24.384,20.21
1967,19.902,21.708,23.812,26.398,27.707,27.543,26.518,26.527,26.462,25.929,22.453,20.112
1968,19.243,20.481,24.701,26.488,26.709,25.52,26.174,26.345,26.971,26.262,23.618,20.42
1969,19.198,21.348,24.766,27.26,27.08,26.013,26.881,25.637,27.016,26.264,23.618,20.383
1970,18.556,21.101,24.402,27.178,27.862,26.828,25.674,26.073,26.193,25.901,23.047,20.611
1971,19.493,20.9,24.735,24.9,26.726,25.719,25.301,24.837,26.53,26.213,22.857,20.612
1972,19.972,19.956,24.373,26.996,28.462,26.714,26.565,25.567,27.607,26.481,24.285,20.438
1973,20.096,21.937,24.165,27.814,26.058,26.304,26.502,25.567,26.295,26.147,23.213,19.493
1974,19.004,20.531,23.407,26.305,27.032,25.949,24.658,25.701,25.772,26.347,24.503,19.202
1975,18.992,20.767,25.037,26.792,26.737,26.647,25.129,26.066,25.928,26.51,22.427,19.319
1976,18.947,21.972,25.3,26.546,26.538,24.533,25.238,25.538,26.32,25.684,24.018,19.502
1977,18.513,20.03,24.443,23.668,25.389,25.82,25.801,26.145,26.691,25.52,23.953,20.393
1978,18.308,22.252,23.911,26.717,26.164,25.994,25.956,26.499,25.901,26.855,24.298,20.686
1979,19.613,21.401,24.837,27.682,29.397,26.92,26.774,26.033,26.339,26.419,25.229,21.227
1980,19.844,20.848,24.284,28.324,26.216,26.519,26.934,26.424,26.619,25.583,24.419,21.219
1981,19.5,21.063,23.679,24.856,26.7,26.596,26.683,26.455,26.572,26.355,24.113,20.4
1982,20.051,21.181,24.277,26.162,28.478,26.221,26.554,26.137,26.571,26.464,23.269,20.091
1983,19.914,20.439,23.766,26.363,26.888,27.166,26.553,26.146,27.253,26.33,23.37,19.658
1984,18.345,20.05,23.539,26.204,25.757,25.122,26.274,26.037,26.083,25.531,23.599,21.943
1985,19.944,21.149,24.779,26.674,26.664,25.641,25.772,26.037,26.519,26.892,23.087,21.653
1986,19.383,21.16,24.667,26.145,26.648,26.754,25.947,26.709,26.409,25.773,22.729,20.585
1987,19.004,20.414,23.338,25.519,27.843,27.199,26.513,26.409,26.513,25.584,23.915,20.449
1988,20.402,21.756,25.113,27.407,27.336,26.078,26.446,26.409,26.81,26.436,24.321,21.703
1989,18.413,21.538,24.754,27.536,27.532,26.938,26.493,26.718,26.637,26.002,23.009,20.139
1990,19.526,21.222,23.039,25.807,27.261,26.957,25.739,26.726,26.809,26.408,25.237,20.857
1991,18.962,21.922,25.782,27.051,26.838,25.529,26.384,26.401,26.927,26.735,22.573,20.092
1992,18.692,19.538,25.057,27.546,26.764,27.021,26.32,26.537,26.339,26.099,23.764,19.184
1993,18.992,21.083,23.203,25.201,26.508,25.728,26.962,25.929,26.508,26.811,23.899,21.365
1994,20.335,20.875,24.204,26.861,27.699,26.503,26.663,26.392,27.566,26.218,23.856,20.603
1995,19.709,21.409,24.912,27.942,27.899,26.621,26.592,26.527,26.972,26.81,24.529,20.294
1996,19.736,21.33,24.193,26.755,26.692,26.605,26.547,25.736,27.236,26.436,24.347,22.175
1997,19.163,20.212,23.939,25.182,27.366,27.03,25.9,26.436,26.519,25.682,24.565,21.065
1998,19.362,20.938,22.718,26.708,27.854,27.739,26.811,26.31,27.027,27.346,24.547,21.566
1999,20.627,23.476,24.968,27.937,26.8,26.721,26.72,26.037,26.364,27.01,24.064,20.668
2000,18.674,20.621,23.039,26.644,26.321,26.022,26.948,25.691,25.866,26.037,23.618,20.665
2001,19.837,22.002,24.339,27.59,26.919,26.196,26.393,26.446,27.564,26.492,23.664,20.911
2002,19.874,22.148,24.803,26.617,27.074,26.15,26.564,25.894,26.303,26.092,23.718,21.465
