Year,Jan,Feb,Mar,Apr,May,Jun,Jul,Aug,Sep,Oct,Nov,Dec
1901,23.18,23.996,27.515,30.805,30.534,28.394,25.652,25.06,26.846,25.958,23.064,21.531
1902,22.753,24.347,28.995,30.967,33.391,29.645,27.448,26.945,25.762,26.124,21.753,21.955
1903,22.637,24.169,28.401,31.252,30.873,30.353,25.412,25.044,25.7,24.72,21.708,20.508
1904,21.872,23.487,27.628,31.583,31.531,27.833,26.36,26.312,25.645,25.445,21.639,20.663
1905,21.778,23.214,27.76,29.667,32.134,30.003,27.1,25.666,25.781,25.747,23.419,20.822
1906,22.834,24.579,27.555,32.007,33.316,27.997,26.62,25.903,25.563,25.34,22.934,21.824
1907,21.911,24.673,27.502,29.358,31.145,28.323,26.558,24.249,26.216,26.415,24.242,21.061
1908,21.49,24.348,27.417,32.052,32.783,29.72,25.792,24.977,25.369,25.236,21.673,19.597
1909,23.006,24.822,28.448,29.191,32.056,27.354,25.154,25.945,25.61,25.624,23.158,22.784
1910,22.328,24.05,28.217,31.747,32.487,28.412,26.985,25.943,25.129,25.031,20.781,20.063
1911,22.23,23.195,27.826,31.659,33.164,28.408,26.806,24.729,26.693,26.615,24.092,21.72
1912,22.62,25.242,28.677,30.856,32.696,31.224,26.264,25.263,26.247,25.929,22.512,20.445
1913,20.823,25.313,27.959,31.841,31.598,28.13,25.935,26.01,26.674,25.796,22.925,22.556
1914,21.559,25.246,27.977,30.094,31.758,28.058,25.537,24.864,25.116,25.341,23.225,21.967
1915,21.658,24.098,26.619,30.514,31.812,30.168,26.742,25.518,25.654,25.753,24.162,20.106
1916,22.535,24.733,28.177,30.798,31.825,26.833,26.296,25.792,25.756,25.284,22.591,19.726
1917,20.808,22.804,25.951,28.948,30.76,26.721,25.877,25.748,25.173,25.033,21.938,20.577
1918,20.459,23.523,27.167,30.428,29.84,28.032,27.889,25.848,26.606,25.99,23.839,21.793
1919,23.461,25.656,28.639,30.988,31.801,27.195,26.645,25.909,26.399,24.954,23.008,20.588
1920,21.776,23.796,28.312,30.244,31.337,29.479,26.658,27.081,26.745,26.844,23.584,21.513
1921,22.709,24.21,29.398,31.469,34.274,28.297,26.198,25.577,25.741,24.595,20.66,20.629
1922,21.729,23.886,28.27,31.586,32.039,28.588,26.173,26.345,25.271,24.971,22.675,20.023
1923,21.278,23.745,27.036,31.382,32.297,31.431,25.721,25.626,25.429,24.506,22.633,21.568
1924,22.586,25.48,28.407,32.296,33.017,29.863,26.936,26.343,25.47,24.538,21.438,20.403
1925,21.125,23.547,27.728,31.748,30.623,28.418,26.379,25.111,26.215,24.926,22.861,20.284
1926,22.584,24.609,28.211,29.395,31.219,31.422,27.01,25.838,26.118,25.856,22.499,21.452
1927,23.899,25.452,29.299,32.071,32.516,28.74,25.545,25.955,26.693,25.425,21.483,21.716
1928,22.9,24.782,28.105,30.717,33.265,28.844,26.202,26.179,25.99,25.558,23.403,21.974
1929,23.335,23.979,28.324,30.104,33.486,28.679,26.784,26.48,26.027,25.671,23.357,23.196
1930,23.183,23.499,28.46,30.384,32.534,29.825,26.739,26.289,26.205,25.743,22.311,22.584
1931,21.738,25.67,28.198,31.733,32.67,29.069,25.753,25.649,25.65,25.008,21.981,20.885
1932,20.837,23.296,26.321,30.176,31.211,28.838,25.57,26.156,25.714,26.253,23.549,21.142
1933,22.068,25.51,27.171,29.77,29.116,27.57,25.13,24.821,25.807,24.466,22.759,20.776
1934,20.966,23.924,27.501,31.198,32.964,29.344,25.76,25.158,25.617,25.493,21.459,20.522
1935,22.325,24.733,27.575,29.298,33.427,29.383,25.692,25.923,25.216,25.766,22.146,22.162
1936,24.056,24.198,27.161,30.478,31.855,27.33,26.692,25.544,26.61,25.741,22.992,21.512
1937,21.114,25.098,27.403,30.386,32.459,29.856,25.823,26.462,26.4,25.025,23.094,21.497
1938,23.726,24.581,28.996,31.131,32.075,25.794,25.178,25.386,25.27,24.259,21.435,20.341
1939,21.614,24.201,26.978,30.469,33.042,29.287,26.01,25.861,25.819,25.68,21.157,20.174
1940,20.311,24.309,27.194,30.232,31.278,28.595,24.879,25.073,26.039,25.293,23.788,22.098
1941,22.896,24.864,29.518,32.212,32.999,29.419,27.5,26.182,26.373,26.246,23.291,23.17
1942,22.891,24.835,28.719,31.338,32.711,29.163,25.807,25.368,25.273,24.834,22.6,22.153
1943,23.562,22.461,27.684,30.204,30.494,27.235,25.625,25.625,24.832,24.844,22.996,19.732
1944,22.698,24.274,25.879,29.765,32.762,29.129,25.81,26.213,26.054,25.319,22.492,21.555
1945,22.01,23.947,27.97,29.839,32.914,28.616,25.746,25.044,25.176,24.924,21.18,19.787
1946,20.277,23.439,28.292,30.479,31.941,27.487,26.167,25.543,26.089,26.609,23.725,22.783
1947,23.285,24.708,28.669,31.025,32.952,29.711,25.769,25.87,25.238,24.024,22.293,21.196
1948,22.657,24.823,27.225,30.569,33.071,29.098,26.593,25.593,25.344,25.976,24.347,19.483
1949,21.427,23.365,27.975,30.789,31.224,27.711,25.934,25.965,25.365,25.726,21.579,21.114
1950,21.509,23.758,26.637,30.825,32.162,28.436,26.028,26.605,25.373,24.865,21.995,20.688
1951,21.95,23.834,28.15,30.799,31.953,28.776,26.403,25.845,26.638,26.544,23.988,20.94
1952,22.194,25.147,27.615,31.622,32.784,29.603,27.359,25.952,26.246,25.642,21.447,22.585
1953,22.642,25.623,29.949,31.532,34.567,30.533,26.61,25.478,25.707,25.723,22.358,20.514
1954,21.779,25.485,28.014,31.831,33.926,29.108,25.929,25.977,25.176,24.24,21.427,22.014
1955,22.292,25.477,28.582,30.661,31.71,28.462,25.95,24.811,25.756,25.22,21.223,20.623
1956,22.094,23.59,28.881,31.654,31.677,27.964,24.645,25.26,25.409,24.577,22.939,21.353
1957,22.557,24.381,26.781,30.203,32.071,29.695,25.992,24.846,26.114,26.578,23.807,22.484
1958,22.564,25.04,28.37,31.105,32.687,31.412,25.487,25.735,25.812,25.643,24.003,21.735
1959,22.943,25.961,28.576,31.403,33.238,28.591,25.71,25.444,25.916,25.983,23.494,22.11
1960,23.231,24.482,27.968,30.819,32.21,28.525,26.986,26.787,26.386,25.387,23.187,22.472
1961,22.856,24.428,29.64,31.896,31.496,28.3,25.909,25.943,25.677,24.858,22.272,21.268
1962,20.813,24.196,27.709,30.024,31.5,29.286,26.329,25.961,25.423,25.527,22.426,20.898
1963,20.893,23.41,27.894,29.33,32.047,27.72,26.456,25.005,26.051,25.363,23.282,21.97
1964,22.742,25.482,29.423,31.696,33.008,29.061,26.144,25.142,25.184,25.523,22.158,20.615
1965,22.146,24.51,28.024,30.232,32.543,29.105,25.79,26.325,26.114,26.41,24.167,23.25
1966,23.146,25.802,29.42,31.663,32.458,29.911,27.545,26.694,25.788,25.84,24.452,21.536
1967,22.601,24.742,27.741,31.502,32.921,29.652,26.143,25.845,25.722,25.357,23.041,23.181
1968,21.49,25.394,27.411,30.251,32.541,29.205,26.369,25.993,25.792,24.672,23.084,23.017
1969,22.628,26.078,30.358,32.688,32.382,30.057,26.597,26.51,25.251,25.661,24.243,21.219
1970,22.82,26.143,29.821,31.79,32.756,27.437,26.863,25.3,25.9,25.633,22.271,19.759
1971,22.47,25.728,27.794,31.881,31.639,27.299,27.694,26.961,26.804,25.502,21.892,20.42
1972,21.446,24.774,29.16,31.501,32.834,30.954,27.277,26.579,27.462,26.347,23.614,23.228
1973,23.875,26.461,29.885,33.581,34.559,29.292,26.504,25.678,26.345,25.46,22.42,21.849
1974,21.966,25.707,29.325,32.245,31.361,28.589,27.736,26.182,26.548,25.476,22.297,20.48
1975,21.38,25.194,28.228,32.039,33.422,28.46,26.523,26.018,25.464,25.942,21.573,19.814
1976,20.785,24.393,29.028,31.172,32.793,29.03,26.262,25.593,26.343,26.826,24.993,22.846
1977,22.154,25.78,29.443,31.464,31.365,29.482,27.074,25.884,26.739,26.241,25.302,21.549
1978,22.866,24.834,28.488,31.644,32.982,28.023,25.791,25.071,26.109,26.172,24.957,22.626
1979,23.64,25.552,28.544,31.748,31.71,30.711,27.601,26.309,26.777,26.866,25.049,22.843
1980,23.924,27.032,29.404,32.187,34.234,28.192,26.519,25.259,26.567,27.055,24.755,22.656
1981,22.31,26.184,28.392,32.055,32.717,29.052,26.852,25.36,25.916,25.946,23.394,22.312
1982,23.73,26.73,29.584,31.172,31.478,29.42,27.217,26.447,26.515,26.38,24.163,22.612
1983,22.795,26.43,30.131,32.176,33.375,30.896,27.575,26.137,25.812,25.404,22.613,21.745
1984,23.955,25.136,29.024,31.679,34.687,29.23,26.265,26.195,26.915,26.277,22.823,23.393
1985,24.313,26.447,30.354,32.392,33.487,27.964,26.665,26.354,27.636,25.21,23.614,23.227
1986,22.111,25.55,29.94,32.29,33.802,28.742,27.11,25.953,27.902,27.888,24.922,23.462
1987,23.404,25.006,28.664,32.42,31.907,30.276,26.984,26.452,28.214,26.618,24.286,22.62
1988,23.506,26.742,29.922,31.373,34.722,29.882,26.508,26.421,26.586,26.018,23.616,22.214
1989,23.286,25.363,27.873,32.072,33.984,28.47,26.339,25.768,26.508,26.429,24.231,22.259
1990,23.124,25.944,28.927,32.465,29.348,26.964,26.468,25.888,26.741,25.308,24.699,22.972
1991,23.531,26.435,30.094,31.752,33.892,28.263,26.248,26.109,27.563,26.715,23.517,22.095
1992,21.981,25.244,29.902,31.856,33.335,30.029,27.84,25.663,26.316,26.446,24.302,21.136
1993,23.317,24.617,28.941,31.771,33.791,30.655,27.107,26.129,26.401,26.422,23.951,20.709
1994,23.045,25.753,30.184,30.785,33.803,28.8,25.952,25.785,26.455,26.092,22.784,20.718
1995,20.909,25.393,28.882,31.551,31.134,30.848,26.805,27.302,26.886,25.896,24.572,23.253
1996,24.374,26.064,29.896,30.768,33.9,30.099,27.363,25.93,26.627,25.61,23.799,22.125
1997,21.872,24.678,28.919,29.554,32.511,30.183,27.269,26.438,26.687,26.385,25.888,24.377
1998,24.494,26.466,29.822,32.869,34.177,31.236,28.04,26.576,26.692,26.349,24.491,21.311
1999,22.102,26.139,29.848,32.782,31.566,28.174,26.714,26.017,25.915,26.112,24.147,22.151
2000,23.598,25.766,28.612,32.859,31.621,27.348,26.08,26.066,26.494,27.213,24.732,22.094
2001,23.486,26.718,29.502,31.32,33.739,28.183,27.127,25.975,27.422,26.004,25.094,22.76
2002,22.926,26.079,29.913,32.942,33.278,28.721,27.671,25.37,26.68,26.55,23.619,22.885
