Year,Jan,Feb,Mar,Apr,May,Jun,Jul,Aug,Sep,Oct,Nov,Dec
1901,18.464,23.637,51.448,127.36,140.21,335.559,305.377,290.447,268.979,124.16,107.455,2.542
1902,17.879,25.234,38.301,153.24,205.799,362.555,461.031,323.858,476.767,68.445,10.576,4.5
1903,31.691,34.846,72.072,89.551,132.379,422.537,249.394,446.445,228.321,148.129,41.916,1.98
1904,30.036,27.67,92.629,204.762,172.083,171.226,266.052,442.115,174.752,47.901,41.249,3.2
1905,26.98,15.162,89.176,98.088,108.355,198.527,364.356,380.555,93.091,83.841,38.044,23.564
1906,16.414,47.944,88.651,244.02,102.872,301.312,253.582,347.902,116.549,63.357,26.226,1.068
1907,14.778,49.217,68.114,156.626,140.258,305.646,401.037,243.823,296.098,43.099,0.558,5.932
1908,19.078,34.83,25.042,181.512,220.664,521.487,505.036,165.941,280.201,91.807,12.444,0.916
1909,54.571,7.772,7.698,112.9,242.786,507.102,281.359,427.338,130.565,76.719,9.152,1.439
1910,10.563,37.14,95.876,92.657,122.281,630.639,369.011,312.01,130.45,280.14,26.038,27.375
1911,33.554,31.172,50.663,135.199,263.176,362.388,374.562,284.049,232.982,293.25,47.875,4.908
1912,18.542,57.289,42.227,99.424,129.008,285.407,462.602,317.471,299.256,148.867,35.044,10.284
1913,18.63,49.655,72.509,212.266,300.785,306.236,257.765,294.755,186.131,260.557,9.47,28.39
1914,6.65,36.817,76.613,103.038,137.946,250.327,391.076,365.109,147.646,94.559,15.469,12.871
1915,7.871,30.479,82.01,93.485,270.939,373.958,558.63,363.06,231.87,152.705,19.686,7.055
1916,23.575,21.948,68.897,128.274,256.43,357.81,370.523,284.059,158.576,102.754,20.414,11.855
1917,13.805,93.06,33.542,152.301,136.021,466.569,417.992,285.812,181.07,104.048,27.871,0.556
1918,13.111,16.596,90.158,82.232,195.646,541.258,349.189,290.892,224.582,95.109,4.657,1.031
1919,8.229,27.608,10.948,80.974,185.282,384.619,476.224,181.704,244.59,253.702,25.72,3.846
1920,9.695,42.9,119.643,61.43,146.947,346.713,312.012,356.775,171.391,67.725,2.402,11.645
1921,27.713,24.878,99.144,150.788,271.603,334.791,260.514,408.076,334.64,211.007,13.34,13.884
1922,22.722,10.094,68.841,98.763,140.816,316.208,427.317,369.003,180.586,111.004,22.689,6.771
1923,1.847,62.463,12.457,98.244,220.632,337.698,492.774,255.352,308.516,73.798,13.354,8.323
1924,11.145,28.536,37.034,74.198,246.957,372.261,601.562,408.123,236.73,178.164,46.763,1.631
1925,26.114,35.411,81.097,100.856,298.637,341.994,407.004,358.592,272.863,86.821,6.914,1.74
1926,16.183,21.502,73.795,89.707,202.295,321.357,484.253,210.537,149.86,244.339,54.343,7.472
1927,21.806,56.692,68.294,172,132.257,325.235,384.618,271.838,447.526,275.443,18.975,1.019
1928,7.134,28.959,55.98,79.228,220.009,445.744,349.837,373.41,356.073,219.634,33.07,6.169
1929,12.069,11.617,42.592,125.765,400.173,352.082,267.34,241.509,194.622,88.017,56.97,5.104
1930,12.64,14.328,59.718,169.6,67.655,385.535,153.877,353.345,426.735,288.249,80.091,6.665
1931,9.759,55.739,30.102,226.298,174.027,521.765,447.798,201.88,233.72,130.777,23.164,42.362
1932,37.098,26.681,55.738,74.137,302.572,455.922,354.227,373.274,225.588,153.558,108.416,29.625
1933,15.574,48.237,27.53,120.268,193.461,462.425,315.796,445.929,133.881,91.113,8.259,5.321
1934,14.31,41.413,21.041,175.012,243.512,462.856,336.982,206.017,238.159,97.603,43.958,6.611
1935,12.32,45.262,43.469,82.607,147.152,563.838,357.073,307.327,311.735,40.662,26.583,5.768
1936,32.587,66.15,40.185,109.056,215.312,478.31,391.643,256.505,266.748,95.391,49.84,25.122
1937,18.939,42.553,36.552,96.471,184.062,214.745,292.824,367.285,186.251,93.787,8.97,8.538
1938,46.987,39.065,72.789,138.236,132.744,387.654,416.124,376.24,232.038,222.87,74.174,5.889
1939,9.182,48.148,26.34,114.325,186.488,423.276,306.572,180.379,269.387,104.286,5.504,3.562
1940,3.994,40.652,138.145,43.54,206.508,340.041,238.871,189.21,211.115,95.589,20.274,41.159
1941,17.833,36.719,83.484,72.682,268.296,368.935,263.891,323.752,353.144,46.41,6.454,16.304
1942,3.796,25.901,93.889,105.581,294.803,407.501,271.024,265.919,238.648,9.995,11.327,1.208
1943,49.135,29.866,88.629,76.368,246.175,298.574,275.808,400.637,252.285,133.243,5.058,4.974
1944,19.835,33.658,41.136,68.963,187.288,421.814,346.35,303.725,301.931,141.326,16.354,32.19
1945,20.66,34.803,52.735,72.006,217.65,414.544,474.3,285.625,218.833,163.392,0.768,19.456
1946,0.317,4.39,35.772,71.995,145.901,436.972,386.67,322.853,192.624,148.278,6.136,0.813
1947,11.758,19.129,44.687,154.917,150.551,253.263,480.545,317.544,408.845,316.914,11.071,7.17
1948,16.255,43.426,59.933,152.485,426.688,343.202,570.088,323.261,109.449,121.653,23.974,7.857
1949,17.617,16.186,104.424,163.984,260.794,318.398,352.478,301.439,272.012,197.734,22.863,16.548
1950,15.262,60.923,67.564,83.628,185.321,421.006,314.838,327.083,242.214,211.219,28.352,9.957
1951,12.811,14.694,66.433,123.31,147.572,493.094,328.98,207.066,182.046,134.907,48.181,38.995
1952,17.149,12.277,81.057,84.302,182.762,274.566,338.316,371.544,362.506,169.295,36.078,4.088
1953,18.44,30.573,117.666,86.153,247.617,400.113,403.058,214.301,213.985,189.891,6.096,6.306
1954,20.584,84.136,29.91,151.824,232.451,367.666,385.878,362.263,283.43,172.953,1.012,29.78
1955,8.077,25.818,122.932,52.024,210.03,365.346,600.844,305.066,147.868,103.634,29.357,8.124
1956,37.171,4.952,110.897,90.544,267.231,345.767,221.444,234.762,139.814,162.45,55.335,9.277
1957,42.21,48.857,26.798,123.632,280.28,406.668,356.221,224.7,197.749,83.908,26.869,17.508
1958,21.691,25.705,5.043,61.742,392.075,276.019,480.676,437.083,226.119,248.294,0.384,13.667
1959,28.844,50.395,55.154,133.04,357.613,352.642,320.449,207.188,213.387,222.244,19.843,16.05
1960,0.313,17.478,15.68,67.968,186.959,284.08,468.274,342.217,197.451,36.111,14.587,12.776
1961,16.786,20.323,133.183,119.401,303.425,202.538,329.573,312.447,228.06,162.01,28.912,9.019
1962,17.991,35.39,41.124,88.226,218.895,387.046,232.57,455.872,120.298,79.192,13.06,10.346
1963,4.647,11.002,22.96,95.794,125.44,311.927,382.444,321.303,127.451,138.805,22.462,6.883
1964,21.339,48.865,76.65,104.947,131.844,393.244,404.984,292.206,199.742,155.479,6.231,26.198
1965,6.229,53.128,38.594,95.692,103.011,325.448,344.322,313.522,274.309,86.351,99.065,25.661
1966,11.329,23.908,21.168,92.359,184.461,490.552,364.185,533.227,163.025,86.398,33.446,13.56
1967,20.596,28.929,72.7,54.799,135.414,296.572,284.145,217.109,227.056,60.937,18.935,3.172
1968,28.101,39.021,48.006,126.877,332.1,282.515,400.588,291.606,279.129,61.382,1.035,0.646
1969,41.891,3.073,72.353,88.202,141.063,250.87,367.401,359.318,112.207,74.887,15.201,2.974
1970,32.972,53.263,101.637,137.239,335.287,233.689,375.419,349,237.062,165.805,14.92,2.937
1971,24.035,24.293,18.206,98.42,178.559,319.763,396.8,304.901,182.779,251.069,58.594,14.414
1972,29.081,26.506,62.404,183.91,173.265,225.479,410.799,184.308,102.463,41.041,4.187,8.202
1973,21.489,37.455,20.332,182.133,175.674,560.761,251.383,317.158,311.934,86.875,43.447,19.076
1974,31.383,13.626,60.901,179.585,107.348,348.073,485.169,338.183,255.977,39.595,18.796,3.699
1975,12.478,32.797,38,134.982,255.03,213.847,314.518,392.341,174.247,120.959,21.973,10.74
1976,4.656,53.816,98.897,132.424,116.205,388.148,437.121,197.455,110.772,46.465,27.794,4.139
1977,17.654,46.343,66.148,217.693,219.215,355.474,397.758,459.717,202.017,129.768,35.671,33.755
1978,6.915,38.922,31.636,81.793,172.948,398.283,384.37,142.296,223.173,70.623,77.832,0.445
1979,9.811,5.789,33.615,39.215,84.207,259.191,355.431,252.191,258.058,232.044,12.282,46.646
1980,14.335,24.516,93.516,189.639,150.914,246.317,342.63,384.877,224.073,186.111,0.318,0.057
1981,25.467,43.136,76.29,69.966,168.854,351.949,381.644,369.955,163.038,65.32,6.767,19.002
1982,1.216,46.719,41.274,145.397,96.807,319.265,253.296,300.167,230.015,24.752,72.77,24.348
1983,42.259,66.319,41.437,116.257,152.214,322.047,429.413,280.149,243.986,94.885,17.202,33.922
1984,11.464,9.142,39.235,174.868,217.714,316.428,368.42,243.309,223.108,134.451,1.493,38.196
1985,8.635,17.782,97.055,161.054,140.234,435.625,391.674,236.985,199.657,65.054,13.559,10.48
1986,6.464,20.693,37.687,153.276,52.873,185.86,377.03,236.251,228.021,187.057,33.622,6.056
1987,5.149,32.691,74.947,119.769,131.389,203.646,376.561,265.437,333.866,53.856,17.39,17.329
1988,11.534,29.864,80.661,105.784,311.534,180.599,453.911,482.589,234.325,201.675,31.044,8.014
1989,8.884,63.001,28.494,112.229,100.576,266.976,389.196,240.847,310.423,235.611,24.577,13.831
1990,13.519,46.818,58.808,123.058,174.113,527.104,434.646,211.174,410.261,72.964,3.377,13.146
1991,15.021,17.105,55.893,94.522,255.096,427.682,384.439,334.518,309.099,149.855,21.32,32.321
1992,25.703,74.847,103.569,127.432,135.867,281.557,337.087,214.374,258.147,155.46,12.331,4.515
1993,38.692,68.181,81.853,47.613,234.817,389.734,339.675,426.02,305.861,90.937,5.603,0.52
1994,18.688,39.041,119.466,112.765,146.042,278.873,249.157,226.101,232.435,247.591,21.621,0.422
1995,13.019,50.135,52.592,61.922,301.069,354.765,354.697,306.14,377.681,58.609,27.206,14.238
1996,15.423,36.387,148.237,102.902,389.039,132.082,371.433,165.263,173.064,157.848,4.936,1.96
1997,11.096,42.721,94.844,76.736,134.655,339.547,340.749,190.034,273.103,48.624,23.186,26.2
1998,17.396,61.496,109.736,85.455,249.255,608.409,363.543,294.831,112.704,107.538,18.586,2.571
1999,2.42,34.201,23.39,150.78,237.501,344.812,349.865,349.427,188.866,158.725,27.062,2.093
2000,31.231,13.285,60.94,185.635,213.86,264.225,323.216,371.473,262.144,64.021,8.423,0.48
2001,1.401,23.293,40.407,132.934,214.608,253.48,436.421,255.067,251.827,175.072,18.602,2.975
2002,36.941,18.929,46.951,175.298,264.211,251.275,375.758,285.642,281.069,47.51,32.898,2.674
