Year,Jan,Feb,Mar,Apr,May,Jun,Jul,Aug,Sep,Oct,Nov,Dec
1901,69.136,52,18.451,17.535,14.555,63.316,250.276,330.53,189.086,9.064,0.989,0
1902,19.437,4.985,0.575,3.571,1.661,24.377,272.863,186.259,244.192,8.431,3.75,5.834
1903,5.86,5.306,2.298,1.036,35.894,94.699,272.511,291.967,195.931,78.748,0.042,0.006
1904,4.74,12.968,41.311,0,49.597,101.098,243.357,468.947,127.929,40.776,1.626,6.809
1905,16.265,21.819,29.331,10.154,13.32,53.373,290.234,341.997,411.354,2.414,0,2.842
1906,7.622,62.768,31.864,0,6.982,189.708,489.458,318.09,175.832,25.235,0.442,7.149
1907,0.504,101.031,20.259,36.295,4.807,272.34,200.778,425.402,92.771,0.364,5.062,3.733
1908,24.748,51.611,12.466,2.065,0.896,88.947,314.593,411.147,114.416,41.759,0,2.977
1909,4.752,9.903,2.105,41.695,24.677,183.779,410.231,219.735,145.229,0.483,0,22.095
1910,11.601,5.018,14.154,3.199,4.362,177.509,204.168,349.215,257.913,49.891,35.972,0
1911,16.442,0.965,28.359,0.345,4.194,354.88,76.2,308.44,249.657,64.116,36.224,0.005
1912,1.247,30.559,2.839,6.842,10.685,42.178,321.463,372.439,107.129,3.105,20.043,2.197
1913,0.167,73.788,38.066,0.37,37.06,234.751,257.592,409.931,113.161,28.666,2.399,22.601
1914,5.55,20.734,30.278,33.645,21.065,100.643,273.725,360.396,133.989,8.07,0,13.368
1915,43.112,47.225,31.565,6.1,11.656,83.046,271.911,282.557,250.996,67.087,22.093,1.361
1916,0.167,31.441,0.107,2.388,15.867,188.405,260.333,404.625,193.279,63.637,5.321,0
1917,4.192,68.843,10.92,3.83,57.222,143.365,300.904,451.249,195.128,113.351,0.005,2.042
1918,20.938,5.801,5.88,2.627,40.311,323.303,113.842,393.124,112.542,1.735,2.345,9.364
1919,90.887,47.421,23.195,6.98,28.741,206.883,299.814,533.091,178.883,72.804,16.291,5.715
1920,5.568,16.346,40.209,0.569,10.945,58.956,550.112,376.463,100.471,1.332,0,0
1921,62.552,14.12,0.107,1.496,0.131,240.048,347.602,417.608,208.643,2,0,0
1922,25.982,0.908,0.107,4.05,0.826,221.391,320.03,346.855,295.816,28.31,25.698,2.51
1923,0.601,46.823,18.631,6.483,1.14,77.012,420.81,529.362,238.601,8.847,4.42,0.577
1924,43.339,25.023,10.614,9.619,4.45,35.603,356.877,258.008,186.185,41.984,12.662,6.819
1925,0.167,3.958,3.873,0.386,25.079,121.196,299.105,534.898,139.172,6.322,20.373,0
1926,8.403,3.394,74.13,14.511,59.218,39.984,326.972,456.121,266.869,73.977,4.391,14.176
1927,12.179,42.981,45.253,0.036,4.654,100.557,414.031,369.511,92.009,56.355,28.207,4.558
1928,15.239,39.418,4.493,8.167,14.306,113.532,465.201,177.577,117.765,108.863,0,15.579
1929,59.693,25.191,2.287,3.467,4.484,95.476,501.522,354.779,175.83,89.946,0,43.817
1930,3.943,3.194,3.485,15.203,9.603,97.322,312.969,232.531,172.093,34.266,21.28,13.065
1931,0.797,62.45,22.6,2.962,8.268,53.483,446.945,405.627,199.349,103.183,13.933,5.231
1932,0.167,30.095,7.216,1.831,17.006,92.577,484.092,299.36,189.615,17.813,12.831,1.82
1933,6.839,26.701,14.391,38.035,44.67,148.84,266.936,418.096,159.321,69.531,0.81,3.166
1934,16.397,3.096,5.027,5.305,0.135,146.105,300.538,504.673,233.049,32.309,31.185,3.95
1935,8.918,10.51,1.787,16,1.245,119.742,377.161,450.192,193.645,3.208,0,1.229
1936,4.218,41.545,26.2,3.968,30.946,246.4,306.409,329.614,236.851,89.138,7.652,15.817
1937,0.167,67.204,20.78,35.1,7.928,135.464,419.663,275.302,184.769,88.463,0,0
1938,43.715,21.318,1.597,6.502,23.999,218.638,272.772,367.178,177.651,76.314,0.59,0
1939,19.668,17.934,35.64,11.373,0.137,137.359,389.252,420.173,157.405,29.229,0.412,0.001
1940,1.135,39.497,56.212,12.906,9.718,70.937,409.828,437.374,107.87,31.404,5.981,10.505
1941,29.32,22.33,16.195,1.961,11.049,185.715,222.652,357.188,130.413,19.291,1.817,0
1942,53.764,87.791,16.424,11.578,1.209,109.07,419.433,407.263,253.298,13.498,0.036,2.729
1943,38.585,7.607,1.059,16.697,28.908,68.664,356.88,544.761,259.534,77.704,1.356,0
1944,24.627,86.754,81.007,3.937,4.657,93.08,489.175,544.867,160.232,80.298,0.482,0.332
1945,37.248,19.34,0.107,10.872,15.718,195.351,379.992,181.399,236.661,60.093,0.709,6.068
1946,0.167,28.115,11.652,15.521,20.472,218.406,345.838,409.838,206.956,40.447,15.258,3.042
1947,25.971,24.083,34.512,3.76,1.908,75.997,408.406,319.717,319.638,27.241,0.899,6.086
1948,15.374,13.328,17.084,4.883,9.004,199.787,297.232,358.037,267.026,33.673,47.332,1.82
1949,0.167,27.731,8.765,5.01,47.989,120.428,290.207,524.518,220.317,138.27,0,0
1950,17.114,45.513,51.921,1.489,3.934,113.303,384.668,323.44,124.531,5.117,2.063,14.929
1951,12.809,7.301,46.51,15.379,16.308,109.545,274.564,302.046,182.027,57.171,0.035,0
1952,0.929,25.106,31.27,4.891,10.003,141.359,137.187,266.481,183.923,20.038,0,5.226
1953,30.455,3.307,0.107,11.819,0.779,77.788,361.84,394.114,227.972,13.333,0.119,0.801
1954,13.44,14.778,5.724,1.06,5.266,112.564,240.985,312.3,257.171,10.444,0,0.908
1955,36.873,10.427,6.879,3.589,2.639,72.039,326.915,367.406,233.784,99.491,0.451,0.082
1956,28.392,13.186,5.064,0.35,54.912,210.445,405.042,359.117,323.515,35.657,30.595,13.308
1957,11.294,1.328,29.426,22.934,4.544,111.593,416.973,281.005,144.256,7.03,0,3.024
1958,24.087,20.171,23.482,12.794,1.304,58.148,427.929,299.124,227.059,94.021,13.73,0.332
1959,48.867,14.384,0.107,10.216,46.116,93.249,293.732,327.413,193.357,80.656,0,0.344
1960,11.518,0.2,23.839,12.298,15.007,121.603,389.241,396.669,107.006,63.91,0,0
1961,32.644,45.751,4.883,2.64,13.999,116.654,332.105,434.323,299.07,68.588,3.101,22.734
1962,17.773,31.607,16.553,6.965,11.726,94.445,260.648,309.237,270.223,10.421,6.375,35.253
1963,17.178,16.574,26.805,10.134,30.974,102.471,313.133,388.181,208.413,33.551,1.763,0.332
1964,0.248,36.157,7.347,11.916,9.825,143.046,330.668,480.455,177.341,31.266,14.738,0
1965,8.339,0.222,21.95,17.762,6.682,80.982,271.502,186.941,189.438,14.483,0,5.023
1966,49.879,2.773,7.491,3.569,26.191,199.983,179.954,196.919,74.288,5.264,16.96,27.622
1967,12.721,0.2,51.082,6.468,13.298,127.254,309.673,577.172,237.473,5.962,0,68.355
1968,32.465,17.305,11.571,10.411,0.78,96.566,255.145,349.95,193.065,19.88,0.41,4.48
1969,1.533,3.416,4.178,3.701,24.752,81.24,485.939,366.92,195.503,2.884,12.418,5.492
1970,32.378,34.583,21.157,1.061,29.083,181.064,346.75,409.012,314.978,16.664,0,0
1971,18.485,9.891,8.396,15.118,31.069,324.722,331.189,485.145,135.104,90.144,0,0
1972,20.953,57.131,0.659,15.363,0.528,58.143,245.752,439.032,100.184,67.071,18.704,2.778
1973,5.244,0.335,0.986,2.041,0.635,88.323,355.003,385.94,215.551,74.602,0.819,0.337
1974,0.167,5.359,1.526,0.636,8.435,84.695,397.246,289.654,102.924,105.101,3.034,0
1975,4.201,28.793,31.416,0.833,5.233,149.289,384.138,205.933,192.863,53.638,1.999,0
1976,25.448,4.386,5.265,31.62,16.999,51.709,313.847,313.066,377.652,0.353,14.031,0.273
1977,18.691,6.883,4.558,19.559,58.723,187.009,401.952,336.419,240.046,32.904,38.915,25.984
1978,35.076,84.901,39.142,35.158,8.261,262.556,215.928,370.206,249.932,26.895,3.17,41.304
1979,22.098,16.988,0.107,6.378,1.069,115.422,306.652,294.997,143.405,21.049,23.963,5.011
1980,12.476,9.206,6.139,1.918,3.772,252.621,280.241,379.95,68.825,10.04,0,11.418
1981,30.648,6.503,38.671,7.353,18.912,75.269,382.354,231.369,240.034,4.397,10.534,16.127
1982,53.287,19.602,45.75,7.37,31.455,123.967,264.026,455.292,357.777,4.971,28.138,8.423
1983,4.622,16.836,6.439,15.417,36.701,119.955,289.926,239.923,148.015,48.61,0.458,4.878
1984,35.536,45.262,1.113,12.515,2.43,204.56,299.938,274.237,160.652,27.953,0,0
1985,25.998,4.401,0.145,7.352,7.368,105.885,382.427,379.165,125.262,93.119,0,1.013
1986,39.892,54.985,1.412,3.828,24.857,132.605,270.213,395.302,138.296,3.175,6.855,31.015
1987,18.318,17.237,17.295,0.384,11.92,50.444,240.161,450.212,289.228,46.305,23.907,7.872
1988,8.967,13.586,30.332,12.676,12.502,186.019,229.939,266.494,176.714,23.752,5.589,7.031
1989,0.747,0.2,31.037,0.122,17.029,171.337,251.616,287.089,115.65,25.65,6.703,45.796
1990,2.129,46.879,16.65,3.007,34.962,305.668,440.563,366.287,162.25,44.264,0.084,7.701
1991,30.352,12.155,26.873,11.462,5.675,171.812,243.103,452.384,145.681,6.997,2.391,40.023
1992,29.523,9.037,0.107,5.248,5.817,48.071,144.762,222.329,156.388,54.901,1.984,0
1993,6.828,12.727,29.75,0.796,25.911,69.636,263.636,205.684,241.459,47.409,0,0.518
1994,65.453,45.225,39.357,10.537,4.063,261.575,462.949,381.272,152.852,87.826,0.059,0
1995,26.244,13.77,52.492,5.596,8.139,75.005,288.821,285.675,220.665,12.787,5.892,6.119
1996,39.112,19.499,2.717,4.42,1.439,169.812,270.47,361.063,126.218,79.703,5.256,0
1997,25.924,0.2,1.339,5.512,27.487,50.359,191.574,341.731,155.322,35.555,33.107,46.893
1998,3.607,35.295,24.268,6.846,35.424,57.22,212.123,331.769,175.779,73.87,32.586,0
1999,33.939,29.803,0.107,0,26.655,80.281,303.153,332.289,176.977,43.054,0,0
2000,7.264,24.499,0.107,4.808,20.251,163.319,239.59,141,193.429,4.466,0,0
2001,2.901,0.647,31.506,9.482,15.811,107.878,239.725,331.464,72.559,81.108,1.463,0
2002,68.547,20.236,3.68,4.503,15.485,118.307,130.991,353.72,146.878,65.002,10.35,1.383
