Year,Jan,Feb,Mar,Apr,May,Jun,Jul,Aug,Sep,Oct,Nov,Dec
1901,23.588,24.499,24.471,25.656,25.304,24.335,23.678,23.801,23.843,23.774,23.448,23.013
1902,22.527,23.701,25.201,25.819,25.867,24.846,23.621,24.32,23.975,23.616,23.24,23.27
1903,24.062,24.565,25.031,26.14,25.326,24.685,23.743,23.844,23.716,23.805,23.234,22.519
1904,22.445,22.89,24.152,25.497,25.317,23.55,23.446,23.504,23.773,24.002,23.495,22.683
1905,23.008,23.796,25.008,25.03,24.991,24.257,24.085,23.974,24.245,23.613,23.504,23.018
1906,23.458,24.459,25.227,26.326,25.374,24.241,23.508,23.499,24.182,23.636,23.05,22.825
1907,22.918,23.584,24.776,25.136,25.422,24.304,23.524,23.197,24.001,23.52,23.011,22.89
1908,22.986,23.196,24.638,25.496,25.194,23.735,22.975,23.69,23.705,23.609,22.747,22.514
1909,22.791,23.387,24.632,25.471,24.964,24.109,23.363,23.415,23.705,23.684,23.086,22.986
1910,23.071,23.596,24.597,25.201,25.374,23.954,23.281,23.35,23.519,23.372,23.309,22.703
1911,23.03,23.304,24.804,25.466,25.639,23.909,23.197,23.504,24.023,23.643,23.388,23.113
1912,22.487,24.156,25.184,25.901,25.353,23.943,23.71,23.647,23.928,23.801,23.191,22.619
1913,22.668,23.838,24.823,25.867,25.84,24.601,23.509,23.828,24.018,23.748,23.32,23.134
1914,23.13,23.811,25.149,26.061,25.466,24.622,24.046,23.849,24.246,23.626,23.728,23.091
1915,23.501,24.248,25.06,25.802,25.715,24.869,23.61,24.008,23.996,24.002,23.425,22.895
1916,22.902,23.754,25.08,26.109,25.581,23.86,23.678,23.891,23.679,23.35,23.234,22.338
1917,22.753,23.557,24.071,25.624,25.056,23.875,23.948,23.785,23.483,23.234,23.059,22.211
1918,22.412,22.625,24.323,25.528,24.61,23.898,23.708,23.775,23.86,23.783,23.658,22.751
1919,23.685,24.246,24.463,26.077,25.427,24.061,23.489,23.516,23.928,23.934,23.06,23.091
1920,23.048,24.088,25.29,25.327,25.458,23.969,23.566,23.472,23.864,23.774,22.937,22.593
1921,23.401,23.391,25.158,25.296,25.797,24.633,23.717,23.765,24.024,23.71,23.255,22.503
1922,23.014,23.515,24.602,25.556,24.922,24.272,23.313,23.542,23.642,23.504,22.877,22.391
1923,22.849,23.408,24.623,25.964,25.256,24.075,23.399,23.426,23.912,23.657,23.477,22.948
1924,23.03,24.067,24.881,25.687,25.573,24.095,23.387,23.828,23.954,23.662,23.303,22.682
1925,22.663,23.631,24.415,25.545,25.242,24.246,23.668,23.579,24.197,24.044,23.122,22.875
1926,23.187,23.876,25.206,25.834,25.474,24.427,23.933,24.156,24.109,23.821,23.436,23.144
1927,23.229,24.194,24.811,25.391,24.69,23.813,23.159,23.854,23.662,23.87,23.399,23.5
1928,23.452,23.885,24.602,25.634,25.938,24.623,23.827,23.631,24.208,23.732,23.452,23.086
1929,23.145,23.886,24.76,24.856,25.3,23.901,23.663,23.684,23.891,23.609,23.478,23.011
1930,23.049,24.156,24.903,25.471,24.694,24.15,24.112,23.775,23.81,23.408,23.596,23.5
1931,23.34,24.332,25.228,25.561,25.802,24.713,23.965,23.647,23.822,23.902,23.392,23.087
1932,22.934,23.275,24.658,25.131,24.679,24.332,23.647,23.71,23.858,23.234,23.144,22.751
1933,23.436,23.902,24.861,25.397,24.482,23.912,23.528,23.346,23.482,23.212,23.17,23.032
1934,23.064,23.209,24.097,25.318,25.422,24.215,23.764,23.96,24.119,23.668,22.995,22.805
1935,23.463,23.758,24.83,25.374,25.851,24.283,23.509,23.419,23.752,23.599,23.074,23.021
1936,23.297,24.099,25.005,25.656,25.31,23.949,23.826,23.683,24.135,23.8,23.483,23.361
1937,23.34,24.31,24.777,25.403,25.719,24.198,23.43,24.22,24.299,23.753,23.281,22.698
1938,23.76,23.998,24.865,25.152,25.624,24.045,23.473,23.875,24.009,23.558,23.274,23.374
1939,23.078,23.68,24.795,25.18,25.057,23.865,23.557,23.718,24.124,23.967,23.098,22.985
1940,22.759,23.877,25.166,25.471,25.422,24.574,23.812,23.583,24.637,24.272,23.596,23.186
1941,23.776,24.317,25.319,26.05,26.07,24.484,24.135,24.135,24.204,24.156,23.653,23.442
1942,23.58,24.428,25.174,25.556,25.603,24.356,23.605,23.731,24.001,23.805,23.314,23.001
1943,23.219,23.588,24.59,24.889,24.813,23.52,23.175,23.46,23.709,23.151,22.974,23.208
1944,23.292,23.997,24.452,25.227,25.332,24.267,23.938,24.241,24.276,24.123,23.303,22.772
1945,23.034,23.928,24.951,25.111,25.712,24.441,23.609,23.828,24.14,23.784,23.192,22.73
1946,22.5,23.814,24.554,25.255,25.519,24.401,23.827,23.728,24.05,23.886,23.351,22.973
1947,23.562,23.726,24.617,25.068,25.575,24.304,23.959,23.731,23.656,23.324,23.579,23.313
1948,23.724,24.084,25.07,25.487,25.443,24.146,23.694,23.535,24.118,23.884,23.706,22.98
1949,23.119,23.658,25.174,25.379,25.152,24.192,23.711,24,23.99,23.732,23.441,23.076
1950,23.093,23.866,25.17,25.195,25.824,24.053,23.543,23.749,23.704,23.302,23.212,23.299
1951,23.134,23.175,24.952,24.999,25.484,23.742,23.579,24.035,24.113,24.239,23.403,22.984
1952,23.389,24.151,24.913,25.561,25.708,24.257,23.779,23.599,24.098,23.53,23.377,23.339
1953,23.456,23.751,25.453,25.496,26.103,24.842,23.508,24.235,24.14,23.741,23.323,23.07
1954,23.452,24.178,24.638,25.524,25.653,24.382,23.467,23.531,23.969,23.218,23.219,23.217
1955,23.689,24.167,24.917,25.11,24.536,23.445,23.526,23.732,24.033,23.691,23.112,22.864
1956,23.038,23.858,25.079,25.425,24.66,23.583,23.155,23.678,23.561,23.368,23.68,23.336
1957,23.331,24.029,24.655,25.629,25.104,24.33,23.775,23.706,24.039,23.882,23.448,23.356
1958,23.766,24.129,25.123,25.598,24.835,24.454,24.003,23.505,24.205,23.469,23.643,23.764
1959,23.95,24.463,25.195,25.602,25.522,24.118,23.726,24.086,24.156,23.669,23.499,23.239
1960,23.785,24.146,24.75,25.126,24.812,24.304,23.577,23.828,23.656,23.665,22.916,23.604
1961,23.627,23.875,25.184,25.533,25.152,23.709,23.752,23.774,23.843,24.009,24.101,23.405
1962,23.313,24.082,24.777,25.396,24.769,24.483,23.572,23.875,24.113,23.387,23.553,23.548
1963,23.36,23.749,24.569,25.322,25.5,24.739,24.028,24.145,24.271,23.864,23.611,23.244
1964,23.213,24.377,25.163,26.055,26.033,24.649,23.467,23.785,23.647,23.44,23.102,23.082
1965,23.358,23.739,24.496,25.152,25.029,24.193,23.965,23.785,24.188,23.997,23.808,23.124
1966,23.808,24.607,25.101,25.561,25.519,24.146,23.743,24.05,23.997,23.553,23.649,23.474
1967,23.167,23.637,24.629,25.709,25.143,24.12,23.605,23.564,23.975,23.622,23.304,23.182
1968,23.227,23.611,24.548,25.052,25.11,23.992,22.98,23.664,23.822,24.04,23.436,23.091
1969,23.273,23.744,25.408,25.802,25.332,24.177,23.409,23.659,24.071,23.669,23.643,23.27
1970,23.479,24.056,24.872,25.248,25.178,24.304,23.59,23.605,23.959,23.578,23.595,22.466
1971,23.156,23.615,24.623,25.152,24.775,23.594,23.145,23.308,23.717,23.42,23.109,22.281
1972,22.637,23.31,24.49,25.708,24.362,24.633,23.686,24.112,24.389,23.435,23.517,23.812
1973,23.674,24.889,25.338,26.096,25.632,24.304,24.139,23.445,23.996,23.821,23.341,23.043
1974,22.789,23.714,24.978,25.343,25.062,24.403,23.774,23.361,23.714,23.758,23.736,23.527
1975,23.056,24.298,25.004,25.592,24.949,23.574,23.768,23.441,23.503,23.487,23.561,22.821
1976,22.96,23.309,24.459,25.053,25.635,24.623,23.791,23.744,24.176,23.752,23.44,23.5
1977,23.313,24.399,25.1,25.784,24.624,24.387,23.318,24.082,23.997,23.652,23.621,23.192
1978,23.553,24.259,25.027,25.917,24.84,24.145,23.541,23.267,24.043,23.732,23.614,23.478
1979,23.907,24.76,25.305,25.917,25.343,24.449,23.548,23.578,23.535,23.806,23.266,23.95
1980,23.592,24.31,25.223,25.503,25.744,23.851,23.168,23.601,24.077,23.652,23.922,23.928
1981,23.75,24.098,25.414,25.752,25.406,23.17,23.294,23.352,23.451,23.691,23.039,23.362
1982,23.626,24.298,25.005,26.292,25.337,24.626,24.048,24.319,24.812,24.581,24.324,23.223
1983,23.881,24.745,25.455,26.547,26.46,25.73,24.751,24.517,24.066,24.617,24.157,24.014
1984,23.946,24.098,24.744,25.265,26.043,24.087,23.699,23.993,23.981,23.912,24.076,23.5
1985,24.141,24.367,25.487,26.113,25.687,23.778,23.996,24.056,24.272,24.336,23.492,23.902
1986,23.924,24.262,25.242,26.244,25.856,24.845,24.351,23.573,24.092,24.65,24.04,24.416
1987,24.512,24.374,25.556,26.308,26.217,25.052,25.024,24.569,25.301,24.414,24.585,24.319
1988,24.306,25.089,25.703,25.554,26.366,24.85,24.245,24.405,24.358,24.974,23.892,23.777
1989,23.793,23.658,24.846,25.922,25.645,24.134,24.086,23.704,24.193,23.931,24.263,24.39
1990,23.432,24.947,25.704,26.617,25.787,24.737,24.007,23.828,24.868,24.891,24.272,24.619
1991,23.96,24.532,25.44,26.074,26.403,24.513,24.334,24.117,25.195,24.098,24.135,23.389
1992,23.283,24.22,24.984,26.213,25.638,24.86,23.799,23.735,24.319,23.979,23.774,22.686
1993,23.088,24.037,25.301,25.959,25.855,24.923,23.645,24.085,24.696,23.343,23.878,23.064
1994,23.728,24.415,25.061,25.493,25.985,24.62,24.06,24.049,25.041,23.156,23.997,24.163
1995,24.264,24.754,25.184,25.749,25.501,25.089,24.293,24.257,24.812,24.557,24.474,23.929
1996,24.098,24.393,25.353,25.635,26.181,24.516,24.139,24.053,24.231,24.432,24.154,23.399
1997,23.972,24.332,25.571,25.929,25.964,25.239,24.532,24.553,24.679,24.363,24.136,24.808
1998,24.922,25.487,26.129,26.802,26.169,25.523,24.415,24.395,24.431,24.444,24.294,23.77
1999,23.585,24.495,25.635,25.676,24.733,24.095,24.145,24.389,24.929,24.001,24.225,23.902
2000,24.056,24.787,25.429,25.927,26.371,24.787,24.637,23.965,24.5,24.067,24.225,23.95
2001,24.172,24.477,25.628,25.423,25.9,24.401,24.049,23.891,24.404,24.573,24.289,23.765
2002,24.199,24.543,25.449,25.871,25.76,25.37,24.749,24.076,24.883,23.995,23.865,23.765
