Year,Jan,Feb,Mar,Apr,May,Jun,Jul,Aug,Sep,Oct,Nov,Dec
1901,14.391,17.654,22.402,28.16,31.156,32.431,27.875,26.386,25.715,24.568,18.868,14.877
1902,16.164,18.053,25.48,28.304,32.374,32.732,27.544,27.45,26.198,24.055,18.483,14.775
1903,15.992,17.253,23.47,29.073,31.842,31.376,28.32,27.25,26.896,24.189,17.881,14.177
1904,15.631,17.454,23.589,29.593,30.935,29.271,26.123,26.114,26.17,23.97,18.207,15.962
1905,14.776,14.981,22.139,25.987,31.038,34.143,27.176,26.861,26.042,23.6,18.937,15.39
1906,15.157,18.063,22.108,28.737,32.903,31.236,27.481,26.75,26.668,24.072,19.237,15.844
1907,16.062,17.154,21.839,26.104,30.296,29.904,28.513,26.367,26.629,24.429,18.991,14.276
1908,13.803,18.288,22.82,30.213,32.555,32.057,27.635,26.722,27.023,23.791,18.167,14.263
1909,17.131,17.961,22.892,26.451,31.853,28.047,26.538,26.459,26.339,23.401,19.299,15.98
1910,14.986,17.829,23.544,28.892,31.74,29.411,27.275,26.45,26.555,24.056,18.422,14.741
1911,18.178,17.323,22.37,28.386,32.707,28.502,28.937,25.813,26.037,24.191,19.545,14.514
1912,15.775,19.108,23.47,28.297,31.817,32.063,27.63,26.481,26.101,24.056,18.523,14.422
1913,15.39,18.122,21.577,29.141,30.206,27.23,27.108,26.25,26.17,23.623,18.062,14.946
1914,15.83,18.891,22.589,27.229,30.052,29.934,27.171,26.844,26.164,23.242,20.101,15.571
1915,16.221,18.288,23.025,28.828,32.919,31.545,28.376,27.281,26.341,25.342,20.653,14.964
1916,14.499,18.78,24.533,29.875,32.744,28.046,27.314,26.412,26.462,24.65,19.237,13.908
1917,15.332,18.101,22.542,27.036,28.611,28.901,27.02,26.197,26.17,24.517,18,15.131
1918,14.553,18.107,23.588,27.674,31.483,27.346,28.765,25.793,26.17,23.346,18.527,14.782
1919,18.213,17.531,23.789,27.719,30.728,29.204,26.552,26.307,26.084,23.56,19.269,14.878
1920,15.286,18.189,23.787,28.471,29.907,32.012,26.625,26.382,26.428,24.541,19.464,14.949
1921,16.244,17.354,25.109,29.908,34.134,30.202,27.792,25.613,25.956,23.149,17.318,15.962
1922,15.35,18.508,23.814,28.353,32.585,27.858,26.056,25.482,25.188,22.119,17.927,14.312
1923,15.169,17.641,22.099,29.064,32.526,32.869,26.906,25.874,26.454,23.086,18.454,16.195
1924,15.578,18.408,24.762,29.591,31.598,32.826,26.553,26.575,25.929,24.056,18.923,15.151
1925,14.362,17.121,22.898,28.697,30.709,29.447,25.931,26.581,26.463,24.008,19.123,14.943
1926,15.549,18.908,22.717,25.995,30.015,33.196,27.869,26.536,25.809,23.288,17.132,14.935
1927,15.568,18.234,21.6,28.075,30.708,31.738,27.501,26.122,27.023,24.118,18.984,16.223
1928,16.129,18.361,24.078,27.53,31.665,29.003,26.622,26.866,26.854,25.011,19.591,15.963
1929,15.676,17.121,23.956,29.042,32.698,31.091,26.694,25.622,26.991,23.255,18.737,14.96
1930,15.105,17.408,23.844,27.905,30.743,31.237,26.511,26.266,26.638,24.825,18.991,14.998
1931,17.386,18.004,22.754,29.336,32.235,31.83,27.167,26.768,26.737,24.349,19.032,15.756
1932,16.916,17.617,23.68,28.289,31.194,32.195,27.361,26.481,26.665,24.494,19.137,15.368
1933,14.632,18.511,23.818,26.434,29.62,29.214,26.966,26.056,26.462,23.955,18.47,15.178
1934,15.022,17.782,23.267,28.78,32.026,30.634,27.006,26.441,26.563,23.296,18.69,15.93
1935,14.668,18.522,23.487,26.381,32.214,31.696,27.492,25.956,26.17,23.67,18.928,16.107
1936,14.905,17.655,24.087,27.881,31.484,28.43,26.622,26.307,26.043,22.987,19.544,15.962
1937,13.708,18.839,22.27,26.939,30.78,30.966,27.292,26.188,26.341,23.369,19.136,14.17
1938,16.602,16.853,25.074,29.146,30.97,28.401,27.102,26.182,26.587,24.441,18.615,14.494
1939,16.348,19.207,22.589,27.997,32.627,30.335,26.694,25.796,25.901,24.262,18.554,15.185
1940,14.413,18.107,22.156,27.381,31.367,31.281,26.693,26.281,26.17,24.286,20.396,15.962
1941,16.27,18.161,24.776,30.069,32.325,29.244,27.267,26.681,26.628,23.496,18.74,16.031
1942,15.494,18.052,23.435,28.038,32.634,32.163,26.647,26.051,25.5,23.66,19.879,15.729
1943,17.578,16.813,23.391,26.874,31.997,30.553,26.805,25.613,26.562,24.846,19.453,15.884
1944,15.83,18.324,22.11,26.045,32.482,30.934,26.774,26.014,26.828,23.232,19.353,17.33
1945,14.826,17.067,23.634,26.65,31.212,31.386,27.214,27.618,26.468,23.1,18.567,13.94
1946,15.38,19.369,22.975,27.235,31.132,29.602,26.313,26.282,26.069,24.055,19.898,17.496
1947,15.607,18.053,23.879,29.182,32.013,31.727,27.265,26.656,26.535,23.696,19.554,16.133
1948,17.075,18.574,22.598,29.186,32.5,31.44,26.784,26.26,25.9,24.055,20.328,14.932
1949,16.062,18.089,23.487,28.449,31.004,31.437,27.181,26.041,26.069,24.747,17.501,14.689
1950,16.187,17.926,22.315,27.482,32.126,29.303,26.7,26.057,26.17,23.296,18.327,15.454
1951,14.621,17.952,23.284,26.895,31.623,31.157,27.207,26.998,26.968,26.001,20.084,15.457
1952,16.58,20.125,23.062,28.687,32.768,30.953,27.729,26.376,26.289,24.314,19.253,16.174
1953,15.795,20.09,26.416,29.218,32.88,31.477,26.695,26.35,26.138,23.996,18.5,16.848
1954,14.862,20.416,23.449,29.855,32.752,30.208,27.784,26.759,26.165,22.569,17.637,15.67
1955,16.149,18.522,25.33,27.649,32.57,31.867,26.547,26.289,26.34,24.338,18.971,15.955
1956,16.63,18.362,25.08,29.86,32.681,27.77,26.676,25.728,25.384,22.933,18.172,17.184
1957,17.394,17.737,22.583,28.535,32.821,32.113,26.814,26.751,26.009,24.468,19.537,17.031
1958,17.463,19.558,25.367,30.344,32.822,33.457,27.892,26.649,26.17,24.812,20.492,17.221
1959,17.089,18.233,24.123,29.192,32.596,31.199,27.274,26.213,25.869,24.466,19.216,15.455
1960,15.748,19.896,23.126,28.682,31.726,31.794,26.774,26.55,26.383,24.252,18.377,16.544
1961,16.547,17.077,24.362,28.837,32.592,29.147,26.608,26.495,26.055,23.751,18.136,12.648
1962,13.693,17.954,22.334,28.124,31.115,30.766,28.001,26.381,25.899,22.531,19.263,16.337
1963,14.195,19.807,23.299,28.333,30.476,29.811,26.837,26.782,25.83,24.381,19.979,16.91
1964,15.804,17.644,24.596,29.259,30.594,30.025,24.856,26.382,26.17,24.067,18.873,16.262
1965,16.395,18.585,22.297,26.413,30.085,32.356,27.629,26.581,25.733,24.279,20.253,15.446
1966,15.84,20.206,23.781,29.864,32.534,31.02,28.545,26.694,26.783,24.723,21.866,15.702
1967,16.475,20.279,22.826,27.284,31.524,32.768,28.07,25.986,25.909,23.231,18.983,17.39
1968,15.846,17.867,23.293,27.841,31.495,29.522,26.828,26.012,26.954,23.555,19.038,15.603
1969,15.576,20.371,25.257,29.273,30.74,31.143,27.375,26.15,25.683,24.638,20.905,16.394
1970,17.199,18.289,23.263,29.545,31.629,28.747,26.612,26.286,25.669,23.696,18.354,14.664
1971,15.277,17.731,22.19,26.299,28.492,27.079,25.449,25.052,25.584,23.87,18.764,15.263
1972,14.991,16.418,23.486,28.091,32.219,32.332,27.475,26.716,25.233,23.198,19.588,15.927
1973,15.82,19.386,22.44,29.114,31.774,29.604,27.244,26.68,25.669,23.986,19.154,15.861
1974,14.573,17.636,23.6,29.03,31.099,31.439,26.976,26.596,26.536,24.948,19.022,14.329
1975,14.621,18.541,23.164,28.928,32.249,30.289,26.549,26.182,25.728,24.84,19.1,15.15
1976,15.638,19.398,23.788,27.717,30.903,30.865,27.193,26.395,25.675,24.684,21.64,16.631
1977,15.563,18.791,25.097,28.231,28.609,29.754,26.561,26.721,26.393,24.071,21.123,14.816
1978,14.749,18.279,21.587,27.402,32.018,29.594,26.706,26.507,26.129,23.929,20.617,15.679
1979,16.661,16.239,22.796,28.176,31.625,31.06,28.005,27.379,25.823,25.012,22.411,16.799
1980,16.437,19.159,22.757,29.946,31.805,28.943,26.48,25.954,26.014,24.41,20.389,16.449
1981,15.324,18.56,23.127,27.821,30.455,30.938,26.92,27.14,26.922,24.055,19.276,15.567
1982,17.93,18.436,22.408,28.168,30.542,29.911,29.467,26.777,26.899,24.568,20.145,16.886
1983,15.021,18.389,23.956,27.375,30.407,31.534,27.807,27.436,27.223,23.793,18.898,16.326
1984,16.431,17.49,23.857,29.39,32.399,28.132,26.553,26.012,25.908,24.494,18.537,16.371
1985,17.117,18.391,25.269,29.231,32.072,31.313,26.194,26.524,26.639,23.613,19.626,17.336
1986,15.665,18.331,22.95,28.593,30.081,30.098,26.166,25.782,25.855,23.174,20.659,16.249
1987,15.259,19.072,23.216,28.361,30.485,32.467,27.048,26.205,26.082,23.794,19.65,16.034
1988,16.098,19.175,23.29,28.635,31.972,28.575,26.91,27.112,27.681,24.447,19.633,17.256
1989,15.139,18.915,24.055,28.969,32.03,28.883,26.912,26.412,26.729,24.431,20.161,16.222
1990,17.306,19.375,22.153,28.417,29.596,29.902,25.811,26.545,26.754,23.161,20.379,16.648
1991,15.186,20.22,23.219,27.605,31.98,28.73,27.797,25.668,26.085,23.722,18.522,15.377
1992,15.163,16.779,24.158,28.59,30.286,30.137,28.556,26.681,26.554,24.554,20.918,16.417
1993,17.024,20.379,23.411,28.101,32.384,32.081,28.089,26.755,26.17,24.851,18.71,15.793
1994,17.249,18.522,24.453,27.573,31.893,30.273,26.338,25.948,26.101,24.916,20.509,16.548
1995,14.762,18.523,22.862,28.589,30.814,32.495,27.181,26.142,26.01,24.515,20.407,16.563
1996,16.736,17.555,24.817,26.912,32.472,28.939,27.025,25.896,26.783,24.227,20.122,15.377
1997,15.254,17.166,23.589,25.834,30.796,32.393,26.621,26.123,25.783,25.01,20.937,17.309
1998,15.54,18.822,20.624,26.785,30.192,33.01,26.392,26.822,26.568,26.401,20.763,17.234
1999,15.012,19.352,24.185,30.027,31.157,30.169,26.805,26.481,25.896,25.51,21.263,17.44
2000,15.778,17.861,22.787,29.619,31.326,29.041,27.86,26.886,25.683,25.905,22.063,16.443
2001,15.316,18.207,23.572,28.448,31.953,27.981,25.948,26.912,26.908,26.27,22.276,18.088
2002,15.796,19.548,24.456,28.76,32.537,31.211,28.364,26.381,26.17,24.355,20.295,17.618
