Year,Jan,Feb,Mar,Apr,May,Jun,Jul,Aug,Sep,Oct,Nov,Dec
1901,16.317,53.761,14.071,26.864,27.031,119.52,196.492,241.005,206.817,21.015,18.078,0
1902,8.83,0.769,0.528,6.958,16.094,122.451,307.247,340.572,249.458,10.648,2.115,14.583
1903,4.291,18.374,2.227,1.902,34.135,164.651,575.807,256.042,188.759,60.579,2.571,0.818
1904,0.262,4.327,30.676,0.22,94.482,236.956,272.842,577.832,158.75,49.314,0.154,2.774
1905,4.773,13.784,38.074,83.646,45.319,111.872,337.339,418.949,463.959,4.937,0,0.232
1906,4.206,41.249,22.234,0.22,7.837,301.319,476.364,284.802,181.202,37.763,4.05,1.478
1907,0.288,30.68,31.052,126.358,16.992,281.107,185.755,384.204,96.042,5.406,3.048,9.219
1908,13.009,9.498,7.851,7.204,20.039,347.395,266.876,441.979,191.403,39.723,0,0.481
1909,0.965,16.071,0.304,82.467,16.853,211.088,406.992,259.244,154.008,3.277,0,2.417
1910,5.407,2.394,13.618,16.539,12.982,194.081,423.325,443.472,227.099,85.345,12.064,0
1911,2.227,0.259,30.347,1.286,17.923,365.386,213.503,386.234,301.714,67.135,19.668,0.122
1912,0.102,48.39,2.079,22.883,21.79,51.32,404.175,373.16,200.716,18.874,10.346,0.021
1913,0,46.569,27.148,7.748,21.493,215.638,363.047,328.258,183.818,57.444,1.909,3.988
1914,0.761,11.925,26.76,58.743,30.689,240.515,283.622,364.205,276.146,7.143,0,5.791
1915,22.464,51.991,33.251,21.179,21.374,125.836,269.746,420.521,233.339,49.176,15.442,0
1916,0,9.877,0.2,8.282,9.676,196.251,325.982,364.511,165.064,66.488,6.278,0
1917,0.58,52.951,6.269,13.812,49.054,234.17,301.302,451.666,291.086,171.124,0.795,0.209
1918,14.989,0.379,12.524,5.909,30.654,293.109,248.729,502.168,192.566,5.14,0.929,3.506
1919,45.506,40.16,32.621,13.139,29.28,273.873,418.987,514.387,162.535,98.96,12.853,2.29
1920,3.855,9.332,33.028,12.004,13.767,101.51,438.398,370.325,102.791,19.64,0,0
1921,28.735,6.55,0.2,12.269,0.22,271.343,338.696,414.142,188.075,23.853,0,0
1922,6.021,0.837,0.2,7.671,11.952,251.22,442.248,341.208,289.867,49.352,12.874,0.209
1923,0,46.933,3.572,18.284,3.949,93.736,322.942,396.148,215.847,33.032,8.026,0.547
1924,25.971,9.778,1.591,23.933,15.171,91.676,302.661,328.859,298.167,61.21,17.715,0.113
1925,0,1.937,4.195,20.938,72.238,265.421,461.179,537.014,132.688,37.496,4.907,1.507
1926,7.596,0.977,61.846,33.124,39.03,148.217,356.896,552.1,308.071,37.143,1.749,3.276
1927,3.513,16.598,84.07,2.11,15.784,210.4,521.458,588.592,122.115,50.725,8.412,0.079
1928,2.037,6.361,6.878,30.465,25.29,142.903,558.584,284.379,278.501,95.741,0.108,0.782
1929,8.262,28.482,2.63,27.05,13.468,201.936,511.814,603.914,154.908,108.938,0,9.244
1930,0.545,1.379,23.719,27.222,18.041,153.528,358.045,252.495,250.53,32.845,27.792,3.412
1931,0.887,25.931,16.732,15.874,11.531,46.888,342.944,511.976,218.043,88.12,20.048,1.268
1932,0,27.183,0.554,26.401,23.141,83.569,553.353,437.185,207.803,15.746,19.593,0.438
1933,7.55,12.302,8.376,35.175,36.521,255.454,348.525,391.588,208.515,52.689,6.256,4.258
1934,2.227,2.267,1.878,13.226,0.969,225.474,456.174,598.701,232.59,57.57,12.725,0.257
1935,1.676,2.728,2.08,25.619,4.878,119.796,424.415,409.773,217.407,9.685,0,0
1936,1.715,70.436,19.46,4.632,56.485,397.43,570.075,428.832,243.159,84.082,7.203,3.153
1937,0,62.401,21.93,58.124,10.733,98.159,490.569,284.865,175.837,60.891,0,0
1938,7.938,25.321,14.446,14.434,45.647,204.072,261.784,327.577,270.568,98.291,6.226,0
1939,6.58,9.067,28.174,18.035,2.958,158.483,400.502,289.976,233.646,76.912,4.495,0.122
1940,0.102,32.899,82.507,19.022,30.1,180.899,332.923,482.436,114.612,38.698,5.416,2.57
1941,10.759,3.274,21.62,2.837,29.428,275.707,199.55,323.505,166.36,44.929,5.837,0
1942,7.465,50.603,17.224,42.407,14.256,126.715,483.596,459.565,225.784,11.441,3.295,0
1943,24.785,3.599,1.482,55.478,32.633,136.457,419.654,498.082,179.819,51.795,1.291,0
1944,13.414,55.252,109.09,38.049,21.652,91.785,481.202,436.721,203.54,69.417,1.913,0
1945,14.116,9.339,0.2,47.579,16.974,154.648,401.049,249.92,352.009,71.125,7.319,3.52
1946,0,8.157,13.6,39.856,28.517,226.295,535.472,497.467,243.604,63.354,10.265,0.438
1947,18.694,9.963,27.53,10.414,5.234,161.849,495.945,332.745,320.753,51.173,5.839,5.44
1948,6.628,20.297,15.627,32.073,16.152,187.632,297.839,306.314,305.877,31.025,30.835,0.438
1949,0,7.34,8.911,12.578,32.251,144.585,242.443,471.198,216.407,123.515,0,0
1950,2.301,29.212,49.559,13.202,5.867,132.964,377.686,363.983,79.691,15.214,13.992,2.658
1951,1.719,1.3,58.755,39.386,21.533,137.772,459.191,365.382,187.134,42.836,2.301,0
1952,0.334,8.217,25.971,32.106,15.864,155.476,369.836,293.873,297.446,49.882,0,7.139
1953,17.397,0.159,0.2,13.738,7.104,160.379,261.233,550.726,220.13,38.764,3.943,0
1954,1.82,8.969,9.474,11.899,16.589,122.148,273.943,329.273,348.216,45.261,0,0.957
1955,4.947,5.064,34.657,21.642,10.845,105.213,282.073,382.997,195.554,110.428,3.078,0
1956,3.846,13.067,3.667,8.492,56.536,252.024,572.664,560.753,237.556,42.707,2.236,2.047
1957,3.822,4.179,33.056,13.186,13.734,152.382,504.041,428.667,99.915,40.98,0,0.052
1958,9.095,12.259,22.102,46.151,22.184,74.448,535.89,331.728,279.388,109.243,6.453,0
1959,13.719,2.215,0.2,4.404,24.996,222.924,392.144,305.562,235.561,89.646,0,1.773
1960,1.505,0.159,32.848,16.354,34.923,189.558,419.293,390.797,169.077,55.202,0.122,0.272
1961,14.306,58.448,25.89,10.817,28.477,226.207,317.364,392.022,244.635,90.327,8.237,2.621
1962,4.869,27.657,3.854,20.587,10.351,163.597,425.126,315.643,216.471,39.458,1.884,12.205
1963,2.331,1.993,25.321,49.562,43.923,106.438,266.232,415.707,229.897,93.41,1.265,0
1964,0.2,41.843,9.524,47.294,18.584,152.744,275.719,539.285,224.42,62.604,7.583,0
1965,5.348,2.302,26.159,31.817,19.427,121.072,491.905,228.16,184.874,16.488,0,1.073
1966,41.429,2.808,1.961,10.559,8.428,184.703,200.204,268.338,173.591,16.604,5.062,7.763
1967,12.759,0.159,85.36,14.159,6.48,213.379,316.146,431.409,244.268,15.271,0,20.267
1968,14.232,17.729,21.127,27.455,13.428,149.818,360.15,221.683,264.999,62.546,5.429,1.523
1969,0.195,1.425,10.588,12.705,30.622,102.072,591.863,309.137,281.608,19.193,10.801,22.465
1970,6.283,17.157,45.387,18.953,18.55,271.304,292.018,475.372,216.998,20.746,0.317,0
1971,8.955,21.996,2.077,54.134,65.435,344.912,329.651,483.949,143.074,52.656,0,0
1972,2.82,42.472,0.639,29.369,8.356,107.268,379.158,334.95,239.244,79.093,19.861,0.449
1973,0.695,0.159,5.25,11.817,6.09,190.355,137.597,331.581,138.254,110.195,1.078,2.571
1974,0,1.993,18.728,4.558,24.854,228.753,366.455,227.403,112.161,72.914,6.154,0
1975,1.201,12.677,18.32,9.728,22.905,289.649,446.123,308.339,270.565,102.603,4.355,0
1976,3.422,2.052,5.218,53.384,24.449,86.763,470.959,363.168,304.338,6.526,9.127,1.071
1977,2.514,1.56,0.433,63.027,64.239,178.898,445.97,413.755,169.941,34.114,33.149,7.576
1978,11.548,39.177,35.259,54.399,17.179,290.791,362.48,426.71,259.82,33.019,8.888,9.736
1979,2.922,16.183,0.27,18.715,3.139,241.942,359.803,288.475,183.575,30.744,7.544,3.182
1980,14.18,14.02,15.766,10.912,13.227,327.24,452.722,306.927,176.471,21.735,0,1.732
1981,17.883,3.677,50.457,23.874,27.142,95.884,333.029,299.105,244.981,11.647,2.783,1.695
1982,6.887,10.241,44.232,29.064,24.602,162.156,344.475,461.998,231.597,8.755,11.977,1.015
1983,0.771,28.06,19.308,17.485,39.071,165.768,360.176,298.691,160.79,51.833,0.784,1.967
1984,10.972,19.015,2.958,20.586,24.997,309.166,367.861,330.5,123.078,29.26,0.169,0
1985,26.372,1.266,2.962,3.851,13.377,226.656,385.335,380.194,184.041,101.429,0,0.375
1986,22.737,36.119,2.405,20.44,14.213,190.453,371.596,433.983,133.677,16.634,16.675,4.964
1987,4.368,4.728,14.38,8.797,27.897,95.586,296.534,423.88,239.164,33.602,10.129,0.993
1988,1.23,13.909,21.034,24.114,36.382,190.468,412.219,260.986,158.699,23.784,1.894,0.541
1989,0,0.159,35.409,3.466,43.775,215.377,303.926,369.766,180.362,27.54,2.965,8.967
1990,1.551,70.745,54.529,6.927,68.201,292.667,514.748,482.282,176.837,111.02,5.536,1.566
1991,10.828,3.562,33.729,20.218,7.182,182.054,397.1,426.052,167.309,29.011,4.261,8.413
1992,8.14,2.595,0.2,7.259,24.216,137.227,357.868,284.071,119.523,34.797,5.651,0
1993,1.36,0.543,22.511,8.252,34.295,142.808,318.267,225.08,237.84,87.987,0.534,0
1994,8.778,7.287,22.934,16.971,33.525,236.581,447.887,392.096,136.476,71.603,3.165,0
1995,6.256,4.647,56.937,8.127,36.038,149.67,433.612,255.021,209.212,60.746,6.255,0
1996,9.461,5.212,8.985,21.372,4.308,178.213,324.237,325.886,110.564,57.051,5.808,0
1997,15.537,0.85,51.027,26.734,15.843,55.709,268.027,307.627,156.938,12.115,23.012,15.578
1998,3.877,31.408,4.765,15.936,44.987,102.874,261.983,200.011,163.284,112.072,28.046,0
1999,4.096,3.399,0.2,0.22,34.531,175.136,232.788,593.683,150.522,38.12,0.742,0
2000,1.641,56.053,0.2,19.22,19.031,296.556,221.177,282.576,139.508,34.657,0.326,0
2001,0.585,0.299,30.375,21.928,32.857,183.76,348.62,440.645,85.443,47.721,12.181,0
2002,44.275,3.93,8.871,19.524,23.566,126.782,235.282,429.073,107.383,36.172,5.494,0
