Year,Jan,Feb,Mar,Apr,May,Jun,Jul,Aug,Sep,Oct,Nov,Dec
1901,18.637,33.766,17.038,56.134,38.483,128.834,180.741,232.704,202.274,24.229,27.576,0
1902,6.482,0.006,0.207,6.766,23.008,143.783,292.884,364.291,217.353,16.757,3.357,26.795
1903,2.194,7.756,0.908,2.224,56.098,205.357,651.064,281.93,202.922,73.445,4.524,8.818
1904,0.485,2.011,20.753,0.341,95.936,248.981,222.791,510.887,193.956,56.273,0,7.463
1905,3.351,6.053,22.594,131.386,63.679,139.777,297.568,422.654,503.558,5.014,0,0.003
1906,9.15,22.487,12.881,0.341,14.052,398.571,405.546,306.937,170.235,35.055,3.8,2.846
1907,0.632,15.897,18.731,174.888,21.317,306.914,177.86,374.959,99.296,7.175,5.303,9.537
1908,9.179,1.721,6.912,11.028,28.166,356.909,257.238,417.375,241.415,25.822,0,0.906
1909,0.051,17.251,0.488,108.898,37.545,202.708,388.945,251.551,158.032,6.906,0,3.124
1910,1.822,0.751,4.693,25.684,21.597,221.913,446.176,323.334,287.539,147.558,16.168,0
1911,1.512,0.031,21.823,3.076,26.692,321.38,289.265,407.434,300.29,98.08,22.167,0.325
1912,0.138,38.165,0.708,35.523,28.239,38.908,442.996,360.081,274.621,25.576,11,0.129
1913,0,26.589,10.552,18.53,21.186,198.772,325.192,320.819,239.868,61.47,1.189,3.128
1914,0.474,4.135,22.225,57.828,33.047,322.166,340.737,326.164,337.403,13.282,0,9.431
1915,36.541,34.323,28.784,27.3,35.72,164.315,270.437,390.035,214.15,64.086,11.086,0.055
1916,0,4.196,0.092,16.35,19.653,156.528,283.875,355.662,224.317,61.207,7.503,0
1917,0.357,32.023,2.053,21.92,63.081,279.874,330.459,257.964,449.776,225.376,0.956,0.145
1918,26.705,0.386,9.8,13.405,49.598,299.305,263.679,490.757,182.478,8.241,1.988,7.633
1919,37.818,40.218,34.083,10.655,30.276,297.232,361.787,444.23,184.775,132.417,23.63,5.02
1920,6.978,2.958,15.173,28.723,12.832,120.028,350.451,300.587,96.588,24.697,0,0
1921,20.555,2.063,0.092,14.807,0.326,265.65,287.953,337.991,228.656,29.697,0,0
1922,4.082,0.003,0.092,7.42,22.508,253.869,472.014,273.837,287.148,62.968,21.5,0.145
1923,0,22.197,6.948,32.643,7.378,84.792,261.986,281.049,197.125,45.218,7.571,0.001
1924,33.943,3.241,2.656,29.214,19.782,112.856,253.365,351.585,335.373,74.324,20.042,0.5
1925,0,0.589,1.993,19.903,112.558,283.731,496.524,513.361,158.57,24.604,5.01,0.003
1926,22.301,0.323,36.55,54.843,44.271,198.61,357.421,669.117,366.454,51.425,1.378,2.395
1927,4.966,6.097,46.325,4.413,24.132,307.515,535.837,577.938,90.012,90.822,10.622,0.357
1928,1.368,3.83,9.712,15.382,19.499,142.076,629.902,273.243,357.235,84.883,0,1.134
1929,5.314,33.612,1.475,43.606,9.581,264.336,645.452,646.626,230.945,81.254,0,12.911
1930,0.326,0.062,33.113,28.565,9.68,206.55,260.987,217.141,277.619,51.784,41.292,3.54
1931,0.248,9.466,10.409,35.693,20.363,39.45,309.349,507.191,234.235,120.09,31.956,0.75
1932,0,18.881,1.257,16.124,24.099,104.037,552.713,427.391,254.315,12.551,28.041,0.317
1933,2.535,4.237,11.468,38.094,57.23,288.061,350.617,360.64,232.175,57.529,11.851,9.02
1934,1.473,0.447,1.253,20.925,1.446,276.836,496.447,608.501,286.353,92.786,15.98,0.402
1935,1.481,0.931,1.3,24.623,8.811,127.533,437.494,311.094,254.813,6.686,0,0
1936,0.645,54.512,16.701,3.529,59.16,418.851,577.442,409.553,281.726,81.952,12.853,2.263
1937,0,39.735,29.022,74.144,8.059,113.864,495.084,219.571,195.12,51.862,0,0
1938,4.873,18.07,20.886,31.928,35.838,235.322,274.127,300.184,233.087,173.998,11.824,0
1939,4.835,5.156,26.772,37.384,2.125,148.357,352.175,242.763,214.873,127.287,8.347,0
1940,0.034,18.803,35.314,21.638,41.618,225.073,323.244,409.105,67.03,69.726,10.83,3.342
1941,4.669,2.02,23.262,7.247,37.926,303.896,167.973,263.282,134.066,33.663,8.795,0
1942,4.77,33.088,6.941,63.084,27.93,130.918,505.151,392.234,181.037,12.033,1.625,0.07
1943,32.975,1.121,0.329,40.461,54.703,162.897,365.461,358.4,197.2,60.048,2.141,0
1944,12.345,24.788,78.037,44.877,35.342,94.775,499.761,368.316,256.791,86.654,3.576,0
1945,19.774,2.943,0.092,46.669,15.437,151.366,389.382,297.982,429.765,66.65,14.117,4.072
1946,0,5.028,7.53,61.179,36.367,208.417,534.119,397.671,253.863,69.966,6.824,0.388
1947,21.788,2.832,25.886,19.006,8.164,170.001,533.109,352.011,347.391,65.144,11.246,8.054
1948,2.543,8.392,17.849,22.171,18.92,201.61,245.074,258.815,334.842,37.608,46.763,0.317
1949,0,2.818,3.611,15.599,36.9,200.106,212.309,401.315,226.904,174.384,0,0
1950,1.52,22.289,22.894,12.205,8.852,121.628,384.65,321.195,93.717,12.52,29.319,2.064
1951,1.161,0.59,52.89,24.578,42.588,154.917,506.6,315.387,150.872,55.48,1.256,0
1952,0.062,5.495,10.455,33.003,23.835,124.877,463.865,279.551,347.201,50.821,0,13.741
1953,18.646,0,0.092,27.729,11.302,194.588,243.081,525.549,219.961,67.069,2.597,0
1954,1.194,1.989,12.856,28.544,21.074,102.929,410.953,409.78,405.807,60.558,0,0.147
1955,3.406,2.351,39.554,30.424,9.861,127.492,313.118,446.065,225.934,151.013,2.062,0
1956,2.496,4.715,1.251,1.538,66.279,240.686,491.593,468.551,187.735,40.679,4.507,1.784
1957,1.499,2.041,33.945,32.626,23.295,201.931,502.077,413.215,92.645,75.43,0,0.243
1958,3.921,4.585,17.314,33.456,37.478,68.27,406.307,328.67,319.893,119.058,8.539,0
1959,14.95,1.109,0.092,13.14,36.202,295.656,344.963,353.2,280.931,86.11,0,2.931
1960,1.213,0,24.359,28.889,58.592,241.479,348.045,318.188,191.949,86.856,0.298,0.001
1961,5.571,36.745,37.647,23.312,42.935,230.63,359.163,314.985,260.463,130.665,16.02,2.803
1962,6.656,22.525,3.915,49.12,18.473,180.479,352.259,361.206,208.787,10.855,4.202,25.681
1963,1.508,1.343,15.128,51.094,42.774,109.803,258.58,409.142,277.742,108.671,0.703,0
1964,0,38.162,6.525,66.198,15.104,149.628,236.994,468.277,227.017,91.602,5.565,0
1965,6.275,0.633,21.97,24.14,30.574,164.856,395.076,197.031,191.066,6.376,0,0.806
1966,48.202,0.283,3.51,26.025,17.759,183.526,256.667,296.407,204.701,17.934,4.823,8.556
1967,3.929,0,61.877,25.548,8.657,256.16,283.596,395.628,215.486,17.984,0,44.839
1968,16.439,10.914,31.414,67.86,22.158,168.336,338.66,171.673,344.103,91.488,7.983,1.946
1969,0.132,0.43,5.865,18.086,34.07,114.775,602.707,308.506,327.702,34.181,13.354,46.728
1970,6.209,7.541,36.674,42.926,20.787,282.007,281.415,553.317,211.276,15.071,0.001,0
1971,6.763,11.196,1.754,62.751,80.022,298.691,260.626,420.528,162.169,62.087,0,0
1972,1.86,23.28,0.208,19.708,13.943,143.213,431.863,279.279,281.913,62.723,30.185,0.404
1973,0.473,0.132,7.048,18.759,5.095,233.089,85.377,258.8,127.265,128.194,0.459,0.006
1974,0,0.708,4.05,11.016,36.15,327.083,296.806,183.636,115.522,87.316,9.423,0
1975,1.775,9.911,8.16,23.236,33.021,384.869,324.162,357.658,353.641,149.098,2.862,0
1976,2.245,0.661,8.002,46.037,45.01,105.355,413.574,365.672,252.588,0.56,16.6,2.269
1977,1.667,0.633,0.943,73.274,56.402,200.034,380.829,404.194,145.828,33.594,50.727,13.902
1978,17.13,20.124,24.154,63.793,24.004,284.335,325.766,392.41,232.839,32.153,16.695,5.909
1979,2.18,9.212,0.092,15.941,6.29,303.66,366.727,371.814,216.825,58.224,7.57,4.428
1980,3.652,2.561,6.909,18.809,16.85,369.047,445.702,240.47,203.887,20.203,0,1.005
1981,19.861,0.985,32.895,47.855,39.515,125.737,296.774,280.586,245.553,18.063,2.759,1.853
1982,5.335,6.008,24.616,34.56,28.106,194.19,353.239,437.203,242.81,12.986,18.612,0.955
1983,0.457,18.157,13.398,16.117,44.409,184.138,349.856,292.851,185.974,54.555,1.354,3.195
1984,8.04,11.915,3.101,18.649,34.726,285.808,384.396,303.319,128.541,31.318,0,0
1985,28.889,0.518,2.907,4.627,18.885,285.139,336.416,371.589,205.866,129.338,0,0.705
1986,26.078,23.674,1.924,26.66,16.543,220.87,329.486,432.707,111.069,21.275,24.892,7.437
1987,3.738,1.93,12.979,10.366,39.354,132.532,262.598,367.721,168.148,38.187,12.349,0.735
1988,0.783,6.502,10.951,39.565,45.055,203.143,405.538,260.251,166.45,24.837,4.23,0.821
1989,0,0,36.626,5.628,45.139,207.755,286.615,366.082,204.68,19.844,2.187,8.253
1990,2.729,48.538,48.317,9.075,99.811,302.972,416.316,515.911,180.964,147.011,8.811,3.278
1991,11.781,1.254,20.699,28.673,21.253,255.249,406.608,342.81,201.3,33.517,6.848,5.898
1992,6.888,1.442,0.092,10.205,24.961,172.65,361.525,323.775,134.484,33.91,9.955,0
1993,0.75,1.064,20.884,9.335,49.047,167.831,329.248,211.976,259.705,108.349,0.001,0
1994,6.077,4.484,18.451,18.408,53.398,208.054,454.44,380.526,170.905,66.261,5.336,0
1995,6.393,1.209,54.165,14.175,48.975,182.608,438.309,247.265,229.446,82.555,8.466,0
1996,9.466,2.429,8.623,35.94,3.631,141.835,308.132,282.429,123.725,49.198,10.762,0
1997,15.15,0,48.709,39.357,12.336,54.737,235.813,255.416,178.693,15.399,35.258,25.803
1998,1.141,20.968,4.447,20.94,50.89,122.231,254.025,184.079,163.844,117.412,44.061,0
1999,2.909,2.094,0.092,0.341,40.684,201.272,196.236,625.641,180.368,55.176,0.299,0
2000,0.797,38.871,0.092,20.99,27.479,327.877,237.096,301.666,126.668,60.095,0.001,0
2001,0.664,0,18.315,31.059,49.824,223.571,350.878,449.01,98.218,55.628,20.534,0
2002,51.839,1.786,7.137,27.027,32.229,169.967,219.868,425.551,93.19,32.16,2.97,0
