Year,Jan,Feb,Mar,Apr,May,Jun,Jul,Aug,Sep,Oct,Nov,Dec
1901,32.234,47.113,1.718,9.882,63.109,86.798,160.495,152.31,282.988,98.025,209.064,1.043
1902,12.658,0.744,7.985,26.591,52.762,147.561,209.098,268.302,171.195,100.503,4.011,37.732
1903,6.52,28.471,4.165,7.297,13.109,144.609,253.858,139.106,211.517,150.238,35.211,2.272
1904,0.644,4.099,14.241,1.968,97.423,190.012,263.441,240.808,190.476,98.034,2.184,9.697
1905,5.863,16.952,46.427,61.768,115.243,67.119,276.098,182.382,270.476,75.128,2.709,0.51
1906,6.994,55.098,30.778,0.25,17.528,181.029,222.318,303.618,145.644,117.222,45.433,2.12
1907,0.49,8.896,32.253,80.824,38.553,154.703,117.575,207.791,71.69,38.733,9.169,29.95
1908,22.031,0.988,0.174,3.748,39.799,307.267,252.756,268.399,216.179,36.039,3.636,0.362
1909,0.622,22.847,0.174,57.42,25.356,164.612,175.42,243.218,162.182,46.253,2.078,26.939
1910,14.928,1.077,3.544,8.552,26.187,211.504,342.945,314.518,155.346,215.22,6.682,0.246
1911,0,2.127,12.114,9.087,20.834,265.183,129.036,146.741,298.1,52.099,4.658,0.535
1912,0.652,22.549,42.992,13.309,28.409,143.567,235.92,257.536,190.712,101.408,198.245,0.001
1913,0.757,27.649,4.661,9.303,41.687,142.111,286.059,137.684,109.266,210.694,39.61,7.403
1914,0,35.747,2.634,57.946,64.95,200.279,215.039,143.708,348.711,10.205,2.544,12.374
1915,3.76,20.972,34.304,35.339,57.609,185.939,209.395,370.901,196.361,167.977,123.315,0.639
1916,0.49,0.773,0.174,7.459,18.945,348.131,183.125,230.226,171.664,324.061,163.693,0.209
1917,0,78.406,12.305,11.676,67.317,230.355,200.792,284.02,142.387,316.11,25.441,5.801
1918,0.818,0.321,8.27,22.647,72.923,232.182,146.203,190.56,173.762,17.599,6.044,2.045
1919,59.826,15.088,2.927,18.917,24.992,202.564,237.654,282.219,82.294,118.431,143.839,0.646
1920,0.622,14.392,44.115,0.991,28.533,126.218,151.203,235.564,154.233,155.222,6.111,0.127
1921,57.858,0.8,3.924,25.809,12.897,167.945,178.977,195.775,228.216,114.528,2.629,0.51
1922,7.518,6.155,0.174,4.894,13.417,221.318,177.333,272.214,244.743,56.813,54.969,0.362
1923,0.728,76.429,12.956,8.624,30.386,84.587,180.107,180.201,178.597,174.824,98.896,11.032
1924,23.629,5.986,0.174,1.968,27.019,43.904,132.394,200.307,326.674,103.224,120.945,0.209
1925,2.05,0.823,8.909,50.053,86.519,400.486,264.627,209.593,115.102,295.025,7.741,31.027
1926,5.622,3.783,46.785,30.641,23.027,110.131,281.605,265.073,268.142,94.046,1.066,1.241
1927,4.959,3.496,56.028,8.727,28.784,125.56,186.448,230.467,206.296,51.441,21.919,0.375
1928,0.641,5.103,0.714,42.328,50.255,203.673,269.657,301.704,191.916,295.11,10.922,0.002
1929,1.192,28.094,13.117,16.831,41.227,162.39,117.086,285.938,153.646,282.481,5.969,9.044
1930,0.744,17.166,2.32,11.301,122.011,170.659,320.622,227.597,178.25,95.57,125.518,0.375
1931,3.225,4.139,9.365,14.445,48.691,118.941,186.307,228.169,208.607,292.917,82.719,7.885
1932,0.172,14.006,3.691,27.881,65.264,59.406,197.583,206.013,158.282,87.389,197.487,0.695
1933,24.047,3.065,6.434,16.751,49.706,221.369,269.739,177.043,194.156,217.722,13.795,1.089
1934,0,7.08,1.829,7.52,13.695,195.182,256.918,249.961,160.134,115.178,12.93,2.404
1935,0.957,5.547,5.296,16.63,10.222,117.289,122.149,124.98,111.028,86.351,2.953,0.204
1936,7.717,47.667,2.651,9.088,98.487,361.294,218.627,230.267,193.338,167.163,34.748,1.915
1937,0.622,65.587,8.471,32.484,46.034,179.34,148.967,210.11,147.429,188.629,1.824,1.228
1938,6.526,12.345,2.8,0.867,102.111,180.865,105.954,169.973,271.394,129.005,22.93,0.165
1939,10.275,2.236,44.454,6.675,16.013,98.243,224.754,273.139,264.063,241.612,17.18,5.536
1940,0,18.076,78.059,6.765,118.208,235.952,189.859,223.289,204.577,110.383,9.249,6.481
1941,23.497,8.494,0.682,3.936,44.617,194.271,162.252,229.113,165.35,287.434,66.151,0.444
1942,1.278,13.622,0.952,23.029,5.868,97.408,179.914,246.732,241.215,162.374,66.84,1.435
1943,26.521,1.408,3.752,72.162,11.251,150.952,263.24,243.939,110.667,184.851,21.856,0.246
1944,21.971,37.154,60.305,25.016,37.374,152.719,202.283,207.03,155.943,168.912,6.812,0.407
1945,5.43,0.748,2.91,51.842,23.126,67.061,184.112,110.818,225.822,269.099,2.78,22.003
1946,0.676,0.264,1.784,29.567,39.488,249.199,239.671,195.248,176.537,168.29,165.335,0.51
1947,25.531,46.384,6.97,5.717,23.318,223.78,308.996,229.42,248.938,113.527,11.557,27.205
1948,18.319,65.786,28.354,30.94,33.347,129.327,167.194,184.347,180.602,108.449,132.146,2.656
1949,0.76,6.977,6.878,32.654,99.411,116.543,173.434,213.666,340.864,191.134,3.135,0.001
1950,0,7.785,9.595,18.159,29.81,161.189,227.562,107.788,66.105,149.1,166.05,0.203
1951,0.675,0.255,21.396,24.442,46.181,134.333,424.877,276.53,227.283,54.929,114.479,0.388
1952,1.278,2.778,11.051,68.036,30.307,195.325,244.049,154.033,116.612,227.343,1.972,1.783
1953,27.889,3.254,0.174,0.477,9.164,111.411,110.78,322.283,256.318,115.811,164.979,0.113
1954,0.711,20.246,0.174,1.612,53.34,276.72,117.787,182.899,280.364,160.875,2.537,17.283
1955,0.599,0.897,11.305,12.879,101.155,150.782,103.35,252.859,357.702,347.743,119.034,0.993
1956,0.928,33.547,9.29,17.997,81.057,327.83,381.889,390.804,289.961,262.646,51.971,0.113
1957,8.866,12.452,22.5,8.648,1.325,99.289,210.736,301.819,107.088,120.859,3.577,0.001
1958,21.064,39.698,1.545,38.692,3.2,143.894,267.96,149.731,225.713,175.812,190.528,0.51
1959,11.532,15.575,2.087,17.608,77.822,177.7,268.483,127.585,149.144,277.271,1.432,7.615
1960,0.622,0.941,11.891,0.867,30.85,149.328,394.461,212.791,105.856,109.753,1.12,7.207
1961,37.045,69.902,1.064,2.255,59.268,156.625,155.278,240.637,334.13,195.051,6.075,0.114
1962,1.438,7.653,0.394,15.917,6.177,128.449,256.982,147.512,247.709,327.853,2.129,1.934
1963,0.589,0.803,3.756,69.703,89.31,123.504,265.449,148.486,182.289,313.249,15.931,0.476
1964,1.246,19.206,6.683,19.137,58.69,54.519,316.518,256.403,245.864,89.742,9.472,1.249
1965,7.564,14.398,13.728,21.918,5.208,77.374,298.073,288.201,223.093,105.762,1.736,1.297
1966,63.571,14.743,1.262,1.889,12.564,147.882,145.335,178.291,231.306,96.665,181.453,2.501
1967,42.949,0.588,77.864,9.172,5.854,203.789,254.582,176.258,280.294,59.645,0.829,9.406
1968,14.94,30.349,7.038,3.666,9.661,214.178,288.199,196.139,246.082,180.522,89.621,0.204
1969,0.596,0.772,15.688,19.619,41.471,65.676,247.035,179.611,166.4,96.371,98.808,1.802
1970,1.953,38.888,56.385,8.054,71.123,318.959,183.755,250.349,30.01,149.228,26.205,0.24
1971,17.721,72.344,9.716,59.689,55.229,389.283,218.678,294.056,150.244,182.005,1.225,0.114
1972,0.075,10.044,0.233,21.586,5.489,68.356,189.654,234.115,276.4,134.08,24.015,0.407
1973,0.039,1.097,17.294,6.629,57.98,56.449,175.439,273.003,119.482,176.797,41.542,50.403
1974,0.49,1.574,56.81,9.614,22.906,96.271,187.802,250.144,154.015,273.099,35.387,0.001
1975,1.939,2.898,0.301,1.964,19.982,262.411,187.795,237.203,215.188,258.139,72.123,0.32
1976,0,0.253,5.72,34.717,49.008,82.419,280.192,286.291,133.553,58.286,89.189,1.488
1977,1.165,0.849,0.174,34.006,89.75,174.307,258.831,205.943,213.36,110.614,90.781,0.105
1978,9.478,18.776,12.836,36.418,57.088,123.749,290.375,288.071,150.101,114.54,26.706,56.98
1979,0,18.278,3.14,19.094,9.902,123.379,185.807,132.641,147.483,56.412,14.887,13.412
1980,46.831,28.117,22.547,2.63,36.831,243.883,264.285,263.983,235.44,140.388,8.096,23.725
1981,10.233,14.627,31.508,33.412,62.189,106.667,206.189,271.117,295.646,27.872,2.871,5.001
1982,0.364,5.944,8.269,57.223,14.051,110.166,284.183,202.91,160.28,209.809,21.963,0.37
1983,1.995,41.323,16.501,6.109,36.049,217.842,169.884,228.434,106.713,220.684,5.792,13.211
1984,20.286,18.312,0.174,12.215,38.567,299.61,287.111,268.25,115.388,63.569,7.842,3.874
1985,20.891,1.874,0.401,9.342,14.25,208.037,281.39,188.701,134.12,230.817,18.294,1.019
1986,20.727,16.485,2.776,19.406,41.504,138.546,205.927,372.755,385.291,110.045,183.807,12.411
1987,4.836,1.55,49.236,24.344,44.616,55.452,176.91,276.822,89.247,143.228,138.235,6.614
1988,0,13.813,2.655,18.13,62.374,40.155,330.398,259.69,288.649,133.64,5.799,0.786
1989,0.633,0.219,29.209,1.399,130.775,217.346,414.878,203.686,125.226,158.334,1.842,0.001
1990,0,48.594,62.919,19.916,83.314,170.773,335.642,312.779,150.873,172.09,55.323,15.63
1991,16.593,3.421,11.537,1.887,16.394,138.302,210.826,200.858,167.099,194.938,39.683,24.297
1992,10.867,6.227,0.174,1.732,164.807,143.084,308.896,229.531,200.131,112.617,89.316,0.001
1993,3.861,0.283,18.831,36.153,37.698,276.596,203.64,240.151,178.595,267.649,25.424,0.001
1994,1.588,19.135,36.284,23.078,16.492,141.083,340.079,226.297,225.573,247.817,33.519,0.001
1995,22.42,8.834,13.071,12.705,40.059,110.992,245.283,153.906,173.045,354.547,74.913,0.001
1996,2.235,5.429,3.015,26.88,29.731,192.618,99.025,295.02,80.234,229.492,11.15,7.795
1997,19.354,8.159,50.096,37.385,11.235,160.388,358.445,236.567,257.514,79.895,36.15,24.142
1998,33.229,85.177,8.776,21.195,31.248,194.882,294.474,210.913,272.011,306.889,103.523,0.001
1999,0.417,0.174,0.174,0.198,123.757,180.745,139.103,304.2,133.88,144.288,36.87,1.255
2000,0.377,52.019,0.174,20.791,63.895,290.977,158.919,256.04,90.492,91.952,22.758,1.189
2001,0,1.874,14.197,14.96,69.944,353.8,124.773,259.21,156.051,190.845,63.856,2.502
2002,25.554,6.285,0.688,56.121,82.49,176.718,193.122,296.439,170.563,53.385,37.898,0.001
