Year,Jan,Feb,Mar,Apr,May,Jun,Jul,Aug,Sep,Oct,Nov,Dec
1901,23.851,22.473,7.411,16.616,82.649,61.198,143.492,132.171,218.618,66.174,134.737,0
1902,7.242,0,0.28,8.716,59.454,149.541,266.196,363.307,213.416,30.28,3.132,19.092
1903,1.2,4.07,0.552,1.368,39.435,168.768,642.272,206.893,218.61,89.005,24.787,12.059
1904,0.058,0.726,7.097,0.403,167.245,155.087,205.168,474.381,201.272,115.495,0.28,7.661
1905,1.45,14.691,21.55,216.387,155.045,68.616,271.876,363.678,474.174,13.969,0.28,0
1906,16.486,22.042,5.084,0.4,9.554,291.735,329.969,197.9,167.535,78.152,8.485,1.84
1907,0.138,4.342,19.718,236.74,49.293,234.428,134.186,292.575,70.782,21.412,8.004,2.924
1908,15.559,0.381,1.78,21.011,71.705,194.822,176.197,356.454,248.271,31.486,0.28,0.117
1909,0,26.048,0.029,126.034,19.332,124.725,249.793,220.498,169.48,3.737,0.28,5.096
1910,2.342,0,2.926,21.317,18.238,162.647,447.294,540.675,157.266,144.995,30.2,0
1911,0,0.183,11.363,1.413,37.128,176.422,142.977,280.939,379.299,55.676,18.745,0.033
1912,0,20.915,0.99,28.02,33.126,53.636,265.248,314.673,244.482,63.533,53.235,0
1913,0,30.959,5.718,6.252,27.342,139.242,356.03,169.475,141.658,130.888,16.182,0.253
1914,0,5.599,7.887,128.744,59.968,308.892,235.728,187.43,394.568,13.761,0.775,3.569
1915,31.557,18.999,29.809,74.408,30.959,170.769,200.463,478.98,272.629,146.205,74.77,0
1916,0,10.627,0,6.001,16.461,173.639,257.772,251.492,120.845,139.21,52.437,0
1917,0,26.42,7.711,23.285,82.579,259.665,157.555,439.362,212.649,271.005,20.117,3.535
1918,13.298,0,10.04,5.114,79.554,232.611,237.085,344.362,225.545,15.168,24.299,2.314
1919,31.6,37.149,8.458,7.583,44.086,231.163,435.375,423.186,120.983,146.977,87.024,1.439
1920,5.511,3.905,19.99,9.341,37.577,116.755,238.717,298.349,136.13,84.891,1.455,0
1921,23.356,0.033,0.08,40.193,0.708,179.577,297.133,234.186,269.998,102.413,0.28,0
1922,6.971,0.637,0,4.299,23.71,187.971,203.299,292.23,255.12,58.628,51.315,0
1923,0,36.642,0.877,41.682,8.271,70.648,179.997,196.911,263.387,108.835,72.309,1.036
1924,34.096,0.792,0.239,13.845,44.462,79.835,159.749,278.986,319.887,103.832,86.78,0
1925,0,0,0.977,92.682,204.629,263.634,366.305,357.737,107.072,238.708,1.193,2.923
1926,26.12,0.668,39.734,72.979,48.244,149.169,219.659,333.685,342.744,67.506,0.28,0
1927,2.049,16.806,97.237,3.609,24.874,317.169,409.959,492.048,193.119,49.56,29.225,0
1928,0,0.276,1.874,102.983,94.919,150.947,334.127,287.574,303.424,266.438,3.229,0
1929,0.034,26.367,0.939,65.033,57.304,221.51,226.594,539.994,99.996,196.997,0.696,6.066
1930,0,6.337,6.921,68.569,128.93,222.825,448.254,245.497,241.009,83.213,92.525,0.538
1931,0.446,1.032,5.201,19.103,21.825,48.916,162.761,370.01,248.871,233.384,80.506,0.678
1932,0,14.571,0.08,136.089,50.517,52.277,269.36,319.468,209.3,39.583,122.789,0
1933,4.184,0.597,2.158,37.393,59.381,259.813,362.103,263.048,255.47,107.476,22.122,9.09
1934,0,0.87,2.363,8.576,3.76,210.197,350.322,414.816,168.488,76.064,18.014,0
1935,7.399,0.75,0.623,51.16,11.206,132.504,254.917,196.111,176.227,65.127,0.28,0
1936,0.696,43.617,4.613,17.732,152.196,316.114,515.742,370.474,152.057,127.575,31.92,0.052
1937,0,36.91,7.092,121.731,30.547,126.051,316.349,214.503,127.36,110.485,0.28,0
1938,1.399,15.131,4.327,10.008,174.94,185.492,152.417,232.155,470.708,146.624,35.929,0
1939,2.968,1.514,19.854,13.138,18.742,114.854,238.323,257.603,294.508,135.188,17.806,0.253
1940,0,15.105,76.736,46.545,112.77,232.529,292.069,423.655,196.877,81.395,17.244,3.879
1941,4.305,9.751,5.584,2.18,77.706,291.577,129.96,190.602,220.286,172.874,40.29,0
1942,0.034,11.714,4.864,103.136,24.512,92.253,315.372,349.115,209.818,55.05,55.959,0
1943,25.998,3.799,1.564,144.924,24.939,165.72,311.172,328.585,137.248,168.701,33.799,0
1944,18.18,38.2,85.262,122.257,38.873,122.239,303.21,232.947,204.223,111.587,10.346,0
1945,9.334,0,0.078,204.099,32.928,79.071,408.89,181.67,298.664,162.343,30.554,9.917
1946,0,7.425,3.06,54.872,57.256,167.802,452.485,427.686,132.863,120.556,34.32,0
1947,30.207,5.933,6.755,24.532,4.869,218.225,421.788,269.076,278.783,63.536,27.025,7.303
1948,2.794,16.577,4.631,160.978,26.203,110.755,217.924,284.048,275.587,28.687,103.848,0
1949,7.637,0.637,2.086,32.429,47.444,128.045,162.99,298.613,315.35,199.503,0.28,0
1950,0,12.349,29.77,60.032,21.487,115.309,235.316,156.768,31.958,64.217,60.345,0
1951,0,0,15.113,98.763,34.312,177.199,445.994,367.029,244.296,45.325,44.781,0
1952,0.034,1.233,13.96,120.758,25.144,109.963,320.62,244.06,326.739,167.949,0.28,4.118
1953,14.605,0,0,8.473,44.128,225.964,103.123,482.938,248.239,87.008,36.422,0
1954,0,2.715,2.655,9.191,32.031,99.496,90.58,101.427,319.738,136.104,0.28,7.216
1955,0,0.538,28.342,71.766,67.571,142.207,150.358,376.803,386.162,240.011,47.042,0
1956,0.262,6.058,0.996,54.278,71.193,263.441,750.205,592.666,206.874,133.576,10.178,0
1957,2.208,3.283,17.058,16.247,31.91,186.777,318.043,443.325,119.434,79.611,8.393,0
1958,6.039,6.451,5.293,173.312,44.891,72.131,548.433,276.818,240.568,184.042,86.007,0
1959,9.455,5.555,0.005,3.081,44.051,241.772,346.624,128.469,173.087,160.77,0.28,1.578
1960,0,0,8.09,9.784,74.07,188.005,438.577,285.922,162.471,83.493,1.564,2.385
1961,8.501,23.052,7.581,15.875,67.662,172.887,191.856,364.854,237.661,132.272,26.409,0.465
1962,6.45,9.754,0.72,18.668,44.383,119.369,508.055,189.581,284.228,275.35,9.915,7.121
1963,0,0,5.757,205.649,60.987,135.756,165.559,240.172,231.229,248.153,2.64,0
1964,0.034,18.834,3.736,71.204,44.038,142.366,192.774,476.314,245.507,89.593,4.565,0
1965,3.785,1.945,25.868,39.322,31.694,89.324,597.89,264.238,177.116,53.457,0.28,7.522
1966,47.194,2.001,0.445,7.928,24.346,179.761,164.732,219.712,186.985,85.691,66.219,1.351
1967,12.608,0,84.451,14.199,5.222,224.291,277.535,243.538,175.331,31.578,0.28,23.403
1968,15.239,9.123,6.16,20.211,27.236,247.102,387.487,100.344,257.404,167.342,45.021,0.376
1969,0,0,20.548,8.918,60.352,111.179,467.779,150.77,258.28,33.944,68.174,16.241
1970,1.966,6.934,50.605,20.706,90.123,242.378,206.429,367.79,91.307,45.48,3.941,0
1971,5.477,26.783,0.369,113.61,74.881,203.174,134.575,300.597,217.305,71.719,0.28,0
1972,0,14.148,0.068,31.328,13.95,93.497,203.732,234.434,257.601,115.945,56.788,0
1973,0,0,1.884,22.692,37.363,146.007,210.875,327.898,89.928,150.308,7.989,4.606
1974,0,0,47.172,3.608,42.863,233.423,186.129,213.047,161.166,150.999,20.132,0
1975,0.738,3.528,3.707,7.575,68.103,357.291,349.269,307.238,269.151,226.797,23.152,0
1976,0,2.265,1.536,154.981,53.132,90.436,463.756,377.117,222.586,60.366,100.463,0.673
1977,0,0,0,79.305,69.332,157.585,289.021,332.13,230.533,79.898,96.706,4.125
1978,10.374,13.059,10.453,36.28,57.715,218.327,412.481,393.681,201.541,66.016,37.697,7.096
1979,5.267,21.928,0.558,31.544,61.958,195.366,211.346,166.411,224.909,42.773,29.749,2.88
1980,8.716,3.906,6.764,17.711,32.86,312.388,360.802,309.412,211.91,75.954,14.655,2.328
1981,11.451,0.791,45.607,21.515,29.967,126.93,210.369,358.553,366.09,30.005,1.654,0.351
1982,0.374,1.66,10.042,60.961,24.353,126.39,371.545,286.382,188.276,94.828,28.95,0
1983,0.034,25.365,9.516,5.42,52.033,171.896,258.087,327.174,152.039,101.076,5.643,1.649
1984,4.338,12.821,1.7,15.223,86.036,257.368,265.962,288.721,106.212,37.294,3.404,0.72
1985,23.943,0.221,2.148,6.44,26.432,265.218,291.582,280.799,186.734,208.764,6.995,0.455
1986,20.545,14.45,2.203,37.493,32.169,174.319,262.497,444.387,200.242,59.924,99.669,4.085
1987,3.398,0,28.04,26.151,67.28,96.228,204.661,288.826,82.033,79.208,61.855,1.165
1988,0,6.086,2.175,44.734,81.858,103.955,413.745,260.919,251.459,59.7,9.319,0.424
1989,0,0,33.598,6.585,93.687,172.405,384.44,300.375,187.346,47.345,0.28,0.491
1990,1.689,41.327,58.799,25.052,147.167,191.019,333.62,466.968,167.217,229.06,35.184,4.14
1991,9.927,0.508,11.045,20.861,53.846,292.786,336.608,238.974,236.602,101.147,27.909,3.266
1992,5.344,1.318,0,7.392,105.633,169.643,371.88,307.03,180.875,58.513,55.615,0
1993,1.255,0,13.36,34.533,70.689,203.445,272.258,220.219,224.473,209.259,5.041,0
1994,0.29,3.218,21.464,27.032,76.677,119.751,411.942,299.553,186.674,143.754,23.842,0
1995,8.99,1.312,33.854,22.201,77.129,122.93,373.876,192.59,199.456,226.512,36.513,0
1996,4.575,1.159,6.433,53.22,22.648,195.671,209.343,267.297,122,99.262,26.599,1.541
1997,12.374,1.361,53.599,64.498,11.981,88.492,294.683,219.879,219.777,29.159,73.605,12.729
1998,8.887,28.627,2.283,31.024,60.097,158.205,299.197,188.41,230.969,198.589,109.649,0
1999,0.075,0,0,0.4,91.944,197.377,144.629,505.648,156.231,104.52,8.089,0.187
2000,0,32.017,0,27.763,51.943,319.848,205.783,315.718,102.925,75.441,4.435,0
2001,0.231,0.221,10.999,34.828,81.779,247.71,261.983,383.247,142.432,94.956,65.687,0.494
2002,36.935,0.936,4.288,71.839,62.129,161.993,214.442,373.469,96.247,27.403,25.615,0
