Year,Jan,Feb,Mar,Apr,May,Jun,Jul,Aug,Sep,Oct,Nov,Dec
1901,53.625,6.119,4.98,10.409,21.834,154.69,165.186,271.95,192.88,37.04,10.224,0
1902,0.046,0.026,11.885,11.694,21.643,126.12,390.281,196.489,358.684,29.317,0.005,0.644
1903,5.768,3.366,7.637,11.457,60.474,277.244,139.93,224.86,169.299,121.727,1.728,0
1904,0.719,1.38,26.355,5.085,216.245,91.23,269.794,355.519,124.148,60.362,10.361,0
1905,8.431,27.023,27.665,10.88,42.835,27.062,522.19,321.206,347.073,26.057,0,0.218
1906,11.909,53.72,21.964,3.39,32.181,137.238,411.431,219.45,201.6,130.182,0.792,0.008
1907,1.432,30.061,24.409,34.217,30.227,201.958,197.718,256.671,174.727,36.293,0,0.681
1908,8.272,33.689,7.33,3.282,21.966,120.704,302.199,255.234,118.986,102.54,0,0.823
1909,5.308,4.694,0,41.217,19.293,208.568,346.719,370.789,184.269,19.426,0.326,2.475
1910,1.017,7.035,18.132,16.936,27.6,204.036,410.809,322.214,204.172,71.859,5.806,0
1911,8.78,0.075,20.8,5.058,33.802,296.081,277.396,262.332,259.271,124.619,18.225,0
1912,2.883,7.831,5.401,23.066,52.206,138.047,355.317,286.317,69.223,29.394,13.37,0.332
1913,0.005,41.159,31.601,1.971,72.467,412.072,210.603,318.953,178.276,99.754,0.499,13.122
1914,0.005,27.724,16.26,33.613,79.725,62.503,323.318,344.934,118.314,29.505,0,1.368
1915,1.396,48.402,12.814,8.803,45.529,197.509,314.916,270.217,234.748,63.803,10.341,0
1916,0.005,14.039,2.894,7.823,15.213,173.11,379.905,279.959,203.571,211.834,2.572,0
1917,1.895,17.941,6.592,8.024,96.022,176.653,306.745,272.149,206.114,244.073,2.361,0
1918,0.701,0.388,7.022,6.895,43.65,167.875,263.583,393.168,197.466,21.663,0,0.52
1919,24.383,3.701,10.174,12.579,85.028,88.513,322.129,402.266,186.751,153.109,2.416,0
1920,0.701,34.391,28.812,5.415,38.955,88.873,321.936,295.97,218.078,30.726,0,0
1921,22.425,0.834,2.629,5.297,19.841,143.494,291.268,386.816,141.933,24.388,0,0
1922,11.707,11.67,1.144,7.562,10.476,406.484,433.785,309.941,297.793,92.765,0.041,12.707
1923,0.165,51.865,2.171,3.496,15.196,111.604,227.658,401.335,178.228,36.926,0.657,0.187
1924,1.649,4.658,2.453,22.93,28.839,168.649,360.133,261.078,231.946,110.696,45.812,0
1925,20.306,2.042,6.325,16.411,41.773,88.349,326.666,401.022,181.773,38.158,3.343,0
1926,22.068,0.075,43.847,8.846,115.782,49.708,548.78,298.291,213.641,62.575,0.023,3.512
1927,23.202,35.113,33.565,3.486,39.712,97.182,249.269,361.468,142.046,60.276,34.369,0
1928,31.716,11.429,2.787,14.223,59.874,198.54,478.918,197.54,186.593,190.986,0.07,1.709
1929,23.317,0.374,4.89,7.424,40.538,205.029,375.204,252.942,71.599,303.064,0.07,8.406
1930,11.708,6.97,5.473,8.978,28.289,117.578,261.977,220.592,210.025,54.006,11.708,10.15
1931,5.026,28.826,16.173,2.455,25.492,81.44,600.438,286.925,315.931,73.654,5.86,0.887
1932,0.005,13.017,2.876,7.722,59.213,171.414,143.759,311.806,193.291,47.359,46.944,8.444
1933,30.654,15.254,3.438,27.33,58.787,135.58,561.574,379.892,164.054,94.469,0,0
1934,25.802,24.392,1.671,15.248,27.282,195.089,378.591,350.562,234.414,63.666,2.534,0.398
1935,5.756,19.917,2.264,13.394,21.657,155.574,197.489,464.989,196.474,31.585,0,0.189
1936,3.918,3.127,15.161,9.312,102.147,155.258,498.635,268.878,340.056,155.004,0.008,15.944
1937,0.005,41.658,3.318,28.43,32.149,97.554,152.718,326.808,228.264,154.666,0.059,0.041
1938,5.556,16.625,4.931,6.645,74.991,404.765,308.906,277.834,182.095,67.319,0.695,0
1939,3.049,32.329,10.256,8.359,25.308,171.105,380.122,262.489,262.98,83.736,0.273,0
1940,0.005,43.953,42.289,7.56,34.739,116.275,527.424,334.487,141.963,29.85,0,4.243
1941,13.08,5.74,10.536,6.442,43.872,146.366,286.177,337.536,221.176,73.606,3.149,0
1942,27.261,32.036,14.544,12.189,13.546,147.562,223.078,406.755,348.748,14.963,0.409,0.823
1943,20.408,14.99,8.057,36.532,51.941,121.638,330.414,428.771,224.577,50.158,0,0
1944,21.462,19.901,44.33,12.589,17.983,241.44,184.806,381.245,155.368,103.133,0,0
1945,55.938,20.873,2.415,2.97,53.216,122.752,262.961,153.753,275.59,180.631,0,1.709
1946,0.005,21.659,21.59,18.65,57.668,94.252,470.427,327.404,272.391,121.408,17.816,0.005
1947,20.144,7.426,16.424,3.202,32.023,83.64,493.448,218.631,312.602,83.676,0,0.561
1948,5.257,11.118,7.732,17.302,63.424,99.572,421.384,277.084,320.016,97.816,8.54,0.005
1949,4.344,56.105,10.68,8.195,93.687,329.786,422.137,403.752,156.051,123.651,0,0
1950,2.186,9.556,41.509,3.903,11.872,255.863,235.253,345.546,144.135,47.029,1.546,0.026
1951,4.84,0.013,37.276,19.698,15.764,110.636,543.477,287.258,242.168,98.651,25.033,0
1952,0.005,11.756,21.219,11.887,21.465,363.819,266.067,254.384,226.483,84.912,5.349,0.008
1953,57.752,3.093,2.648,6.917,14.577,187.217,446.668,289.242,253.19,13.516,0.036,0.139
1954,14.81,8.707,4.098,5.058,38.02,154.962,366.425,266.669,239.652,52.4,0,0.716
1955,14.122,13.193,2.708,8.749,12.764,188.486,664.186,156.969,125.88,109.642,3.219,2.32
1956,17.59,7.695,5.858,17.561,111.078,266.121,161.345,315.722,350.769,89.866,48.416,7.736
1957,29.536,3.952,10.129,0.679,9.074,152.839,357.765,184.759,123.543,7.472,0,3.09
1958,21.565,7.015,17.484,19.737,8.378,220.498,240.071,256.264,222.204,168.346,0.426,0
1959,62.853,0.008,0.345,0.305,27.38,144.848,207.489,282.004,378.878,191.423,0,0.036
1960,0.199,0.005,21.7,5.408,3.715,96.125,272.184,331.866,214.946,43.529,0.275,0
1961,10.963,41.338,0.273,0.07,12.797,176.919,248.919,276.779,243.819,83.885,6.306,4.171
1962,19.994,11.613,5.815,12.036,7.633,124.172,244.508,285.027,299.829,25.217,0,4.134
1963,4.228,0.604,49.521,5.366,116.251,176.433,381.842,283.948,173.547,156.199,18.812,0
1964,0.005,0.044,3.883,15.35,23.72,113.748,405.243,387.627,164.956,51.478,0.755,0
1965,0.023,2.768,5.725,31.944,16.817,64.584,345.298,166.678,124.006,38.76,7.53,0.325
1966,28.36,20.185,0,0.451,3.787,46.811,191.738,224.444,96.492,12.308,45.235,5.887
1967,2.69,0.147,31.234,16.272,13.332,47.98,332.357,376.838,129.15,22.525,0,0.951
1968,28.025,1.513,3.202,7.437,2.219,246.347,351.536,286.82,96.254,154.032,1.644,5.781
1969,4.569,19.818,5.469,15.204,72.174,220.361,309.447,304.292,192.337,28.553,20.632,0
1970,11.129,12.609,8.063,2.24,33.916,218.324,434.381,237.871,215.711,84.994,1.034,0
1971,11.364,14.947,7.163,36.257,89.623,356.489,306.211,300.004,126.767,155.051,0.977,0
1972,7.832,46.857,3.395,21.531,20.483,39.322,139.789,201.255,258.067,166.189,12.426,0.262
1973,51.51,5.318,6.142,2.086,32.088,231.984,348.903,344.449,213.154,313.228,16.76,0
1974,8.56,1.562,8.229,8.876,45.758,186.164,540.852,238.844,170.226,103.002,3.544,2.696
1975,58.595,7.786,11.684,5.194,52.384,83.878,286.232,142.444,364.936,55.079,0.245,0
1976,5.344,31.155,0.87,26.134,44.292,154.696,241.607,296.456,283.712,1.683,0,0
1977,1.642,6.439,1.576,37.416,141.794,81.514,321.232,214.454,150.548,108.76,14.028,17.297
1978,10.533,34.119,34.599,30.602,37.767,106.382,310.509,228.482,278.44,112.738,10.089,7.187
1979,22.63,16.159,1.158,16.921,12.493,62.949,509.391,262.964,107.661,98.909,40.779,16.369
1980,6.31,3.181,21.688,0.799,57.288,198.369,344.462,241.285,129.008,17.262,5.657,0.739
1981,14.972,4.045,22.772,14.103,60.523,87.656,387.889,215.976,172.959,0.88,6.446,1.518
1982,13.802,11.323,27.628,17.811,52.069,97.026,198.091,144.032,311.614,50.119,16.224,1.21
1983,24.512,0.933,3.308,16.924,96.526,136.03,499.251,157.926,133.043,116.846,0,7.79
1984,25.791,21.161,5.313,18.523,29.949,216.665,373.826,175.085,556.681,36.261,0.134,0
1985,8.713,6.097,1.541,4.304,42.044,97.286,387.084,166.311,215.182,77.709,0.977,19.489
1986,1.899,7.536,2.984,21.04,63.772,140.827,338.185,246.607,182.485,39.646,6.891,8.741
1987,0.178,11.932,11.697,10.774,51.435,241.172,306.017,573.176,410.121,230.283,4.685,2.359
1988,6.717,23.798,24.57,12.219,54.446,115.888,186.976,405.434,165.3,33.371,4.607,7.949
1989,11.933,17.895,5.749,2.99,98.919,166.101,297.626,247.528,244.257,51.863,6.48,4.636
1990,0.005,11.533,8.402,11.222,118.394,76.309,203.751,240.244,216.525,66.762,0,0
1991,15.762,0.448,26.37,9.963,42.24,61.74,164.868,463.76,164.518,34.473,0.385,2.411
1992,14.482,4.368,2.083,5.88,29.835,25.011,265.106,251.478,119.492,52.395,0.104,0
1993,14.424,0.98,12.434,13.705,55.84,60.007,91.297,168.979,272.258,73.433,2.932,0
1994,59.447,28.993,22.011,14.438,29.287,29.019,201.099,306.749,64.746,120.413,2.142,0
1995,16.365,19.219,12.42,1.846,38.218,45.656,195.419,238.311,155.935,9.369,23.424,0.245
1996,23.798,10.481,2.203,8.936,27.081,18.649,167.442,308.942,158.642,157.211,0,0
1997,15.125,15.921,6.839,7.788,120.561,81.792,189.578,312.422,155.672,59.087,25.668,8.964
1998,1.055,16.593,8.025,14.742,118.996,49.978,217.034,283.899,174.826,191.625,19.54,0
1999,19.242,7.249,1.659,0.07,72.958,108.295,285.58,254.206,169.189,39.778,0.754,0.204
2000,11.668,11.279,11.844,13.325,27.086,136.111,134.657,166.821,248.717,0.88,0,0.332
2001,2.496,1.562,21.667,13.325,38.95,52.83,250.971,266.218,65.325,110.12,0,0.253
2002,17.637,8.131,4.85,11.519,32.004,54.613,214.368,269.683,201.336,143.058,13.577,0.253
