Year,Jan,Feb,Mar,Apr,May,Jun,Jul,Aug,Sep,Oct,Nov,Dec
1901,48.144,29.506,4.908,11.386,16.419,88.474,236.419,309.312,188.933,33.467,10.232,0
1902,3.128,2.447,10.393,20.107,13.221,80.903,322.333,196.687,415.045,22.12,0.401,3.745
1903,6.3,10.916,8.69,16.972,44.36,155.479,127.089,252.219,171.374,125.244,0,0
1904,0.404,5.037,33.976,1.424,174.948,256.061,322.183,366.954,92.57,38.729,4.184,0.188
1905,12.375,42.663,38.813,12.523,39.835,34.269,379.805,368.031,339.922,18.609,0,0.564
1906,20.076,94.763,29.07,0.938,22.474,187.834,342.611,230.981,174.402,126.669,1.054,0.564
1907,0.013,57.603,36.308,42.871,23.653,312.395,195.132,255.163,206.763,18.18,0,3.576
1908,13.088,58.033,6.845,0.657,16.705,194.681,303.086,299.728,111.702,70.918,0.013,0.566
1909,8.824,7.212,0.013,57.281,14.285,292.254,268.366,403.896,199.334,10.461,0.529,5.926
1910,3.848,30.253,23.579,21.229,19.82,184.033,299.945,355.394,205.986,62.688,6.758,0
1911,4.039,0.206,27.955,1.202,24.187,556.683,141.314,289.077,278.365,123.96,16.94,0
1912,1.614,6.232,10.306,25.754,40.414,140.469,319.737,298.933,48.363,24.967,11.579,0
1913,0.013,55.176,40.056,0.534,62.824,467.179,196.713,358.046,187.217,71.318,2.298,17.372
1914,0.013,33.324,21.375,32.386,63.079,92.339,376.896,385.405,110.341,22.502,0,7.921
1915,2.532,40.384,19.95,4.271,36.947,161.431,252.732,289.321,247.806,48.182,15.85,0
1916,0.013,17.752,2.591,9.368,9.741,326.003,325.326,305.69,240.811,229.856,3.026,0
1917,1.729,36.755,7.484,8.324,76.36,171.84,298.738,304.214,258.221,253.372,1.135,0.188
1918,1.412,0.297,8.695,13.732,38.023,288.07,117.837,509.251,206.323,9.526,0.013,2.724
1919,30.006,20.622,17.642,12.906,63.2,225.935,290.732,436.543,194.798,134.522,5.442,0
1920,0.013,33.344,43.301,3.697,28.16,87.465,549.592,304.516,275.675,7.328,0,0
1921,36.292,8.91,5.329,5.806,10.719,258.056,301.673,455.467,151.377,19.868,0,0
1922,11.241,6,0.035,6.895,8.589,441.116,348.734,337.929,322.671,60.494,2.173,8.418
1923,0.503,66.93,1.141,2.172,9.134,136.306,277.135,427.607,188.871,49.535,3.332,1.127
1924,8.329,17.6,0.814,21.769,19.317,188.321,371.792,302.109,255.394,90.82,26.903,0
1925,32.436,11.316,6.399,25.311,31.599,208.108,402.711,377.044,202.805,17.379,4.886,0
1926,25.045,0.604,63.294,9.572,84.188,48.75,416.264,329.568,232.732,50.998,1.215,8.493
1927,20.085,89.228,45.261,1.184,30.128,157.163,313.538,351.257,110.804,46.262,16.457,0
1928,37.92,9.153,1.23,15.596,49.359,308.038,433.088,180.126,211.328,147.68,0,1.702
1929,25.753,4.938,9.337,11.063,29.368,149.343,363.302,237.033,74.761,288.471,0,11.152
1930,6.391,10.053,5.07,11.581,20.21,110.08,350.075,230.473,201.382,45.347,15.848,8.947
1931,10.05,82.931,21.366,0.596,20.61,103.432,459.419,279.006,355.902,59.16,10.482,1.423
1932,0.013,42.212,3.07,9.202,51.496,86.24,393.594,301.636,215.278,38.81,16.331,5.828
1933,40.77,25.073,2.237,33.674,47.7,225.503,295.759,423.903,147.458,78.495,0,0
1934,17.021,28.18,0.847,20.879,16.667,174.874,272.562,383.247,261.189,54.906,8.412,1.973
1935,9.943,14.006,6.107,13.266,8.745,157.147,249.299,579.257,290.977,8.489,0,1.204
1936,5.565,9.973,17.589,4.066,86.006,266.259,338.635,272.971,412.351,135.911,0.316,19.194
1937,0.013,46.975,5.622,37.746,33.989,146.961,229.553,380.48,264.137,143.908,0.414,0.478
1938,5.278,26.797,4.463,3.408,69.819,294.047,205.56,293.782,149.954,49.882,0.308,0
1939,7.511,22.187,11.348,7.99,15.006,208.089,473.303,290.617,299.638,86.678,0.944,0.172
1940,0.013,45.7,67.298,8.472,28.03,95.737,291.928,369.184,142.725,25.094,0,4.146
1941,26.255,4.577,12.437,6.046,30.801,279.133,301.405,376.042,248.397,109.114,10.141,0
1942,15.425,72.339,17.103,9.648,7.448,135.022,395.17,529.324,420.4,29.83,0.85,0.566
1943,31.324,16.358,10.535,53.482,47.009,131.639,560.228,456.896,245.326,59.724,0,0
1944,20.489,59.831,64,16.659,25.744,166.378,373.831,503.744,141.932,83.515,0,0
1945,42.896,33.616,2.77,19.889,40.448,202.747,251.68,273.894,314.91,152.413,0,1.702
1946,0.013,11.338,19.439,24.13,46.985,204.552,350.118,371.857,287.914,134.001,15.406,0.375
1947,17.139,10.527,24.186,1.848,19.862,148.226,337.864,257.637,355.501,70.253,0,3.471
1948,8.01,11.105,8.066,32.852,43.12,181.898,336.192,273.978,230.588,85.659,18.261,0.375
1949,2.445,29.652,14.082,13.254,77.208,246.886,329.934,498.839,146.076,97.848,0,0
1950,1.213,12.711,52.407,3.277,8.162,314.561,311.89,367.416,148.309,39.775,3.301,2.393
1951,4.885,1.365,42.586,21.134,11.348,160.582,418.645,324.841,286.423,95.695,13.561,0
1952,0.181,15.653,31.392,16.514,14.965,268.057,245.006,272.384,244.31,83.238,10.128,0.767
1953,54.454,10.073,11.467,4.629,11.456,177.535,406.798,307.303,284.25,5.55,0.346,0
1954,13.791,11.808,1.376,1.067,21.515,190.668,260.074,292.965,284.703,47.154,0,4.604
1955,21.881,13.074,4.137,9.733,8.465,133.045,366.125,151.826,132.371,97.431,9.087,0.488
1956,13.781,35.028,9.34,20.859,95.453,306.766,232.164,382.099,380.763,111.879,17.927,6.692
1957,21.899,10.172,14.501,0.737,5.571,112.206,315.781,187.377,222.501,39.69,0,0.604
1958,19.263,23.822,18.172,16.21,8.526,116.788,361.454,431.345,244.487,171.19,0.78,0
1959,41.684,0.852,3.582,2.132,31.402,125.738,278.386,307.673,264.532,263.734,0,0.463
1960,0.503,0.206,34.963,5.996,12.358,115.814,282.444,310.929,202.016,56.645,0.529,0
1961,14.701,83.579,1.257,0.185,17.74,228.558,191.872,351.628,267.105,111.947,0.527,6.987
1962,16.822,15.787,4.154,0.911,20.724,150.415,225.028,373.186,223.542,45.56,0,3.488
1963,2.849,4.152,33.844,23.695,86.1,207.061,286.037,233.522,216.158,166.478,9.786,0
1964,0.181,4.418,8,29.354,29.721,193.655,283.528,341.387,198.907,63.494,8.134,0
1965,1.535,10.741,11.633,29.819,20.944,79.625,279.271,264.298,197.828,37.7,2.387,2.98
1966,45.543,7.058,0.206,2.773,10.57,167.176,109.421,245.632,105.824,15.463,20.037,20.216
1967,13.906,0.786,51.582,23.739,15.286,127.872,259.811,435.463,146.429,24.69,0,1.603
1968,23.628,5.439,4.618,5.064,7.389,267.172,302.325,310.35,78.819,100.926,4.609,4.607
1969,3.353,10.314,11.013,15.483,63.476,160.963,332.851,358.698,212.124,35.955,12.289,0
1970,13.975,15.924,11.082,0.517,31.319,224.879,301.244,238.468,341.88,104.556,2.923,0
1971,29.302,20.994,5.859,64.551,83.613,401.187,434.694,530.832,219.283,100.058,2.07,0
1972,6.902,55.918,1.099,25.641,8.463,53.371,179.529,349.601,164.761,131.166,9.471,0.849
1973,30.941,5.097,9.902,2.01,32.912,301.404,240.793,277.305,383.647,218.948,13.347,8.641
1974,4.667,2.647,19.837,7.897,36.522,94.277,366.565,215.183,255.036,87.677,3.629,0.938
1975,37,9.179,16.068,4.121,35.692,97.828,392.52,116.747,205.478,73.098,2.818,0
1976,3.238,17.551,1.335,26.369,33.264,75.102,327.379,253.533,393.832,12.267,0.298,0
1977,2.415,20.611,0.814,41.626,131.281,247.235,568.141,221.175,199.226,84.024,21.44,18.878
1978,6.188,74.555,42.588,49.104,32.022,302.68,285.693,307.879,468.117,109.446,9.09,12.969
1979,26.259,27.957,1.143,22.342,8.612,98.508,306.506,214.333,171.662,56.503,11.146,20.842
1980,22.519,11.054,30.218,0.895,44.83,281.965,282.416,258.112,107.888,40.107,2.919,0.849
1981,16.411,13.31,34.179,29.106,54.962,88.974,357.853,180.298,172.891,0.801,3.933,13.606
1982,14.38,14.177,39.17,29.179,38.294,116.747,175.366,275.599,275.852,25.622,7.123,1.697
1983,13.477,15.603,13.735,22.463,73.589,169.315,347.433,209.231,133.924,114.294,0.013,5.924
1984,31.246,23.492,3.445,25.536,22.282,390.12,327.996,259.752,369.172,48.162,0,0
1985,17.382,7.465,1.023,6.367,25.374,105.949,384.95,214.945,167.776,96.338,0.648,13.665
1986,9.933,21.16,1.014,22.051,43.493,168.863,286.708,270.393,253.803,37.95,11.595,7.415
1987,1.324,8.937,13.016,12.168,31.181,96.456,241.137,362.951,363.975,78.408,10.408,2.815
1988,7.696,31.018,29.998,7.782,43.332,181.749,239.221,357.111,137.906,47.599,7.932,3.096
1989,6.781,4.261,5.744,0.222,65.709,238.026,215.937,289.344,238.606,64.125,7.291,15.991
1990,0.013,27.073,16.111,10.912,91.062,280.315,446.498,265.43,249.755,158.595,1.979,0.269
1991,8.92,5.225,32.499,11.273,28.286,148.26,231.667,502.035,203.979,49.687,1.369,15.146
1992,16.915,5.507,1.323,6.188,21.515,103.354,249.35,165.88,134.031,63.083,0.038,0
1993,6.473,0.293,19.612,12.812,41.577,120.447,169.74,247.225,295.897,95.374,3.136,0
1994,39.64,19.588,18.904,25.353,20.769,147.771,244.729,334.889,68.644,152.206,0.636,0
1995,14.079,21.341,19.033,5.226,32.18,52.705,218.413,219.298,287.368,31.922,10.525,0
1996,17.278,14.4,3.008,10.796,21.813,157.563,174.127,363.773,137.683,155.329,0,0
1997,22.013,6.256,10.086,11.401,90.333,37.981,211.35,350.186,167.465,47.643,15.947,16.555
1998,12.975,33.404,10.428,15.45,89.923,46.326,171.877,244.969,201.555,239.033,15.464,0
1999,14.68,7.778,0.705,0.577,48.421,136.136,265.271,310.719,181.25,48.91,2.995,0
2000,8.616,23.917,2.635,18.025,26.757,174.221,112.573,175.737,247.704,11.75,0.671,0.701
2001,1.812,3.897,33.014,15.529,34.232,66.856,203.507,270.015,85.434,111.486,1.493,0
2002,23.112,7.922,9.283,16.041,18.444,86.776,163.39,286.389,174.763,113.172,10.851,0
