Year,Jan,Feb,Mar,Apr,May,Jun,Jul,Aug,Sep,Oct,Nov,Dec
1901,48.347,15.641,4.718,9.686,14.589,114.869,221.164,282.22,179.307,36.911,13.371,0
1902,0.622,0.408,11.444,18.506,11.794,109.787,351.952,192.92,411.705,28.104,0.201,2.047
1903,5.827,7.484,8.878,17.6,49.032,214.204,131.596,242.557,174.568,120.823,1.213,0
1904,0.366,2.25,26.847,2.705,179.222,226.632,302.921,302.449,108.327,33.909,6.743,0.001
1905,14.648,36.187,31.331,11.794,47.053,35.142,420.225,343.097,319.245,22.376,0,0.123
1906,25.16,71.379,23.755,1.918,27.889,174.539,308.119,210.572,167.569,135.131,1.398,0.002
1907,0,36.452,30.647,30.453,24.844,233.535,194.791,225.228,217.695,27.223,0,1.734
1908,12.004,39.693,6.142,1.643,20.495,203.166,301.618,245.945,126.449,57.369,0,0.475
1909,11.898,5.774,0,46.618,16.855,260.06,244.507,410.836,208.25,14.86,0.69,3.125
1910,1.032,22.632,21.001,21.233,21.33,192.956,354.404,318.838,204.129,68.053,4.196,0
1911,3.714,0.079,22.455,2.547,28.164,448.638,194.378,259.476,277.642,123.142,13.337,0
1912,1.491,4.995,7.164,25.927,42.666,156.981,327.519,265.168,57.743,30.143,11.42,0.182
1913,0,39.331,34.095,0.997,63.36,467.15,177.489,318.092,199.913,69.353,1.771,11.894
1914,0,29.667,17.692,25.954,62.957,86.461,413.925,334.517,116.243,29.294,0,3.917
1915,2.497,34.931,15.572,6.097,43.339,201.891,268.81,271.806,239.755,50.937,12.774,0
1916,0,11.84,3.25,9.518,10.662,282.095,334.971,266.31,259.314,227.303,4.317,0
1917,2.016,24.413,5.922,8.106,74.941,177.463,298.665,214.841,286.936,239.704,2.595,0.001
1918,1.972,0.079,7.651,13.393,43.884,218.791,150.91,450.845,206.908,14.932,0,1.492
1919,22.449,13.914,14.044,9.698,65.357,158.668,287.171,377.983,197.457,130.595,6.284,0
1920,0,30.7,34.532,4.953,30.864,92.837,433.757,257.854,304.347,14.664,0,0
1921,31.642,2.413,5.626,5.899,14.096,185.428,284.902,385.839,170.611,25.762,0,0
1922,11.061,8.074,0.225,5.548,10.706,439.078,346.07,299.212,303.667,59.222,0.294,7.136
1923,0.69,52.233,0.367,2.607,13.346,123.952,218.921,349.678,174.011,51.571,2.252,0.593
1924,5.015,8.444,0.899,19.552,24.373,207.893,352.742,287.043,255.374,89.362,33.355,0
1925,43.466,7.581,5.659,26.833,35.608,174.4,401.794,323.299,217.413,23.377,3.163,0
1926,30.219,0.084,52.566,9.149,88.094,51.104,457.284,291.421,236.454,49.82,0.143,3.949
1927,23.646,65.931,39.028,1.979,34.661,164.563,276.977,309.073,115.805,48.659,21.881,0
1928,48.12,7.171,1.273,11.632,53.187,305.642,440.844,169.926,227.16,147.318,0,0.985
1929,32.072,1.755,7.503,10.884,36.973,178.635,363.673,204.556,68.742,280.883,0,5.81
1930,5.935,9.116,5.421,8.006,26.728,128.905,334.078,212.225,197.931,53.97,14.014,5.882
1931,13.002,54.426,18.173,1.194,21.743,105.315,487.689,228.927,388.553,54.088,9.599,0.612
1932,0,30.123,3.13,9.976,49.265,117.172,276.538,268.367,226.907,39.974,25.755,4.753
1933,45.271,15.897,1.988,26.637,48.731,197.363,383.128,382.697,153.477,72.352,0,0
1934,18.592,27.187,0.778,19.971,23.636,187.09,291.281,320.378,263.868,54.591,4.305,1.004
1935,13.254,15.286,5.048,9.505,13.863,160.806,200.555,502.064,273.615,16.576,0,0.654
1936,5.933,4.451,15.174,5.984,87.278,194.33,374.138,240.077,423.664,117.343,0.001,12.416
1937,0,37.402,4.66,32.524,35.787,146.133,156.19,344.973,267.745,142.022,0.465,0.31
1938,4.187,20.716,5.11,4.171,66.113,351.174,219.077,259.371,158.991,51.396,0.729,0
1939,7.422,23.62,9.559,7.601,20.9,184.229,439.567,256.743,306.983,93.317,1.034,0.01
1940,0,38.51,49.855,6.686,29.512,112.031,352.704,314.391,140.954,30.219,0,2.537
1941,28.393,3.326,11.209,7.236,33.273,228.351,303.956,322.69,255.023,100.939,10.562,0
1942,14.111,49.993,12.634,10.34,10.589,131.518,341.417,466.367,415.313,24.792,0.995,0.475
1943,34.528,14.465,11.805,45.088,52.054,139.058,518.228,370.344,246.641,55.807,0,0
1944,17.818,38.473,52.953,16.169,28.498,209.086,306.937,421.834,153.371,74.703,0,0
1945,46.033,25.267,2.921,14.273,41.851,158.213,250.322,231.629,312.3,163.305,0,0.985
1946,0,12.269,18.957,21.109,48.919,137.849,371.033,316.798,281.563,133.419,15.589,0.002
1947,11.558,7.581,20.232,2.602,22.346,129.076,380.4,224.811,346.606,65.629,0,1.425
1948,5.053,8.863,6.69,33.517,51.759,140.641,351.103,246.689,262.931,92.853,14.482,0.002
1949,2.486,36.055,10.543,11.833,76.304,317.239,359.049,423.89,150.162,81.248,0,0
1950,1.126,7.913,42.476,3.97,6.553,322.304,279.582,313.878,155.84,45.65,3.584,0.227
1951,6.104,0.209,37.186,14.364,13.302,150.156,500.744,296.296,288.432,95.127,20.074,0
1952,0.001,12.612,24.85,16.099,16.919,301.347,284.18,257.097,242.137,87.351,13.141,0.072
1953,57.355,8.338,8.75,4.811,13.545,195.718,422.845,265.567,284.615,5.62,0.365,0
1954,16.963,7.217,1.815,2.547,28.134,183.967,317.636,266.061,280.339,52.451,0,2.431
1955,29.461,11.597,2.423,10.122,9.019,169.65,460.098,143.208,136.863,88.106,10.242,0.786
1956,15.597,24.381,8.357,23.442,98.038,293.87,196.194,325.905,359.33,112.475,30.186,4.73
1957,9.651,8.303,10.366,0.435,12.347,133.058,285.17,158.56,206.702,39.269,0,1.076
1958,15.906,16.658,16.358,14.97,13.549,163.34,287.756,384.901,233.732,152.697,0.857,0
1959,38.453,0.124,2.647,1.658,33.412,146.659,236.166,283.449,324.871,249.6,0,0.244
1960,0.69,0.079,28.113,3.89,13.593,111.394,255.73,265.745,221.399,49.736,0.751,0
1961,12.043,63.788,1.516,0.131,20.375,200.138,192.423,295.873,272.745,98.707,1.557,3.905
1962,17.76,13.765,4.294,3.411,23.285,139.373,213.622,348.454,232.44,41.526,0,2.401
1963,2.913,2.126,36.002,21.183,84.488,215.732,309.94,193.506,206.4,175.093,12.497,0
1964,0.001,0.696,5.925,24.007,27.505,152.465,298.701,299.574,178.652,54.404,3.603,0
1965,0.313,8.435,10.783,24.91,27.111,81.215,280.368,238.053,177.229,33.9,4.5,1.221
1966,42.87,11.538,0.135,2.502,14.337,98.839,141.235,238.593,116.593,17.956,30.904,9.863
1967,7.844,0.579,45.882,23.681,13.98,95.778,270.262,369.192,131.657,25.589,0,0.963
1968,22.758,2.736,4.675,6.733,7.899,296.362,327.958,271.661,90.112,130.364,5.028,3.344
1969,3.543,13.578,9.658,14.746,64.595,196.727,298.036,319.066,206.528,40.759,13.385,0
1970,17.486,10.659,8.184,1.098,31.219,209.038,335.259,215.629,293.384,108.522,3.103,0
1971,23.956,19.691,6.757,56.924,74.832,360.008,376.391,391.813,203.335,116.36,2.403,0
1972,8.256,42.642,0.944,19.176,13.126,44.762,136.364,243.273,239.713,109.128,8.242,0.411
1973,29.482,4.337,8.718,2.094,35.202,308.267,293.574,281.049,328.275,265.532,21.46,3.631
1974,4.607,1.18,17.133,10.028,43.106,139.044,366.82,216.542,238.473,87.856,4.904,0.931
1975,35.868,7.09,10.078,5.227,44.762,88.65,316.254,96.98,283.081,61.452,2.437,0
1976,2.958,21.593,0.806,24.048,42.16,104.689,288.545,279.376,311.492,9.298,0.2,0
1977,3.132,16.072,1.125,34.626,112.919,201.363,507.133,191.921,166.234,101.163,22.848,12.125
1978,5.97,49.633,38.229,35.627,40.189,194.467,302.199,245.156,403.132,104.008,14.436,5.916
1979,32.633,23.314,0.701,19.746,10.36,68.219,347.102,232.906,159.804,92.562,11.513,14.946
1980,17.645,5.832,27.151,0.901,51.585,241.551,277.958,214.884,127.708,31.571,5.451,0.411
1981,15.698,7.237,27.545,24.631,55.634,99.418,351.674,170.367,155.129,0.804,3.834,6.841
1982,10.383,9.795,26.827,25.338,34.453,104.767,169.6,195.308,278.372,36.09,8.254,0.787
1983,17.973,8.505,9.537,17.646,74.444,157.014,388.572,176.709,135.752,112.764,0,4.732
1984,28.526,18.354,4.352,21.353,28.927,326.391,353.305,211.757,476.553,41.036,0,0
1985,12.621,7.167,1.364,4.863,33.695,89.159,374.538,155.247,180.959,75.954,1.267,12.88
1986,6.431,12.138,0.68,23.068,51.848,156.228,255.655,225.61,219.532,47.54,13.847,4.772
1987,0.849,6.755,13.727,11.474,35.548,163.385,244.374,442.109,365.1,145.071,9.848,1.6
1988,7.003,25.314,25.287,9.965,43.37,135.677,214.453,398.707,159.543,38.701,9.957,2.741
1989,7.371,8.907,4.946,0.547,66.099,219.842,226.345,253.164,272.772,55.239,9.24,7.418
1990,0,12.603,11.318,13.153,99.682,181.076,338.548,252.502,245.275,131.687,1.674,0.01
1991,7.881,1.797,25.525,9.036,31.795,103.552,213.016,445.578,199.782,49.594,1.231,5.606
1992,14.876,4.452,1.664,5.65,28.722,80.2,266.886,175.895,143.513,48.55,0.121,0
1993,10.187,0.993,17.01,11.208,45.884,99.488,152.333,235.07,289.771,83.784,4.036,0
1994,43.767,13.597,16.872,23.526,20.429,67.474,217.006,309.342,77.574,134.337,2.065,0
1995,16.328,19.364,15.132,6.08,33.305,62.712,206.147,197.362,278.3,24.12,16.486,0.121
1996,18.77,11.511,2.888,11.707,28.903,77.816,151.249,323.406,145.622,139.953,0,0
1997,19.245,8.121,10.19,9.346,94.685,44.063,181.801,304.765,188.411,53.487,18.882,9.874
1998,8.334,26.198,9.665,14.468,94.58,38.895,172.34,237.619,204.114,234.33,16.06,0
1999,14.49,5.968,0.96,0.66,51.227,124.587,261.7,277.884,159.646,53.371,3.198,0
2000,9.258,15.801,4.91,13.583,27.368,159.944,109.719,177.161,256.297,10.295,0.162,0.033
2001,2.107,3.334,26.285,13.933,41.056,60.077,209.196,243.417,96.454,109.107,1.119,0
2002,20.938,6.421,8.798,14.816,21.738,80.157,161.059,249.921,177.93,114.146,14.191,0
