Year,Jan,Feb,Mar,Apr,May,Jun,Jul,Aug,Sep,Oct,Nov,Dec
1901,55.123,6.917,4.463,11.296,21.768,156.44,152.877,276.912,219.059,31.667,7.286,0.113
1902,0.885,0.574,9.004,9.796,19.782,121.141,421.214,189.328,342.985,21.969,0.187,0
1903,5.539,1.812,5.339,6.744,51.342,278.991,148.671,201.529,170.237,119.433,0,0
1904,1.238,0.612,23.126,4.206,201.551,45.168,269.852,445.91,127.043,80.212,12.435,0.612
1905,5.765,27.842,24.727,9.883,24.594,22.665,578.363,303.436,397.546,21.405,0,0.238
1906,4.888,57.677,18.588,3.329,25.336,127.666,488.089,238.034,232.828,107.883,0,0.125
1907,0.264,38.226,19.765,39.617,26.194,202.369,205.805,298.951,144.373,32.151,0,0.125
1908,7.163,40.243,6.789,3.291,13.423,85.098,318.567,274.853,113.189,125.732,0.075,0.938
1909,2.352,5.423,0,41.675,12.823,216.301,431.051,396.785,168.658,16.582,0,2.725
1910,1.774,1.949,15.377,12.584,23.18,207.738,429.184,339.206,214.405,63.271,11.112,0
1911,9.865,0.238,19.389,6.07,26.918,264.649,299.112,283.593,261.098,116.78,28.395,0
1912,3.777,9.022,3.688,20.94,46.004,122.489,376.849,316.941,72.503,25.464,16.518,0.075
1913,0.113,51.089,28.177,2.165,63.461,394.896,240.345,336.403,161.173,98.387,0.737,11.05
1914,0.249,30.067,15.238,34.795,71.967,54.855,285.978,381.379,120.331,20.968,0.075,0.249
1915,1.675,63.237,10.163,8.522,31.369,181.359,341.845,266.368,247.465,75.283,13.465,0.075
1916,0.075,19.128,2.026,5.792,16.318,154.468,421.004,310.74,156.738,185.709,0.374,0
1917,1.976,20.812,6.452,7.531,92.756,179.591,309.142,394.154,134.304,240.675,0,0.362
1918,0.113,0.238,5.964,5.781,28.858,169.342,298.668,373.873,200.064,18.847,0.941,0
1919,27.383,1.348,8.736,15.924,77.483,77.334,352.339,430.532,186.924,156.177,0.151,0
1920,0.113,40.999,24.677,4.492,34.46,88.301,339.198,336.231,142.754,32.402,0,0
1921,18.783,1.46,1.551,4.328,15.265,144.635,300.97,414.265,112.339,19.458,0,0
1922,12.462,14.609,1.388,9.47,7.57,386.081,498.947,339.98,323.916,98.493,1.449,13.753
1923,0.226,62.001,2.026,3.315,9.458,102.177,266.876,499.097,203.696,54.314,1.601,0.151
1924,1.411,5.621,2.839,19.749,22.165,145.584,384.606,232.041,252.093,124.645,54.119,0.151
1925,7.89,0.449,5.088,6.266,39.689,71.688,315.087,460.318,152.941,38.361,6.495,0
1926,16.339,0.276,37.764,8.244,96.35,46.524,596.374,319.679,205.524,67.996,1.176,3.336
1927,19.801,29.098,29.714,3.679,30.383,69.365,263.14,402.021,148.482,83.107,44.446,0
1928,22.165,16.519,2.663,17.812,48.329,159.448,517.607,212.759,155.27,166.851,0.565,2.213
1929,19.161,0.736,3.726,6.331,29.256,204.956,403.927,309.021,69.848,277.992,0,10.6
1930,13.852,6.898,4.49,8.483,18.507,106.747,251.431,230.139,223.081,44.477,13.466,11.513
1931,1.075,28.307,14.177,2.716,18.326,71.33,653.902,372.583,251.773,86.997,6.271,1.063
1932,0.075,8.82,2.539,4.841,52.619,180.015,127.506,339.327,170.647,47.781,57.508,8.989
1933,22.001,19.89,3.126,30.971,53.422,125.295,628.6,391.261,169.31,104.439,0,0
1934,27.014,23.931,1.926,11.207,17.315,189.748,419.454,395.674,222.313,65.256,4.942,0.188
1935,2.652,23.717,2.726,18.001,18.068,155.28,229.895,468.754,191.44,32.151,0.414,0.338
1936,2.862,4.206,13.377,9.672,91.464,167.615,578.563,306.537,287.023,188.787,0.475,16.252
1937,0.113,52.354,2.562,27.217,30.082,80.252,189.409,321.083,210.074,139.653,0.075,0.151
1938,8.31,17.355,3.614,7.895,59.752,416.479,358.293,307.149,183.716,64.392,0.113,0
1939,1.937,40.675,10.139,8.595,18.03,174.71,376.547,268.858,238.801,62.716,0,0
1940,0.339,53.644,38.722,9.006,27.681,109.017,602.281,375.349,150.27,24.469,0,4.876
1941,6.973,7.923,9.438,4.554,39.462,124.831,286.83,378.287,202.808,65.699,0.362,0.151
1942,34.687,34.118,14.324,10.521,13.626,154.98,204.684,385.05,322.726,20.78,0,1.313
1943,13.062,17.469,3.913,33.758,41.37,113.379,264.075,540.063,219.288,43.218,0,0
1944,21.613,20.634,35.447,9.344,14.181,243.408,167.195,382.973,149.522,114.063,0.113,0
1945,55.388,23.253,2.063,4.805,45.772,114.487,279.815,157.673,265.826,156.449,0,2.299
1946,0.075,29.376,16.578,18.675,47.109,94.831,534.199,336.062,248.964,102.697,23.414,0.3
1947,24.689,9.671,15.876,2.916,26.485,67.897,544.533,246.673,307.251,94.884,0.3,0.249
1948,6.023,14.495,7.188,5.993,44.175,101.279,481.817,324.509,295.177,82.345,10.912,0
1949,4.25,72.314,10.101,8.883,84.712,307.346,469.675,418.192,167.684,153.985,0.113,0
1950,3.675,11.158,33.913,3.153,12.638,230.512,252.648,405.602,141.298,38.095,0.113,0.873
1951,4.138,0.998,29.588,27.057,13.487,101.056,563.268,286.472,219.605,89.094,28.486,0
1952,0.264,14.632,17.787,8.244,19.039,373.626,258.109,247.92,221.836,72.13,0.527,0.187
1953,54.704,2.236,2.126,6.905,12.035,184.715,473.871,309.836,242.727,19.342,0,0.276
1954,11.139,13.272,4.627,5.455,29.284,128.585,376.872,279.308,228.833,42.793,0.151,0.188
1955,6.123,16.979,2.426,9.247,9.96,179.692,733.802,167.41,133.56,126.613,0,2.651
1956,17.123,3.121,5.152,14.766,65.185,263.335,160.425,324.682,336.927,117.943,59.405,8.526
1957,34.585,2.474,15.632,1.301,3.953,159.82,420.384,229.714,102.668,0.8,0.226,3.965
1958,23.261,4.584,21.758,15.995,3.428,235.727,249.697,252.843,192.206,127.483,0.151,0.188
1959,78.249,0.538,0,0.075,45.335,143.462,201.259,320.54,356.056,201.019,0.791,0
1960,0.775,0.125,15.822,4.437,1.001,92.961,301.484,392.013,197.786,48.563,0,0
1961,11.835,38.819,0,0.075,9.094,180.408,292.99,310.153,235.861,80.5,8.837,3.485
1962,20.515,12.795,6.303,20.087,4.117,120.308,269.287,301.604,327.815,13.84,0.075,4.864
1963,5.774,1.213,41.936,5.907,93.288,165.981,442.953,328.606,166.914,119.502,23.456,0.075
1964,0.226,0.923,2.95,11.403,17.704,109.913,472.297,402.551,166.54,39.756,2.868,0.075
1965,0.387,0.502,8.579,35.349,10.255,58.414,388.037,160.642,109.825,43.465,8.023,0.312
1966,22.823,28.043,0,0.075,0.475,35.582,213.805,202.471,76.442,4.45,53.341,4.96
1967,1.247,0.2,22.799,9.531,20.906,34.411,372.017,424.286,145.62,17.3,0.49,2.713
1968,28.623,2.249,1.475,6.344,7.749,204.42,361.916,317.206,95.019,131.289,0.075,6.15
1969,6.28,25.199,2.963,14.724,60.375,223.311,370.342,306.403,196.644,12.248,24.864,0
1970,8.613,18.699,8.026,2.44,29.664,238.486,487.198,265.183,213.339,56.118,0.113,0
1971,8.184,16.132,5.177,24.411,88.814,373.689,304.151,374.15,113.607,138.571,0.075,0
1972,7.413,63.064,5.491,24.363,17.305,24.498,146.225,296.389,179.002,220.375,20.368,0
1973,57.629,6.178,4.889,2.692,27.213,191.239,391.899,349.605,248.662,232.225,4.549,0
1974,8.74,2.787,3.138,5.117,28.428,189.167,612.128,215.289,183.69,87.119,0.65,3.375
1975,66.681,9.737,14.563,3.866,34.008,78.798,310.132,229.518,335.491,57.142,0,0
1976,9.593,35.933,1.701,23.412,27.434,150.892,232.851,225.635,377.412,3.29,0.075,0
1977,2.64,5.15,1.626,38.635,147.987,57.553,295.616,226.522,174.091,75.596,5.346,18.05
1978,13.038,41.551,25.988,33.478,17.623,100.232,304.802,276.107,283.111,135.839,1.375,8.009
1979,18.011,14.082,2.176,14.533,10.472,65.253,588.028,237.66,89.784,37.805,74.383,11.65
1980,2.709,1.601,15.915,1.817,38.316,225.857,414.956,310.171,120.13,18.685,1.924,1.138
1981,17.07,7.297,18.625,12.034,52.544,72.754,412.466,276.664,238.466,1.516,15.847,1.949
1982,21.966,17.119,31.227,13.707,63.55,106.018,221.255,217.955,335.145,40.135,24.139,1.938
1983,21.084,1.453,3.956,20.417,91.955,131.605,496.91,183.033,155.158,120.028,0,6.787
1984,25.223,26.549,3.8,17.459,14.821,182.299,326.316,213.579,465.855,41.345,0.4,0.577
1985,12.252,4.711,1.113,6.168,28.621,119.406,383.03,233.76,259.848,123.375,0.113,14.802
1986,1.749,9.295,5.254,16.262,49.998,141.536,450.513,293.406,249.043,19.665,0.799,10.814
1987,1.84,13.696,6.225,12.852,51.819,245.213,347.509,450.609,400.798,170.68,1.746,2.913
1988,7.288,22.453,20.951,9.068,50.779,137.71,234.19,313.631,140.557,38.461,0.64,12.395
1989,10.003,22.569,5.801,5.481,108.906,129.961,337.095,263.504,193.698,49.314,2.035,2.244
1990,0,14.815,8.513,5.979,86.364,65.177,211.397,198.485,222.251,64.231,0,0.151
1991,17.111,1.688,20.26,11.658,37.026,53.861,128.941,457.861,150.352,19.819,0.601,2.873
1992,15.462,5.185,1.726,6.03,27.116,15.325,247.303,192.954,115.034,64.943,1.576,0
1993,10.814,0.351,8.751,10.721,49.983,56.39,73.878,197.887,277.007,65.145,1.337,0
1994,61.733,25.425,21.363,15.537,24.843,38.588,219.715,277.401,70.563,104.218,0.452,0
1995,13.819,21.855,11.876,3.755,35.95,30.238,193.013,308.924,195.853,10.913,27.498,0.864
1996,24.272,12.647,2.264,6.069,22.982,25.691,185.271,314.449,157.88,167.881,0,0
1997,14.037,11.272,3.727,7.321,109.71,122.614,195.894,331.703,137.592,53.961,31.474,8.798
1998,0.249,13.031,6.515,11.683,111.027,42.051,220.971,314.58,163.417,113.77,25.577,0
1999,22.413,10.047,1.763,0.075,60.166,102.617,291.282,255.479,171.144,43.998,1.762,0.576
2000,11.84,15.369,9.117,14.184,18.876,130.012,149.972,145.878,235.433,0.8,0,0.775
2001,2.211,2.962,17.085,13.197,24.547,42.164,277.416,276.912,64.01,107.085,0,0.713
2002,15.571,11.397,5.652,10.608,24.794,44.186,220.982,276.828,175.456,151.729,18.081,0.713
