Year,Jan,Feb,Mar,Apr,May,Jun,Jul,Aug,Sep,Oct,Nov,Dec
1901,20.377,52.768,30.75,64.963,12.48,139.79,235.054,360.619,140.975,5.778,5.229,0.111
1902,3.554,0.145,0,1.615,3.445,62.667,313.777,300.739,140.336,18.849,5.495,35.532
1903,0.946,2.912,0.164,1.774,52.532,177.81,734.71,389.315,168.738,95.194,0.917,7.559
1904,1.287,3.281,28.03,0.079,16.277,208.291,181.283,338.178,201.952,39.277,0.013,5.772
1905,4.565,12.503,7.547,38.86,12.443,168.186,276.398,431.358,514.781,1.255,0,0.158
1906,7.281,17.249,13.709,0.079,13.93,422.106,428.675,460.359,128.229,9.805,0.982,7.55
1907,1.618,36.642,3.753,62.667,3.704,293.229,246.797,397.318,131.709,1.563,7.592,5.452
1908,8.51,4.818,11.839,1.263,4.522,281.814,397.094,395.977,263.743,7.792,0,4.392
1909,0.536,11.101,1.17,50.703,42.394,178.256,601.472,239.976,118.161,4.411,0,49.336
1910,0.596,0.111,0,3.083,17.842,323.24,411.748,342.089,315.351,88.142,33.942,0.111
1911,6.753,0.327,7.635,0.433,5.291,340.63,212.281,480.158,231.771,53.95,23.178,0.249
1912,3.663,65.076,0,27.662,6.435,32.449,532.89,498.219,180.417,6.93,10.121,1.521
1913,0,37.469,21.977,3.474,28.664,241.077,349.363,414.463,192.955,16.457,0,13.864
1914,0,11.052,16.126,70.122,25.095,224.287,447.969,346.969,334.605,8.397,0.486,12.637
1915,33.092,17.595,33.772,56.336,8.996,195.22,419.72,301.935,250.766,91.982,2.903,1.424
1916,0,18.829,0.302,4.611,18.34,184.443,330.675,393.466,280.872,161.89,11.032,0.111
1917,0,59.479,13.851,7.42,42.733,234.342,301.972,218.306,348.272,121.934,0.201,0.111
1918,14.336,6.313,4.041,3.698,44.419,292.157,244.86,355.428,87.634,6.917,20.141,26.608
1919,56.809,72.186,18.641,2.661,13.394,394.352,393.032,511.789,133.252,107.361,14.61,7.76
1920,12.316,0.261,13.962,15.334,5.208,115.842,342.091,206.064,131.234,6.495,0,0.111
1921,11.031,0.239,0,2.815,0.085,190.763,279.028,314.912,264.224,8.252,0.107,0.111
1922,14.278,0.547,0,4.04,5.116,209.089,381.625,201.533,343.128,15.488,26.43,0.111
1923,0.158,12.977,26.721,14.904,1.547,46.951,480.19,299.232,301.834,18.18,1.45,0.111
1924,28.262,2.24,6.359,13.217,3.424,49.37,321.285,247.242,275.061,84.997,23.336,4.795
1925,0,0.111,2.462,4.527,55.41,217.536,391.427,628.741,130.866,42.438,27.818,0.683
1926,41.829,0.76,45.943,67.309,44.5,80.382,497.342,578.55,234.257,67.108,0.601,5.459
1927,4.002,28.244,20.648,2.044,7.646,325.553,531.868,388.451,111.007,67.078,36.034,3.981
1928,1.741,31.039,6.782,1.286,5.785,142.251,504.417,164.316,277.883,86.378,0,5.44
1929,3.426,41.597,0.306,10.874,1.352,170.429,488.521,363.554,240.859,41.702,0,33.252
1930,0,1.658,8.964,59.281,5.963,207.539,332.454,200.533,179.712,49.719,9.977,2.244
1931,5.072,4.637,27.142,9.294,8.496,107.172,487.402,410.729,227.39,182.39,25.019,1.127
1932,0,25.861,6.913,11.805,15.217,213.768,591.534,263.905,233.415,17.961,8.48,0.111
1933,1.901,30.379,24.152,32.429,50.91,195.731,548.222,458.22,302.636,68.906,9.031,9.413
1934,2.159,0.111,0.954,26.763,0.194,211.798,369.789,481.468,296.737,45.392,18.383,2.008
1935,8.299,5.108,0.433,35.455,1.616,182.728,512.153,240.384,201.383,5.075,0,1.574
1936,3.781,57.509,16.217,9.062,16.894,329.78,454.442,385.677,232.277,116.027,23.828,7.966
1937,0,50.67,46.971,77.512,6.045,196.992,590.117,328.038,233.035,96.335,0,1.024
1938,4.503,11.175,7.96,26.957,27.211,306.592,428.89,352.223,206.01,128.531,2.823,0.111
1939,3.172,3.293,36.561,15.937,0.295,121.316,364.551,381.445,109.502,45.943,2.007,0.128
1940,0,13.397,5.882,12.472,10.125,334.822,658.558,458.727,68.656,76.587,7.714,7.827
1941,7.69,14.407,26.715,4.423,7.022,179.218,385.551,209.9,144.308,9.481,2.007,0.111
1942,2.366,71.855,0.388,19.972,3.757,130.115,599.539,430.814,279.779,14.138,0.388,6.84
1943,56.937,0.111,0.616,16.444,18.401,139.356,306.917,240.646,249.574,90.446,1.024,0.111
1944,10.939,73.389,71.731,6.443,7.45,149.041,638.198,370.57,197.777,70.436,1.918,0.111
1945,25.812,0.111,0,47.74,5.191,178.26,580.823,299.58,280.949,40.811,3.406,2.703
1946,0,20.309,3.49,37.837,10.085,268.784,469.697,365.615,125.114,20.33,16.02,6.494
1947,47.732,26.07,21.473,5.411,5.439,124.601,570.518,460.111,233.107,15.146,2.702,5.934
1948,44.547,12.65,15.506,6.524,3.294,164.294,407.989,320.201,247.812,27.492,45.352,0.111
1949,0.478,4.652,0.414,7.249,19.879,183.31,408.957,284.001,240.726,165.462,0,0.364
1950,0.037,25.556,17.835,2.465,6.091,102.704,384.246,181.72,115.159,7.163,7.085,1.368
1951,3.924,1.026,62.606,23.729,18.222,117.312,423.683,369.905,172.174,93.469,0.3,0.111
1952,0,11.069,8.917,8.665,5.075,82.919,263.336,274.622,170.584,19.86,0,9.869
1953,9.924,2.771,0,22.689,1.76,122.376,270.718,464.896,196.897,57.183,0.603,0.111
1954,0.037,0.124,8.753,34.461,3.465,169.099,497.303,416.324,332.952,16.828,0,0.188
1955,14.982,0.526,12.175,32.64,2.212,226.505,377.472,538.843,275.948,160.602,0.501,0.111
1956,0,2.46,2.238,0.444,43.943,217.7,493.618,292.648,270.636,30.578,32.123,3.203
1957,6.346,2.137,34.007,77.089,5.648,156.884,416.339,424.722,91.307,27.376,0,2.144
1958,2.344,4.879,4.989,24.459,4.932,88.128,405.394,347.299,251.151,81.421,10.09,0.111
1959,13.358,4.366,0.391,19.08,18.67,284.457,485.869,365.063,321.093,73.255,0.101,2.24
1960,36.184,0.111,20.695,23.702,12.332,166.879,454.369,375.436,158.981,61.326,0,0.111
1961,8.711,19.18,10.995,10.942,23.867,119.639,401.611,424.399,435.428,125.865,4.711,14.133
1962,4.062,19.181,17.334,53.753,25.314,82.456,358.355,348.403,339.578,3.073,7.074,90.169
1963,0,13.683,5.736,41.07,8.38,157.934,288.232,378.861,190.311,91.205,0,0.111
1964,0,18.999,6.353,8.624,1.552,109.571,244.504,510.161,199.538,40.322,1.907,0.111
1965,12.833,11.569,23.766,20.478,4.943,227.316,300.668,198.213,195.775,1.007,0,0.111
1966,29.229,0.111,8.46,7.886,59.954,119.419,412.412,268.007,194.698,7.592,13.116,21.591
1967,0.306,0.111,59.043,6.293,5.137,207.976,458.173,248.247,125.36,5.125,0,93.315
1968,17.161,34.38,27.138,50.984,3.06,152.616,377.35,191.904,339.665,27.669,2.045,10.38
1969,0.687,0.111,3.076,3.617,8.481,107.422,579.752,244.818,287.735,10.427,2.826,35.319
1970,11.695,8.935,41.852,9.407,23.921,282.607,392.503,601.559,250.619,2.411,0,0.111
1971,7.989,7.47,15.513,16.068,20.757,264.049,181.761,197.525,191.049,108.018,0,0.111
1972,0,10.326,0,3.686,2.151,102.197,317.541,287.022,108.775,20.045,14.258,0.859
1973,0.275,6.73,1.851,3.759,0.655,94.79,386.715,293.617,188.503,151.288,0,0.245
1974,0,2.374,1.541,1.94,5.538,205.232,345.734,290.519,96.819,179.125,12.563,0.111
1975,4.314,21.488,15.888,3.178,3.988,351.448,374.441,373.617,329.297,102.549,0.301,0.111
1976,3.072,0.111,13.851,24.672,21.678,84.425,448.036,381.829,261.032,0.494,24.965,1.681
1977,0.337,0.856,5.435,13.973,11.404,187.179,386.805,381.401,207.201,20.533,42.855,20.774
1978,20.513,32.884,31.389,27.16,7.001,198.729,335.354,408.895,95.741,10.546,16.09,24.949
1979,33.681,50.342,0,2.627,11.153,177.683,355.925,405.961,184.602,24.152,9.109,9.403
1980,0.519,1.663,1.622,10.789,2.015,214.486,316.339,339.193,154.571,5.562,0,17.107
1981,20.186,0.111,31.821,10.018,10.502,183.945,347.134,347.482,379.79,23.842,0,9.811
1982,35.19,15.986,6.302,29.724,11.13,132.212,352.954,229.391,231.251,22.565,5.206,0.111
1983,3.852,7.611,2.996,6.511,16.904,160.673,447.228,360.609,280.361,57.02,0.313,10.652
1984,37.834,33.53,0.806,6.579,5.67,143.189,362.506,282.268,82.37,22.422,0,0.111
1985,23.53,3.103,1.677,12.143,10.447,202.068,432.64,371.87,124.06,242.336,0,2.709
1986,27.187,33.666,0.958,3.991,13.616,202.56,274.637,369.197,125.666,9.167,10.998,40.734
1987,7.058,6.445,18.696,1.386,14.312,125.022,298.817,386.587,59.38,50.674,30.341,6.11
1988,0.337,2.085,7.099,37.185,4.864,168.782,323.801,329.442,263.641,33.477,10.702,1.543
1989,0,0.111,51.054,0.657,6.443,173.097,297.127,307.554,137.216,10.398,0.345,23.37
1990,1.319,26.468,21.293,1.088,56.521,279.023,359.024,466.116,122.001,83.704,2.008,20.074
1991,18.479,3.901,4.032,15.191,3.614,207.51,462.178,349.396,67.431,9.553,4.322,3.039
1992,2.641,4.457,0,9.739,7.278,103.314,305.629,436.307,262.916,29.634,5.734,0.111
1993,0.245,15.096,51.897,4.61,18.455,181.223,475.242,257.42,315.586,67.191,0,1.843
1994,23.176,41.38,20.822,13.088,8.714,153.83,740.621,411.859,295.179,119.281,1.385,0.111
1995,31.463,0.901,70.996,13.455,9.366,177.735,459.717,309.915,277.202,43.635,1.881,0.111
1996,3.79,8.985,5.404,49.686,0.466,44.567,328.143,295.74,148.675,51.684,11.83,0.111
1997,20.473,0.111,11.326,12.167,8.064,75.288,274.314,248.748,230.331,66.938,36.607,76.541
1998,17.606,37.55,26.954,14.042,15.424,102.617,262.97,320.241,207.384,58.678,45.064,0.111
1999,1.857,15.45,0,0.185,28.201,125.986,286.176,463.623,249.166,89.278,0,0.111
2000,0.257,29.954,0,2.5,29.687,190.535,427.047,221.608,102.141,23.131,0,0.206
2001,2.958,0.111,15.097,34.042,26.048,258.445,341.641,374.006,113.096,122.811,4.084,0.111
2002,24.135,12.326,2.055,10.575,25.494,289.919,174.49,390.896,132.512,28.128,0.481,0.111
