Year,Jan,Feb,Mar,Apr,May,Jun,Jul,Aug,Sep,Oct,Nov,Dec
1901,32.485,3.607,26.557,18.127,6.7,119.965,190.457,321.405,70.608,122.672,0.201,0
1902,2.964,0,0.012,7.817,4.091,38.811,231.011,155.997,125.88,109.605,41.293,36.063
1903,3.614,0.638,0,1.652,46.07,95.972,343.504,320.724,173.106,70.457,0.201,13.649
1904,0.225,1.167,14.149,0,5.899,132.369,137.774,58.966,356.456,82.003,0.201,0.637
1905,0.973,2.032,0.305,0.789,2.79,59.069,166.747,138.569,268.197,10.758,1.579,0
1906,4.537,0.658,2.649,0,0.926,217.218,330.785,209.748,83.317,4.322,6.798,19.172
1907,1.26,30.494,0.023,31.919,0.355,138.013,178.53,170.143,31.672,1.466,21.408,1.497
1908,0,0.727,13.734,8.678,0.387,170.552,231.638,216.661,188.928,1.219,0.201,5.265
1909,3.103,1.773,2.679,11.921,24.375,203.216,224.077,144.227,169.371,3.09,0.201,58.205
1910,0,0,0.029,0,7.029,240.882,127.935,249.688,335.143,95.325,52.609,0
1911,17.821,0,0.737,0,8.515,116.665,109.579,155.356,81.772,3.42,67.383,0
1912,0,12.579,0,2.946,5.323,55.222,213.924,184.831,54.349,9.842,14.898,0.493
1913,0,5.137,0.638,1.485,17.454,187.278,261.991,126.461,131.058,12.281,0.69,13.699
1914,0,12.288,11.615,7.339,17.037,201.451,192.986,153.093,379.013,3.907,17.553,26.026
1915,22.167,1.313,54.717,15.074,2.503,179.015,176.791,132.074,257.437,157.674,2.293,20.858
1916,0,2.812,0,0.96,19.475,207.48,279.91,197.412,299.551,116.709,28.652,0
1917,0.082,32.905,7.805,7.777,35.283,159.388,161.665,184.765,285.344,113.548,0.502,0
1918,1.348,0.686,2.472,0.356,38.978,142.312,98.834,100.277,56.351,2.83,43.017,26.222
1919,16.892,5.604,2.068,5.137,15.475,155.355,193.366,116.186,233.89,109.418,23.869,0.109
1920,39.883,0,0.396,2.416,1.496,109.915,129.722,82.922,70.087,1.216,0.201,0
1921,3.71,0,0,1.464,0,223.403,151.946,146.54,187.994,12.25,0.307,0
1922,19.736,2.017,0,9.667,0.317,182.045,186.831,55.728,244.158,33.878,58.697,0.798
1923,0.186,2.049,29.694,8.086,0.667,33.66,305.23,85.232,255.599,0.941,0.201,0.989
1924,6.491,0.413,6.382,11.691,4.392,49.385,217.562,253.127,164.439,139.705,2.799,26.87
1925,0,0,2.236,0,23.897,151.98,118.414,170.373,78.031,22.782,62.469,15.229
1926,47.565,4.933,1.378,3.751,22.259,46.236,306.727,241.77,84.945,57.116,7.768,4.375
1927,0,3.514,11.904,9.618,0.377,182.29,226.516,79.585,124.597,110.373,100.854,6.459
1928,0,34.576,11.349,0,0.061,145.877,151.839,138.166,254.376,121.817,0.201,25.531
1929,2.345,24.265,0.43,11.38,0.065,190.814,177.817,51.872,143.228,41.548,0.201,11.309
1930,0,1.057,0.061,5.158,6.608,98.18,107.215,88.901,439.557,59.001,8.999,0.295
1931,1.339,0.153,7.299,5.887,2.1,65.132,362.426,227.574,255.358,235.403,41.525,10.245
1932,0,13.567,28.472,10.476,7.079,93.962,262.587,193.338,120.263,66.979,13.763,0.082
1933,6.611,8.122,3.923,8.579,41.028,227.308,232.963,231.291,360.782,64.202,2.792,46.423
1934,4.285,0,0,2.475,0.319,126.124,246.275,312.172,223.353,18.999,76.191,0
1935,12.268,0.409,0,11.836,0.342,135.391,369.816,182.613,230.81,45.841,0.603,4.895
1936,6.976,21.465,15.269,3.289,50.957,223.673,118.487,158.823,177.337,18.818,144.874,4.387
1937,0,18.177,7.187,24.525,0.412,156.005,336.464,40.86,236.733,198.56,0.201,17.578
1938,1.53,4.696,4.487,14.155,29.809,293.597,326.883,153.27,234.988,103.929,0.201,0.058
1939,0.252,0.064,6.031,2.774,0,101.193,178.259,307.435,60.328,18.538,23.223,0.035
1940,0.023,2.536,0,8.092,3.891,189.17,335.008,176.496,92.829,74.45,19.342,9.151
1941,5.822,7.098,6.34,9.313,0,57.17,253.596,134.075,121.992,6.07,0.201,0
1942,0.13,29.917,0.023,8.219,5.35,147.111,246.98,308.75,190.323,2.618,0.201,45.833
1943,34.54,0.233,2.124,0.194,30.477,149.35,159.579,75.246,274.525,174.034,0.26,0
1944,1.301,19.39,41.765,0.061,0.204,92.568,319.183,342.174,254.694,71.969,24.321,0
1945,12.875,0,0,4.7,0.691,127.105,243.47,204.548,297.522,27.943,1.408,2.614
1946,0,8.748,0,5.413,17.24,192.809,318.164,144.308,119.943,0.657,117.909,12.52
1947,23.93,12.336,14.368,8.559,2.515,56.841,144.079,313.954,307.585,7.363,0.282,37.973
1948,28.146,6.819,4.172,3.5,0.859,183.862,206.49,146.523,223.192,27.808,140.001,0
1949,6.301,1.526,0.013,1.773,34.69,175.079,307.495,168.099,473.271,170.571,0.201,0
1950,0.11,18.707,4.888,3.596,12.291,39.926,173.93,122.455,258.673,5.517,0.435,28.603
1951,6.523,0,1.799,5.484,15.344,123.647,219.706,152.348,112.826,117.692,1.897,0
1952,0,16.688,2.387,3.928,7.617,147.835,156.78,129.865,132.863,61.074,0.201,1.251
1953,0.085,0,0,25.119,0.603,145.99,276.487,205.623,151.07,43.664,0.201,0
1954,0.144,0.621,4.597,10.289,1.991,139.321,330.806,157.308,278.352,6.257,0.201,0.501
1955,14.598,0.176,8.414,5.392,11.414,245.625,216.206,322.844,168.869,92.343,0.247,0
1956,1.52,0,0,0.074,47.656,168.423,249.345,127.859,262.125,67.188,64.607,7.588
1957,0.628,0,33.631,36.387,12.017,125.275,171.001,219.138,147.826,16.691,0.201,0
1958,0.14,0,3.884,19.086,9.021,98.757,294.019,383.252,157.373,35.781,39.91,0
1959,3.162,0,0.327,21.165,4.046,111.986,276.089,234,353.003,122.912,3.265,0
1960,31.045,0,26.429,2.83,16.477,181.786,181.844,130.317,140.991,126.833,9.565,0.362
1961,0.023,5.621,14.258,5.514,42.151,85.421,278.324,181.841,274.254,234.135,0.201,3.733
1962,1.986,0.634,24.476,14.398,19.768,57.432,252.781,163.774,377.736,34.514,70.371,74.004
1963,0,10.221,9.656,15.539,5.723,168.421,191.999,330.605,80.502,125.71,0.307,0
1964,0,0,2.252,1.512,0.058,164.161,223.49,210.753,217.914,40.398,0.201,0
1965,29.687,1.685,1.456,11.341,0.542,127.093,258.501,169.281,68.894,3.105,0.201,6.355
1966,21.661,0,21.168,6.616,38.339,41.589,259.499,111.942,195.262,1.087,65.339,31.516
1967,2.1,2.434,18.732,5.181,3.17,130.357,213.584,167.299,140.124,20.288,6.782,74.236
1968,7.449,5.416,41.674,23.89,1.245,71.991,273.609,172.34,178.712,11.73,8.224,4.078
1969,0.144,0,0.267,0.23,10.512,136.009,218.031,115.075,254.997,6.235,54.771,0
1970,1.938,0.089,0.481,5.458,15.467,252.981,156.852,412.31,223.365,5.096,0.201,0
1971,1.514,3.403,5.043,1.041,31.004,122.226,61.306,140.981,147.092,150.743,0.201,0
1972,0,0,0,2.497,4.246,124.8,109.252,206.046,81.036,0.919,23.836,0.302
1973,0,6.3,0,3.36,2.832,123.167,210.813,395.877,205,82.267,0.253,0.912
1974,0,3.008,0.36,2.273,25.723,69.505,151.533,181.076,77.861,156.296,0.209,0
1975,3.559,10.326,10.822,0,9.601,134.04,223.713,265.307,307.832,100.804,0.23,0
1976,0.396,0,8.624,11.019,6.442,61.226,247.954,177.01,162.945,0.657,75.93,0
1977,0,2.578,1.833,0.919,9.402,188.401,204.316,226.692,84.281,30.223,87.025,19.66
1978,13.694,29.477,28.115,22.111,2.162,232.368,273.459,198.897,42.963,59.904,30.97,15.284
1979,23.276,29.166,6.377,0,16.041,184.59,161.851,334.539,138.05,17.376,34.311,4.131
1980,10.287,0.232,0.109,1.287,0.304,226.411,122.854,250.791,61.932,0.687,0.201,32.745
1981,17.028,1.844,30.331,1.419,7.994,127.497,194.157,271.534,322.638,56.012,10.915,35.724
1982,41.93,3.813,4.565,14.157,19.576,61.243,278.981,91.052,169.36,23.935,20.416,0
1983,0.675,0,0.56,0,0.601,141.239,241.454,329.992,347.523,105.688,0.201,8.337
1984,13.092,10.817,0,0,0,89.528,134.82,219.856,53.216,156.474,1.359,0
1985,35.428,0.041,1.173,14.273,0.517,251.297,236.928,154.745,52.357,77.938,8.518,0.621
1986,1.015,33.296,0.09,6.279,4.263,177.37,339.638,232.242,55.169,1.811,1.891,15.031
1987,19.867,8.493,2.043,0.279,27.453,193.231,67.245,50.519,77.648,70.099,49.35,12.68
1988,0,0.96,0.096,5.923,22.973,113.859,386.424,218.13,198.473,138.449,5.757,0.949
1989,0,0,37.616,1.012,19.327,135.769,125.888,196.442,168.364,4.852,0.237,23.645
1990,0.238,1.664,1.232,0,66.032,145.946,205.589,303.855,39.916,133.551,4.208,12.253
1991,0.419,5.11,0.435,14.894,1.419,154.966,168.906,93.547,20.504,1.544,13.781,0
1992,0,0.913,0,0.354,27.006,56.313,74.632,238.303,245.082,39.405,1.907,0
1993,0,6.495,9.543,0.295,0.629,65.205,229.667,147.706,171.405,165.933,0.543,16.269
1994,5.15,6.557,8.698,29.911,5.66,167.871,167.266,132.371,198.109,52.217,14.508,0
1995,32.017,0.03,32.709,1.266,23.155,118.017,365.835,47.67,261.029,38.997,1.313,0.12
1996,4.692,3.915,6.8,1.401,1.513,46.372,213.066,238.989,309.624,190.682,3.576,0
1997,31.331,0,1.215,19.096,3.623,121.193,129.474,210.153,41.85,29.667,146.224,35.471
1998,1.271,0.972,4.12,0.205,1.134,72.264,158.978,187.303,431.848,62.348,61.07,0
1999,0.015,31.073,0,0.09,53.878,177.136,165.584,236.557,269.327,114.742,0.201,0.061
2000,0,3.88,0,0.132,11.049,135.168,194.276,162.05,53.883,4.563,1.274,1.67
2001,19.55,0,25.749,5.549,6.162,148.16,45.148,157.007,23.706,20.264,1.841,0
2002,19.576,1.936,4.76,5.516,1.884,224.519,36.801,248.794,157.924,52.118,4.297,0
