Year,Jan,Feb,Mar,Apr,May,Jun,Jul,Aug,Sep,Oct,Nov,Dec
1901,16.195,18.382,21.563,24.644,26.096,28.241,28.2,28.389,27.593,25.682,21.005,17.121
1902,16.656,18.21,22.34,22.546,26.772,27.296,28.364,28.194,27.194,23.994,20.076,16.258
1903,15.252,17.936,21.179,23.958,25.924,27.621,28.864,27.79,27.91,26.027,21.188,17.068
1904,15.674,18.304,21.464,22.856,25.706,28.43,28.364,28.342,27.586,25.281,20.018,16.188
1905,15.189,15.974,19.932,22.025,26.392,28.662,28.586,27.242,28.122,25.159,20.936,16.693
1906,16.075,17.523,20.538,22.818,26.304,28.329,28.964,27.124,28.464,25.181,21.17,16.941
1907,16.743,17.797,19.963,22.222,25.298,26.82,27.307,28.589,26.729,25.521,21.463,17.014
1908,16.131,18.416,22.197,24.993,25.449,27.936,27.807,28.188,27.248,25.111,20.581,16.353
1909,15.636,18.138,23.086,23.129,24.659,26.978,28.318,27.674,28.564,26.446,22.634,17.729
1910,16.249,18.198,21.184,23.419,25.924,26.656,26.899,27.849,27.994,25.141,21.38,17.173
1911,17.27,17.604,20.827,23.48,25.084,27.402,27.459,27.696,27.434,24.968,20.726,16.228
1912,16.325,18.251,20.625,21.837,25.72,27.342,27.378,27.666,27.394,24.735,21.206,17.128
1913,16.208,18.169,20.368,22.42,23.965,27.042,27.936,28.049,27.294,25.181,20.14,16.388
1914,16.089,17.829,21.445,22.278,25.501,28.103,28.469,27.009,27.158,23.771,20.881,17.567
1915,17.389,18.736,21.579,23.833,25.12,26.557,27.265,27.362,27.071,27.148,22.989,17.943
1916,16.444,18.315,22.421,23.093,25.298,28.021,26.813,28.089,28.058,25.188,22.206,16.95
1917,15.473,17.74,20.979,22.372,26.237,27.197,27.8,28.371,27.586,25.838,22.127,17.373
1918,15.76,18.043,21.485,23.462,27.242,26.215,27.54,27.761,27.657,25.697,21.106,16.814
1919,16.767,18.145,23.233,23.462,25.86,27.656,28.1,29.576,26.549,24.794,22.388,17.851
1920,17.575,17.773,20.439,22.622,24.869,27.097,28.7,27.717,27.534,25.781,21.706,18.827
1921,17.192,18.062,21.886,23.192,25.465,26.289,27.718,27.956,27.3,24.139,21.392,17.593
1922,16.723,18.991,22.398,24.431,26.196,26.978,27.678,27.703,27.91,25.181,21.846,17.392
1923,17,17.995,22.979,24.131,24.644,27.313,27.747,29.105,27.04,24.941,22.134,17.914
1924,16.244,18.222,23.604,24.107,24.692,27.806,27.512,27.501,26.993,26.622,21.628,18.073
1925,15.071,17.419,21.521,23.561,24.512,27.936,28.038,27.703,26.048,24.734,20.912,15.799
1926,16.089,18.304,20.446,22.868,25.661,27.042,27.454,28.43,28.262,25.781,20.826,17.676
1927,16.035,16.751,19.704,22.39,25.191,26.889,28.3,28.053,26.526,25.545,21.206,16.976
1928,16.006,19.115,22.357,24.926,25.383,27.478,28.44,27.953,27.606,24.193,20.04,16.915
1929,15.453,17.697,22.245,23.292,24.352,26.675,28.1,28.411,27.394,24.735,20.84,16.358
1930,14.937,17.669,21.156,23.141,26.282,26.342,29.185,28.43,27.412,23.954,20.42,16.582
1931,16.736,17.98,21.956,23.602,25.061,27.056,27.599,28.696,26.781,26.274,21.05,17.267
1932,16.306,16.615,22.178,24.577,24.401,27.242,28.201,27.844,27.3,25.435,21.919,17.556
1933,15.852,18.351,22.831,23.163,24.898,27.619,28.201,28.096,28.08,25.85,20.608,17.227
1934,16.382,18.404,22.226,23.84,24.638,25.957,28.322,28.408,27.816,24.874,20.773,16.762
1935,15.61,17.924,22.417,23.77,25.558,26.2,28.492,27.542,27.12,25.734,22.341,16.496
1936,15.092,17.184,22.486,23.914,26.498,27.611,28.272,28.202,27.947,24.653,22.06,17.534
1937,15.094,18.237,21.688,24.757,26.137,28.407,28.719,28.3,27.624,25.787,20.737,17.859
1938,16.533,18.035,21.636,24.752,26.76,27.64,27.628,28.185,27.5,25.934,19.965,17.28
1939,16.86,18.411,22.316,23.846,25.92,27.278,28.006,28.882,27.394,25.035,21.384,17.38
1940,16.042,18.197,19.739,24.412,25.591,27.849,28.254,28.835,27.283,25.634,20.995,18.161
1941,15.599,18.239,22.592,24.443,25.713,28.008,28.763,28.418,27.307,25.274,20.618,17.996
1942,16.629,19.396,21.943,24.342,25.37,27.403,29.132,28.675,27.564,26.172,21.796,16.847
1943,16.695,17.816,20.925,22.57,25.051,27.849,28.445,27.902,27.577,24.818,22.525,17.774
1944,15.917,17.72,22.421,23.537,25.711,27.877,28.91,28.766,26.727,25.777,21.184,18.547
1945,16.717,16.858,22.269,25.204,25.395,28.342,28.183,27.938,28.153,24.863,21.077,16.681
1946,17.204,20.242,22.114,24.535,26.137,27.627,27.83,29.04,27.749,25.145,22.266,17.881
1947,16.322,18.884,22.465,23.466,25.668,28.049,28.042,28.441,27.866,24.7,21.565,18.283
1948,16.754,17.581,21.192,24.437,24.356,27.355,27.852,28.296,28.208,24.734,22.031,16.61
1949,16.803,18.404,21.428,22.269,25.61,27.078,27.707,27.727,27.564,25.981,21,16.244
1950,16.45,17.981,21.545,23.869,25.705,26.942,28.16,27.56,27.529,25.281,21.564,17.851
1951,16.528,18.475,22.398,22.631,25.465,27.033,27.403,28.781,27.826,26.003,21.728,17.856
1952,17.069,20.024,21.457,25.14,25.72,28.56,28.526,28.235,27.1,25.917,22.346,18.46
1953,16.282,19.137,22.539,24.197,26.008,28.029,27.639,29.022,27.447,24.917,21.243,18.516
1954,15.775,19.626,22.611,23.759,25.514,26.926,27.026,27.249,27.768,24.685,20.888,17.328
1955,16.784,18.71,21.771,23.829,26.355,26.82,27.631,27.572,28.511,25.861,22.384,17.023
1956,16.326,19.489,21.81,25.204,26.163,27.396,28.378,28.368,28.208,25.586,21.607,17.858
1957,16.895,17.31,21.872,24.067,25.267,28.26,28.864,28.999,28.193,24.635,22.009,17.758
1958,17.332,17.664,23.156,25.377,25.167,29.805,29.633,27.624,28.558,25.786,22.138,18.155
1959,16.895,17.243,21.621,25.122,25.684,28.019,29.648,29.589,27.591,25.065,21.386,18.336
1960,16.31,20.425,22.357,25.622,27.662,28.516,28.526,29.431,27.613,26.34,21.429,18.954
1961,17.845,17.827,21.052,24.968,26.127,28.9,29.465,29.375,28.282,25.748,20.333,15.524
1962,15.348,17.722,20.692,24.143,25.295,27.445,28.924,27.572,27.806,25.082,21.201,17.675
1963,15.935,18.854,22.113,23.685,25.589,27.518,28.278,27.856,28.327,24.502,19.966,17.519
1964,15.757,17.931,20.871,23.148,25.32,26.264,27.073,27.887,26.967,25.938,21.63,16.669
1965,15.895,17.582,20.192,23.723,25.873,27.849,27.829,27.291,26.96,25.109,19.527,17.783
1966,16.915,19.667,23.255,24.093,26.786,26.34,28.436,27.447,27.11,24.29,22.83,17.691
1967,17.195,18.989,20.927,23.964,25.942,27.102,28.154,29.046,27.205,24.56,19.983,17.86
1968,16.433,17.337,21.729,23.367,25.138,27.827,28.028,28.65,28.247,24.093,21.104,16.985
1969,15.902,18.828,22.677,24.683,26.817,27.86,28.452,27.749,27.827,25.16,21.257,17.729
1970,15.618,17.873,21.775,24.095,25.399,27.874,28.094,28.441,26.926,24.917,21.372,17.164
1971,16.124,17.665,22.296,24.442,26.08,27.943,28.124,27.724,27.646,24.857,20.062,16.691
1972,17.108,18.449,21.635,22.246,25.725,27.9,28.415,28.746,27.122,25.552,21.051,17.5
1973,17.341,18.91,22.67,25.524,26.85,27.595,29.043,28.66,27.935,25.065,20.957,16.855
1974,16.127,19.035,21.793,22.844,26.216,27.806,27.053,28.36,27.127,26.718,22.68,16.688
1975,16.425,18.935,22.269,25.271,25.548,28.968,27.685,28.188,27.509,26.165,21.469,16.579
1976,16.51,18.91,21.853,24.296,25.851,26.842,28.031,28.011,27.696,24.74,22.266,17.469
1977,15.825,18.837,23.021,22.759,24.82,26.178,28.552,27.725,27.918,24.052,20.718,17.452
1978,15.487,18.018,21.415,23.808,26.538,28.122,27.878,29.155,27.334,25.992,20.729,17.297
1979,16.642,18.391,21.886,25.531,26.761,29.164,27.864,28.781,27.033,24.566,22.548,17.629
1980,15.986,18.304,21.463,24.234,25.939,28.676,28.6,28.372,27.942,24.843,21.435,18.333
1981,16.767,19.509,21.389,23.395,26.382,28.645,28.218,28.741,27.928,25.953,21.882,17.28
1982,17.758,18.098,21.757,22.87,26.538,27.595,28.192,29.045,27.484,25.129,20.84,17.287
1983,14.953,17.001,21.003,22.546,25.367,27.805,28.101,28.584,27.136,26.317,21.822,16.609
1984,15.695,18.821,23.078,24.305,25.24,28.607,27.4,28.591,26.577,26.093,20.176,17.64
1985,16.618,18.302,22.462,24.056,26.34,27.539,27.15,28.981,27.46,26.103,21.001,18.447
1986,17.132,18.951,22.041,23.122,26.515,28.788,28.073,28.297,26.941,24.087,21.169,17.607
1987,17.034,19.769,21.289,23.697,25.949,28.506,27.702,27.845,27.383,25.349,22.16,18.143
1988,16.953,19.849,21.881,23.899,25.64,28.965,28.1,27.931,27.522,25.912,21.909,19.205
1989,16.439,17.99,22.621,23.517,27.214,27.989,27.621,28.522,27.616,26.11,20.912,16.737
1990,18.312,18.405,20.585,21.973,26.599,28.003,28.262,28.861,26.937,25.152,22.712,18.891
1991,16.463,19.851,22.869,23.638,24.948,27.659,28.393,28.222,27.248,25.852,21.034,16.905
1992,16.398,16.744,21.409,23.881,25.388,27.69,28.12,28.762,28.04,25.23,21.398,16.454
1993,16.174,19.543,21.145,24.611,25.532,27.342,28.414,28.25,27.686,25.942,22.422,19.124
1994,17.887,18.777,21.244,24.252,27.66,28.996,28.723,29.548,28.87,24.631,21.088,17.222
1995,16.206,18.867,22.625,24.583,26.569,28.549,28.333,29.015,27.53,26.179,22.59,17.904
1996,16.996,19.729,22.405,25.357,26.032,28.922,28.269,28.675,28.705,25.888,22.349,18.575
1997,16.383,17.316,21.416,23.455,26.295,28.091,28.8,29.547,27.09,25.236,22.018,17.359
1998,16.742,19.39,21.332,25.067,28.485,27.676,28.804,28.489,28.734,27.429,23.282,18.786
1999,17.454,22.305,24.239,26.228,27.465,29.29,28.851,28.434,28.528,25.848,22.841,18.469
2000,16.479,18.951,21.239,23.356,26.255,28.813,29.271,28.43,27.394,26.273,21.773,17.829
2001,17.866,20.021,22.942,24.138,26.463,29.232,28.376,29.369,28.143,25.558,22.542,18.198
2002,17.125,20.696,22.555,24.332,25.464,29.073,28.647,28.853,27.895,25.338,22.342,18.198
